lockednetlistsimulation/32aor/wallace_tree_multiplier/sim/transcript
# //  ModelSim SE-64 6.6d Nov  1 2010 Linux 2.6.32-754.33.1.el6.x86_64
# //
# //  Copyright 1991-2010 Mentor Graphics Corporation
# //              All Rights Reserved.
# //
# //  THIS WORK CONTAINS TRADE SECRET AND 
# //  PROPRIETARY INFORMATION WHICH IS THE PROPERTY
# //  OF MENTOR GRAPHICS CORPORATION OR ITS LICENSORS
# //  AND IS SUBJECT TO LICENSE TERMS.
# //
# Loading project rca64aor
# reading /var/autofs/misc/cad/mentor/modelsim-6.6d/modeltech/linux_x86_64/../modelsim.ini
# Loading project wtm32aor
# Compile of traditional_multiplier8_aor_enc32.v was successful.
# Compile of traditional_multiplier8_tb.v was successful.
# 2 compiles, 0 failed with no errors. 
vsim -novopt simulation.traditional_multiplier8_tb
# vsim -novopt simulation.traditional_multiplier8_tb 
# Refreshing /home/nayakkk/32aor/wallace_tree_multiplier/sim/simulation.traditional_multiplier8_tb
# Loading simulation.traditional_multiplier8_tb
# Refreshing /home/nayakkk/32aor/wallace_tree_multiplier/sim/simulation.traditional_multiplier8_aor_enc32
# Loading simulation.traditional_multiplier8_aor_enc32
add wave sim:/traditional_multiplier8_tb/*
run
#                    0 operand1_i= 00, operand2_i = 00, keyinput = f5852605, result_o = 0000 
#                   10 operand1_i= 29, operand2_i = 7a, keyinput = f5852605, result_o = 138a 
#                   20 operand1_i= 11, operand2_i = 11, keyinput = f5852605, result_o = 0121 
#                   30 operand1_i= 81, operand2_i = 1c, keyinput = f5852605, result_o = 0e1c 
#                   50 operand1_i= 44, operand2_i = 3b, keyinput = f5852605, result_o = 0fac 
#                   70 operand1_i= 89, operand2_i = ff, keyinput = f5852605, result_o = 8877 
#                   80 operand1_i= ab, operand2_i = 00, keyinput = f5852605, result_o = 0000 
#                   90 operand1_i= 34, operand2_i = 12, keyinput = f5852605, result_o = 03a8 
#                  100 operand1_i= 11, operand2_i = 20, keyinput = f5852605, result_o = 0220 
#                  110 operand1_i= 55, operand2_i = aa, keyinput = f5852605, result_o = 3872 
#                  120 operand1_i= 80, operand2_i = 80, keyinput = f5852605, result_o = 4000 
#                  125 operand1_i= fa, operand2_i = 00, keyinput = f5852605, result_o = 0000 
#                  135 operand1_i= 40, operand2_i = 20, keyinput = f5852605, result_o = 0800 
#                  145 operand1_i= 24, operand2_i = 92, keyinput = f5852605, result_o = 1488 
#                  155 operand1_i= 00, operand2_i = 01, keyinput = f5852605, result_o = 0000 
#                  165 operand1_i= 00, operand2_i = 00, keyinput = f5852604, result_o = 1000 
#                  175 operand1_i= 29, operand2_i = 7a, keyinput = f5852604, result_o = 238a 
#                  185 operand1_i= 11, operand2_i = 11, keyinput = f5852604, result_o = 1121 
#                  195 operand1_i= 81, operand2_i = 1c, keyinput = f5852604, result_o = 1e1c 
#                  215 operand1_i= 44, operand2_i = 3b, keyinput = f5852604, result_o = 1fac 
#                  235 operand1_i= 89, operand2_i = ff, keyinput = f5852604, result_o = 8877 
#                  245 operand1_i= ab, operand2_i = 00, keyinput = f5852604, result_o = 1000 
#                  255 operand1_i= 34, operand2_i = 12, keyinput = f5852604, result_o = 13a8 
#                  265 operand1_i= 11, operand2_i = 20, keyinput = f5852604, result_o = 1220 
#                  275 operand1_i= 55, operand2_i = aa, keyinput = f5852604, result_o = 3872 
#                  285 operand1_i= 80, operand2_i = 80, keyinput = f5852604, result_o = 5000 
#                  290 operand1_i= fa, operand2_i = 00, keyinput = f5852604, result_o = 1000 
#                  300 operand1_i= 40, operand2_i = 20, keyinput = f5852604, result_o = 1800 
#                  310 operand1_i= 24, operand2_i = 92, keyinput = f5852604, result_o = 1488 
#                  320 operand1_i= 00, operand2_i = 01, keyinput = f5852604, result_o = 1000 
#                  330 operand1_i= 00, operand2_i = 00, keyinput = f5852600, result_o = 1400 
#                  340 operand1_i= 29, operand2_i = 7a, keyinput = f5852600, result_o = 238a 
#                  350 operand1_i= 11, operand2_i = 11, keyinput = f5852600, result_o = 1521 
#                  360 operand1_i= 81, operand2_i = 1c, keyinput = f5852600, result_o = 1e1c 
#                  380 operand1_i= 44, operand2_i = 3b, keyinput = f5852600, result_o = 1fac 
#                  400 operand1_i= 89, operand2_i = ff, keyinput = f5852600, result_o = 8877 
#                  410 operand1_i= ab, operand2_i = 00, keyinput = f5852600, result_o = 1400 
#                  420 operand1_i= 34, operand2_i = 12, keyinput = f5852600, result_o = 17a8 
#                  430 operand1_i= 11, operand2_i = 20, keyinput = f5852600, result_o = 1620 
#                  440 operand1_i= 55, operand2_i = aa, keyinput = f5852600, result_o = 3c72 
#                  450 operand1_i= 80, operand2_i = 80, keyinput = f5852600, result_o = 5400 
#                  455 operand1_i= fa, operand2_i = 00, keyinput = f5852600, result_o = 1400 
#                  465 operand1_i= 40, operand2_i = 20, keyinput = f5852600, result_o = 1c00 
#                  475 operand1_i= 24, operand2_i = 92, keyinput = f5852600, result_o = 1888 
#                  485 operand1_i= 00, operand2_i = 01, keyinput = f5852600, result_o = 1400 
#                  495 operand1_i= 00, operand2_i = 00, keyinput = f5852608, result_o = 1410 
#                  505 operand1_i= 29, operand2_i = 7a, keyinput = f5852608, result_o = 239a 
#                  515 operand1_i= 11, operand2_i = 11, keyinput = f5852608, result_o = 1531 
#                  525 operand1_i= 81, operand2_i = 1c, keyinput = f5852608, result_o = 1e2c 
#                  545 operand1_i= 44, operand2_i = 3b, keyinput = f5852608, result_o = 1fbc 
#                  565 operand1_i= 89, operand2_i = ff, keyinput = f5852608, result_o = 8877 
#                  575 operand1_i= ab, operand2_i = 00, keyinput = f5852608, result_o = 1410 
#                  585 operand1_i= 34, operand2_i = 12, keyinput = f5852608, result_o = 17b8 
#                  595 operand1_i= 11, operand2_i = 20, keyinput = f5852608, result_o = 1630 
#                  605 operand1_i= 55, operand2_i = aa, keyinput = f5852608, result_o = 3c72 
#                  615 operand1_i= 80, operand2_i = 80, keyinput = f5852608, result_o = 5410 
#                  620 operand1_i= fa, operand2_i = 00, keyinput = f5852608, result_o = 1410 
#                  630 operand1_i= 40, operand2_i = 20, keyinput = f5852608, result_o = 1c10 
#                  640 operand1_i= 24, operand2_i = 92, keyinput = f5852608, result_o = 1898 
#                  650 operand1_i= 00, operand2_i = 01, keyinput = f5852608, result_o = 1410 
#                  660 operand1_i= 00, operand2_i = 00, keyinput = f585260a, result_o = 1420 
#                  670 operand1_i= 29, operand2_i = 7a, keyinput = f585260a, result_o = 23aa 
#                  680 operand1_i= 11, operand2_i = 11, keyinput = f585260a, result_o = 1541 
#                  690 operand1_i= 81, operand2_i = 1c, keyinput = f585260a, result_o = 1e2c 
#                  710 operand1_i= 44, operand2_i = 3b, keyinput = f585260a, result_o = 1fcc 
#                  730 operand1_i= 89, operand2_i = ff, keyinput = f585260a, result_o = 8887 
#                  740 operand1_i= ab, operand2_i = 00, keyinput = f585260a, result_o = 1420 
#                  750 operand1_i= 34, operand2_i = 12, keyinput = f585260a, result_o = 17c8 
#                  760 operand1_i= 11, operand2_i = 20, keyinput = f585260a, result_o = 1640 
#                  770 operand1_i= 55, operand2_i = aa, keyinput = f585260a, result_o = 3c82 
#                  780 operand1_i= 80, operand2_i = 80, keyinput = f585260a, result_o = 5420 
#                  785 operand1_i= fa, operand2_i = 00, keyinput = f585260a, result_o = 1420 
#                  795 operand1_i= 40, operand2_i = 20, keyinput = f585260a, result_o = 1c20 
#                  805 operand1_i= 24, operand2_i = 92, keyinput = f585260a, result_o = 18a8 
#                  815 operand1_i= 00, operand2_i = 01, keyinput = f585260a, result_o = 1420 
#                  825 operand1_i= 00, operand2_i = 00, keyinput = f58526aa, result_o = 1660 
#                  835 operand1_i= 29, operand2_i = 7a, keyinput = f58526aa, result_o = 296a 
#                  845 operand1_i= 11, operand2_i = 11, keyinput = f58526aa, result_o = 1781 
#                  855 operand1_i= 81, operand2_i = 1c, keyinput = f58526aa, result_o = 1e6c 
#                  875 operand1_i= 44, operand2_i = 3b, keyinput = f58526aa, result_o = 25cc 
#                  895 operand1_i= 89, operand2_i = ff, keyinput = f58526aa, result_o = 8847 
#                  905 operand1_i= ab, operand2_i = 00, keyinput = f58526aa, result_o = 1660 
#                  915 operand1_i= 34, operand2_i = 12, keyinput = f58526aa, result_o = 15c8 
#                  925 operand1_i= 11, operand2_i = 20, keyinput = f58526aa, result_o = 1480 
#                  935 operand1_i= 55, operand2_i = aa, keyinput = f58526aa, result_o = 3ec2 
#                  945 operand1_i= 80, operand2_i = 80, keyinput = f58526aa, result_o = 5660 
#                  950 operand1_i= fa, operand2_i = 00, keyinput = f58526aa, result_o = 1660 
#                  960 operand1_i= 40, operand2_i = 20, keyinput = f58526aa, result_o = 1e60 
#                  970 operand1_i= 24, operand2_i = 92, keyinput = f58526aa, result_o = 16a8 
#                  980 operand1_i= 00, operand2_i = 01, keyinput = f58526aa, result_o = 1660 
#                  990 operand1_i= 00, operand2_i = 00, keyinput = e5852605, result_o = 0000 
#                 1000 operand1_i= 29, operand2_i = 7a, keyinput = e5852605, result_o = 138a 
#                 1010 operand1_i= 11, operand2_i = 11, keyinput = e5852605, result_o = 0121 
#                 1020 operand1_i= 81, operand2_i = 1c, keyinput = e5852605, result_o = 0e1c 
#                 1040 operand1_i= 44, operand2_i = 3b, keyinput = e5852605, result_o = 0fac 
#                 1060 operand1_i= 89, operand2_i = ff, keyinput = e5852605, result_o = 8877 
#                 1070 operand1_i= ab, operand2_i = 00, keyinput = e5852605, result_o = 0000 
#                 1080 operand1_i= 34, operand2_i = 12, keyinput = e5852605, result_o = 03a8 
#                 1090 operand1_i= 11, operand2_i = 20, keyinput = e5852605, result_o = 0220 
#                 1100 operand1_i= 55, operand2_i = aa, keyinput = e5852605, result_o = 3872 
#                 1110 operand1_i= 80, operand2_i = 80, keyinput = e5852605, result_o = 4000 
#                 1115 operand1_i= fa, operand2_i = 00, keyinput = e5852605, result_o = 0000 
#                 1125 operand1_i= 40, operand2_i = 20, keyinput = e5852605, result_o = 0800 
#                 1135 operand1_i= 24, operand2_i = 92, keyinput = e5852605, result_o = 1488 
#                 1145 operand1_i= 00, operand2_i = 01, keyinput = e5852605, result_o = 0000 
#                 1155 operand1_i= 00, operand2_i = 00, keyinput = a5852605, result_o = 0000 
#                 1165 operand1_i= 29, operand2_i = 7a, keyinput = a5852605, result_o = 138a 
#                 1175 operand1_i= 11, operand2_i = 11, keyinput = a5852605, result_o = 0121 
#                 1185 operand1_i= 81, operand2_i = 1c, keyinput = a5852605, result_o = 0e1c 
#                 1205 operand1_i= 44, operand2_i = 3b, keyinput = a5852605, result_o = 0fac 
#                 1225 operand1_i= 89, operand2_i = ff, keyinput = a5852605, result_o = 8877 
#                 1235 operand1_i= ab, operand2_i = 00, keyinput = a5852605, result_o = 0000 
#                 1245 operand1_i= 34, operand2_i = 12, keyinput = a5852605, result_o = 03a8 
#                 1255 operand1_i= 11, operand2_i = 20, keyinput = a5852605, result_o = 0220 
#                 1265 operand1_i= 55, operand2_i = aa, keyinput = a5852605, result_o = 3772 
#                 1275 operand1_i= 80, operand2_i = 80, keyinput = a5852605, result_o = 4000 
#                 1280 operand1_i= fa, operand2_i = 00, keyinput = a5852605, result_o = 0000 
#                 1290 operand1_i= 40, operand2_i = 20, keyinput = a5852605, result_o = 0800 
#                 1300 operand1_i= 24, operand2_i = 92, keyinput = a5852605, result_o = 1488 
#                 1310 operand1_i= 00, operand2_i = 01, keyinput = a5852605, result_o = 0000 
#                 1320 operand1_i= 00, operand2_i = 00, keyinput = a4852605, result_o = 0080 
#                 1330 operand1_i= 29, operand2_i = 7a, keyinput = a4852605, result_o = 130a 
#                 1340 operand1_i= 11, operand2_i = 11, keyinput = a4852605, result_o = 01a1 
#                 1350 operand1_i= 81, operand2_i = 1c, keyinput = a4852605, result_o = 0e9c 
#                 1370 operand1_i= 44, operand2_i = 3b, keyinput = a4852605, result_o = 0fac 
#                 1390 operand1_i= 89, operand2_i = ff, keyinput = a4852605, result_o = 87f7 
#                 1400 operand1_i= ab, operand2_i = 00, keyinput = a4852605, result_o = 0080 
#                 1410 operand1_i= 34, operand2_i = 12, keyinput = a4852605, result_o = 0428 
#                 1420 operand1_i= 11, operand2_i = 20, keyinput = a4852605, result_o = 02a0 
#                 1430 operand1_i= 55, operand2_i = aa, keyinput = a4852605, result_o = 3772 
#                 1440 operand1_i= 80, operand2_i = 80, keyinput = a4852605, result_o = 4080 
#                 1445 operand1_i= fa, operand2_i = 00, keyinput = a4852605, result_o = 0080 
#                 1455 operand1_i= 40, operand2_i = 20, keyinput = a4852605, result_o = 0880 
#                 1465 operand1_i= 24, operand2_i = 92, keyinput = a4852605, result_o = 1508 
#                 1475 operand1_i= 00, operand2_i = 01, keyinput = a4852605, result_o = 0080 
#                 1485 operand1_i= 00, operand2_i = 00, keyinput = a0852605, result_o = 8080 
#                 1495 operand1_i= 29, operand2_i = 7a, keyinput = a0852605, result_o = 930a 
#                 1505 operand1_i= 11, operand2_i = 11, keyinput = a0852605, result_o = 81a1 
#                 1515 operand1_i= 81, operand2_i = 1c, keyinput = a0852605, result_o = 8e9c 
#                 1535 operand1_i= 44, operand2_i = 3b, keyinput = a0852605, result_o = 8fac 
#                 1555 operand1_i= 89, operand2_i = ff, keyinput = a0852605, result_o = 87f7 
#                 1565 operand1_i= ab, operand2_i = 00, keyinput = a0852605, result_o = 8080 
#                 1575 operand1_i= 34, operand2_i = 12, keyinput = a0852605, result_o = 8428 
#                 1585 operand1_i= 11, operand2_i = 20, keyinput = a0852605, result_o = 82a0 
#                 1595 operand1_i= 55, operand2_i = aa, keyinput = a0852605, result_o = b772 
#                 1605 operand1_i= 80, operand2_i = 80, keyinput = a0852605, result_o = c080 
#                 1610 operand1_i= fa, operand2_i = 00, keyinput = a0852605, result_o = 8080 
#                 1620 operand1_i= 40, operand2_i = 20, keyinput = a0852605, result_o = 8880 
#                 1630 operand1_i= 24, operand2_i = 92, keyinput = a0852605, result_o = 9508 
#                 1640 operand1_i= 00, operand2_i = 01, keyinput = a0852605, result_o = 8080 
#                 1650 operand1_i= 00, operand2_i = 00, keyinput = aa852605, result_o = 8180 
#                 1660 operand1_i= 29, operand2_i = 7a, keyinput = aa852605, result_o = 940a 
#                 1670 operand1_i= 11, operand2_i = 11, keyinput = aa852605, result_o = 82a1 
#                 1680 operand1_i= 81, operand2_i = 1c, keyinput = aa852605, result_o = 8f9c 
#                 1700 operand1_i= 44, operand2_i = 3b, keyinput = aa852605, result_o = 88ac 
#                 1720 operand1_i= 89, operand2_i = ff, keyinput = aa852605, result_o = 88f7 
#                 1730 operand1_i= ab, operand2_i = 00, keyinput = aa852605, result_o = 8180 
#                 1740 operand1_i= 34, operand2_i = 12, keyinput = aa852605, result_o = 8528 
#                 1750 operand1_i= 11, operand2_i = 20, keyinput = aa852605, result_o = 83a0 
#                 1760 operand1_i= 55, operand2_i = aa, keyinput = aa852605, result_o = b872 
#                 1770 operand1_i= 80, operand2_i = 80, keyinput = aa852605, result_o = c180 
#                 1775 operand1_i= fa, operand2_i = 00, keyinput = aa852605, result_o = 8180 
#                 1785 operand1_i= 40, operand2_i = 20, keyinput = aa852605, result_o = 8980 
#                 1795 operand1_i= 24, operand2_i = 92, keyinput = aa852605, result_o = 9608 
#                 1805 operand1_i= 00, operand2_i = 01, keyinput = aa852605, result_o = 8180 
#                 1815 operand1_i= 00, operand2_i = 00, keyinput = f5842605, result_o = 0000 
#                 1825 operand1_i= 29, operand2_i = 7a, keyinput = f5842605, result_o = 138a 
#                 1835 operand1_i= 11, operand2_i = 11, keyinput = f5842605, result_o = 0121 
#                 1845 operand1_i= 81, operand2_i = 1c, keyinput = f5842605, result_o = 0e1c 
#                 1865 operand1_i= 44, operand2_i = 3b, keyinput = f5842605, result_o = 0eac 
#                 1885 operand1_i= 89, operand2_i = ff, keyinput = f5842605, result_o = 8777 
#                 1895 operand1_i= ab, operand2_i = 00, keyinput = f5842605, result_o = 0000 
#                 1905 operand1_i= 34, operand2_i = 12, keyinput = f5842605, result_o = 03a8 
#                 1915 operand1_i= 11, operand2_i = 20, keyinput = f5842605, result_o = 0220 
#                 1925 operand1_i= 55, operand2_i = aa, keyinput = f5842605, result_o = 3872 
#                 1935 operand1_i= 80, operand2_i = 80, keyinput = f5842605, result_o = 4000 
#                 1940 operand1_i= fa, operand2_i = 00, keyinput = f5842605, result_o = 0000 
#                 1950 operand1_i= 40, operand2_i = 20, keyinput = f5842605, result_o = 0800 
#                 1960 operand1_i= 24, operand2_i = 92, keyinput = f5842605, result_o = 1488 
#                 1970 operand1_i= 00, operand2_i = 01, keyinput = f5842605, result_o = 0000 
#                 1980 operand1_i= 00, operand2_i = 00, keyinput = f5802605, result_o = 0100 
#                 1990 operand1_i= 29, operand2_i = 7a, keyinput = f5802605, result_o = 148a 
#                 2000 operand1_i= 11, operand2_i = 11, keyinput = f5802605, result_o = 0221 
#                 2010 operand1_i= 81, operand2_i = 1c, keyinput = f5802605, result_o = 0f1c 
#                 2030 operand1_i= 44, operand2_i = 3b, keyinput = f5802605, result_o = 0fac 
#                 2050 operand1_i= 89, operand2_i = ff, keyinput = f5802605, result_o = 8777 
#                 2060 operand1_i= ab, operand2_i = 00, keyinput = f5802605, result_o = 0100 
#                 2070 operand1_i= 34, operand2_i = 12, keyinput = f5802605, result_o = 04a8 
#                 2080 operand1_i= 11, operand2_i = 20, keyinput = f5802605, result_o = 0320 
#                 2090 operand1_i= 55, operand2_i = aa, keyinput = f5802605, result_o = 3972 
#                 2100 operand1_i= 80, operand2_i = 80, keyinput = f5802605, result_o = 4100 
#                 2105 operand1_i= fa, operand2_i = 00, keyinput = f5802605, result_o = 0100 
#                 2115 operand1_i= 40, operand2_i = 20, keyinput = f5802605, result_o = 0900 
#                 2125 operand1_i= 24, operand2_i = 92, keyinput = f5802605, result_o = 1588 
#                 2135 operand1_i= 00, operand2_i = 01, keyinput = f5802605, result_o = 0100 
#                 2145 operand1_i= 00, operand2_i = 00, keyinput = f5882605, result_o = 1100 
#                 2155 operand1_i= 29, operand2_i = 7a, keyinput = f5882605, result_o = 248a 
#                 2165 operand1_i= 11, operand2_i = 11, keyinput = f5882605, result_o = 1221 
#                 2175 operand1_i= 81, operand2_i = 1c, keyinput = f5882605, result_o = 1f1c 
#                 2195 operand1_i= 44, operand2_i = 3b, keyinput = f5882605, result_o = 1fac 
#                 2215 operand1_i= 89, operand2_i = ff, keyinput = f5882605, result_o = 8777 
#                 2225 operand1_i= ab, operand2_i = 00, keyinput = f5882605, result_o = 1100 
#                 2235 operand1_i= 34, operand2_i = 12, keyinput = f5882605, result_o = 14a8 
#                 2245 operand1_i= 11, operand2_i = 20, keyinput = f5882605, result_o = 1320 
#                 2255 operand1_i= 55, operand2_i = aa, keyinput = f5882605, result_o = 4972 
#                 2265 operand1_i= 80, operand2_i = 80, keyinput = f5882605, result_o = 5100 
#                 2270 operand1_i= fa, operand2_i = 00, keyinput = f5882605, result_o = 1100 
#                 2280 operand1_i= 40, operand2_i = 20, keyinput = f5882605, result_o = 1900 
#                 2290 operand1_i= 24, operand2_i = 92, keyinput = f5882605, result_o = 1588 
#                 2300 operand1_i= 00, operand2_i = 01, keyinput = f5882605, result_o = 1100 
#                 2310 operand1_i= 00, operand2_i = 00, keyinput = f58a2605, result_o = 1500 
#                 2320 operand1_i= 29, operand2_i = 7a, keyinput = f58a2605, result_o = 248a 
#                 2330 operand1_i= 11, operand2_i = 11, keyinput = f58a2605, result_o = 1621 
#                 2340 operand1_i= 81, operand2_i = 1c, keyinput = f58a2605, result_o = 1f1c 
#                 2360 operand1_i= 44, operand2_i = 3b, keyinput = f58a2605, result_o = 1fac 
#                 2380 operand1_i= 89, operand2_i = ff, keyinput = f58a2605, result_o = 8b77 
#                 2390 operand1_i= ab, operand2_i = 00, keyinput = f58a2605, result_o = 1500 
#                 2400 operand1_i= 34, operand2_i = 12, keyinput = f58a2605, result_o = 18a8 
#                 2410 operand1_i= 11, operand2_i = 20, keyinput = f58a2605, result_o = 1720 
#                 2420 operand1_i= 55, operand2_i = aa, keyinput = f58a2605, result_o = 4972 
#                 2430 operand1_i= 80, operand2_i = 80, keyinput = f58a2605, result_o = 5500 
#                 2435 operand1_i= fa, operand2_i = 00, keyinput = f58a2605, result_o = 1500 
#                 2445 operand1_i= 40, operand2_i = 20, keyinput = f58a2605, result_o = 1d00 
#                 2455 operand1_i= 24, operand2_i = 92, keyinput = f58a2605, result_o = 1988 
#                 2465 operand1_i= 00, operand2_i = 01, keyinput = f58a2605, result_o = 1500 
#                 2475 operand1_i= 00, operand2_i = 00, keyinput = f58ae605, result_o = 1580 
#                 2485 operand1_i= 29, operand2_i = 7a, keyinput = f58ae605, result_o = 248a 
#                 2495 operand1_i= 11, operand2_i = 11, keyinput = f58ae605, result_o = 16a1 
#                 2505 operand1_i= 81, operand2_i = 1c, keyinput = f58ae605, result_o = 1f9c 
#                 2525 operand1_i= 44, operand2_i = 3b, keyinput = f58ae605, result_o = 212c 
#                 2545 operand1_i= 89, operand2_i = ff, keyinput = f58ae605, result_o = 8b77 
#                 2555 operand1_i= ab, operand2_i = 00, keyinput = f58ae605, result_o = 1580 
#                 2565 operand1_i= 34, operand2_i = 12, keyinput = f58ae605, result_o = 1928 
#                 2575 operand1_i= 11, operand2_i = 20, keyinput = f58ae605, result_o = 17a0 
#                 2585 operand1_i= 55, operand2_i = aa, keyinput = f58ae605, result_o = 4972 
#                 2595 operand1_i= 80, operand2_i = 80, keyinput = f58ae605, result_o = 5580 
#                 2600 operand1_i= fa, operand2_i = 00, keyinput = f58ae605, result_o = 1580 
#                 2610 operand1_i= 40, operand2_i = 20, keyinput = f58ae605, result_o = 1d80 
#                 2620 operand1_i= 24, operand2_i = 92, keyinput = f58ae605, result_o = 1a08 
#                 2630 operand1_i= 00, operand2_i = 01, keyinput = f58ae605, result_o = 1580 
# ** Note: $finish    : /home/nayakkk/32aor/wallace_tree_multiplier/sim/traditional_multiplier8_tb.v(789)
#    Time: 2640 ns  Iteration: 0  Instance: /traditional_multiplier8_tb
