lockednetlistsimulation/32xor/xnor_based_carry_lookahead_adder/sim/xnor_based_carry_lookahead_adder16_gatesim.vcd
$date
	Mon Sep 21 10:15:02 2020
$end
$version
	ModelSim Version 6.6d
$end
$timescale
	1ps
$end
$scope module xnor_based_carry_lookahead_adder16_tb $end
$var reg 16 ! add1_i [15:0] $end
$var reg 16 " add2_i [15:0] $end
$var reg 32 # keyinput [31:0] $end
$var wire 1 $ result_o [16] $end
$var wire 1 % result_o [15] $end
$var wire 1 & result_o [14] $end
$var wire 1 ' result_o [13] $end
$var wire 1 ( result_o [12] $end
$var wire 1 ) result_o [11] $end
$var wire 1 * result_o [10] $end
$var wire 1 + result_o [9] $end
$var wire 1 , result_o [8] $end
$var wire 1 - result_o [7] $end
$var wire 1 . result_o [6] $end
$var wire 1 / result_o [5] $end
$var wire 1 0 result_o [4] $end
$var wire 1 1 result_o [3] $end
$var wire 1 2 result_o [2] $end
$var wire 1 3 result_o [1] $end
$var wire 1 4 result_o [0] $end
$scope module xcla $end
$var wire 1 5 add1_i [15] $end
$var wire 1 6 add1_i [14] $end
$var wire 1 7 add1_i [13] $end
$var wire 1 8 add1_i [12] $end
$var wire 1 9 add1_i [11] $end
$var wire 1 : add1_i [10] $end
$var wire 1 ; add1_i [9] $end
$var wire 1 < add1_i [8] $end
$var wire 1 = add1_i [7] $end
$var wire 1 > add1_i [6] $end
$var wire 1 ? add1_i [5] $end
$var wire 1 @ add1_i [4] $end
$var wire 1 A add1_i [3] $end
$var wire 1 B add1_i [2] $end
$var wire 1 C add1_i [1] $end
$var wire 1 D add1_i [0] $end
$var wire 1 E add2_i [15] $end
$var wire 1 F add2_i [14] $end
$var wire 1 G add2_i [13] $end
$var wire 1 H add2_i [12] $end
$var wire 1 I add2_i [11] $end
$var wire 1 J add2_i [10] $end
$var wire 1 K add2_i [9] $end
$var wire 1 L add2_i [8] $end
$var wire 1 M add2_i [7] $end
$var wire 1 N add2_i [6] $end
$var wire 1 O add2_i [5] $end
$var wire 1 P add2_i [4] $end
$var wire 1 Q add2_i [3] $end
$var wire 1 R add2_i [2] $end
$var wire 1 S add2_i [1] $end
$var wire 1 T add2_i [0] $end
$var wire 1 U keyinput [31] $end
$var wire 1 V keyinput [30] $end
$var wire 1 W keyinput [29] $end
$var wire 1 X keyinput [28] $end
$var wire 1 Y keyinput [27] $end
$var wire 1 Z keyinput [26] $end
$var wire 1 [ keyinput [25] $end
$var wire 1 \ keyinput [24] $end
$var wire 1 ] keyinput [23] $end
$var wire 1 ^ keyinput [22] $end
$var wire 1 _ keyinput [21] $end
$var wire 1 ` keyinput [20] $end
$var wire 1 a keyinput [19] $end
$var wire 1 b keyinput [18] $end
$var wire 1 c keyinput [17] $end
$var wire 1 d keyinput [16] $end
$var wire 1 e keyinput [15] $end
$var wire 1 f keyinput [14] $end
$var wire 1 g keyinput [13] $end
$var wire 1 h keyinput [12] $end
$var wire 1 i keyinput [11] $end
$var wire 1 j keyinput [10] $end
$var wire 1 k keyinput [9] $end
$var wire 1 l keyinput [8] $end
$var wire 1 m keyinput [7] $end
$var wire 1 n keyinput [6] $end
$var wire 1 o keyinput [5] $end
$var wire 1 p keyinput [4] $end
$var wire 1 q keyinput [3] $end
$var wire 1 r keyinput [2] $end
$var wire 1 s keyinput [1] $end
$var wire 1 t keyinput [0] $end
$var wire 1 $ result_o [16] $end
$var wire 1 % result_o [15] $end
$var wire 1 & result_o [14] $end
$var wire 1 ' result_o [13] $end
$var wire 1 ( result_o [12] $end
$var wire 1 ) result_o [11] $end
$var wire 1 * result_o [10] $end
$var wire 1 + result_o [9] $end
$var wire 1 , result_o [8] $end
$var wire 1 - result_o [7] $end
$var wire 1 . result_o [6] $end
$var wire 1 / result_o [5] $end
$var wire 1 0 result_o [4] $end
$var wire 1 1 result_o [3] $end
$var wire 1 2 result_o [2] $end
$var wire 1 3 result_o [1] $end
$var wire 1 4 result_o [0] $end
$var wire 1 u n64 $end
$var wire 1 v xenc6 $end
$var wire 1 w n65 $end
$var wire 1 x xenc20 $end
$var wire 1 y xenc3 $end
$var wire 1 z xenc16 $end
$var wire 1 { n67 $end
$var wire 1 | n68 $end
$var wire 1 } n69 $end
$var wire 1 ~ xenc23 $end
$var wire 1 !! n71 $end
$var wire 1 "! n72 $end
$var wire 1 #! n73 $end
$var wire 1 $! n74 $end
$var wire 1 %! n75 $end
$var wire 1 &! n81 $end
$var wire 1 '! n85 $end
$var wire 1 (! n86 $end
$var wire 1 )! n90 $end
$var wire 1 *! xenc9 $end
$var wire 1 +! xenc4 $end
$var wire 1 ,! n91 $end
$var wire 1 -! xenc5 $end
$var wire 1 .! n96 $end
$var wire 1 /! xenc13 $end
$var wire 1 0! n100 $end
$var wire 1 1! n101 $end
$var wire 1 2! n105 $end
$var wire 1 3! xenc18 $end
$var wire 1 4! n106 $end
$var wire 1 5! xenc19 $end
$var wire 1 6! n111 $end
$var wire 1 7! n80 $end
$var wire 1 8! n63 $end
$var wire 1 9! n127 $end
$var wire 1 :! n128 $end
$var wire 1 ;! n129 $end
$var wire 1 <! xenc30 $end
$var wire 1 =! xenc11 $end
$var wire 1 >! n95 $end
$var wire 1 ?! n97 $end
$var wire 1 @! n99 $end
$var wire 1 A! n98 $end
$var wire 1 B! xenc8 $end
$var wire 1 C! n93 $end
$var wire 1 D! n92 $end
$var wire 1 E! xenc27 $end
$var wire 1 F! n94 $end
$var wire 1 G! n87 $end
$var wire 1 H! n88 $end
$var wire 1 I! n89 $end
$var wire 1 J! n136 $end
$var wire 1 K! n137 $end
$var wire 1 L! n79 $end
$var wire 1 M! n138 $end
$var wire 1 N! n133 $end
$var wire 1 O! xenc0 $end
$var wire 1 P! n77 $end
$var wire 1 Q! n135 $end
$var wire 1 R! n134 $end
$var wire 1 S! xenc29 $end
$var wire 1 T! xenc10 $end
$var wire 1 U! n130 $end
$var wire 1 V! n132 $end
$var wire 1 W! n131 $end
$var wire 1 X! n124 $end
$var wire 1 Y! n125 $end
$var wire 1 Z! n70 $end
$var wire 1 [! xenc28 $end
$var wire 1 \! n126 $end
$var wire 1 ]! n121 $end
$var wire 1 ^! xenc21 $end
$var wire 1 _! n123 $end
$var wire 1 `! n122 $end
$var wire 1 a! xenc2 $end
$var wire 1 b! n119 $end
$var wire 1 c! n66 $end
$var wire 1 d! n118 $end
$var wire 1 e! n120 $end
$var wire 1 f! n115 $end
$var wire 1 g! xenc1 $end
$var wire 1 h! n117 $end
$var wire 1 i! n116 $end
$var wire 1 j! xenc14 $end
$var wire 1 k! n113 $end
$var wire 1 l! n110 $end
$var wire 1 m! n112 $end
$var wire 1 n! n114 $end
$var wire 1 o! xenc22 $end
$var wire 1 p! n108 $end
$var wire 1 q! n107 $end
$var wire 1 r! xenc12 $end
$var wire 1 s! n109 $end
$var wire 1 t! n102 $end
$var wire 1 u! xenc26 $end
$var wire 1 v! n104 $end
$var wire 1 w! n103 $end
$var wire 1 x! xenc17 $end
$var wire 1 y! xenc25 $end
$var wire 1 z! xenc7 $end
$var wire 1 {! n82 $end
$var wire 1 |! n84 $end
$var wire 1 }! n83 $end
$var wire 1 ~! xenc31 $end
$var wire 1 !" xenc24 $end
$var wire 1 "" n140 $end
$var wire 1 #" xenc15 $end
$var wire 1 $" n141 $end
$var wire 1 %" n139 $end
$upscope $end
$upscope $end
$enddefinitions $end
#0
$dumpvars
b0 !
b0 "
b1001010011110101110000000000 #
14
03
02
11
00
0/
0.
0-
0,
0+
0*
0)
0(
0'
1&
0%
1$
0u
0v
0w
1x
1y
0z
0{
0|
0}
0~
0!!
0"!
0#!
0$!
0%!
0&!
0'!
0(!
0)!
0*!
0+!
0,!
0-!
0.!
0/!
00!
01!
02!
03!
04!
05!
06!
17!
08!
19!
1:!
0;!
1<!
1=!
0>!
1?!
0@!
1A!
1B!
1C!
1D!
0E!
0F!
1G!
1H!
0I!
1J!
1K!
0L!
0M!
1N!
0O!
1P!
0Q!
1R!
1S!
1T!
1U!
1V!
1W!
1X!
1Y!
0Z!
0[!
0\!
1]!
1^!
0_!
1`!
0a!
1b!
1c!
1d!
0e!
1f!
1g!
1h!
1i!
1j!
1k!
0l!
1m!
0n!
1o!
1p!
1q!
0r!
0s!
1t!
1u!
0v!
1w!
1x!
1y!
0z!
1{!
0|!
1}!
0~!
0!"
1""
0#"
1$"
1%"
0t
0s
0r
0q
0p
0o
0n
0m
0l
0k
1j
1i
1h
0g
1f
0e
1d
1c
1b
1a
0`
0_
1^
0]
1\
0[
0Z
1Y
0X
0W
0V
0U
0T
0S
0R
0Q
0P
0O
0N
0M
0L
0K
0J
0I
0H
0G
0F
0E
0D
0C
0B
0A
0@
0?
0>
0=
0<
0;
0:
09
08
07
06
05
$end
#10000
b10100110101111 !
b111101000011011 "
1T
07!
1!"
18!
04
1M!
1S
0K!
1L!
1#"
1Q!
1Q
0W!
1P
1K
1I
1H
1G
1F
1D
0%"
14
1C
0J!
1B
0N!
1A
0U!
1?
1\!
1=
1e!
1<
0f!
1u
1n!
0k!
1l!
19
1v!
0w!
17
1F!
1E!
0C!
1)!
1I!
0H!
1'!
1|!
0u!
10!
1@!
0A!
1{
1+
15!
1s!
1}
1#!
1[!
0S!
1$!
1;!
0:!
1"!
0X!
1Z!
0""
0#"
1,!
11!
1w
1%!
0T!
13
1v
1*!
1~
1_!
1-
1*
1r!
0y
0=!
1>!
1%
1-!
0D!
1z
1.
0+
1,
1/!
0B!
1'
#20000
b1000100000000 !
b1000100010001 "
0S
1K!
0Q
1W!
1L
0i!
0K
1k!
0l!
0I
1w!
0G
1C!
0F
1H!
0'!
0|!
0D
1%"
04
0C
1J!
0L!
1N!
0B
0Q!
0A
1U!
0?
1X!
0Z!
0=
0e!
09
0v!
18
0?!
07
1D!
1B!
0)!
0I!
01!
0<!
0}
0#!
0~
0_!
1S!
1""
0,!
0%
1u!
00!
1?!
0w
05!
0s!
0{
0g!
1T!
0$!
0;!
1:!
0"!
0\!
10
0[!
1y
0*
0r!
0v
1<!
0*!
0.
0-
1+
0z
0,
#30000
b1000000100010110 !
b1110011001110 "
0T
17!
0!"
08!
14
0M!
1S
1R
1Q
0W!
0P
1N
1M
0L
1i!
1J
1I
1C
1M!
0K!
1L!
1#"
1Q!
0R!
1B
0N!
1@
1;!
08
0@!
1A!
15
1|!
1(!
11!
1=!
0>!
1O!
12
14!
16!
1{
1g!
1}
1!!
0T!
1$!
09!
1"!
1\!
0$"
01
03
00
1/
1[!
1.
1-
0y
1*
13!
0-!
0F!
1(
1%
0/!
0E!
1)
1z
1,
0'
#35000
b100010010000010 !
b11101111001101 "
1T
07!
1!"
18!
04
0J!
0S
1K!
1L
0i!
1K
0k!
1l!
0J
1G
0B
1N!
0P!
0V!
1W!
0@
19!
0"!
0\!
1=
1e!
0b!
0<
1f!
0u
0n!
1k!
0l!
1:
1s!
16
1I!
05
0|!
0(!
1,!
1r!
0+
0}
0%!
0/
0[!
1T!
0$!
0;!
0""
0#"
1.!
1w
0g!
1u
1n!
0k!
1l!
1&!
13
1~!
0!"
1+
15!
0q!
1v
1/!
02
0-
1*!
0%
1+!
1'
0+
0*
0o!
12!
1v!
0w!
03
0)
0u!
10!
1@!
0A!
0&
0(
0=!
1>!
1-!
1F!
0/!
1E!
0C!
1)!
0G!
1'!
1|!
0+!
1%
0'
1&
#37000
b1000100101000011 !
b1111111111111111 "
1S
0K!
1P
1O
1J
0p!
1F
0H!
1E
0}!
1D
0%"
14
1>
1_!
0`!
0=
0e!
1b!
1<
0f!
0:
1q!
19
0t!
06
1G!
15
0{!
0x!
1z!
04!
1o!
0{
1}
0!!
0^!
1|
1e!
0b!
0y!
1#!
1%!
0&!
0~!
1!"
10
1/
0.
1y
03!
0$
1)
0z
13
0,
#47000
b1010101111001101 !
b0 "
0T
1%"
04
0S
1K!
0R
1R!
0Q
0P
0O
0N
1`!
0M
1b!
0L
1i!
0K
1k!
0l!
0J
1p!
02!
1t!
0I
1w!
0H
1A!
0G
1C!
0)!
0I!
1H!
0'!
1{!
0F
0E
1}!
0C
1J!
0L!
0Q!
1B
1Q!
1A
1V!
1=
0d!
1;
0m!
17
0D!
0B!
1)!
1I!
0j!
1l!
1a!
0c!
1(!
1y!
0,!
1x!
0z!
01!
1=!
0>!
14!
1u!
00!
0@!
06!
0)
1{
1g!
1!!
1^!
0|
1d!
0#!
0%!
0O!
1P!
0U!
0S!
1$!
1;!
0/
1-
0a!
1c!
1.
0y
1*
13!
0-!
1D!
1$
0*!
1+!
1/!
1B!
0)!
0I!
1)
1z
1,
0+!
1'
#57000
b0 !
b1001000110100 "
1R
0R!
1P
0:!
1"!
1\!
1O
1K
0k!
1H
0D
17!
0!"
08!
14
0M!
0B
0Q!
1R!
0A
1U!
0>
0_!
0=
0e!
0<
1f!
0u
1m!
0;
0n!
1k!
09
0v!
07
0F!
05
0|!
0(!
0.!
0E!
04!
0{
1+
1j!
0l!
0}
0!!
1S!
0$!
0;!
1:!
0"!
0\!
1$"
11
03
11!
1#!
1%!
1/
1(
0.
0-
05!
0s!
1y
03!
0/!
0%
0'
0)
0z
0*
0r!
0,
#67000
b1000100010001 !
b1110111010101010 "
1S
0R
1Q
0W!
0P
1M
1J
1I
0H
1G
1F
1E
1D
07!
1!"
18!
04
1M!
0K!
1L!
1Q!
1@
1;!
1<
0f!
1u
1n!
0k!
1l!
18
1@!
1{
0+
15!
1s!
13
1(!
1,!
1.!
14!
16!
1}
0T!
1$!
09!
1"!
1\!
0$"
01
1""
1#"
1&!
1~!
0!"
12
00
0/
1[!
0Y!
1Z!
1-
13!
1/!
1*!
1%
1r!
0p!
12!
1v!
0w!
0y
1z
0u!
10!
0?!
1+!
1'
1~
1_!
03
1.
0&
0(
0<!
1>!
1,
1-!
1F!
0/!
1E!
0C!
1)!
1I!
0H!
1'!
1|!
0}!
0+!
0%
0y!
1z!
0'
0$
1&
#77000
b101010101010101 !
b1010101010101010 "
0J
1p!
02!
0v!
1w!
0F
1H!
0'!
0|!
1}!
1B
0N!
1>
0]!
1|
1e!
0b!
1:
0q!
16
0G!
1'!
1|!
0}!
0o!
12!
1v!
0w!
1!!
0-
0""
0#"
02
0.
#87000
b1000000001010001 !
b1000000010000110 "
1R
0R!
0Q
1W!
0O
1Y!
0Z!
0K
1k!
0l!
0I
1w!
0G
1C!
0)!
1G!
0'!
0|!
1}!
0B
1N!
0<
1f!
0u
0n!
0:
1q!
08
1?!
06
0I!
15
1|!
0}!
0(!
0,!
01!
1<!
0>!
06!
1o!
02!
0v!
0{
1+
0.!
1+!
04!
1u!
00!
0@!
0w
05!
0s!
0#!
0~
1]!
0|
0e!
1b!
1T!
0$!
19!
0"!
0\!
1$"
11
1O!
0P!
01
0V!
10
0[!
1.
1-
0r!
0v
03!
0&
1/!
1y
0-!
0F!
0*!
0+!
0/!
0E!
0z
0+
0,
1&
#92000
b1111101011011100 !
b11011100 "
0S
1K!
0L!
0Q!
1R!
1Q
1P
0:!
1"!
1\!
1N
0`!
0E
1}!
0D
17!
08!
14
0M!
1B
1Q!
0R!
1A
1V!
0W!
1=
1e!
0b!
1;
1n!
19
1v!
18
1@!
17
1F!
16
1I!
1,!
1.!
1E!
11!
14!
1w
0}
0T!
1$!
09!
1""
1(!
1y!
0z!
0!!
0^!
1|
0d!
0%!
1/
1[!
0&!
0~!
1a!
0.
1$
1%
1v
13!
1(
1/!
1*!
1+!
1'
1)
1+
0&
#94000
b100000010010110 !
b10000001001000 "
0R
1R!
0P
1:!
0M
1b!
0c!
1G
0C!
1)!
0G!
1'!
0{!
1C
1M!
0A
0V!
1W!
0>
0_!
1`!
0;
0n!
09
0v!
08
0@!
07
0F!
05
1{!
0(!
0E!
1C!
0)!
1G!
0'!
0|!
01!
04!
0w
1!!
1^!
0|
1d!
1T!
0$!
19!
0"!
0\!
0$"
1&!
0%
1}
0x
0h!
1%!
0O!
1P!
1V!
0W!
0""
0T!
1$!
09!
1"!
1\!
1z
1~!
00
0a!
1c!
1.
0v
03!
0(
0)
0+
1x
1h!
1,
0z
0,
#104000
b1000000100100 !
b1000000110010010 "
1S
0K!
1L!
0N!
0Q
1W!
1P
0:!
0N
1M
0b!
1L
0i!
0G
1E
0C
0M!
1K!
0L!
1N!
0@
19!
1?
0X!
1Z!
0=
0e!
1b!
18
1@!
06
0I!
0,!
11!
1#!
1~
1_!
1(!
0.!
1{
0g!
1u
1n!
0!!
1T!
0$!
0;!
1:!
0"!
1X!
0Z!
1$"
11
10
0~
0_!
1+
0y
0/!
1%
0.
1(
0*!
0+!
0'
1z
1,
1&
#204000
b0 !
b1 "
1T
07!
18!
04
1M!
0K!
1L!
0N!
0S
1K!
0L!
1N!
0P
0M
0L
1i!
0E
0B
0Q!
0?
0\!
08
0@!
01!
0#!
0[!
1""
0(!
0{
1g!
0u
0n!
0}
0%!
0&!
0~!
1!"
00
0-
0+
1y
0%
0/
0(
0z
13
0,
