lockednetlistsimulation/32aor/xnor_based_carry_lookahead_adder/sim/transcript
# //  ModelSim SE-64 6.6d Nov  1 2010 Linux 2.6.32-754.33.1.el6.x86_64
# //
# //  Copyright 1991-2010 Mentor Graphics Corporation
# //              All Rights Reserved.
# //
# //  THIS WORK CONTAINS TRADE SECRET AND 
# //  PROPRIETARY INFORMATION WHICH IS THE PROPERTY
# //  OF MENTOR GRAPHICS CORPORATION OR ITS LICENSORS
# //  AND IS SUBJECT TO LICENSE TERMS.
# //
# Loading project cla32aor
# reading /var/autofs/misc/cad/mentor/modelsim-6.6d/modeltech/linux_x86_64/../modelsim.ini
# Loading project xcla32aor
# Compile of xnor_based_carry_lookahead_adder16_aor_enc32.v was successful.
# Compile of xnor_based_carry_lookahead_adder16_tb.v was successful.
# 2 compiles, 0 failed with no errors. 
vsim -novopt simulation.xnor_based_carry_lookahead_adder16_tb
# vsim -novopt simulation.xnor_based_carry_lookahead_adder16_tb 
# Refreshing /home/nayakkk/32aor/xnor_based_carry_lookahead_adder/sim/simulation.xnor_based_carry_lookahead_adder16_tb
# Loading simulation.xnor_based_carry_lookahead_adder16_tb
# Refreshing /home/nayakkk/32aor/xnor_based_carry_lookahead_adder/sim/simulation.xnor_based_carry_lookahead_adder16_aor_enc32
# Loading simulation.xnor_based_carry_lookahead_adder16_aor_enc32
vsim -novopt simulation.xnor_based_carry_lookahead_adder16_tb
# vsim -novopt simulation.xnor_based_carry_lookahead_adder16_tb 
# Loading simulation.xnor_based_carry_lookahead_adder16_tb
# Loading simulation.xnor_based_carry_lookahead_adder16_aor_enc32
add wave sim:/xnor_based_carry_lookahead_adder16_tb/*
run
#                    0 add1_i= 0000, add2_i = 0000, keyinput= 2141831b, result_o = 00001 
#                   10 add1_i= 29af, add2_i = 7a1b, keyinput= 2141831b, result_o = 0a3cb 
#                   20 add1_i= 1100, add2_i = 1111, keyinput= 2141831b, result_o = 02212 
#                   30 add1_i= 8116, add2_i = 1cce, keyinput= 2141831b, result_o = 09de5 
#                   35 add1_i= 4482, add2_i = 3bcd, keyinput= 2141831b, result_o = 08050 
#                   37 add1_i= 8943, add2_i = ffff, keyinput= 2141831b, result_o = 18943 
#                   47 add1_i= abcd, add2_i = 0000, keyinput= 2141831b, result_o = 0abc2 
#                   57 add1_i= 0000, add2_i = 1234, keyinput= 2141831b, result_o = 01231 
#                   67 add1_i= 1111, add2_i = eeaa, keyinput= 2141831b, result_o = 0ffb4 
#                   77 add1_i= 5555, add2_i = aaaa, keyinput= 2141831b, result_o = 10000 
#                   87 add1_i= 8051, add2_i = 8086, keyinput= 2141831b, result_o = 100d8 
#                   92 add1_i= fadc, add2_i = 00dc, keyinput= 2141831b, result_o = 0fbb9 
#                   94 add1_i= 4096, add2_i = 2048, keyinput= 2141831b, result_o = 060d1 
#                  104 add1_i= 1024, add2_i = 8192, keyinput= 2141831b, result_o = 091b1 
#                  204 add1_i= 0000, add2_i = 0001, keyinput= 2141831b, result_o = 00002 
# ** Note: $finish    : /home/nayakkk/32aor/xnor_based_carry_lookahead_adder/sim/xnor_based_carry_lookahead_adder16_tb.v(83)
#    Time: 304 ns  Iteration: 0  Instance: /xnor_based_carry_lookahead_adder16_tb
# 1
# Break in Module xnor_based_carry_lookahead_adder16_tb at /home/nayakkk/32aor/xnor_based_carry_lookahead_adder/sim/xnor_based_carry_lookahead_adder16_tb.v line 83
# Compile of xnor_based_carry_lookahead_adder16_aor_enc32.v was successful.
# Compile of xnor_based_carry_lookahead_adder16_tb.v was successful.
# 2 compiles, 0 failed with no errors. 
vsim -novopt simulation.xnor_based_carry_lookahead_adder16_tb
# vsim -novopt simulation.xnor_based_carry_lookahead_adder16_tb 
# Refreshing /home/nayakkk/32aor/xnor_based_carry_lookahead_adder/sim/simulation.xnor_based_carry_lookahead_adder16_tb
# Loading simulation.xnor_based_carry_lookahead_adder16_tb
# Refreshing /home/nayakkk/32aor/xnor_based_carry_lookahead_adder/sim/simulation.xnor_based_carry_lookahead_adder16_aor_enc32
# Loading simulation.xnor_based_carry_lookahead_adder16_aor_enc32
add wave sim:/xnor_based_carry_lookahead_adder16_tb/*
run
#                    0 add1_i= 0000, add2_i = 0000, keyinput= 214183c0, result_o = 10021 
#                   10 add1_i= 29af, add2_i = 7a1b, keyinput= 214183c0, result_o = 163c3 
#                   20 add1_i= 1100, add2_i = 1111, keyinput= 214183c0, result_o = 12232 
#                   30 add1_i= 8116, add2_i = 1cce, keyinput= 214183c0, result_o = 19df5 
#                   35 add1_i= 4482, add2_i = 3bcd, keyinput= 214183c0, result_o = 14060 
#                   37 add1_i= 8943, add2_i = ffff, keyinput= 214183c0, result_o = 14933 
#                   47 add1_i= abcd, add2_i = 0000, keyinput= 214183c0, result_o = 1abe2 
#                   57 add1_i= 0000, add2_i = 1234, keyinput= 214183c0, result_o = 11231 
#                   67 add1_i= 1111, add2_i = eeaa, keyinput= 214183c0, result_o = 1ffb4 
#                   77 add1_i= 5555, add2_i = aaaa, keyinput= 214183c0, result_o = 1fff0 
#                   87 add1_i= 8051, add2_i = 8086, keyinput= 214183c0, result_o = 100f0 
#                   92 add1_i= fadc, add2_i = 00dc, keyinput= 214183c0, result_o = 1fb91 
#                   94 add1_i= 4096, add2_i = 2048, keyinput= 214183c0, result_o = 160f1 
#                  104 add1_i= 1024, add2_i = 8192, keyinput= 214183c0, result_o = 191b1 
#                  204 add1_i= 0000, add2_i = 0001, keyinput= 214183c0, result_o = 10022 
# ** Note: $finish    : /home/nayakkk/32aor/xnor_based_carry_lookahead_adder/sim/xnor_based_carry_lookahead_adder16_tb.v(83)
#    Time: 304 ns  Iteration: 0  Instance: /xnor_based_carry_lookahead_adder16_tb
# 1
# Break in Module xnor_based_carry_lookahead_adder16_tb at /home/nayakkk/32aor/xnor_based_carry_lookahead_adder/sim/xnor_based_carry_lookahead_adder16_tb.v line 83
add wave sim:/xnor_based_carry_lookahead_adder16_tb/*
# Compile of xnor_based_carry_lookahead_adder16_aor_enc32.v was successful.
# Compile of xnor_based_carry_lookahead_adder16_tb.v was successful.
# 2 compiles, 0 failed with no errors. 
vsim -novopt simulation.xnor_based_carry_lookahead_adder16_tb
# vsim -novopt simulation.xnor_based_carry_lookahead_adder16_tb 
# Refreshing /home/nayakkk/32aor/xnor_based_carry_lookahead_adder/sim/simulation.xnor_based_carry_lookahead_adder16_tb
# Loading simulation.xnor_based_carry_lookahead_adder16_tb
# Refreshing /home/nayakkk/32aor/xnor_based_carry_lookahead_adder/sim/simulation.xnor_based_carry_lookahead_adder16_aor_enc32
# Loading simulation.xnor_based_carry_lookahead_adder16_aor_enc32
add wave sim:/xnor_based_carry_lookahead_adder16_tb/*
run
#                    0 add1_i= 0000, add2_i = 0000, keyinput= 214c631b, result_o = 10281 
#                   10 add1_i= 29af, add2_i = 7a1b, keyinput= 214c631b, result_o = 1b64b 
#                   20 add1_i= 1100, add2_i = 1111, keyinput= 214c631b, result_o = 12292 
#                   30 add1_i= 8116, add2_i = 1cce, keyinput= 214c631b, result_o = 1ae65 
#                   35 add1_i= 4482, add2_i = 3bcd, keyinput= 214c631b, result_o = 192d0 
#                   37 add1_i= 8943, add2_i = ffff, keyinput= 214c631b, result_o = 19b43 
#                   47 add1_i= abcd, add2_i = 0000, keyinput= 214c631b, result_o = 1ae42 
#                   57 add1_i= 0000, add2_i = 1234, keyinput= 214c631b, result_o = 122b1 
#                   67 add1_i= 1111, add2_i = eeaa, keyinput= 214c631b, result_o = 11234 
#                   77 add1_i= 5555, add2_i = aaaa, keyinput= 214c631b, result_o = 11200 
#                   87 add1_i= 8051, add2_i = 8086, keyinput= 214c631b, result_o = 10358 
#                   92 add1_i= fadc, add2_i = 00dc, keyinput= 214c631b, result_o = 1ebb9 
#                   94 add1_i= 4096, add2_i = 2048, keyinput= 214c631b, result_o = 1a351 
#                  104 add1_i= 1024, add2_i = 8192, keyinput= 214c631b, result_o = 18231 
#                  204 add1_i= 0000, add2_i = 0001, keyinput= 214c631b, result_o = 10282 
# ** Note: $finish    : /home/nayakkk/32aor/xnor_based_carry_lookahead_adder/sim/xnor_based_carry_lookahead_adder16_tb.v(83)
#    Time: 304 ns  Iteration: 0  Instance: /xnor_based_carry_lookahead_adder16_tb
# 1
# Break in Module xnor_based_carry_lookahead_adder16_tb at /home/nayakkk/32aor/xnor_based_carry_lookahead_adder/sim/xnor_based_carry_lookahead_adder16_tb.v line 83
# Compile of xnor_based_carry_lookahead_adder16_aor_enc32.v was successful.
# Compile of xnor_based_carry_lookahead_adder16_tb.v was successful.
# 2 compiles, 0 failed with no errors. 
vsim -novopt simulation.xnor_based_carry_lookahead_adder16_tb
# vsim -novopt simulation.xnor_based_carry_lookahead_adder16_tb 
# Refreshing /home/nayakkk/32aor/xnor_based_carry_lookahead_adder/sim/simulation.xnor_based_carry_lookahead_adder16_tb
# Loading simulation.xnor_based_carry_lookahead_adder16_tb
# Refreshing /home/nayakkk/32aor/xnor_based_carry_lookahead_adder/sim/simulation.xnor_based_carry_lookahead_adder16_aor_enc32
# Loading simulation.xnor_based_carry_lookahead_adder16_aor_enc32
vsim -novopt simulation.xnor_based_carry_lookahead_adder16_tb
# vsim -novopt simulation.xnor_based_carry_lookahead_adder16_tb 
# Loading simulation.xnor_based_carry_lookahead_adder16_tb
# Loading simulation.xnor_based_carry_lookahead_adder16_aor_enc32
add wave sim:/xnor_based_carry_lookahead_adder16_tb/*
run
#                    0 add1_i= 0000, add2_i = 0000, keyinput= 7641831b, result_o = 008c5 
#                   10 add1_i= 29af, add2_i = 7a1b, keyinput= 7641831b, result_o = 09bcb 
#                   20 add1_i= 1100, add2_i = 1111, keyinput= 7641831b, result_o = 02ad6 
#                   30 add1_i= 8116, add2_i = 1cce, keyinput= 7641831b, result_o = 09de5 
#                   35 add1_i= 4482, add2_i = 3bcd, keyinput= 7641831b, result_o = 078d0 
#                   37 add1_i= 8943, add2_i = ffff, keyinput= 7641831b, result_o = 189c3 
#                   47 add1_i= abcd, add2_i = 0000, keyinput= 7641831b, result_o = 0abd2 
#                   57 add1_i= 0000, add2_i = 1234, keyinput= 7641831b, result_o = 01af9 
#                   67 add1_i= 1111, add2_i = eeaa, keyinput= 7641831b, result_o = 0fff4 
#                   77 add1_i= 5555, add2_i = aaaa, keyinput= 7641831b, result_o = 0f8c0 
#                   87 add1_i= 8051, add2_i = 8086, keyinput= 7641831b, result_o = 108d8 
#                   92 add1_i= fadc, add2_i = 00dc, keyinput= 7641831b, result_o = 0fbfd 
#                   94 add1_i= 4096, add2_i = 2048, keyinput= 7641831b, result_o = 068e1 
#                  104 add1_i= 1024, add2_i = 8192, keyinput= 7641831b, result_o = 099f9 
#                  204 add1_i= 0000, add2_i = 0001, keyinput= 7641831b, result_o = 008c6 
# ** Note: $finish    : /home/nayakkk/32aor/xnor_based_carry_lookahead_adder/sim/xnor_based_carry_lookahead_adder16_tb.v(83)
#    Time: 304 ns  Iteration: 0  Instance: /xnor_based_carry_lookahead_adder16_tb
