lockednetlistsimulation/32aor/equal_segmentation_adder/sim/equal_segmentation_adder16_simgate.vcd
$date
	Fri Oct  9 11:10:06 2020
$end
$version
	ModelSim Version 6.6d
$end
$timescale
	1ps
$end
$scope module equal_segmentation_adder16_tb $end
$var reg 16 ! add1_i [15:0] $end
$var reg 16 " add2_i [15:0] $end
$var reg 32 # keyinput [31:0] $end
$var wire 1 $ result_o [16] $end
$var wire 1 % result_o [15] $end
$var wire 1 & result_o [14] $end
$var wire 1 ' result_o [13] $end
$var wire 1 ( result_o [12] $end
$var wire 1 ) result_o [11] $end
$var wire 1 * result_o [10] $end
$var wire 1 + result_o [9] $end
$var wire 1 , result_o [8] $end
$var wire 1 - result_o [7] $end
$var wire 1 . result_o [6] $end
$var wire 1 / result_o [5] $end
$var wire 1 0 result_o [4] $end
$var wire 1 1 result_o [3] $end
$var wire 1 2 result_o [2] $end
$var wire 1 3 result_o [1] $end
$var wire 1 4 result_o [0] $end
$scope module esa $end
$var wire 1 5 add1_i [15] $end
$var wire 1 6 add1_i [14] $end
$var wire 1 7 add1_i [13] $end
$var wire 1 8 add1_i [12] $end
$var wire 1 9 add1_i [11] $end
$var wire 1 : add1_i [10] $end
$var wire 1 ; add1_i [9] $end
$var wire 1 < add1_i [8] $end
$var wire 1 = add1_i [7] $end
$var wire 1 > add1_i [6] $end
$var wire 1 ? add1_i [5] $end
$var wire 1 @ add1_i [4] $end
$var wire 1 A add1_i [3] $end
$var wire 1 B add1_i [2] $end
$var wire 1 C add1_i [1] $end
$var wire 1 D add1_i [0] $end
$var wire 1 E add2_i [15] $end
$var wire 1 F add2_i [14] $end
$var wire 1 G add2_i [13] $end
$var wire 1 H add2_i [12] $end
$var wire 1 I add2_i [11] $end
$var wire 1 J add2_i [10] $end
$var wire 1 K add2_i [9] $end
$var wire 1 L add2_i [8] $end
$var wire 1 M add2_i [7] $end
$var wire 1 N add2_i [6] $end
$var wire 1 O add2_i [5] $end
$var wire 1 P add2_i [4] $end
$var wire 1 Q add2_i [3] $end
$var wire 1 R add2_i [2] $end
$var wire 1 S add2_i [1] $end
$var wire 1 T add2_i [0] $end
$var wire 1 U keyinput [31] $end
$var wire 1 V keyinput [30] $end
$var wire 1 W keyinput [29] $end
$var wire 1 X keyinput [28] $end
$var wire 1 Y keyinput [27] $end
$var wire 1 Z keyinput [26] $end
$var wire 1 [ keyinput [25] $end
$var wire 1 \ keyinput [24] $end
$var wire 1 ] keyinput [23] $end
$var wire 1 ^ keyinput [22] $end
$var wire 1 _ keyinput [21] $end
$var wire 1 ` keyinput [20] $end
$var wire 1 a keyinput [19] $end
$var wire 1 b keyinput [18] $end
$var wire 1 c keyinput [17] $end
$var wire 1 d keyinput [16] $end
$var wire 1 e keyinput [15] $end
$var wire 1 f keyinput [14] $end
$var wire 1 g keyinput [13] $end
$var wire 1 h keyinput [12] $end
$var wire 1 i keyinput [11] $end
$var wire 1 j keyinput [10] $end
$var wire 1 k keyinput [9] $end
$var wire 1 l keyinput [8] $end
$var wire 1 m keyinput [7] $end
$var wire 1 n keyinput [6] $end
$var wire 1 o keyinput [5] $end
$var wire 1 p keyinput [4] $end
$var wire 1 q keyinput [3] $end
$var wire 1 r keyinput [2] $end
$var wire 1 s keyinput [1] $end
$var wire 1 t keyinput [0] $end
$var wire 1 $ result_o [16] $end
$var wire 1 % result_o [15] $end
$var wire 1 & result_o [14] $end
$var wire 1 ' result_o [13] $end
$var wire 1 ( result_o [12] $end
$var wire 1 ) result_o [11] $end
$var wire 1 * result_o [10] $end
$var wire 1 + result_o [9] $end
$var wire 1 , result_o [8] $end
$var wire 1 - result_o [7] $end
$var wire 1 . result_o [6] $end
$var wire 1 / result_o [5] $end
$var wire 1 0 result_o [4] $end
$var wire 1 1 result_o [3] $end
$var wire 1 2 result_o [2] $end
$var wire 1 3 result_o [1] $end
$var wire 1 4 result_o [0] $end
$var wire 1 u n28 $end
$var wire 1 v xenc17 $end
$var wire 1 w xenc6 $end
$var wire 1 x xenc22 $end
$var wire 1 y n30 $end
$var wire 1 z n33 $end
$var wire 1 { xenc4 $end
$var wire 1 | n34 $end
$var wire 1 } xenc20 $end
$var wire 1 ~ xenc7 $end
$var wire 1 !! n39 $end
$var wire 1 "! xenc19 $end
$var wire 1 #! xenc15 $end
$var wire 1 $! n40 $end
$var wire 1 %! n43 $end
$var wire 1 &! xenc25 $end
$var wire 1 '! n44 $end
$var wire 1 (! xenc27 $end
$var wire 1 )! xenc3 $end
$var wire 1 *! xenc9 $end
$var wire 1 +! xenc5 $end
$var wire 1 ,! n51 $end
$var wire 1 -! xenc31 $end
$var wire 1 .! xenc29 $end
$var wire 1 /! n55 $end
$var wire 1 0! n59 $end
$var wire 1 1! xenc18 $end
$var wire 1 2! n61 $end
$var wire 1 3! xenc2 $end
$var wire 1 4! n62 $end
$var wire 1 5! n65 $end
$var wire 1 6! xenc28 $end
$var wire 1 7! xenc23 $end
$var wire 1 8! n60 $end
$var wire 1 9! n48 $end
$var wire 1 :! n47 $end
$var wire 1 ;! xenc13 $end
$var wire 1 <! n37 $end
$var wire 1 =! n38 $end
$var wire 1 >! xenc11 $end
$var wire 1 ?! n69 $end
$var wire 1 @! xenc10 $end
$var wire 1 A! n42 $end
$var wire 1 B! n41 $end
$var wire 1 C! n31 $end
$var wire 1 D! xenc8 $end
$var wire 1 E! n29 $end
$var wire 1 F! n63 $end
$var wire 1 G! xenc30 $end
$var wire 1 H! xenc16 $end
$var wire 1 I! xenc24 $end
$var wire 1 J! n52 $end
$var wire 1 K! n53 $end
$var wire 1 L! n54 $end
$var wire 1 M! n32 $end
$var wire 1 N! n64 $end
$var wire 1 O! xenc0 $end
$var wire 1 P! n58 $end
$var wire 1 Q! n56 $end
$var wire 1 R! n57 $end
$var wire 1 S! n45 $end
$var wire 1 T! xenc21 $end
$var wire 1 U! n46 $end
$var wire 1 V! n35 $end
$var wire 1 W! xenc12 $end
$var wire 1 X! n36 $end
$var wire 1 Y! xenc1 $end
$var wire 1 Z! n68 $end
$var wire 1 [! n66 $end
$var wire 1 \! n67 $end
$var wire 1 ]! xenc26 $end
$var wire 1 ^! xenc14 $end
$var wire 1 _! n49 $end
$var wire 1 `! n50 $end
$upscope $end
$upscope $end
$enddefinitions $end
#0
$dumpvars
b0 !
b0 "
b11100100001101011011010111101110 #
04
03
02
01
00
0/
0.
0-
0,
0+
0*
0)
0(
0'
0&
0%
0$
0u
0v
0w
0x
0y
0z
0{
0|
0}
0~
0!!
0"!
0#!
0$!
0%!
0&!
0'!
0(!
0)!
0*!
0+!
0,!
0-!
0.!
0/!
00!
01!
02!
03!
04!
05!
06!
07!
18!
19!
0:!
1;!
0<!
1=!
1>!
1?!
1@!
1A!
1B!
1C!
1D!
0E!
1F!
1G!
1H!
1I!
0J!
1K!
1L!
1M!
1N!
1O!
1P!
0Q!
1R!
1S!
1T!
1U!
1V!
1W!
1X!
1Y!
1Z!
0[!
1\!
1]!
1^!
1_!
1`!
0t
1s
1r
1q
0p
1o
1n
1m
1l
0k
1j
0i
1h
1g
0f
1e
1d
0c
1b
0a
1`
1_
0^
0]
0\
0[
1Z
0Y
0X
1W
1V
1U
0T
0S
0R
0Q
0P
0O
0N
0M
0L
0K
0J
0I
0H
0G
0F
0E
0D
0C
0B
0A
0@
0?
0>
0=
0<
0;
0:
09
08
07
06
05
$end
#10000
b10100110101111 !
b111101000011011 "
1T
1S
1Q
1P
1K
1I
1H
1G
1F
1D
09!
1C
0U!
0T!
1'!
1B
0B!
0@!
1!!
1A
1?
1=
1<
19
17
10!
0R!
0O!
1Q!
1.!
1,
1y
1x
1<!
1}
1#!
11
1&
1(
1v
1+
1~
10
1)!
13
1/
1-
1/!
1-!
0L!
0I!
1J!
1+!
0&
1,!
1*!
1%
#20000
b1000100000000 !
b1000100010001 "
0S
0Q
1L
0?!
0>!
0K
0I
0G
1R!
1O!
0Q!
0.!
0F
1L!
1I!
0J!
0+!
0D
1U!
1T!
0'!
1B!
1@!
0!!
19!
0C
0B
0A
0?
0=
09
18
0P!
1Q!
1.!
08!
07
1P!
0Q!
0.!
0(
0y
0x
0<!
0}
14
0#!
01
1&
0,!
0*!
11!
1'
0/!
0-!
0v
0+
0,
1u
0)!
03
1v
1+
0&
0%
0/
0-
#30000
b1000000100010110 !
b1110011001110 "
0T
1S
1R
1Q
0P
1N
1M
0L
1?!
1>!
1J
1I
1C
1B
1@
08
18!
15
1,!
1*!
1(
00!
1%!
0A!
1!!
1:!
1(!
0S!
1'!
0B!
0@!
14!
13!
16!
1*
1,
0u
1y
1x
1{
1.
1$!
1"!
04
1-
0v
0+
1)
0%!
1A!
01!
0'
1%
1&!
12
#35000
b100010010000010 !
b11101111001101 "
1T
0S
1S!
0'!
1B!
1@!
0!!
1L
0?!
0>!
1K
0J
1G
0B
0@
1=
0<
1?!
1>!
1:
16
05
0,!
0*!
1/!
1-!
15!
0y
0x
0~
00
11!
1'
1v
1+
1)!
13
1#!
11
14
0-
1&
0%
#43000
b1000100101000011 !
b1111111111111111 "
1S
0S!
1'!
1P
1O
1J
0N!
0G!
12!
1F
0L!
0I!
1J!
1+!
1E
1D
0U!
0T!
09!
1>
0=
1<
0?!
0>!
0:
19
06
15
0_!
0]!
1$
0/!
0-!
1L!
1I!
0J!
0+!
1_!
1]!
0$
04!
03!
05!
1N!
1G!
02!
0,
1u
0\!
0Y!
1[!
17!
1y
1x
1z
0M!
0D!
1E!
1w
04
0:!
0(!
1S!
1%
1,!
1*!
0`!
0^!
1$
0)
1/
1~
10
1%!
0A!
1!!
0&!
02
0#!
01
0%
0{
0.
0v
0+
15!
0N!
0G!
12!
06!
0*
1)
#53000
b1010101111001101 !
b0 "
0T
1U!
1T!
0'!
19!
0S
0R
1A!
0!!
0Q
0P
0O
0N
1M!
1D!
0E!
0w
0M
0L
1?!
1>!
0K
1\!
1Y!
0[!
07!
0J
1N!
1G!
02!
0I
0H
0G
0F
0E
1`!
1^!
0$
0C
1B
1A
1=
1;
17
10!
1%
0&
0(
14!
13!
16!
1*
1v
1+
05!
1,
1{
1.
1-
0/
0~
00
1&!
12
1#!
11
0)!
03
14
06!
0*
#63000
b0 !
b1001000110100 "
1R
0A!
1!!
1P
1O
1K
0\!
0Y!
1[!
17!
1H
0D
0B
0A
0>
0=
0<
0;
09
07
05
0,!
0*!
00!
04!
03!
0u
1\!
1Y!
0[!
07!
0,
0y
0x
0z
0$!
0"!
0%!
1A!
0!!
04
1(
1/
1~
10
0#!
01
0{
0.
0-
0)
01!
0'
0%
#73000
b1000100010001 !
b1110111010101010 "
1S
0R
1Q
0P
1M
1J
1I
0H
1G
1F
1E
1D
1@
1<
18
1,
14
1%
1&
11!
1'
14!
13!
16!
1*
1y
1x
1$!
1"!
0&!
02
1)!
13
1#!
11
1-
1)
#83000
b101010101010101 !
b1010101010101010 "
0J
0F
1B
1>
1:
16
1/!
1-!
15!
1z
1%!
1&!
12
1{
1.
#93000
b1000000001010001 !
b1000000010000110 "
1R
0A!
1!!
0Q
0O
0K
0I
0G
0B
0<
0:
08
06
15
1,!
1*!
0`!
0^!
1$
0/!
0-!
0(
05!
0,
0%!
1A!
0!!
01!
0'
04!
03!
0v
0+
0/
0$!
0"!
0#!
01
0)
06!
0*
0&
0%
#98000
b1111101011011100 !
b11011100 "
0S
1Q
1P
0=!
0;!
1N
0M!
0D!
1E!
1w
0E
1`!
1^!
0$
0D
1B
1A
1=
1;
19
18
17
16
1/!
1-!
10!
1(
14!
13!
1u
0y
0x
1%!
0A!
1!!
04
1%
0{
0.
0~
00
1<!
1}
0)!
03
1/
0&!
02
1#!
11
1v
1+
1)
11!
1'
1&
#106000
b100000010010110 !
b10000001001000 "
0R
1A!
0!!
0P
1=!
1;!
0M
1G
0R!
0O!
1Q!
1.!
0K!
0H!
1J!
1+!
0_!
0]!
1$
1C
0A
0>
0;
09
08
07
05
1_!
1]!
0$
00!
1R!
1O!
0Q!
0.!
1K!
1H!
0J!
0+!
0(
04!
03!
0u
0z
1M!
1D!
0E!
0w
1$!
1"!
1:!
1(!
0,!
0*!
1y
1x
1~
10
0<!
0}
1&!
12
0/
0%
1)!
13
1{
1.
0v
0+
0)
#116000
b1000000100100 !
b1000000110010010 "
1S
0S!
1'!
0B!
0@!
1!!
0Q
1P
0=!
0;!
0N
1M
1L
0G
1E
0C
0@
1=!
1;!
1?
0=
18
06
0/!
0-!
1(
0:!
0(!
1S!
0'!
1B!
1@!
0!!
1%
01!
0'
1,
0{
0.
1<!
1}
0$!
0"!
0#!
01
1/
0&
#126000
b0 !
b1 "
1T
0S
0P
0M
0L
0E
0B
0?
08
0(
0<!
0}
0%!
0%
0,
0y
0x
0~
00
0)!
03
14
0-
0&!
02
0/
#136000
b11100100001101011011010111001110 #
b0 "
0T
0o
04
#146000
b10100110101111 !
b111101000011011 "
1T
1S
1Q
1P
1K
1I
1H
1G
1F
1D
09!
1C
0U!
0T!
1'!
1B
0B!
0@!
1!!
1A
1?
1=
1<
19
17
10!
0R!
0O!
1Q!
1.!
1,
1y
1x
1<!
1}
1#!
11
1&
1(
1v
1+
1~
10
1)!
13
1/
1-
1/!
1-!
0L!
0I!
1J!
0&
#156000
b1000100000000 !
b1000100010001 "
0S
0Q
1L
0?!
0>!
0K
0I
0G
1R!
1O!
0Q!
0.!
0F
1L!
1I!
0J!
0D
1U!
1T!
0'!
1B!
1@!
0!!
19!
0C
0B
0A
0?
0=
09
18
0P!
1Q!
1.!
08!
07
1P!
0Q!
0.!
0(
0y
0x
0<!
0}
14
0#!
01
1&
11!
1'
0/!
0-!
0v
0+
0,
1u
0)!
03
1v
1+
0&
0/
0-
#166000
b1000000100010110 !
b1110011001110 "
0T
1S
1R
1Q
0P
1N
1M
0L
1?!
1>!
1J
1I
1C
1B
1@
08
18!
15
1,!
1*!
1(
00!
1%!
0A!
1!!
1:!
1(!
0S!
1'!
0B!
0@!
14!
13!
16!
1*
1,
0u
1y
1x
1{
1.
1$!
1"!
04
1-
0v
0+
1)
0%!
1A!
01!
0'
1%
1&!
12
#171000
b100010010000010 !
b11101111001101 "
1T
0S
1S!
0'!
1B!
1@!
0!!
1L
0?!
0>!
1K
0J
1G
0B
0@
1=
0<
1?!
1>!
1:
16
05
0,!
0*!
1/!
1-!
15!
0y
0x
0~
00
11!
1'
1v
1+
1)!
13
1#!
11
14
0-
1&
0%
#179000
b1000100101000011 !
b1111111111111111 "
1S
0S!
1'!
1P
1O
1J
0N!
0G!
12!
1F
0L!
0I!
1J!
1E
1D
0U!
0T!
09!
1>
0=
1<
0?!
0>!
0:
19
06
15
1,!
1*!
0`!
0^!
1$
0/!
0-!
1L!
1I!
0J!
04!
03!
05!
1N!
1G!
02!
0,
1u
0\!
0Y!
1[!
17!
1y
1x
1z
0M!
0D!
1E!
1w
04
0:!
0(!
1S!
0)
1/
1~
10
1%!
0A!
1!!
0&!
02
0#!
01
0{
0.
0v
0+
15!
0N!
0G!
12!
06!
0*
1)
#189000
b1010101111001101 !
b0 "
0T
1U!
1T!
0'!
19!
0S
0R
1A!
0!!
0Q
0P
0O
0N
1M!
1D!
0E!
0w
0M
0L
1?!
1>!
0K
1\!
1Y!
0[!
07!
0J
1N!
1G!
02!
0I
0H
0G
0F
0E
1`!
1^!
0$
0C
1B
1A
1=
1;
17
10!
1%
0&
0(
14!
13!
16!
1*
1v
1+
05!
1,
1{
1.
1-
0/
0~
00
1&!
12
1#!
11
0)!
03
14
06!
0*
#199000
b0 !
b1001000110100 "
1R
0A!
1!!
1P
1O
1K
0\!
0Y!
1[!
17!
1H
0D
0B
0A
0>
0=
0<
0;
09
07
05
0,!
0*!
00!
04!
03!
0u
1\!
1Y!
0[!
07!
0,
0y
0x
0z
0$!
0"!
0%!
1A!
0!!
04
1(
1/
1~
10
0#!
01
0{
0.
0-
0)
01!
0'
0%
#209000
b1000100010001 !
b1110111010101010 "
1S
0R
1Q
0P
1M
1J
1I
0H
1G
1F
1E
1D
1@
1<
18
1,
14
1%
1&
11!
1'
14!
13!
16!
1*
1y
1x
1$!
1"!
0&!
02
1)!
13
1#!
11
1-
1)
#219000
b101010101010101 !
b1010101010101010 "
0J
0F
1B
1>
1:
16
1/!
1-!
15!
1z
1%!
1&!
12
1{
1.
#229000
b1000000001010001 !
b1000000010000110 "
1R
0A!
1!!
0Q
0O
0K
0I
0G
0B
0<
0:
08
06
15
1,!
1*!
0`!
0^!
1$
0/!
0-!
0(
05!
0,
0%!
1A!
0!!
01!
0'
04!
03!
0v
0+
0/
0$!
0"!
0#!
01
0)
06!
0*
0&
0%
#234000
b1111101011011100 !
b11011100 "
0S
1Q
1P
0=!
0;!
1N
0M!
0D!
1E!
1w
0E
1`!
1^!
0$
0D
1B
1A
1=
1;
19
18
17
16
1/!
1-!
10!
1(
14!
13!
1u
0y
0x
1%!
0A!
1!!
04
1%
0{
0.
0~
00
1<!
1}
0)!
03
1/
0&!
02
1#!
11
1v
1+
1)
11!
1'
1&
#242000
b100000010010110 !
b10000001001000 "
0R
1A!
0!!
0P
1=!
1;!
0M
1G
0R!
0O!
1Q!
1.!
0K!
0H!
1J!
1C
0A
0>
0;
09
08
07
05
0,!
0*!
00!
1R!
1O!
0Q!
0.!
1K!
1H!
0J!
0(
04!
03!
0u
0z
1M!
1D!
0E!
0w
1$!
1"!
1:!
1(!
1y
1x
1~
10
0<!
0}
1&!
12
0/
1)!
13
1{
1.
0v
0+
0)
0%
#252000
b1000000100100 !
b1000000110010010 "
1S
0S!
1'!
0B!
0@!
1!!
0Q
1P
0=!
0;!
0N
1M
1L
0G
1E
0C
0@
1=!
1;!
1?
0=
18
06
0/!
0-!
1(
0:!
0(!
1S!
0'!
1B!
1@!
0!!
1%
01!
0'
1,
0{
0.
1<!
1}
0$!
0"!
0#!
01
1/
0&
#262000
b0 !
b1 "
1T
0S
0P
0M
0L
0E
0B
0?
08
0(
0<!
0}
0%!
0%
0,
0y
0x
0~
00
0)!
03
14
0-
0&!
02
0/
#272000
b11100100001101011011010111000110 #
b0 "
0T
0q
04
#282000
b10100110101111 !
b111101000011011 "
1T
1S
1Q
1P
1K
1I
1H
1G
1F
1D
09!
1C
0U!
0T!
1'!
1B
0B!
0@!
1!!
1A
1?
1=
1<
19
17
10!
0R!
0O!
1Q!
1.!
1,
1y
1x
1<!
1}
1#!
11
1&
1(
1v
1+
1~
10
1)!
1/
1-
1/!
1-!
0L!
0I!
1J!
0&
#292000
b1000100000000 !
b1000100010001 "
0S
0Q
1L
0?!
0>!
0K
0I
0G
1R!
1O!
0Q!
0.!
0F
1L!
1I!
0J!
0D
1U!
1T!
0'!
1B!
1@!
0!!
19!
0C
0B
0A
0?
0=
09
18
0P!
1Q!
1.!
08!
07
1P!
0Q!
0.!
0(
0y
0x
0<!
0}
14
0#!
01
1&
11!
1'
0/!
0-!
0v
0+
0,
1u
0)!
1v
1+
0&
0/
0-
#302000
b1000000100010110 !
b1110011001110 "
0T
1S
1R
1Q
0P
1N
1M
0L
1?!
1>!
1J
1I
1C
1B
1@
08
18!
15
1,!
1*!
1(
00!
1%!
0A!
1!!
1:!
1(!
0S!
1'!
0B!
0@!
14!
13!
16!
1*
1,
0u
1y
1x
1{
1.
1$!
1"!
04
1-
0v
0+
1)
0%!
1A!
01!
0'
1%
1&!
12
#307000
b100010010000010 !
b11101111001101 "
1T
0S
1S!
0'!
1B!
1@!
0!!
1L
0?!
0>!
1K
0J
1G
0B
0@
1=
0<
1?!
1>!
1:
16
05
0,!
0*!
1/!
1-!
15!
0y
0x
0~
00
11!
1'
1v
1+
1)!
1#!
11
14
0-
1&
0%
#315000
b1000100101000011 !
b1111111111111111 "
1S
0S!
1'!
1P
1O
1J
0N!
0G!
12!
1F
0L!
0I!
1J!
1E
1D
0U!
0T!
09!
1>
0=
1<
0?!
0>!
0:
19
06
15
1,!
1*!
0`!
0^!
1$
0/!
0-!
1L!
1I!
0J!
04!
03!
05!
1N!
1G!
02!
0,
1u
0\!
0Y!
1[!
17!
1y
1x
1z
0M!
0D!
1E!
1w
04
0:!
0(!
1S!
0)
1/
1~
10
1%!
0A!
1!!
0&!
02
0#!
01
0{
0.
0v
0+
15!
0N!
0G!
12!
06!
0*
1)
#325000
b1010101111001101 !
b0 "
0T
1U!
1T!
0'!
19!
0S
0R
1A!
0!!
0Q
0P
0O
0N
1M!
1D!
0E!
0w
0M
0L
1?!
1>!
0K
1\!
1Y!
0[!
07!
0J
1N!
1G!
02!
0I
0H
0G
0F
0E
1`!
1^!
0$
0C
1B
1A
1=
1;
17
10!
1%
0&
0(
14!
13!
16!
1*
1v
1+
05!
1,
1{
1.
1-
0/
0~
00
1&!
12
1#!
11
0)!
14
06!
0*
#335000
b0 !
b1001000110100 "
1R
0A!
1!!
1P
1O
1K
0\!
0Y!
1[!
17!
1H
0D
0B
0A
0>
0=
0<
0;
09
07
05
0,!
0*!
00!
04!
03!
0u
1\!
1Y!
0[!
07!
0,
0y
0x
0z
0$!
0"!
0%!
1A!
0!!
04
1(
1/
1~
10
0#!
01
0{
0.
0-
0)
01!
0'
0%
#345000
b1000100010001 !
b1110111010101010 "
1S
0R
1Q
0P
1M
1J
1I
0H
1G
1F
1E
1D
1@
1<
18
1,
14
1%
1&
11!
1'
14!
13!
16!
1*
1y
1x
1$!
1"!
0&!
02
1)!
1#!
11
1-
1)
#355000
b101010101010101 !
b1010101010101010 "
0J
0F
1B
1>
1:
16
1/!
1-!
15!
1z
1%!
1&!
12
1{
1.
#365000
b1000000001010001 !
b1000000010000110 "
1R
0A!
1!!
0Q
0O
0K
0I
0G
0B
0<
0:
08
06
15
1,!
1*!
0`!
0^!
1$
0/!
0-!
0(
05!
0,
0%!
1A!
0!!
01!
0'
04!
03!
0v
0+
0/
0$!
0"!
0#!
01
0)
06!
0*
0&
0%
#370000
b1111101011011100 !
b11011100 "
0S
1Q
1P
0=!
0;!
1N
0M!
0D!
1E!
1w
0E
1`!
1^!
0$
0D
1B
1A
1=
1;
19
18
17
16
1/!
1-!
10!
1(
14!
13!
1u
0y
0x
1%!
0A!
1!!
04
1%
0{
0.
0~
00
1<!
1}
0)!
1/
0&!
02
1#!
11
1v
1+
1)
11!
1'
1&
#378000
b100000010010110 !
b10000001001000 "
0R
1A!
0!!
0P
1=!
1;!
0M
1G
0R!
0O!
1Q!
1.!
0K!
0H!
1J!
1C
0A
0>
0;
09
08
07
05
0,!
0*!
00!
1R!
1O!
0Q!
0.!
1K!
1H!
0J!
0(
04!
03!
0u
0z
1M!
1D!
0E!
0w
1$!
1"!
1:!
1(!
1y
1x
1~
10
0<!
0}
1&!
12
0/
1)!
1{
1.
0v
0+
0)
0%
#388000
b1000000100100 !
b1000000110010010 "
1S
0S!
1'!
0B!
0@!
1!!
0Q
1P
0=!
0;!
0N
1M
1L
0G
1E
0C
0@
1=!
1;!
1?
0=
18
06
0/!
0-!
1(
0:!
0(!
1S!
0'!
1B!
1@!
0!!
1%
01!
0'
1,
0{
0.
1<!
1}
0$!
0"!
0#!
01
1/
0&
#398000
b0 !
b1 "
1T
0S
0P
0M
0L
0E
0B
0?
08
0(
0<!
0}
0%!
0%
0,
0y
0x
0~
00
0)!
14
0-
0&!
02
0/
#408000
b11100100001101011011010111000100 #
b0 "
0T
0s
0Y!
1[!
17!
15!
04
16!
1*
#418000
b10100110101111 !
b111101000011011 "
1T
1S
1Q
1P
1K
1I
1H
1G
1F
1D
09!
1C
0U!
0T!
1'!
1B
0B!
0@!
1!!
1A
1?
1=
1<
19
17
10!
0R!
0O!
1Q!
1.!
1,
1y
1x
1<!
1}
1#!
11
1&
1(
1v
1+
1~
10
1)!
1/
1-
1/!
1-!
0L!
0I!
1J!
0&
#428000
b1000100000000 !
b1000100010001 "
0S
0Q
1L
0?!
0>!
0K
0I
0G
1R!
1O!
0Q!
0.!
0F
1L!
1I!
0J!
0D
1U!
1T!
0'!
1B!
1@!
0!!
19!
0C
0B
0A
0?
0=
09
18
0P!
1Q!
1.!
08!
07
1P!
0Q!
0.!
0(
0y
0x
0<!
0}
14
0#!
01
1&
11!
1'
0/!
0-!
0v
0+
0,
1u
0)!
1v
1+
0&
0/
0-
#438000
b1000000100010110 !
b1110011001110 "
0T
1S
1R
1Q
0P
1N
1M
0L
1?!
1>!
1J
0N!
0G!
12!
1I
1C
1B
1@
08
18!
15
1,!
1*!
1(
00!
1%!
0A!
1!!
1:!
1(!
0S!
1'!
0B!
0@!
14!
13!
06!
0*
1,
0u
1y
1x
1{
1.
1$!
1"!
04
1-
0v
0+
0%!
1A!
01!
0'
1%
1&!
12
#443000
b100010010000010 !
b11101111001101 "
1T
0S
1S!
0'!
1B!
1@!
0!!
1L
0?!
0>!
1K
0J
1N!
1G!
02!
1G
0B
0@
1=
0<
1?!
1>!
1:
0F!
12!
16
05
0,!
0*!
1/!
1-!
05!
0y
0x
0~
00
11!
1'
1v
1+
1)!
1#!
11
14
0-
1&
0%
#451000
b1000100101000011 !
b1111111111111111 "
1S
0S!
1'!
1P
1O
1J
1F
0L!
0I!
1J!
1E
1D
0U!
0T!
09!
1>
0=
1<
0?!
0>!
0:
1F!
02!
19
06
15
1,!
1*!
0`!
0^!
1$
0/!
0-!
1L!
1I!
0J!
04!
03!
15!
0N!
0G!
12!
1)
0,
1u
0\!
1y
1x
1z
0M!
0D!
1E!
1w
04
0:!
0(!
1S!
1/
1~
10
1%!
0A!
1!!
0&!
02
0#!
01
0{
0.
0v
0+
#461000
b1010101111001101 !
b0 "
0T
1U!
1T!
0'!
19!
0S
0R
1A!
0!!
0Q
0P
0O
0N
1M!
1D!
0E!
0w
0M
0L
1?!
1>!
0K
1\!
0J
1N!
1G!
02!
0I
0H
0G
0F
0E
1`!
1^!
0$
0C
1B
1A
1=
1;
17
10!
1%
0&
0(
14!
13!
16!
1*
1v
1+
1,
1{
1.
1-
0/
0~
00
1&!
12
1#!
11
0)!
14
#471000
b0 !
b1001000110100 "
1R
0A!
1!!
1P
1O
1K
0\!
1H
0D
0B
0A
0>
0=
0<
0;
09
07
05
0,!
0*!
00!
04!
03!
0u
1\!
0,
0y
0x
0z
0$!
0"!
0%!
1A!
0!!
04
1(
1/
1~
10
0#!
01
0{
0.
0-
0)
01!
0'
0%
#481000
b1000100010001 !
b1110111010101010 "
1S
0R
1Q
0P
1M
1J
0N!
0G!
12!
1I
0H
1G
1F
1E
1D
1@
1<
18
1,
14
1%
1&
11!
1'
14!
13!
06!
0*
1y
1x
1$!
1"!
0&!
02
1)!
1#!
11
1-
#491000
b101010101010101 !
b1010101010101010 "
0J
1N!
1G!
02!
0F
1B
1>
1:
0F!
12!
16
1/!
1-!
05!
1z
1%!
1&!
12
1{
1.
#501000
b1000000001010001 !
b1000000010000110 "
1R
0A!
1!!
0Q
0O
0K
0I
0G
0B
0<
0:
1F!
02!
08
06
15
1,!
1*!
0`!
0^!
1$
0/!
0-!
0(
15!
1)
0,
0%!
1A!
0!!
01!
0'
04!
03!
0v
0+
0/
0$!
0"!
0#!
01
0)
16!
1*
0&
0%
#506000
b1111101011011100 !
b11011100 "
0S
1Q
1P
0=!
0;!
1N
0M!
0D!
1E!
1w
0E
1`!
1^!
0$
0D
1B
1A
1=
1;
19
18
17
16
1/!
1-!
10!
1(
14!
13!
1u
0y
0x
1%!
0A!
1!!
04
1%
0{
0.
0~
00
1<!
1}
0)!
1/
0&!
02
1#!
11
1v
1+
1)
11!
1'
1&
#514000
b100000010010110 !
b10000001001000 "
0R
1A!
0!!
0P
1=!
1;!
0M
1G
0R!
0O!
1Q!
1.!
0K!
0H!
1J!
1C
0A
0>
0;
09
08
07
05
0,!
0*!
00!
1R!
1O!
0Q!
0.!
1K!
1H!
0J!
0(
04!
03!
0u
0z
1M!
1D!
0E!
0w
1$!
1"!
1:!
1(!
1y
1x
1~
10
0<!
0}
1&!
12
0/
1)!
1{
1.
0v
0+
0)
0%
#524000
b1000000100100 !
b1000000110010010 "
1S
0S!
1'!
0B!
0@!
1!!
0Q
1P
0=!
0;!
0N
1M
1L
0G
1E
0C
0@
1=!
1;!
1?
0=
18
06
0/!
0-!
1(
0:!
0(!
1S!
0'!
1B!
1@!
0!!
1%
01!
0'
1,
0{
0.
1<!
1}
0$!
0"!
0#!
01
1/
0&
#534000
b0 !
b1 "
1T
0S
0P
0M
0L
0E
0B
0?
08
0(
0<!
0}
0%!
0%
0,
0y
0x
0~
00
0)!
14
0-
0&!
02
0/
#544000
b11100100001101011011010111000000 #
b0 "
0T
0r
04
#554000
b10100110101111 !
b111101000011011 "
1T
1S
1Q
1P
1K
1I
1H
1G
1F
1D
09!
1C
0U!
0T!
1'!
1B
0B!
0@!
1!!
1A
1?
1=
1<
19
17
10!
0R!
0O!
1Q!
1.!
1,
1y
1x
1<!
1}
1#!
11
1&
1(
1v
1+
1~
10
1)!
1/
1-
1/!
1-!
0L!
0I!
1J!
0&
#564000
b1000100000000 !
b1000100010001 "
0S
0Q
1L
0?!
0>!
0K
0I
0G
1R!
1O!
0Q!
0.!
0F
1L!
1I!
0J!
0D
1U!
1T!
0'!
1B!
1@!
0!!
19!
0C
0B
0A
0?
0=
09
18
0P!
1Q!
1.!
08!
07
1P!
0Q!
0.!
0(
0y
0x
0<!
0}
14
0#!
01
1&
11!
1'
0/!
0-!
0v
0+
0,
1u
0)!
1v
1+
0&
0/
0-
#574000
b1000000100010110 !
b1110011001110 "
0T
1S
1R
1Q
0P
1N
1M
0L
1?!
1>!
1J
0N!
0G!
12!
1I
1C
1B
1@
08
18!
15
1,!
1*!
1(
00!
1%!
0A!
1!!
1:!
1(!
0S!
1'!
0B!
0@!
14!
06!
0*
1)
1,
0u
1y
1x
1{
1.
1$!
1"!
04
1-
0v
0+
0%!
1A!
01!
0'
1%
1&!
12
