lockednetlistsimulation/partial_key_simulation_random/64aor/lower_part_or_ripple_carry_adder/sim/lower_part_or_ripple_carry_adder32_gatesim.vcd
$date
	Thu Oct  1 11:06:28 2020
$end
$version
	ModelSim Version 6.6d
$end
$timescale
	1ps
$end
$scope module lower_part_or_ripple_carry_adder32_tb $end
$var reg 32 ! add1_i [31:0] $end
$var reg 32 " add2_i [31:0] $end
$var reg 64 # keyinput [63:0] $end
$var wire 1 $ result_o [32] $end
$var wire 1 % result_o [31] $end
$var wire 1 & result_o [30] $end
$var wire 1 ' result_o [29] $end
$var wire 1 ( result_o [28] $end
$var wire 1 ) result_o [27] $end
$var wire 1 * result_o [26] $end
$var wire 1 + result_o [25] $end
$var wire 1 , result_o [24] $end
$var wire 1 - result_o [23] $end
$var wire 1 . result_o [22] $end
$var wire 1 / result_o [21] $end
$var wire 1 0 result_o [20] $end
$var wire 1 1 result_o [19] $end
$var wire 1 2 result_o [18] $end
$var wire 1 3 result_o [17] $end
$var wire 1 4 result_o [16] $end
$var wire 1 5 result_o [15] $end
$var wire 1 6 result_o [14] $end
$var wire 1 7 result_o [13] $end
$var wire 1 8 result_o [12] $end
$var wire 1 9 result_o [11] $end
$var wire 1 : result_o [10] $end
$var wire 1 ; result_o [9] $end
$var wire 1 < result_o [8] $end
$var wire 1 = result_o [7] $end
$var wire 1 > result_o [6] $end
$var wire 1 ? result_o [5] $end
$var wire 1 @ result_o [4] $end
$var wire 1 A result_o [3] $end
$var wire 1 B result_o [2] $end
$var wire 1 C result_o [1] $end
$var wire 1 D result_o [0] $end
$scope module loarca $end
$var wire 1 E add1_i [31] $end
$var wire 1 F add1_i [30] $end
$var wire 1 G add1_i [29] $end
$var wire 1 H add1_i [28] $end
$var wire 1 I add1_i [27] $end
$var wire 1 J add1_i [26] $end
$var wire 1 K add1_i [25] $end
$var wire 1 L add1_i [24] $end
$var wire 1 M add1_i [23] $end
$var wire 1 N add1_i [22] $end
$var wire 1 O add1_i [21] $end
$var wire 1 P add1_i [20] $end
$var wire 1 Q add1_i [19] $end
$var wire 1 R add1_i [18] $end
$var wire 1 S add1_i [17] $end
$var wire 1 T add1_i [16] $end
$var wire 1 U add1_i [15] $end
$var wire 1 V add1_i [14] $end
$var wire 1 W add1_i [13] $end
$var wire 1 X add1_i [12] $end
$var wire 1 Y add1_i [11] $end
$var wire 1 Z add1_i [10] $end
$var wire 1 [ add1_i [9] $end
$var wire 1 \ add1_i [8] $end
$var wire 1 ] add1_i [7] $end
$var wire 1 ^ add1_i [6] $end
$var wire 1 _ add1_i [5] $end
$var wire 1 ` add1_i [4] $end
$var wire 1 a add1_i [3] $end
$var wire 1 b add1_i [2] $end
$var wire 1 c add1_i [1] $end
$var wire 1 d add1_i [0] $end
$var wire 1 e add2_i [31] $end
$var wire 1 f add2_i [30] $end
$var wire 1 g add2_i [29] $end
$var wire 1 h add2_i [28] $end
$var wire 1 i add2_i [27] $end
$var wire 1 j add2_i [26] $end
$var wire 1 k add2_i [25] $end
$var wire 1 l add2_i [24] $end
$var wire 1 m add2_i [23] $end
$var wire 1 n add2_i [22] $end
$var wire 1 o add2_i [21] $end
$var wire 1 p add2_i [20] $end
$var wire 1 q add2_i [19] $end
$var wire 1 r add2_i [18] $end
$var wire 1 s add2_i [17] $end
$var wire 1 t add2_i [16] $end
$var wire 1 u add2_i [15] $end
$var wire 1 v add2_i [14] $end
$var wire 1 w add2_i [13] $end
$var wire 1 x add2_i [12] $end
$var wire 1 y add2_i [11] $end
$var wire 1 z add2_i [10] $end
$var wire 1 { add2_i [9] $end
$var wire 1 | add2_i [8] $end
$var wire 1 } add2_i [7] $end
$var wire 1 ~ add2_i [6] $end
$var wire 1 !! add2_i [5] $end
$var wire 1 "! add2_i [4] $end
$var wire 1 #! add2_i [3] $end
$var wire 1 $! add2_i [2] $end
$var wire 1 %! add2_i [1] $end
$var wire 1 &! add2_i [0] $end
$var wire 1 '! keyinput [63] $end
$var wire 1 (! keyinput [62] $end
$var wire 1 )! keyinput [61] $end
$var wire 1 *! keyinput [60] $end
$var wire 1 +! keyinput [59] $end
$var wire 1 ,! keyinput [58] $end
$var wire 1 -! keyinput [57] $end
$var wire 1 .! keyinput [56] $end
$var wire 1 /! keyinput [55] $end
$var wire 1 0! keyinput [54] $end
$var wire 1 1! keyinput [53] $end
$var wire 1 2! keyinput [52] $end
$var wire 1 3! keyinput [51] $end
$var wire 1 4! keyinput [50] $end
$var wire 1 5! keyinput [49] $end
$var wire 1 6! keyinput [48] $end
$var wire 1 7! keyinput [47] $end
$var wire 1 8! keyinput [46] $end
$var wire 1 9! keyinput [45] $end
$var wire 1 :! keyinput [44] $end
$var wire 1 ;! keyinput [43] $end
$var wire 1 <! keyinput [42] $end
$var wire 1 =! keyinput [41] $end
$var wire 1 >! keyinput [40] $end
$var wire 1 ?! keyinput [39] $end
$var wire 1 @! keyinput [38] $end
$var wire 1 A! keyinput [37] $end
$var wire 1 B! keyinput [36] $end
$var wire 1 C! keyinput [35] $end
$var wire 1 D! keyinput [34] $end
$var wire 1 E! keyinput [33] $end
$var wire 1 F! keyinput [32] $end
$var wire 1 G! keyinput [31] $end
$var wire 1 H! keyinput [30] $end
$var wire 1 I! keyinput [29] $end
$var wire 1 J! keyinput [28] $end
$var wire 1 K! keyinput [27] $end
$var wire 1 L! keyinput [26] $end
$var wire 1 M! keyinput [25] $end
$var wire 1 N! keyinput [24] $end
$var wire 1 O! keyinput [23] $end
$var wire 1 P! keyinput [22] $end
$var wire 1 Q! keyinput [21] $end
$var wire 1 R! keyinput [20] $end
$var wire 1 S! keyinput [19] $end
$var wire 1 T! keyinput [18] $end
$var wire 1 U! keyinput [17] $end
$var wire 1 V! keyinput [16] $end
$var wire 1 W! keyinput [15] $end
$var wire 1 X! keyinput [14] $end
$var wire 1 Y! keyinput [13] $end
$var wire 1 Z! keyinput [12] $end
$var wire 1 [! keyinput [11] $end
$var wire 1 \! keyinput [10] $end
$var wire 1 ]! keyinput [9] $end
$var wire 1 ^! keyinput [8] $end
$var wire 1 _! keyinput [7] $end
$var wire 1 `! keyinput [6] $end
$var wire 1 a! keyinput [5] $end
$var wire 1 b! keyinput [4] $end
$var wire 1 c! keyinput [3] $end
$var wire 1 d! keyinput [2] $end
$var wire 1 e! keyinput [1] $end
$var wire 1 f! keyinput [0] $end
$var wire 1 $ result_o [32] $end
$var wire 1 % result_o [31] $end
$var wire 1 & result_o [30] $end
$var wire 1 ' result_o [29] $end
$var wire 1 ( result_o [28] $end
$var wire 1 ) result_o [27] $end
$var wire 1 * result_o [26] $end
$var wire 1 + result_o [25] $end
$var wire 1 , result_o [24] $end
$var wire 1 - result_o [23] $end
$var wire 1 . result_o [22] $end
$var wire 1 / result_o [21] $end
$var wire 1 0 result_o [20] $end
$var wire 1 1 result_o [19] $end
$var wire 1 2 result_o [18] $end
$var wire 1 3 result_o [17] $end
$var wire 1 4 result_o [16] $end
$var wire 1 5 result_o [15] $end
$var wire 1 6 result_o [14] $end
$var wire 1 7 result_o [13] $end
$var wire 1 8 result_o [12] $end
$var wire 1 9 result_o [11] $end
$var wire 1 : result_o [10] $end
$var wire 1 ; result_o [9] $end
$var wire 1 < result_o [8] $end
$var wire 1 = result_o [7] $end
$var wire 1 > result_o [6] $end
$var wire 1 ? result_o [5] $end
$var wire 1 @ result_o [4] $end
$var wire 1 A result_o [3] $end
$var wire 1 B result_o [2] $end
$var wire 1 C result_o [1] $end
$var wire 1 D result_o [0] $end
$var wire 1 g! xenc9 $end
$var wire 1 h! n102 $end
$var wire 1 i! xenc46 $end
$var wire 1 j! n103 $end
$var wire 1 k! xenc19 $end
$var wire 1 l! xenc33 $end
$var wire 1 m! xenc0 $end
$var wire 1 n! xenc17 $end
$var wire 1 o! n114 $end
$var wire 1 p! xenc6 $end
$var wire 1 q! xenc13 $end
$var wire 1 r! xenc29 $end
$var wire 1 s! n122 $end
$var wire 1 t! n126 $end
$var wire 1 u! xenc8 $end
$var wire 1 v! xenc48 $end
$var wire 1 w! n130 $end
$var wire 1 x! xenc35 $end
$var wire 1 y! n138 $end
$var wire 1 z! xenc24 $end
$var wire 1 {! xenc53 $end
$var wire 1 |! n150 $end
$var wire 1 }! xenc42 $end
$var wire 1 ~! xenc12 $end
$var wire 1 !" xenc57 $end
$var wire 1 "" xenc62 $end
$var wire 1 #" xenc15 $end
$var wire 1 $" n162 $end
$var wire 1 %" xenc40 $end
$var wire 1 &" xenc49 $end
$var wire 1 '" n174 $end
$var wire 1 (" n178 $end
$var wire 1 )" xenc55 $end
$var wire 1 *" xenc54 $end
$var wire 1 +" n183 $end
$var wire 1 ," n182 $end
$var wire 1 -" xenc25 $end
$var wire 1 ." xenc20 $end
$var wire 1 /" n187 $end
$var wire 1 0" n186 $end
$var wire 1 1" n190 $end
$var wire 1 2" xenc18 $end
$var wire 1 3" n191 $end
$var wire 1 4" n199 $end
$var wire 1 5" n201 $end
$var wire 1 6" n198 $end
$var wire 1 7" n139 $end
$var wire 1 8" xenc30 $end
$var wire 1 9" xenc60 $end
$var wire 1 :" n205 $end
$var wire 1 ;" n200 $end
$var wire 1 <" xenc21 $end
$var wire 1 =" n146 $end
$var wire 1 >" n135 $end
$var wire 1 ?" n134 $end
$var wire 1 @" n208 $end
$var wire 1 A" n203 $end
$var wire 1 B" n202 $end
$var wire 1 C" n204 $end
$var wire 1 D" n115 $end
$var wire 1 E" n155 $end
$var wire 1 F" n154 $end
$var wire 1 G" xenc39 $end
$var wire 1 H" xenc47 $end
$var wire 1 I" n143 $end
$var wire 1 J" n142 $end
$var wire 1 K" n211 $end
$var wire 1 L" n206 $end
$var wire 1 M" n207 $end
$var wire 1 N" xenc37 $end
$var wire 1 O" n119 $end
$var wire 1 P" n118 $end
$var wire 1 Q" xenc1 $end
$var wire 1 R" n213 $end
$var wire 1 S" n209 $end
$var wire 1 T" n210 $end
$var wire 1 U" xenc45 $end
$var wire 1 V" n170 $end
$var wire 1 W" n111 $end
$var wire 1 X" n110 $end
$var wire 1 Y" n159 $end
$var wire 1 Z" xenc31 $end
$var wire 1 [" n158 $end
$var wire 1 \" n212 $end
$var wire 1 ]" n167 $end
$var wire 1 ^" n166 $end
$var wire 1 _" n107 $end
$var wire 1 `" xenc26 $end
$var wire 1 a" n106 $end
$var wire 1 b" n214 $end
$var wire 1 c" n215 $end
$var wire 1 d" xenc5 $end
$var wire 1 e" n188 $end
$var wire 1 f" xenc28 $end
$var wire 1 g" xenc51 $end
$var wire 1 h" n184 $end
$var wire 1 i" n175 $end
$var wire 1 j" xenc3 $end
$var wire 1 k" xenc32 $end
$var wire 1 l" n196 $end
$var wire 1 m" xenc43 $end
$var wire 1 n" xenc14 $end
$var wire 1 o" n216 $end
$var wire 1 p" n194 $end
$var wire 1 q" n193 $end
$var wire 1 r" n180 $end
$var wire 1 s" n185 $end
$var wire 1 t" xenc2 $end
$var wire 1 u" n104 $end
$var wire 1 v" n109 $end
$var wire 1 w" n108 $end
$var wire 1 x" n197 $end
$var wire 1 y" n156 $end
$var wire 1 z" n112 $end
$var wire 1 {" n113 $end
$var wire 1 |" n195 $end
$var wire 1 }" n101 $end
$var wire 1 ~" xenc41 $end
$var wire 1 !# xenc50 $end
$var wire 1 "# xenc58 $end
$var wire 1 ## n116 $end
$var wire 1 $# n117 $end
$var wire 1 %# n128 $end
$var wire 1 &# n152 $end
$var wire 1 '# n160 $end
$var wire 1 (# n164 $end
$var wire 1 )# xenc16 $end
$var wire 1 *# xenc56 $end
$var wire 1 +# n132 $end
$var wire 1 ,# n133 $end
$var wire 1 -# n131 $end
$var wire 1 .# xenc11 $end
$var wire 1 /# n169 $end
$var wire 1 0# xenc4 $end
$var wire 1 1# n165 $end
$var wire 1 2# n163 $end
$var wire 1 3# n120 $end
$var wire 1 4# n124 $end
$var wire 1 5# n136 $end
$var wire 1 6# n125 $end
$var wire 1 7# n123 $end
$var wire 1 8# n129 $end
$var wire 1 9# n127 $end
$var wire 1 :# xenc34 $end
$var wire 1 ;# n141 $end
$var wire 1 <# n140 $end
$var wire 1 =# n168 $end
$var wire 1 ># n176 $end
$var wire 1 ?# n144 $end
$var wire 1 @# n145 $end
$var wire 1 A# xenc22 $end
$var wire 1 B# n173 $end
$var wire 1 C# n171 $end
$var wire 1 D# n172 $end
$var wire 1 E# xenc23 $end
$var wire 1 F# n181 $end
$var wire 1 G# n179 $end
$var wire 1 H# n148 $end
$var wire 1 I# n149 $end
$var wire 1 J# n147 $end
$var wire 1 K# xenc36 $end
$var wire 1 L# xenc38 $end
$var wire 1 M# xenc63 $end
$var wire 1 N# xenc59 $end
$var wire 1 O# n105 $end
$var wire 1 P# xenc7 $end
$var wire 1 Q# xenc27 $end
$var wire 1 R# xenc10 $end
$var wire 1 S# xenc52 $end
$var wire 1 T# xenc61 $end
$var wire 1 U# xenc44 $end
$var wire 1 V# n151 $end
$var wire 1 W# n157 $end
$var wire 1 X# n192 $end
$var wire 1 Y# n189 $end
$var wire 1 Z# n121 $end
$var wire 1 [# n137 $end
$var wire 1 \# n153 $end
$var wire 1 ]# n161 $end
$var wire 1 ^# n177 $end
$upscope $end
$upscope $end
$enddefinitions $end
#0
$dumpvars
b0 !
b0 "
b110011111101100110100110110111101001010110110111010101111110101 #
0D
0C
0B
0A
0@
0?
0>
0=
0<
0;
0:
09
08
07
06
05
04
03
02
01
00
0/
0.
0-
0,
0+
0*
0)
0(
0'
0&
0%
0$
0g!
0h!
0i!
0j!
0k!
0l!
0m!
0n!
0o!
0p!
0q!
0r!
0s!
0t!
0u!
0v!
0w!
0x!
0y!
0z!
0{!
0|!
0}!
0~!
0!"
0""
0#"
0$"
0%"
0&"
0'"
0("
0)"
0*"
0+"
0,"
0-"
0."
0/"
00"
01"
02"
03"
14"
15"
16"
07"
18"
09"
1:"
1;"
0<"
0="
0>"
0?"
1@"
1A"
1B"
1C"
0D"
0E"
0F"
0G"
1H"
0I"
0J"
1K"
1L"
1M"
0N"
0O"
0P"
0Q"
1R"
1S"
1T"
0U"
0V"
0W"
0X"
0Y"
1Z"
0["
1\"
0]"
0^"
0_"
1`"
0a"
1b"
1c"
0d"
1e"
0f"
0g"
1h"
0i"
1j"
0k"
1l"
1m"
1n"
0o"
0p"
1q"
1r"
1s"
1t"
1u"
1v"
1w"
1x"
1y"
1z"
1{"
1|"
0}"
1~"
1!#
1"#
1##
1$#
1%#
1&#
1'#
1(#
1)#
1*#
1+#
1,#
0-#
1.#
1/#
10#
11#
02#
13#
14#
15#
16#
07#
18#
09#
1:#
1;#
1<#
1=#
1>#
1?#
1@#
1A#
1B#
0C#
1D#
1E#
1F#
0G#
1H#
1I#
0J#
1K#
1L#
1M#
0N#
1O#
1P#
1Q#
1R#
1S#
1T#
1U#
0V#
1W#
1X#
1Y#
1Z#
1[#
1\#
1]#
1^#
1f!
0e!
1d!
0c!
1b!
1a!
1`!
1_!
1^!
1]!
0\!
1[!
0Z!
1Y!
0X!
1W!
1V!
1U!
0T!
1S!
1R!
0Q!
1P!
1O!
0N!
1M!
0L!
1K!
0J!
0I!
1H!
0G!
1F!
1E!
1D!
1C!
0B!
1A!
1@!
0?!
1>!
1=!
0<!
0;!
1:!
09!
18!
17!
06!
05!
14!
13!
02!
11!
10!
1/!
1.!
1-!
1,!
0+!
0*!
1)!
1(!
0'!
0&!
0%!
0$!
0#!
0"!
0!!
0~
0}
0|
0{
0z
0y
0x
0w
0v
0u
0t
0s
0r
0q
0p
0o
0n
0m
0l
0k
0j
0i
0h
0g
0f
0e
0d
0c
0b
0a
0`
0_
0^
0]
0\
0[
0Z
0Y
0X
0W
0V
0U
0T
0S
0R
0Q
0P
0O
0N
0M
0L
0K
0J
0I
0H
0G
0F
0E
$end
#10000
b101001101011110010010000110000 !
b1111010000110111001101010111100 "
1$!
1B
1#!
1f"
1A
1"!
1@
1!!
1?
1}
1=
1{
1y
1x
1u
1t
1s
1q
1p
1k
1i
1h
1g
1f
1`
1_
1Z
1W
0c"
1T
0\"
1S
0L"
1R
0K"
0Z"
1Q
0A"
1O
0;"
1M
06"
08"
1L
05"
1I
0C"
0H"
1G
0B"
1o!
0{"
1W"
1s!
0Z#
0Q#
1O"
1?"
1x!
1y!
1="
1{!
1F"
1~!
0\#
0U#
1V#
1Q"
1["
1""
1$"
0]#
0"#
1Y"
0y"
0)#
1E"
0&#
0T#
1^"
1%"
01#
12#
1N"
0'#
0!#
1("
11"
1n!
1&
1r!
1(
1+
1}!
10
15
1*"
18
1."
19
1h!
1i!
1;
12"
1:
17
0$"
1]#
1"#
0["
0""
0F"
0~!
1\#
1U#
1|!
0I#
1J#
1<"
0?#
1I"
1/
1-
1,
1P"
1q!
0$#
1D"
0z"
1X"
1m!
0v"
1_"
0n!
0&
1a"
1l!
0r!
0(
0o!
1{"
0}!
00
0="
0{!
1J"
1z!
1!"
11
13
1.
0/
1p!
1'
1%
#20000
b10001000000000011010001010110 !
b10001000100010010001100100011 "
1&!
1D
1%!
1C
0$!
0B
0#!
0f"
0A
0"!
0}
0=
1|
0y
0x
1w
0^#
0K#
1i"
0u
0s
0q
1l
0,#
1-#
1v!
0k
0i
1Z#
1Q#
0O"
0g
0f
1v"
0_"
1c
1b
1B
0_
1^
1g"
1>
1X
0T
1\"
0S
1'#
1!#
0Y"
1y"
1)#
0E"
1&#
1T#
0V#
0Q"
1L"
0R
1K"
1Z"
0Q
1A"
0O
1?#
0I"
1;"
0M
16"
18"
0I
1C"
1H"
1H
0M"
0G
1z"
0W"
1B"
1o!
0X"
0m!
0s!
0y!
1="
1{!
0J"
0z!
1$"
0|!
1I#
0J#
0<"
0^"
0%"
11#
02#
0N"
1,"
1)"
0a"
0l!
0+
0,
1w!
1u!
0!"
01
05
07
1'"
0."
09
1k!
1<
16
1+
0%
14
0$"
1}!
10
0="
0{!
0.
0-
03
#30000
b10000001000101100000100001110011 !
b11100110011100000000101111000 "
0&!
0D
0%!
1#!
1f"
1A
1"!
1~
0{
0w
1^#
1K#
0i"
0t
1s
1r
1q
0p
1n
1m
0l
1,#
0-#
0v!
1j
1i
1d
1D
0b
0B
1_
0Z
1Y
0X
0W
1c"
1S
0L"
1R
0K"
0Z"
1P
0@"
0H
1M"
1E
0R"
0`"
1a"
1l!
0P"
0q!
1$#
0D"
1|!
1["
1""
0W#
0*#
1E"
1$"
0]#
0"#
1Y"
0y"
0)#
0("
0,"
0)"
10"
1-"
01"
1)
1*
1,
0w!
0u!
1-
1.
1!"
11
04
0'"
0h!
0i!
0;
06
0+
02"
0:
1."
19
0*"
08
0["
0""
1W#
1*#
1F"
1~!
0\#
0U#
1V#
1Q"
0H#
1J#
1<"
1r!
1(
0o!
1%
0p!
0'
0!"
01
0|!
1="
1{!
1#"
12
1/
0}!
00
#35000
b100000001000000010000000010010 !
b11011110101011011011111011101111 "
1&!
1%!
1$!
1B
0"!
1}
1=
0|
1{
1z
1y
0s"
1+"
1x
1w
1u
1t
0s
1]#
1"#
0Y"
1y"
1)#
0E"
1o
0@#
1I"
0n
1k
1f
1e
0O#
0M#
1N#
1$
0d
0_
0^
0Y
1W
0c"
0S
1L"
0R
1K"
1Z"
0P
1H#
0J#
0<"
1@"
1O
0;"
0L
15"
1G
0B"
0E
1R"
1`"
0a"
0l!
1O#
1M#
0N#
0$
1o!
0?"
0x!
1|!
0$"
1("
0^#
0K#
1i"
00"
0-"
1s"
0+"
1n!
1&
1+
0.
0/
1J"
1z!
0F"
0~!
1\#
1U#
0V#
0Q"
14
15
1*"
18
12"
1:
1h!
0k!
0<
1i!
1;
1!"
11
0|!
1.
1'"
0,
1p!
1'
16
#43000
b10001001010000111101111010101111 !
b11011010101011011011101010101101 "
0%!
0~
0g"
0>
0z
0j
1d
1b
1a
0`
0@
1_
1]
0x"
1[
1p"
0q"
0n"
13"
1o"
1d"
1Z
0e"
1/"
1Y
0h"
0t"
1+"
1X
0r"
0E#
1G#
1k"
0>#
0W
1>#
1c"
1V
0D#
0A#
1C#
1U"
0b"
0j"
1U
0=#
0.#
1]"
0S"
1T
0(#
00#
12#
1N"
0\"
1S
0'#
0!#
1Y"
0L"
0O
1;"
1N
0<#
0:#
17"
0:"
1L
05"
1I
0C"
0H"
0G
1B"
1E
0R"
0`"
1a"
1l!
0O#
0M#
1N#
1$
0o!
1s!
0Z#
0Q#
1O"
1?"
1x!
0J"
0z!
1y!
0[#
0S#
1>"
0+#
1-#
1v!
0="
0{!
1@#
0I"
1<#
1:#
07"
1["
1""
0W#
0*#
1E"
0'"
0h!
1j!
0*
02"
0:
1k!
1<
0i!
0;
06
0#"
02
1F"
1~!
0\#
0U#
1V#
1Q"
1/
1J"
1z!
0y!
1[#
1S#
0>"
1+#
0-#
0v!
1,
0)
1P"
1q!
0$#
1D"
0p!
0'
0%
0r!
0(
1o!
0!"
01
1|!
1}!
10
1p!
1'
#53000
b10101011110011010001001000110100 !
b0 "
0&!
0$!
0#!
0!!
0}
1x"
0{
1q"
1n"
03"
0o"
0d"
1e"
0/"
1h"
1t"
0+"
1r"
1E#
0G#
0k"
0y
0x
0w
1^#
1K#
0i"
1D#
1A#
0C#
0U"
1=#
1.#
0]"
1(#
10#
02#
0N"
1'#
1!#
0Y"
0u
0t
0r
1W#
1*#
0E"
0q
1\#
1U#
0V#
0Q"
0o
0m
0k
0i
1Z#
1Q#
0O"
0h
1$#
0D"
0f
0e
1O#
1M#
0N#
0$
0d
0D
0c
0C
0a
0f"
0A
1`
1@
0]
0=
0Z
0Y
0V
1b"
1j"
0U
1S"
0S
1L"
1R
0K"
0Z"
1Q
0A"
1M
06"
08"
1K
1G
0B"
1w!
1u!
1y!
1%
0n!
0&
1r!
1(
1)
0P"
0q!
0/
1!"
11
0|!
1#"
12
04
05
17
1^"
1%"
0*"
08
0."
09
1h!
1,"
1)"
0("
0j!
0k!
0<
07
1*"
18
1i!
1;
14
0}!
00
0r!
0(
#63000
b0 !
b10010001101000101011001111000 "
1#!
1f"
1A
1"!
1!!
1~
1g"
1>
1{
0q"
0n"
13"
1o"
1d"
1z
1x
0F#
1G#
1k"
1v
1r
0W#
0*#
1E"
0&#
0T#
1V#
1Q"
1p
1o
1k
08#
19#
19"
1h
0b
0B
0`
0_
0[
0p"
1q"
1n"
03"
0o"
0d"
0X
0T
1\"
0R
1K"
1Z"
0Q
1&#
1T#
0V#
0Q"
1A"
0N
1:"
0M
16"
18"
0L
15"
0K
0I
1C"
1H"
0G
1B"
0E
1R"
1`"
0a"
0l!
0o!
0s!
0w!
0u!
18#
09#
09"
0?"
0x!
0y!
0J"
0z!
0["
0""
1W#
1*#
0E"
0^"
0%"
0,"
0)"
1F#
0G#
0k"
1r!
1(
1/
1}!
10
0F"
0~!
16
12"
1:
0!"
01
04
0.
0-
0,
0)
0p!
0'
0%
#73000
b10001000100010100010001110111 !
b11101110101010100000000000000000 "
0#!
0f"
0A
0"!
0@
0!!
0?
0~
0g"
0>
0{
0z
0x
0v
1s
0r
1q
0p
1m
1j
1i
0h
1g
1f
1e
1d
1D
1c
1C
1b
1B
1`
1@
1_
1?
1^
1g"
1>
1Z
1V
0b"
0j"
1T
0\"
1P
0@"
1L
05"
1H
0M"
1P"
1q!
1?"
1x!
1|!
1^"
1%"
1'"
11"
1%
1n!
1&
1p!
1'
1)
1*
1-
1!"
11
0#"
02
13
0*"
08
0h!
0i!
0;
14
1,
#83000
b1010101010101010101010101010101 !
b10101010101010101010101010101010 "
1%!
1#!
1f"
1A
1!!
1}
1=
1{
1y
1w
1u
0j
0f
0c
0_
1\
1X
1R
0K"
0Z"
1N
0:"
1J
04"
1F
0T"
1X"
1m!
1t!
1J"
1z!
1["
1""
1,"
1)"
1j!
15
17
1."
19
1h!
1i!
1;
1k!
1<
1*"
18
1#"
12
1.
#93000
b10000000010100011001100001100000 !
b10000000100001101011101000111110 "
1$!
1"!
0}
0=
1x
0F#
1G#
1k"
1r
0W#
0*#
1E"
0q
0o
0k
0i
0g
0d
0D
0b
0`
1_
0\
0Z
1Y
0V
1b"
1j"
1U
0S"
0R
1K"
1Z"
0L
15"
0J
14"
0H
1M"
0F
1T"
1E
0R"
0`"
1a"
1l!
0O#
0M#
1N#
1$
0X"
0m!
0P"
0q!
0t!
0?"
0x!
0["
0""
1W#
1*#
0E"
1V"
1&"
0/#
1]"
0(#
00#
12#
1N"
0'"
10"
1-"
0s"
1+"
0r"
0E#
01"
0j!
0p!
0'
0)
0+
0/
0!"
01
0*"
08
1("
0^#
0K#
1i"
07
1'"
0k!
0<
02"
0:
0."
09
0,"
0)"
1F#
05
0^"
0%"
1$"
0]#
0"#
1Y"
0,
0*
0r!
0(
0n!
0&
0%
03
1["
1""
0W#
0*#
1E"
04
1*"
18
0#"
02
1F"
1~!
1!"
11
#98000
b11111010110111000000011100100000 !
b110111000000100000010000 "
0%!
0C
0$!
0B
0#!
0f"
0A
0!!
0{
0x
0w
1^#
1K#
0i"
0u
1/#
0]"
1(#
10#
02#
0N"
0s
1]#
1"#
0Y"
1q
0\#
0U#
1V#
1Q"
0H#
1J#
1<"
1p
0I#
1n
0;#
17"
0e
1O#
1M#
0N#
0$
0^
0g"
0>
1\
1[
1p"
1Z
0Y
0X
1r"
1E#
0G#
0k"
0U
1S"
0T
1\"
1R
0K"
0Z"
1Q
0&#
0T#
0A"
1M
05#
0R#
1>"
06"
08"
1K
1I
0C"
0H"
1H
0M"
1G
0B"
1F
0T"
1X"
1m!
1o!
1P"
1q!
1s!
1w!
1u!
1?"
1x!
0F"
0~!
1\#
1U#
0V"
0&"
1,"
1)"
0("
00"
0-"
1s"
0+"
11"
1j!
1%
0.
0}!
00
0|!
1I#
1="
1{!
13
0$"
0'"
06
03
1/
1}!
10
1k!
1<
12"
1:
1."
19
0,"
0)"
1,
1+
1)
1r!
1(
1p!
1'
1n!
1&
0*"
08
#106000
b1000000100101100010000001001000 !
b100000010010000100000010010110 "
1%!
1C
1$!
1B
1}
1=
0y
1v
0r
1W#
1*#
0E"
1&#
1T#
0V#
0Q"
1H#
0J#
0<"
0p
0m
1g
0{"
1W"
0w"
1_"
0u"
0L#
1N#
1$
1a
1f"
1A
0_
0?
1^
1g"
1>
0\
0[
0p"
0Z
1W
0c"
1S
0L"
0Q
1A"
0N
1:"
0K
0I
1C"
1H"
0H
1M"
0G
1B"
0E
1u"
1L#
0N#
0$
1R"
1`"
0o!
1{"
0W"
1w"
0_"
0P"
0q!
0s!
0w!
0u!
0J"
0z!
1;#
07"
15#
1R#
0>"
1$"
1("
01"
0h!
0j!
0a"
0l!
0-
0}!
00
1#"
12
1|!
0="
0{!
16
0."
09
0/
1}!
10
0%
0k!
0<
0i!
0;
02"
0:
17
13
1.
1y!
0?"
0x!
0+
0)
0r!
0(
0,
1-
#116000
b10000001001000010000001001000 !
b10000001100100100100000010010110 "
1s
0]#
0"#
1Y"
0y"
0)#
1E"
0q
1p
0I#
1J#
1<"
0n
1m
0[#
0S#
1>"
1l
0g
1e
0S
1L"
0P
1@"
1O
0?#
1I"
0;"
0M
16"
18"
1H
0M"
0F
1T"
0X"
0m!
1P"
1q!
0y!
1[#
1S#
0>"
1J"
1z!
0|!
1I#
0J#
0<"
1?#
0I"
0$"
1]#
1"#
0Y"
1y"
1)#
0E"
1%
0p!
0'
1,
1="
1{!
0!"
01
1/
0J"
0z!
1r!
1(
0n!
0&
0.
#126000
b1 !
b11011110101011111011111011101111 "
1&!
1D
1#!
0"!
0@
1!!
1?
1~
1{
1z
1y
1x
1w
0^#
0K#
1i"
0v
1u
1t
1r
0W#
0*#
1E"
1q
0p
1o
0@#
1I"
0l
1k
1j
1i
1h
0$#
1D"
1f
1d
0a
0^
0W
1c"
0R
1K"
1Z"
0O
1;"
0H
1M"
0P"
0q!
1$#
0D"
0="
0{!
1@#
0I"
0["
0""
1W#
1*#
0E"
0("
1^#
1K#
0i"
1n!
1&
1)
1*
1+
0,
0}!
00
1!"
11
14
15
06
1*"
18
1."
19
12"
1:
1h!
1i!
1;
#136000
b110011111101100110100110110111101001010110110111010101101110101 #
b0 !
b0 "
0&!
0%!
0C
0$!
0B
0#!
0f"
0A
0!!
0?
0~
0g"
0>
0}
0=
0{
0z
0y
0x
0w
0u
0t
0s
0r
0q
0o
0m
0k
0j
0i
0h
0f
0e
0d
0D
0_!
0P#
1O"
1P"
1q!
0%
0n!
0&
0)
0*
0+
0-
0/
0!"
01
0#"
02
03
04
05
07
0*"
08
0."
09
02"
0:
0h!
0i!
0;
#146000
b101001101011110010010000110000 !
b1111010000110111001101010111100 "
1$!
1B
1#!
1f"
1A
1"!
1@
1!!
1?
1}
1=
1{
1y
1x
1u
1t
1s
1q
1p
1k
1i
1h
0$#
1D"
1g
1f
1`
1_
1Z
1W
0c"
1T
0\"
1S
0L"
1R
0K"
0Z"
1Q
0A"
1O
0;"
1M
06"
08"
1L
05"
1I
0C"
0H"
1G
0z"
1W"
0B"
1X"
1m!
0v"
1_"
1s!
0Z#
0Q#
1?"
1x!
1y!
1="
1{!
1F"
1~!
0\#
0U#
1V#
1Q"
1["
1""
1$"
0]#
0"#
1Y"
0y"
0)#
1E"
0&#
0T#
1^"
1%"
01#
12#
1N"
0'#
0!#
1("
11"
1p!
1'
0r!
0(
1+
1}!
10
15
1*"
18
1."
19
1h!
1i!
1;
12"
1:
17
0$"
1]#
1"#
0["
0""
0F"
0~!
1\#
1U#
1|!
0I#
1J#
1<"
0?#
1I"
1/
1-
1,
1a"
1l!
1%
0}!
00
0="
0{!
1J"
1z!
1!"
11
13
1.
0/
