lockednetlistsimulation/partial_key_simulation_random/32aor/almost_correct_adder/sim/almost_correct_adder16_gatesim.vcd
$date
	Fri Oct  9 10:50:36 2020
$end
$version
	ModelSim Version 6.6d
$end
$timescale
	1ps
$end
$scope module almost_correct_adder16_tb $end
$var reg 16 ! add1_i [15:0] $end
$var reg 16 " add2_i [15:0] $end
$var reg 32 # keyinput [31:0] $end
$var wire 1 $ result_o [16] $end
$var wire 1 % result_o [15] $end
$var wire 1 & result_o [14] $end
$var wire 1 ' result_o [13] $end
$var wire 1 ( result_o [12] $end
$var wire 1 ) result_o [11] $end
$var wire 1 * result_o [10] $end
$var wire 1 + result_o [9] $end
$var wire 1 , result_o [8] $end
$var wire 1 - result_o [7] $end
$var wire 1 . result_o [6] $end
$var wire 1 / result_o [5] $end
$var wire 1 0 result_o [4] $end
$var wire 1 1 result_o [3] $end
$var wire 1 2 result_o [2] $end
$var wire 1 3 result_o [1] $end
$var wire 1 4 result_o [0] $end
$scope module aca $end
$var wire 1 5 add1_i [15] $end
$var wire 1 6 add1_i [14] $end
$var wire 1 7 add1_i [13] $end
$var wire 1 8 add1_i [12] $end
$var wire 1 9 add1_i [11] $end
$var wire 1 : add1_i [10] $end
$var wire 1 ; add1_i [9] $end
$var wire 1 < add1_i [8] $end
$var wire 1 = add1_i [7] $end
$var wire 1 > add1_i [6] $end
$var wire 1 ? add1_i [5] $end
$var wire 1 @ add1_i [4] $end
$var wire 1 A add1_i [3] $end
$var wire 1 B add1_i [2] $end
$var wire 1 C add1_i [1] $end
$var wire 1 D add1_i [0] $end
$var wire 1 E add2_i [15] $end
$var wire 1 F add2_i [14] $end
$var wire 1 G add2_i [13] $end
$var wire 1 H add2_i [12] $end
$var wire 1 I add2_i [11] $end
$var wire 1 J add2_i [10] $end
$var wire 1 K add2_i [9] $end
$var wire 1 L add2_i [8] $end
$var wire 1 M add2_i [7] $end
$var wire 1 N add2_i [6] $end
$var wire 1 O add2_i [5] $end
$var wire 1 P add2_i [4] $end
$var wire 1 Q add2_i [3] $end
$var wire 1 R add2_i [2] $end
$var wire 1 S add2_i [1] $end
$var wire 1 T add2_i [0] $end
$var wire 1 U keyinput [31] $end
$var wire 1 V keyinput [30] $end
$var wire 1 W keyinput [29] $end
$var wire 1 X keyinput [28] $end
$var wire 1 Y keyinput [27] $end
$var wire 1 Z keyinput [26] $end
$var wire 1 [ keyinput [25] $end
$var wire 1 \ keyinput [24] $end
$var wire 1 ] keyinput [23] $end
$var wire 1 ^ keyinput [22] $end
$var wire 1 _ keyinput [21] $end
$var wire 1 ` keyinput [20] $end
$var wire 1 a keyinput [19] $end
$var wire 1 b keyinput [18] $end
$var wire 1 c keyinput [17] $end
$var wire 1 d keyinput [16] $end
$var wire 1 e keyinput [15] $end
$var wire 1 f keyinput [14] $end
$var wire 1 g keyinput [13] $end
$var wire 1 h keyinput [12] $end
$var wire 1 i keyinput [11] $end
$var wire 1 j keyinput [10] $end
$var wire 1 k keyinput [9] $end
$var wire 1 l keyinput [8] $end
$var wire 1 m keyinput [7] $end
$var wire 1 n keyinput [6] $end
$var wire 1 o keyinput [5] $end
$var wire 1 p keyinput [4] $end
$var wire 1 q keyinput [3] $end
$var wire 1 r keyinput [2] $end
$var wire 1 s keyinput [1] $end
$var wire 1 t keyinput [0] $end
$var wire 1 $ result_o [16] $end
$var wire 1 % result_o [15] $end
$var wire 1 & result_o [14] $end
$var wire 1 ' result_o [13] $end
$var wire 1 ( result_o [12] $end
$var wire 1 ) result_o [11] $end
$var wire 1 * result_o [10] $end
$var wire 1 + result_o [9] $end
$var wire 1 , result_o [8] $end
$var wire 1 - result_o [7] $end
$var wire 1 . result_o [6] $end
$var wire 1 / result_o [5] $end
$var wire 1 0 result_o [4] $end
$var wire 1 1 result_o [3] $end
$var wire 1 2 result_o [2] $end
$var wire 1 3 result_o [1] $end
$var wire 1 4 result_o [0] $end
$var wire 1 u n98 $end
$var wire 1 v n99 $end
$var wire 1 w xenc16 $end
$var wire 1 x xenc23 $end
$var wire 1 y xenc2 $end
$var wire 1 z n107 $end
$var wire 1 { n115 $end
$var wire 1 | xenc10 $end
$var wire 1 } n116 $end
$var wire 1 ~ n119 $end
$var wire 1 !! n120 $end
$var wire 1 "! n131 $end
$var wire 1 #! n132 $end
$var wire 1 $! n134 $end
$var wire 1 %! n135 $end
$var wire 1 &! n138 $end
$var wire 1 '! xenc12 $end
$var wire 1 (! n139 $end
$var wire 1 )! n142 $end
$var wire 1 *! n143 $end
$var wire 1 +! xenc26 $end
$var wire 1 ,! xenc0 $end
$var wire 1 -! n148 $end
$var wire 1 .! n162 $end
$var wire 1 /! n163 $end
$var wire 1 0! n166 $end
$var wire 1 1! n167 $end
$var wire 1 2! n178 $end
$var wire 1 3! n179 $end
$var wire 1 4! xenc30 $end
$var wire 1 5! n190 $end
$var wire 1 6! n195 $end
$var wire 1 7! n196 $end
$var wire 1 8! xenc7 $end
$var wire 1 9! n100 $end
$var wire 1 :! n89 $end
$var wire 1 ;! n165 $end
$var wire 1 <! n85 $end
$var wire 1 =! n158 $end
$var wire 1 >! n159 $end
$var wire 1 ?! n157 $end
$var wire 1 @! n160 $end
$var wire 1 A! n161 $end
$var wire 1 B! n111 $end
$var wire 1 C! n200 $end
$var wire 1 D! n102 $end
$var wire 1 E! n97 $end
$var wire 1 F! xenc19 $end
$var wire 1 G! n127 $end
$var wire 1 H! n169 $end
$var wire 1 I! n201 $end
$var wire 1 J! n183 $end
$var wire 1 K! n108 $end
$var wire 1 L! n194 $end
$var wire 1 M! n198 $end
$var wire 1 N! n104 $end
$var wire 1 O! n173 $end
$var wire 1 P! n170 $end
$var wire 1 Q! xenc6 $end
$var wire 1 R! xenc4 $end
$var wire 1 S! xenc24 $end
$var wire 1 T! n88 $end
$var wire 1 U! xenc25 $end
$var wire 1 V! n185 $end
$var wire 1 W! n103 $end
$var wire 1 X! xenc3 $end
$var wire 1 Y! n92 $end
$var wire 1 Z! n199 $end
$var wire 1 [! n112 $end
$var wire 1 \! n125 $end
$var wire 1 ]! xenc13 $end
$var wire 1 ^! n126 $end
$var wire 1 _! n122 $end
$var wire 1 `! n181 $end
$var wire 1 a! n180 $end
$var wire 1 b! n182 $end
$var wire 1 c! n171 $end
$var wire 1 d! xenc27 $end
$var wire 1 e! n90 $end
$var wire 1 f! xenc9 $end
$var wire 1 g! n192 $end
$var wire 1 h! n193 $end
$var wire 1 i! xenc5 $end
$var wire 1 j! n93 $end
$var wire 1 k! n105 $end
$var wire 1 l! n96 $end
$var wire 1 m! n91 $end
$var wire 1 n! n113 $end
$var wire 1 o! n110 $end
$var wire 1 p! n94 $end
$var wire 1 q! n114 $end
$var wire 1 r! n154 $end
$var wire 1 s! n155 $end
$var wire 1 t! n152 $end
$var wire 1 u! n156 $end
$var wire 1 v! xenc14 $end
$var wire 1 w! xenc18 $end
$var wire 1 x! n175 $end
$var wire 1 y! n177 $end
$var wire 1 z! n176 $end
$var wire 1 {! n188 $end
$var wire 1 |! n186 $end
$var wire 1 }! n187 $end
$var wire 1 ~! n87 $end
$var wire 1 !" n149 $end
$var wire 1 "" n150 $end
$var wire 1 #" xenc20 $end
$var wire 1 $" n151 $end
$var wire 1 %" xenc28 $end
$var wire 1 &" n129 $end
$var wire 1 '" n128 $end
$var wire 1 (" n130 $end
$var wire 1 )" n174 $end
$var wire 1 *" n147 $end
$var wire 1 +" n172 $end
$var wire 1 ," n191 $end
$var wire 1 -" n189 $end
$var wire 1 ." xenc11 $end
$var wire 1 /" xenc22 $end
$var wire 1 0" n164 $end
$var wire 1 1" xenc17 $end
$var wire 1 2" n133 $end
$var wire 1 3" xenc31 $end
$var wire 1 4" n117 $end
$var wire 1 5" n86 $end
$var wire 1 6" xenc8 $end
$var wire 1 7" n121 $end
$var wire 1 8" xenc21 $end
$var wire 1 9" n168 $end
$var wire 1 :" xenc29 $end
$var wire 1 ;" n101 $end
$var wire 1 <" n124 $end
$var wire 1 =" n118 $end
$var wire 1 >" n123 $end
$var wire 1 ?" n136 $end
$var wire 1 @" xenc15 $end
$var wire 1 A" n137 $end
$var wire 1 B" n140 $end
$var wire 1 C" n141 $end
$var wire 1 D" n144 $end
$var wire 1 E" n145 $end
$var wire 1 F" xenc1 $end
$var wire 1 G" n146 $end
$var wire 1 H" n95 $end
$var wire 1 I" n153 $end
$var wire 1 J" n184 $end
$var wire 1 K" n109 $end
$var wire 1 L" n106 $end
$var wire 1 M" n197 $end
$var wire 1 N" n202 $end
$upscope $end
$upscope $end
$enddefinitions $end
#0
$dumpvars
b0 !
b0 "
b11000010010111000001011000001 #
14
03
02
01
00
0/
0.
0-
0,
0+
0*
0)
0(
0'
0&
0%
0$
0u
0v
0w
0x
0y
0z
0{
0|
0}
0~
0!!
0"!
0#!
0$!
0%!
0&!
0'!
0(!
0)!
0*!
0+!
0,!
0-!
0.!
0/!
00!
01!
02!
03!
04!
05!
06!
07!
08!
19!
0:!
1;!
0<!
1=!
1>!
0?!
0@!
0A!
1B!
1C!
0D!
1E!
1F!
0G!
0H!
0I!
1J!
1K!
0L!
0M!
0N!
0O!
0P!
0Q!
0R!
1S!
0T!
0U!
0V!
0W!
1X!
0Y!
1Z!
1[!
0\!
0]!
0^!
0_!
0`!
1a!
1b!
0c!
0d!
0e!
1f!
0g!
1h!
0i!
1j!
1k!
0l!
0m!
1n!
0o!
0p!
1q!
1r!
1s!
0t!
0u!
1v!
1w!
1x!
0y!
1z!
1{!
1|!
1}!
0~!
1!"
1""
0#"
0$"
0%"
0&"
0'"
1("
1)"
0*"
0+"
1,"
0-"
0."
1/"
10"
11"
12"
13"
14"
15"
16"
17"
08"
19"
1:"
1;"
1<"
0="
0>"
1?"
1@"
1A"
1B"
1C"
1D"
1E"
0F"
0G"
1H"
1I"
0J"
1K"
0L"
1M"
1N"
1t
0s
0r
0q
0p
0o
1n
1m
0l
1k
0j
0i
0h
0g
0f
1e
1d
1c
0b
1a
0`
0_
1^
0]
0\
0[
0Z
1Y
1X
0W
0V
0U
0T
0S
0R
0Q
0P
0O
0N
0M
0L
0K
0J
0I
0H
0G
0F
0E
0D
0C
0B
0A
0@
0?
0>
0=
0<
0;
0:
09
08
07
06
05
$end
#10000
b10100110101111 !
b111101000011011 "
1T
1*"
1,!
04
1G"
1F"
1S
0E"
1)!
1Q
1^!
1P
1\!
1K
1c!
1I
1V!
1H
1+"
1Q!
1G
1@!
1F
1D
0N"
14
1C
0D"
1B
1>"
18"
0C"
1&!
0A"
0@"
1$!
02"
01"
1"!
1A
0?"
0("
1&"
1?
0H"
0F!
1W!
1]!
1'"
1%"
0q!
1="
1i!
0j!
1~
1p!
1_!
07"
1=
0B!
1m!
1<
0C!
1D!
19
0|!
1y!
05"
12!
0z!
0w!
1A!
0;!
10!
1<!
00"
0/"
1.!
0>!
1?!
1u!
0s!
1t!
1$"
1#"
17
0=!
1%
1&
1'
1(
1z
1x
1}
1|
1#!
1.
1*!
11
10
1/!
13!
1v
1%!
13
00
1+
0(
0&
1-
1y
1,
#20000
b1000100000000 !
b1000100010001 "
0S
1E"
17"
0Q
1?"
1("
0&"
0'"
0%"
1q!
0="
0i!
1j!
0~
0p!
1L
1H!
0J!
1e!
1d!
0b!
1`!
1L!
0h!
0f!
1g!
1."
09!
1u
1:!
0M"
16!
0K
0c!
1M"
06!
1h!
1f!
0g!
0."
1b!
0`!
0I
1|!
0y!
15"
02!
1z!
1w!
0A!
1;!
00!
0<!
10"
1/"
1>!
0G
1=!
0.!
0?!
0u!
1s!
0t!
0$"
0#"
0F
0D
1N"
04
0C
1D"
0)!
1C"
0&!
1A"
1@"
0$!
12"
11"
0"!
0B
0>"
08"
0A
0^!
0_!
0?
1H"
1F!
0W!
0]!
0=
1B!
0m!
0D!
09
0V!
18
0x!
0v!
1A!
0;!
10!
1<!
00"
0/"
1.!
0>!
1?!
1u!
07
0@!
10"
1/"
0.!
1>!
0?!
0u!
03!
0}
0|
0#!
0*!
01
10
0/!
0%
0v
0z
0x
0.
0y
0,
0-
#30000
b1000000100010110 !
b1110011001110 "
0T
0*"
0,!
14
0G"
0F"
1S
1R
1>"
18"
1Q
1^!
0P
0\!
1N
1N!
1M
0B!
1m!
1D!
0L
0H!
1J!
0e!
0d!
0L!
19!
0u
0:!
1J
1J"
1U!
1I
1V!
1P!
1C
1G"
1F"
0E"
1)!
0C"
1&!
0A"
0@"
1$!
1B
0B"
1@
1\!
02"
01"
1"!
08
1x!
1v!
0A!
1;!
00!
0<!
15
1$"
1#"
0I"
13!
0'
1/
1+!
12
11
00
15!
17!
1z
1x
0+
1}
1|
1!!
1(!
1'!
03
01
1.
1-
1y
1,
18!
1*
1)
1(
1%
#35000
b100010010000010 !
b11101111001101 "
1T
1*"
1,!
04
0D"
0S
1E"
1L
1H!
0J!
1e!
1d!
1L!
09!
1u
1:!
1K
1c!
0M"
16!
09"
10!
0h!
0f!
1g!
1."
0,"
1-"
14!
0b!
1`!
0a!
06"
12!
0J
0J"
0U!
1,"
0-"
04!
0P!
19"
00!
1a!
16"
02!
1G
1@!
0B
1B"
0@
0\!
12"
11"
0"!
1=
0K!
1L"
1w
1I!
0<
0H!
1:
1J"
1U!
0,"
1-"
14!
1P!
0a!
06"
12!
16
1u!
05
0$"
0#"
1I"
1/!
0}
0|
0y
0,
0%!
0/
1*!
11!
1v
0(
0)
1'
08!
0*
1-!
0+!
02
10
0-
1&
0%
#43000
b1000100101000011 !
b1111111111111111 "
1S
0E"
1P
1\!
02"
01"
1"!
1O
0E!
1W!
1]!
1_!
07"
1~
1J
0{!
1~!
0}!
1y!
05"
0z!
0w!
1A!
0;!
10!
1<!
00"
0/"
1.!
0>!
1?!
0r!
1t!
1$"
1#"
1F
0s!
1E
0""
1$
1D
0N"
14
1>
0[!
1{
1o!
0K"
1Y!
0Z!
0X!
0=
1K!
0I!
1J!
0e!
0d!
1b!
0`!
1a!
16"
1<
1H!
09"
0J!
1e!
1d!
0b!
1`!
0a!
06"
0:
1{!
0~!
1}!
0y!
15"
1z!
1w!
0A!
1;!
0<!
10"
1/"
0.!
1>!
0?!
1r!
19
0|!
1y!
05"
0z!
0w!
1A!
0;!
1<!
00"
0/"
1.!
0>!
1?!
0r!
06
1r!
15
0!"
05!
0z
0x
1}
1|
0!!
1%
0&
0'
1#!
1%!
0-!
13
00
1y
1,
1)
#53000
b1010101111001101 !
b0 "
0T
1N"
04
0S
1E"
17"
0~
0R
0>"
08"
1C"
0&!
1A"
1@"
0$!
12"
11"
0"!
0Q
0^!
0_!
0P
0\!
0O
1E!
0W!
0]!
0N
1[!
0{
0o!
1K"
0L"
0w
0Y!
1Z!
1X!
0M
1B!
0m!
0D!
0L
0H!
19"
1J!
0e!
0d!
1b!
0`!
1a!
16"
0L!
1h!
1f!
0g!
0."
1,"
0-"
04!
19!
0u
0:!
1M"
06!
0K
0c!
0J
0J"
0U!
0P!
0I
1|!
0y!
15"
02!
1z!
1w!
0A!
1;!
00!
0<!
10"
1/"
0.!
1>!
0?!
0u!
1s!
0t!
1!"
0H
0+"
0Q!
0G
0@!
0F
0E
1""
0$
0C
1D"
0)!
1B
1>"
18"
1A
1^!
1=
0B!
1m!
1D!
1;
1c!
17
1@!
1+!
12
0I"
0/!
03!
15!
1'
07!
1z
1x
1+
1!!
1-
0#!
0%!
11
#63000
b0 !
b1001000110100 "
1R
0B"
1&!
0A"
0@"
1$!
1P
1\!
02"
01"
1"!
1O
0E!
1W!
1]!
1_!
0<"
1="
1i!
04"
03"
1{
0j!
1~
1K
0)"
0S!
16!
1g!
1."
1`!
1T!
1R!
1H
1+"
1Q!
0D
0*"
0,!
14
0G"
0F"
0B
1B"
0&!
1A"
1@"
0$!
12"
11"
0"!
1<"
0="
0i!
14"
13"
0{
1j!
0~
0A
0^!
0_!
0>
0N!
0=
1B!
0m!
0D!
0<
1C!
0;
1)"
1S!
06!
0g!
0."
0`!
0T!
0R!
09
0V!
07
0@!
05
0$"
0#"
1I"
01!
05!
0z
0x
0}
0|
0!!
0(!
0'!
03
13!
1#!
0.
0-
1%!
1/
01
10
1(
0y
0,
0)
0'
0%
#73000
b1000100010001 !
b1110111010101010 "
1S
0R
0>"
08"
1Q
1^!
1_!
0P
0\!
0_!
1M
0B!
1m!
1J
1J"
1U!
1I
1V!
1P!
0H
0+"
0Q!
1G
1@!
1F
1E
1D
1*"
1,!
04
1G"
1F"
0E"
1)!
1@
1\!
1_!
1<
0C!
1D!
18
1+"
1Q!
1z
1x
13
0+!
02
0I"
1/!
11!
15!
17!
1}
1|
1(!
1'!
0*!
1-!
03
1+!
12
11
1-
18!
1*
1)
1'
1&
1%
1y
1,
#83000
b101010101010101 !
b1010101010101010 "
0J
0J"
0U!
0P!
0F
1B
1>"
18"
0C"
1&!
0A"
0@"
1$!
02"
01"
1"!
1>
1N!
1:
1J"
1U!
1P!
16
1u!
1!!
1*!
01
00
0/
0+!
02
1.
#93000
b1000000001010001 !
b1000000010000110 "
1R
0B"
0<"
1="
1i!
04"
03"
1{
0j!
1~
0Q
0^!
1A"
1@"
0$!
12"
11"
0"!
0_!
1<"
0="
0i!
14"
13"
0{
1j!
0~
0O
1E!
0W!
0]!
0K
0c!
0I
0V!
0P!
0G
0@!
0B
1B"
0<
1C!
0D!
0:
0J"
0U!
08
0+"
0Q!
06
0u!
15
1$"
1#"
0""
1$
1I"
0/!
03!
07!
0z
0x
01!
05!
0v
0#!
0(!
0'!
10
11
0+
0)
0'
0y
0,
08!
0*
0(
0&
0%
#98000
b1111101011011100 !
b11011100 "
0S
1E"
0)!
1C"
0&!
1Q
1^!
1P
0k!
1"!
1&"
1l!
1N
0[!
1{
1o!
0K"
1L"
1w
1Y!
0E
1""
0$
0D
0*"
0,!
14
0G"
0F"
1B
0B"
1&!
0A"
0@"
1$!
02"
01"
1A
0?"
0("
1=
0K!
1;
1c!
19
1V!
18
1+"
1Q!
17
1@!
16
1u!
1/!
11!
13!
15!
1v
0}
0|
0*!
00
13
0I"
0!!
1y
1,
0%!
1/
0-!
03
10
0.
1%
1+
1)
1(
1'
1&
#106000
b100000010010110 !
b10000001001000 "
0R
1B"
0&!
1A"
1@"
0P
1k!
0l!
0M
1K!
1G
0=!
1.!
1?!
0r!
1t!
0!"
1$
1C
1G"
1F"
0A
1?"
0$!
12"
11"
0"!
1("
0&"
0>
1[!
0{
0o!
1K"
0L"
0w
0Y!
0;
0c!
09
0V!
08
0+"
0Q!
07
1=!
0.!
0?!
1r!
0t!
1!"
0$
05
0$"
0#"
1I"
03!
05!
0v
1!!
0y
0,
0-
1(!
1'!
00
0/
1-!
0%
1}
1|
1%!
1*!
1+!
12
10
1-
13
1.
0+
0)
0(
#116000
b1000000100100 !
b1000000110010010 "
1S
0E"
1)!
0C"
1&!
0A"
0@"
1$!
02"
01"
1"!
0Q
0^!
1A"
1@"
0$!
12"
11"
0"!
1P
0k!
1"!
1&"
1l!
0N
0N!
1M
0K!
1L"
1w
1L
0C!
1I!
0J!
1e!
1d!
1L!
09!
1u
1:!
1D!
0G
0@!
1E
0C
0G"
0F"
1E"
0)!
1C"
0&!
0@
1k!
0"!
0&"
0l!
1?
0H"
0F!
1W!
1]!
0=
1K!
0L"
0w
0I!
1J!
0e!
0d!
0L!
19!
0u
0:!
18
1+"
1Q!
06
0u!
0/!
13!
1#!
0I"
01!
1z
1x
1y
1,
0!!
0(!
0'!
01
1/
0.
0'
1%
1(
0&
#126000
b0 !
b1 "
1T
1*"
1,!
04
1G"
1F"
0E"
1)!
0C"
1&!
0S
1E"
0)!
1C"
0&!
0P
0\!
0M
1B!
0m!
0D!
0L
1C!
0E
0B
0>"
08"
0?
1H"
1F!
0W!
0]!
08
0+"
0Q!
03!
0#!
0*!
1I"
0z
0x
0}
0|
0%!
0-!
0+!
02
00
0-
0y
0,
0%
0/
0(
#136000
b11000010010111000001010000001 #
b0 "
0T
0*"
0,!
14
0G"
0F"
0n
03
#146000
b10100110101111 !
b111101000011011 "
1T
1*"
1,!
04
1G"
1F"
1S
0E"
1)!
1Q
1^!
1P
1\!
1K
1c!
1I
1V!
1H
1+"
1G
1@!
1F
1D
0N"
14
1C
0D"
1B
1>"
18"
0C"
1&!
0A"
0@"
1$!
02"
01"
1"!
1A
0?"
0("
1&"
1?
0H"
0F!
1W!
1]!
1'"
1%"
0q!
1="
1i!
0j!
1~
1p!
1_!
07"
1=
0B!
1m!
1<
0C!
1D!
19
0|!
1y!
05"
12!
17
0=!
1.!
1?!
1u!
0s!
1t!
1$"
1#"
1%
1&
1(
1z
1x
1}
1|
1#!
1.
1*!
11
10
1/!
13!
1v
1%!
13
00
1+
0(
0&
1-
1y
1,
#156000
b1000100000000 !
b1000100010001 "
0S
1E"
17"
0Q
1?"
1("
0&"
0'"
0%"
1q!
0="
0i!
1j!
0~
0p!
1L
1H!
0J!
1e!
1d!
0b!
1`!
1L!
0h!
0f!
1g!
1."
09!
1u
1:!
0M"
16!
0K
0c!
1M"
06!
1h!
1f!
0g!
0."
1b!
0`!
0I
1|!
0y!
15"
02!
0G
1=!
0.!
0?!
0u!
1s!
0t!
0$"
0#"
0F
0D
1N"
04
0C
1D"
0)!
1C"
0&!
1A"
1@"
0$!
12"
11"
0"!
0B
0>"
08"
0A
0^!
0_!
0?
1H"
1F!
0W!
0]!
0=
1B!
0m!
0D!
09
0V!
18
0x!
0v!
1A!
0;!
10!
1<!
00"
0/"
1.!
0>!
1?!
1u!
07
0@!
10"
1/"
0.!
1>!
0?!
0u!
03!
1'
0}
0|
0#!
0*!
01
10
0/!
0%
0v
0z
0x
0.
0y
0,
0-
#166000
b1000000100010110 !
b1110011001110 "
0T
0*"
0,!
14
0G"
0F"
1S
1R
1>"
18"
1Q
1^!
0P
0\!
1N
1N!
1M
0B!
1m!
1D!
0L
0H!
1J!
0e!
0d!
0L!
19!
0u
0:!
1J
1J"
1U!
1I
1V!
1P!
1C
1G"
1F"
0E"
1)!
0C"
1&!
0A"
0@"
1$!
1B
0B"
1@
1\!
02"
01"
1"!
08
1x!
1v!
0A!
1;!
00!
0<!
15
1$"
1#"
0I"
13!
0'
1/
1+!
12
11
00
15!
17!
1z
1x
0+
1}
1|
1!!
1(!
1'!
03
01
1.
1-
1y
1,
18!
1*
1)
1(
1%
#171000
b100010010000010 !
b11101111001101 "
1T
1*"
1,!
04
0D"
0S
1E"
1L
1H!
0J!
1e!
1d!
1L!
09!
1u
1:!
1K
1c!
0M"
16!
0h!
0f!
1g!
1."
0,"
1-"
14!
0b!
1`!
0a!
06"
12!
0J
0J"
0U!
1,"
0-"
04!
0P!
1a!
16"
02!
1G
1@!
0B
1B"
0@
0\!
12"
11"
0"!
1=
0K!
1L"
1w
1I!
0<
0H!
1:
1J"
1U!
0,"
1-"
14!
1P!
0a!
06"
12!
16
1u!
05
0$"
0#"
1I"
1/!
0}
0|
0y
0,
0%!
0/
1*!
11!
1v
0(
0)
08!
0*
1-!
1'
0+!
02
10
0-
1&
0%
#179000
b1000100101000011 !
b1111111111111111 "
1S
0E"
1P
1\!
02"
01"
1"!
1O
0E!
1W!
1]!
1_!
07"
1~
1J
0{!
1~!
0}!
1y!
05"
1F
0s!
1t!
1$"
1#"
1E
0""
1$
1D
0N"
14
1>
0[!
1{
1o!
0K"
1Y!
0Z!
0X!
0=
1K!
0I!
1J!
0e!
0d!
1b!
0`!
1a!
16"
1<
1H!
0J!
1e!
1d!
0b!
1`!
0a!
06"
0:
1{!
0~!
1}!
0y!
15"
19
0|!
1y!
05"
06
0u!
1s!
0t!
0$"
0#"
1""
0$
15
1$"
1#"
0""
1$
05!
0z
0x
1}
1|
0!!
1#!
1%!
0-!
13
00
1y
1,
1)
#189000
b1010101111001101 !
b0 "
0T
1N"
04
0S
1E"
17"
0~
0R
0>"
08"
1C"
0&!
1A"
1@"
0$!
12"
11"
0"!
0Q
0^!
0_!
0P
0\!
0O
1E!
0W!
0]!
0N
1[!
0{
0o!
1K"
0L"
0w
0Y!
1Z!
1X!
0M
1B!
0m!
0D!
0L
0H!
1J!
0e!
0d!
1b!
0`!
1a!
16"
0L!
1h!
1f!
0g!
0."
1,"
0-"
04!
19!
0u
0:!
1M"
06!
0K
0c!
0J
0J"
0U!
0P!
0I
1|!
0y!
15"
02!
0H
0+"
0G
0@!
0F
0E
1""
0$
0C
1D"
0)!
1B
1>"
18"
1A
1^!
1=
0B!
1m!
1D!
1;
1c!
17
1@!
1+!
12
0I"
0/!
03!
15!
07!
1z
1x
1+
1!!
1-
0#!
0%!
11
0&
1%
#199000
b0 !
b1001000110100 "
1R
0B"
1&!
0A"
0@"
1$!
1P
1\!
02"
01"
1"!
1O
0E!
1W!
1]!
1_!
0<"
1="
1i!
04"
03"
1{
0j!
1~
1K
0)"
0S!
16!
1g!
1."
1`!
1T!
1R!
1H
1+"
0D
0*"
0,!
14
0G"
0F"
0B
1B"
0&!
1A"
1@"
0$!
12"
11"
0"!
1<"
0="
0i!
14"
13"
0{
1j!
0~
0A
0^!
0_!
0>
0N!
0=
1B!
0m!
0D!
0<
1C!
0;
1)"
1S!
06!
0g!
0."
0`!
0T!
0R!
09
0V!
07
0@!
05
0$"
0#"
1I"
01!
05!
0z
0x
0}
0|
0!!
0(!
0'!
03
13!
1#!
0.
0-
1%!
1/
01
10
1(
0y
0,
0)
0'
0%
#209000
b1000100010001 !
b1110111010101010 "
1S
0R
0>"
08"
1Q
1^!
1_!
0P
0\!
0_!
1M
0B!
1m!
1J
1J"
1U!
1I
1V!
1P!
0H
0+"
1G
1@!
1F
1E
1D
1*"
1,!
04
1G"
1F"
0E"
1)!
1@
1\!
1_!
1<
0C!
1D!
18
1+"
1z
1x
13
0+!
02
0I"
1/!
11!
15!
17!
1}
1|
1(!
1'!
0*!
1-!
03
1+!
12
11
1-
18!
1*
1)
1'
1&
1%
1y
1,
#219000
b101010101010101 !
b1010101010101010 "
0J
0J"
0U!
0P!
0F
1B
1>"
18"
0C"
1&!
0A"
0@"
1$!
02"
01"
1"!
1>
1N!
1:
1J"
1U!
1P!
16
1u!
1!!
1*!
01
00
0/
0+!
02
1.
#229000
b1000000001010001 !
b1000000010000110 "
1R
0B"
0<"
1="
1i!
04"
03"
1{
0j!
1~
0Q
0^!
1A"
1@"
0$!
12"
11"
0"!
0_!
1<"
0="
0i!
14"
13"
0{
1j!
0~
0O
1E!
0W!
0]!
0K
0c!
0I
0V!
0P!
0G
0@!
0B
1B"
0<
1C!
0D!
0:
0J"
0U!
08
0+"
06
0u!
15
1$"
1#"
0""
1$
1I"
0/!
03!
07!
0z
0x
01!
05!
0v
0#!
0(!
0'!
10
11
0+
0)
0'
0y
0,
08!
0*
0(
0&
0%
#234000
b1111101011011100 !
b11011100 "
0S
1E"
0)!
1C"
0&!
1Q
1^!
1P
0k!
1"!
1&"
1l!
1N
0[!
1{
1o!
0K"
1L"
1w
1Y!
0E
1""
0$
0D
0*"
0,!
14
0G"
0F"
1B
0B"
1&!
0A"
0@"
1$!
02"
01"
1A
0?"
0("
1=
0K!
1;
1c!
19
1V!
18
1+"
17
1@!
16
1u!
1/!
11!
13!
15!
1v
0}
0|
0*!
00
13
0I"
0!!
1y
1,
0%!
1/
0-!
03
10
0.
1%
1+
1)
1(
1'
1&
#242000
b100000010010110 !
b10000001001000 "
0R
1B"
0&!
1A"
1@"
0P
1k!
0l!
0M
1K!
1G
0=!
1.!
1?!
0r!
1t!
0!"
1$
1C
1G"
1F"
0A
1?"
0$!
12"
11"
0"!
1("
0&"
0>
1[!
0{
0o!
1K"
0L"
0w
0Y!
0;
0c!
09
0V!
08
0+"
07
1=!
0.!
0?!
1r!
0t!
1!"
0$
05
0$"
0#"
1I"
03!
05!
0v
1!!
0y
0,
0-
1(!
1'!
00
0/
1-!
0%
1}
1|
1%!
1*!
1+!
12
10
1-
13
1.
0+
0)
0(
#252000
b1000000100100 !
b1000000110010010 "
1S
0E"
1)!
0C"
1&!
0A"
0@"
1$!
02"
01"
1"!
0Q
0^!
1A"
1@"
0$!
12"
11"
0"!
1P
0k!
1"!
1&"
1l!
0N
0N!
1M
0K!
1L"
1w
1L
0C!
1I!
0J!
1e!
1d!
1L!
09!
1u
1:!
1D!
0G
0@!
1E
0C
0G"
0F"
1E"
0)!
1C"
0&!
0@
1k!
0"!
0&"
0l!
1?
0H"
0F!
1W!
1]!
0=
1K!
0L"
0w
0I!
1J!
0e!
0d!
0L!
19!
0u
0:!
18
1+"
06
0u!
0/!
13!
1#!
0I"
01!
1z
1x
1y
1,
0!!
0(!
0'!
01
1/
0.
0'
1%
1(
0&
#262000
b0 !
b1 "
1T
1*"
1,!
04
1G"
1F"
0E"
1)!
0C"
1&!
0S
1E"
0)!
1C"
0&!
0P
0\!
0M
1B!
0m!
0D!
0L
1C!
0E
0B
0>"
08"
0?
1H"
1F!
0W!
0]!
08
0+"
03!
0#!
0*!
1I"
0z
0x
0}
0|
0%!
0-!
0+!
02
00
0-
0y
0,
0%
0/
0(
#272000
b11000010010111000001010010001 #
b0 "
0T
0*"
0,!
14
0G"
0F"
1p
1R!
03
