lockednetlistsimulation/32xor/almost_correct_adder/sim/almost_correct_adder16_xor_enc32.v
// Verilog File 
module almost_correct_adder16_xor_enc32(add1_i,add2_i,keyinput,result_o);

input [15:0] add1_i, add2_i;
input [31:0] keyinput;


output [16:0] result_o;

wire n98, n99, n106, xenc17, xenc12, n107, n115, n116, xenc16, 
n119, n120, xenc15, n131, xenc20, n132, n134, n135, xenc2, n139, 
n142, n143, xenc9, n147, n148, n162, n163, n166, n167, n178, 
n179, n189, n190, n195, xenc26, xenc22, n196, n100, n89, n165, 
n85, xenc27, n159, n157, xenc6, n161, n111, n200, n102, xenc5, 
n95, n127, n169, xenc30, n183, n108, n201, n194, n198, xenc14, 
n104, xenc3, n173, xenc24, n172, n88, n174, n184, n185, n170, 
n103, n199, n92, n112, n125, xenc13, n122, n181, n180, n182, 
n171, xenc0, n90, n193, n192, n118, n93, n105, n96, n91, 
n113, n110, n94, n114, n154, n155, n152, xenc28, n156, n175, 
n176, n177, n188, n186, n187, n87, xenc18, n149, xenc25, xenc23, 
n151, n150, n128, n129, n130, n191, n164, xenc1, n133, n117, 
n86, n121, xenc7, n123, n168, n101, xenc19, n124, n158, n126, 
n136, xenc4, n137, n140, xenc31, n138, n141, n144, n145, xenc21, 
n146, n160, n97, n153, xenc8, xenc10, n109, n197, xenc29, xenc11, 
n202;

xor g0(result_o[9], n98, n99);
xor g1(n99, add2_i[9], add1_i[9]);
xor g2(xenc12, n106, xenc17);
xor g3(n107, add2_i[8], add1_i[8]);
xor g4(xenc16, n115, n116);
xor g5(n116, add2_i[7], add1_i[7]);
xor g6(xenc15, n119, n120);
xor g7(n120, add2_i[6], add1_i[6]);
xor g8(result_o[5], n131, xenc20);
xor g9(n132, add2_i[5], add1_i[5]);
xor g10(result_o[4], n134, n135);
xor g11(n135, add2_i[4], add1_i[4]);
xor g12(result_o[3], xenc2, n139);
xor g13(n139, add2_i[3], add1_i[3]);
xor g14(xenc9, n142, n143);
xor g15(n143, add2_i[2], add1_i[2]);
xor g16(result_o[1], n147, n148);
xor g17(n148, add2_i[1], add1_i[1]);
xor g18(result_o[14], n162, n163);
xor g19(n163, add2_i[14], add1_i[14]);
xor g20(result_o[13], n166, n167);
xor g21(n167, add2_i[13], add1_i[13]);
xor g22(result_o[12], n178, n179);
xor g23(n179, add2_i[12], add1_i[12]);
xor g24(result_o[11], n189, n190);
xor g25(n190, add2_i[11], add1_i[11]);
xor g26(xenc22, n195, xenc26);
xor g27(n196, add2_i[10], add1_i[10]);
not g28(n89, n100);
not g29(n85, n165);
nand g30(n157, xenc27, n159);
nand g31(n159, xenc6, n161);
nor g32(n102, n111, n200);
nor g33(n127, xenc5, n95);
nor g34(n183, n169, xenc30);
nor g35(n201, n108, n200);
nor g36(n100, n194, n198);
and g37(n198, xenc14, n104, xenc3);
nor g38(n165, n161, n173);
and g39(n173, xenc24, n172, n88);
not g40(n88, n174);
and g41(n170, n184, n185);
nand g42(n103, xenc5, n95);
nand g43(n194, n183, n199);
nand g44(n199, n92, xenc14);
not g45(n92, n112);
and g46(n122, n125, n103, xenc13);
nand g47(n180, xenc24, n181);
nand g48(n181, n174, n182);
nand g49(n182, n171, xenc0);
not g50(n90, n183);
nand g51(n192, n174, n193);
nand g52(n193, n171, n194);
not g53(n93, n118);
not g54(n96, n105);
not g55(n91, n111);
nand g56(n110, n112, n113);
nand g57(n113, n94, n104);
not g58(n94, n114);
nand g59(n152, n154, n155);
nand g60(n154, add1_i[14], n157);
nand g61(n155, add2_i[14], xenc28);
or g62(n156, n157, add1_i[14]);
nand g63(n161, n175, n176);
nand g64(n175, add2_i[12], add1_i[12]);
nand g65(n176, n177, n172);
nand g66(n188, add2_i[10], add1_i[10]);
or g67(n185, add2_i[11], add1_i[11]);
nand g68(n177, n186, n187);
nand g69(n186, add2_i[11], add1_i[11]);
nand g70(n187, n87, n185);
not g71(n87, xenc18);
nand g72(result_o[16], n149, xenc25);
nand g73(n149, add1_i[15], xenc23);
nand g74(n150, add2_i[15], n151);
or g75(n151, xenc23, add1_i[15]);
nor g76(n111, add2_i[7], add1_i[7]);
nor g77(n200, add2_i[8], add1_i[8]);
nor g78(n114, xenc3, n128);
and g79(n128, n129, n103);
nand g80(n129, n105, n130);
nand g81(n130, add1_i[3], n125, add2_i[3]);
or g82(n104, add2_i[6], add1_i[6]);
nand g83(n174, add1_i[9], add2_i[9]);
or g84(n171, add2_i[9], add1_i[9]);
or g85(n147, add2_i[0], add1_i[0]);
nand g86(n112, add2_i[6], add1_i[6]);
nand g87(n105, add2_i[4], add1_i[4]);
or g88(n172, add2_i[12], add1_i[12]);
or g89(n125, add2_i[4], add1_i[4]);
nand g90(n189, xenc18, n191);
nand g91(n191, n192, n184);
nand g92(n162, xenc27, n164);
nand g93(n164, n85, xenc6);
nand g94(n131, n105, xenc1);
nand g95(n133, n134, n125);
nand g96(n115, n112, n117);
nand g97(n117, n118, n104);
nand g98(n178, n86, n180);
not g99(n86, n177);
nand g100(n119, n93, n121);
nand g101(n121, add2_i[1], add1_i[1], xenc7, n123);
nand g102(n166, n165, n168);
nand g103(n168, n169, xenc24, n171, n172);
nand g104(n98, n100, n101);
nand g105(n101, xenc19, xenc14, n103, n104);
nand g106(n118, n114, n124);
nand g107(n124, add1_i[2], xenc7, add2_i[2]);
nand g108(n108, add2_i[7], add1_i[7]);
nand g109(n158, add2_i[13], add1_i[13]);
or g110(n123, add2_i[2], add1_i[2]);
or g111(n126, add2_i[3], add1_i[3]);
and g112(n169, add2_i[8], add1_i[8]);
nand g113(n134, n136, xenc4);
nand g114(n136, add2_i[3], add1_i[3]);
nand g115(n137, xenc2, xenc13);
nand g116(n138, n140, xenc31);
nand g117(n140, add2_i[2], add1_i[2]);
nand g118(n141, n142, n123);
nand g119(n142, n144, n145);
nand g120(n144, add1_i[1], n147);
nand g121(n145, add2_i[1], xenc21);
or g122(n146, n147, add1_i[1]);
or g123(n160, add2_i[13], add1_i[13]);
not g124(n95, add1_i[5]);
not g125(n97, add2_i[5]);
xnor g126(xenc8, n153, xenc23);
xnor g127(n153, add1_i[15], add2_i[15]);
or g128(n184, add2_i[10], add1_i[10]);
nand g129(n106, n108, xenc10);
nand g130(n109, n110, n91);
nand g131(n195, n174, n197);
nand g132(n197, n171, xenc29);
nand g133(result_o[0], n147, xenc11);
nand g134(n202, add2_i[0], add1_i[0]);
xor g135(xenc0, n90, keyinput[0]);
xor g136(xenc1, n133, keyinput[1]);
xnor g137(xenc2, n138, keyinput[2]);
xor g138(xenc3, n127, keyinput[3]);
xor g139(xenc4, n137, keyinput[4]);
xnor g140(xenc5, n97, keyinput[5]);
xor g141(xenc6, n160, keyinput[6]);
xnor g142(xenc7, n122, keyinput[7]);
xor g143(result_o[15], xenc8, keyinput[8]);
xor g144(result_o[2], xenc9, keyinput[9]);
xor g145(xenc10, n109, keyinput[10]);
xnor g146(xenc11, n202, keyinput[11]);
xnor g147(result_o[8], xenc12, keyinput[12]);
xnor g148(xenc13, n126, keyinput[13]);
xor g149(xenc14, n102, keyinput[14]);
xnor g150(result_o[6], xenc15, keyinput[15]);
xnor g151(result_o[7], xenc16, keyinput[16]);
xor g152(xenc17, n107, keyinput[17]);
xnor g153(xenc18, n188, keyinput[18]);
xnor g154(xenc19, n96, keyinput[19]);
xnor g155(xenc20, n132, keyinput[20]);
xor g156(xenc21, n146, keyinput[21]);
xor g157(result_o[10], xenc22, keyinput[22]);
xnor g158(xenc23, n152, keyinput[23]);
xor g159(xenc24, n170, keyinput[24]);
xor g160(xenc25, n150, keyinput[25]);
xor g161(xenc26, n196, keyinput[26]);
xnor g162(xenc27, n158, keyinput[27]);
xnor g163(xenc28, n156, keyinput[28]);
xor g164(xenc29, n89, keyinput[29]);
xor g165(xenc30, n201, keyinput[30]);
xor g166(xenc31, n141, keyinput[31]);
endmodule

lockednetlistsimulation/32xor/almost_correct_adder/sim/almost_correct_adder16_tb.v
`timescale 1ns / 1ps
//////////////////////////////////////////////////////////////////////////////////
// Company: 
// Engineer: 
// 
// Create Date: 05/05/2020 01:15:36 AM
// Design Name: 
// Module Name: Test_Bench
// Project Name: 
// Target Devices: 
// Tool Versions: 
// Description: 
// 
// Dependencies: 
// 
// Revision:
// Revision 0.01 - File Created
// Additional Comments:
// 
//////////////////////////////////////////////////////////////////////////////////


module almost_correct_adder16_tb;
reg [15:0]add1_i;
reg [15:0]add2_i;
reg [31:0]keyinput = 32'h1812B8A4;
wire [16:0]result_o;


almost_correct_adder16_xor_enc32 aca(add1_i,add2_i,keyinput,result_o);

initial begin
   $dumpfile("almost_correct_adder16_gatesim.vcd");
   $dumpvars(3,almost_correct_adder16_tb);

   
   add1_i = 16'h0000;
   add2_i = 16'h0000;
   #10
   add1_i = 16'h29AF;
   add2_i = 16'h7A1B;
   #10
   add1_i = 16'h1100;
   add2_i = 16'h1111;
   #10
   add1_i = 16'h8116;
   add2_i = 16'h1CCE;
   #5
   add1_i = 16'h4482;
   add2_i = 16'h3BCD;
   #2
   add1_i = 16'h8943;
   add2_i = 16'hFFFF;
   #10
   add1_i = 16'hABCD;
   add2_i = 16'h0000;
   #10
   add1_i = 16'h0000;
   add2_i = 16'h1234;
   #10
   add1_i = 16'h1111;
   add2_i = 16'hEEAA;
  #10
   add1_i = 16'h5555;
   add2_i = 16'hAAAA;
  #10
   add1_i = 16'h8051;
   add2_i = 16'h8086;
  #5
  add1_i = 16'hFADC;
  add2_i = 16'h00DC;
 #2
  add1_i = 16'h4096;
  add2_i = 16'h2048;
 #10
  add1_i = 16'h1024;
  add2_i = 16'h8192;
  #100
   add1_i = 16'h0000;
   add2_i = 16'h0001;
  #100
  
   $finish;
    
   
 end

initial begin

$monitor($time , " add1_i= %h, add2_i = %h, keyinput= %h, result_o = %h ",add1_i, add2_i, keyinput, result_o);
end
	
	
	
endmodule

lockednetlistsimulation/32xor/almost_correct_adder/sim/almost_correct_adder16_gatesim.vcd
$date
	Sat Sep 19 22:39:55 2020
$end
$version
	ModelSim Version 6.6d
$end
$timescale
	1ps
$end
$scope module almost_correct_adder16_tb $end
$var reg 16 ! add1_i [15:0] $end
$var reg 16 " add2_i [15:0] $end
$var reg 32 # keyinput [31:0] $end
$var wire 1 $ result_o [16] $end
$var wire 1 % result_o [15] $end
$var wire 1 & result_o [14] $end
$var wire 1 ' result_o [13] $end
$var wire 1 ( result_o [12] $end
$var wire 1 ) result_o [11] $end
$var wire 1 * result_o [10] $end
$var wire 1 + result_o [9] $end
$var wire 1 , result_o [8] $end
$var wire 1 - result_o [7] $end
$var wire 1 . result_o [6] $end
$var wire 1 / result_o [5] $end
$var wire 1 0 result_o [4] $end
$var wire 1 1 result_o [3] $end
$var wire 1 2 result_o [2] $end
$var wire 1 3 result_o [1] $end
$var wire 1 4 result_o [0] $end
$scope module aca $end
$var wire 1 5 add1_i [15] $end
$var wire 1 6 add1_i [14] $end
$var wire 1 7 add1_i [13] $end
$var wire 1 8 add1_i [12] $end
$var wire 1 9 add1_i [11] $end
$var wire 1 : add1_i [10] $end
$var wire 1 ; add1_i [9] $end
$var wire 1 < add1_i [8] $end
$var wire 1 = add1_i [7] $end
$var wire 1 > add1_i [6] $end
$var wire 1 ? add1_i [5] $end
$var wire 1 @ add1_i [4] $end
$var wire 1 A add1_i [3] $end
$var wire 1 B add1_i [2] $end
$var wire 1 C add1_i [1] $end
$var wire 1 D add1_i [0] $end
$var wire 1 E add2_i [15] $end
$var wire 1 F add2_i [14] $end
$var wire 1 G add2_i [13] $end
$var wire 1 H add2_i [12] $end
$var wire 1 I add2_i [11] $end
$var wire 1 J add2_i [10] $end
$var wire 1 K add2_i [9] $end
$var wire 1 L add2_i [8] $end
$var wire 1 M add2_i [7] $end
$var wire 1 N add2_i [6] $end
$var wire 1 O add2_i [5] $end
$var wire 1 P add2_i [4] $end
$var wire 1 Q add2_i [3] $end
$var wire 1 R add2_i [2] $end
$var wire 1 S add2_i [1] $end
$var wire 1 T add2_i [0] $end
$var wire 1 U keyinput [31] $end
$var wire 1 V keyinput [30] $end
$var wire 1 W keyinput [29] $end
$var wire 1 X keyinput [28] $end
$var wire 1 Y keyinput [27] $end
$var wire 1 Z keyinput [26] $end
$var wire 1 [ keyinput [25] $end
$var wire 1 \ keyinput [24] $end
$var wire 1 ] keyinput [23] $end
$var wire 1 ^ keyinput [22] $end
$var wire 1 _ keyinput [21] $end
$var wire 1 ` keyinput [20] $end
$var wire 1 a keyinput [19] $end
$var wire 1 b keyinput [18] $end
$var wire 1 c keyinput [17] $end
$var wire 1 d keyinput [16] $end
$var wire 1 e keyinput [15] $end
$var wire 1 f keyinput [14] $end
$var wire 1 g keyinput [13] $end
$var wire 1 h keyinput [12] $end
$var wire 1 i keyinput [11] $end
$var wire 1 j keyinput [10] $end
$var wire 1 k keyinput [9] $end
$var wire 1 l keyinput [8] $end
$var wire 1 m keyinput [7] $end
$var wire 1 n keyinput [6] $end
$var wire 1 o keyinput [5] $end
$var wire 1 p keyinput [4] $end
$var wire 1 q keyinput [3] $end
$var wire 1 r keyinput [2] $end
$var wire 1 s keyinput [1] $end
$var wire 1 t keyinput [0] $end
$var wire 1 $ result_o [16] $end
$var wire 1 % result_o [15] $end
$var wire 1 & result_o [14] $end
$var wire 1 ' result_o [13] $end
$var wire 1 ( result_o [12] $end
$var wire 1 ) result_o [11] $end
$var wire 1 * result_o [10] $end
$var wire 1 + result_o [9] $end
$var wire 1 , result_o [8] $end
$var wire 1 - result_o [7] $end
$var wire 1 . result_o [6] $end
$var wire 1 / result_o [5] $end
$var wire 1 0 result_o [4] $end
$var wire 1 1 result_o [3] $end
$var wire 1 2 result_o [2] $end
$var wire 1 3 result_o [1] $end
$var wire 1 4 result_o [0] $end
$var wire 1 u n98 $end
$var wire 1 v n99 $end
$var wire 1 w n106 $end
$var wire 1 x xenc17 $end
$var wire 1 y xenc12 $end
$var wire 1 z n107 $end
$var wire 1 { n115 $end
$var wire 1 | n116 $end
$var wire 1 } xenc16 $end
$var wire 1 ~ n119 $end
$var wire 1 !! n120 $end
$var wire 1 "! xenc15 $end
$var wire 1 #! n131 $end
$var wire 1 $! xenc20 $end
$var wire 1 %! n132 $end
$var wire 1 &! n134 $end
$var wire 1 '! n135 $end
$var wire 1 (! xenc2 $end
$var wire 1 )! n139 $end
$var wire 1 *! n142 $end
$var wire 1 +! n143 $end
$var wire 1 ,! xenc9 $end
$var wire 1 -! n147 $end
$var wire 1 .! n148 $end
$var wire 1 /! n162 $end
$var wire 1 0! n163 $end
$var wire 1 1! n166 $end
$var wire 1 2! n167 $end
$var wire 1 3! n178 $end
$var wire 1 4! n179 $end
$var wire 1 5! n189 $end
$var wire 1 6! n190 $end
$var wire 1 7! n195 $end
$var wire 1 8! xenc26 $end
$var wire 1 9! xenc22 $end
$var wire 1 :! n196 $end
$var wire 1 ;! n100 $end
$var wire 1 <! n89 $end
$var wire 1 =! n165 $end
$var wire 1 >! n85 $end
$var wire 1 ?! xenc27 $end
$var wire 1 @! n159 $end
$var wire 1 A! n157 $end
$var wire 1 B! xenc6 $end
$var wire 1 C! n161 $end
$var wire 1 D! n111 $end
$var wire 1 E! n200 $end
$var wire 1 F! n102 $end
$var wire 1 G! xenc5 $end
$var wire 1 H! n95 $end
$var wire 1 I! n127 $end
$var wire 1 J! n169 $end
$var wire 1 K! xenc30 $end
$var wire 1 L! n183 $end
$var wire 1 M! n108 $end
$var wire 1 N! n201 $end
$var wire 1 O! n194 $end
$var wire 1 P! n198 $end
$var wire 1 Q! xenc14 $end
$var wire 1 R! n104 $end
$var wire 1 S! xenc3 $end
$var wire 1 T! n173 $end
$var wire 1 U! xenc24 $end
$var wire 1 V! n172 $end
$var wire 1 W! n88 $end
$var wire 1 X! n174 $end
$var wire 1 Y! n184 $end
$var wire 1 Z! n185 $end
$var wire 1 [! n170 $end
$var wire 1 \! n103 $end
$var wire 1 ]! n199 $end
$var wire 1 ^! n92 $end
$var wire 1 _! n112 $end
$var wire 1 `! n125 $end
$var wire 1 a! xenc13 $end
$var wire 1 b! n122 $end
$var wire 1 c! n181 $end
$var wire 1 d! n180 $end
$var wire 1 e! n182 $end
$var wire 1 f! n171 $end
$var wire 1 g! xenc0 $end
$var wire 1 h! n90 $end
$var wire 1 i! n193 $end
$var wire 1 j! n192 $end
$var wire 1 k! n118 $end
$var wire 1 l! n93 $end
$var wire 1 m! n105 $end
$var wire 1 n! n96 $end
$var wire 1 o! n91 $end
$var wire 1 p! n113 $end
$var wire 1 q! n110 $end
$var wire 1 r! n94 $end
$var wire 1 s! n114 $end
$var wire 1 t! n154 $end
$var wire 1 u! n155 $end
$var wire 1 v! n152 $end
$var wire 1 w! xenc28 $end
$var wire 1 x! n156 $end
$var wire 1 y! n175 $end
$var wire 1 z! n176 $end
$var wire 1 {! n177 $end
$var wire 1 |! n188 $end
$var wire 1 }! n186 $end
$var wire 1 ~! n187 $end
$var wire 1 !" n87 $end
$var wire 1 "" xenc18 $end
$var wire 1 #" n149 $end
$var wire 1 $" xenc25 $end
$var wire 1 %" xenc23 $end
$var wire 1 &" n151 $end
$var wire 1 '" n150 $end
$var wire 1 (" n128 $end
$var wire 1 )" n129 $end
$var wire 1 *" n130 $end
$var wire 1 +" n191 $end
$var wire 1 ," n164 $end
$var wire 1 -" xenc1 $end
$var wire 1 ." n133 $end
$var wire 1 /" n117 $end
$var wire 1 0" n86 $end
$var wire 1 1" n121 $end
$var wire 1 2" xenc7 $end
$var wire 1 3" n123 $end
$var wire 1 4" n168 $end
$var wire 1 5" n101 $end
$var wire 1 6" xenc19 $end
$var wire 1 7" n124 $end
$var wire 1 8" n158 $end
$var wire 1 9" n126 $end
$var wire 1 :" n136 $end
$var wire 1 ;" xenc4 $end
$var wire 1 <" n137 $end
$var wire 1 =" n140 $end
$var wire 1 >" xenc31 $end
$var wire 1 ?" n138 $end
$var wire 1 @" n141 $end
$var wire 1 A" n144 $end
$var wire 1 B" n145 $end
$var wire 1 C" xenc21 $end
$var wire 1 D" n146 $end
$var wire 1 E" n160 $end
$var wire 1 F" n97 $end
$var wire 1 G" n153 $end
$var wire 1 H" xenc8 $end
$var wire 1 I" xenc10 $end
$var wire 1 J" n109 $end
$var wire 1 K" n197 $end
$var wire 1 L" xenc29 $end
$var wire 1 M" xenc11 $end
$var wire 1 N" n202 $end
$upscope $end
$upscope $end
$enddefinitions $end
#0
$dumpvars
b0 !
b0 "
b11000000100101011100010100100 #
14
03
02
01
00
0/
0.
1-
1,
0+
0*
1)
0(
0'
0&
1%
0$
0u
0v
0w
1x
1y
0z
0{
0|
0}
0~
0!!
0"!
0#!
0$!
0%!
0&!
0'!
0(!
0)!
0*!
0+!
0,!
0-!
0.!
0/!
00!
01!
02!
03!
04!
15!
06!
07!
08!
09!
0:!
1;!
0<!
1=!
0>!
1?!
1@!
0A!
0B!
0C!
1D!
1E!
0F!
1G!
1H!
0I!
0J!
0K!
1L!
1M!
0N!
0O!
0P!
0Q!
0R!
0S!
0T!
0U!
0V!
0W!
1X!
0Y!
0Z!
0[!
0\!
1]!
0^!
1_!
0`!
0a!
0b!
0c!
1d!
1e!
0f!
0g!
0h!
1i!
0j!
0k!
1l!
1m!
0n!
0o!
1p!
0q!
0r!
1s!
1t!
1u!
0v!
0w!
0x!
1y!
1z!
0{!
1|!
1}!
1~!
1!"
0""
1#"
1$"
1%"
1&"
1'"
0("
0)"
1*"
1+"
1,"
1-"
1."
1/"
10"
11"
02"
03"
14"
15"
16"
17"
18"
09"
1:"
1;"
1<"
1="
1>"
0?"
1@"
1A"
1B"
0C"
0D"
0E"
1F"
1G"
1H"
1I"
1J"
1K"
0L"
1M"
1N"
0t
0s
1r
0q
0p
1o
0n
1m
0l
0k
0j
1i
1h
1g
0f
1e
0d
1c
0b
0a
1`
0_
0^
0]
0\
0[
0Z
1Y
1X
0W
0V
0U
0T
0S
0R
0Q
0P
0O
0N
0M
0L
0K
0J
0I
0H
0G
0F
0E
0D
0C
0B
0A
0@
0?
0>
0=
0<
0;
0:
09
08
07
06
05
$end
#10000
b10100110101111 !
b111101000011011 "
1T
1-!
04
1D"
1S
1Q
19"
1P
1`!
1K
1f!
1I
1Z!
0~!
1{!
00"
13!
1H
1V!
0z!
1C!
0=!
11!
1>!
1G
1E"
1F
1D
0N"
1C
0A"
1*!
1B
13"
0@"
1A
0:"
1&!
0."
0*"
1)"
1?
0H!
1\!
1("
0s!
1k!
0l!
1~
1r!
1=
0D!
1o!
1<
0E!
1F!
19
0}!
17
08"
0?!
1/!
1A!
1x!
1z
1Q!
1|
1%!
1"!
10
0-"
1#!
1+!
0>"
1?"
0M"
14
10!
1B!
0,"
0@!
14!
1'
1v
1'!
1a!
1b!
13
1C"
0B"
12"
01"
00
1+
1(!
0<"
1/
1.
1$!
1}
0x
1w!
0u!
1v!
0%"
0&"
0y
0-
0/
11
0;"
0,
0H"
0%
#20000
b1000100000000 !
b1000100010001 "
0S
1B"
11"
0Q
1:"
1*"
0)"
0("
1s!
0k!
1l!
0~
0r!
1L
1J!
0L!
1h!
1O!
0i!
1j!
0;!
1u
1<!
0K
0f!
1i!
0j!
0I
1}!
0G
18"
0F
1u!
0v!
0D
1N"
0C
1A"
0*!
1@"
0B
03"
0A
09"
0?
1H!
0\!
0b!
0=
1D!
0o!
0F!
09
0Z!
1~!
0{!
10"
03!
1z!
0C!
1=!
01!
0>!
1,"
1@!
18
0y!
1C!
0=!
11!
1>!
0,"
0@!
07
0E"
0B!
1,"
1@!
04!
0|
0Q!
0%!
02"
0a!
1<"
0+!
1>"
0?"
1M"
04
00!
1%"
1&"
1?!
0/!
0A!
0x!
0v
0z
1L"
1g!
0"!
0.
1x
0w!
1H"
0(!
1;"
0&!
1."
0$!
0}
1-
1/
10
1-"
0#!
01
1%
1y
1,
0/
#30000
b1000000100010110 !
b1110011001110 "
0T
0-!
14
0D"
1S
0B"
1*!
1R
13"
0@"
1Q
19"
0P
0`!
1N
1R!
1M
0D!
1o!
1F!
0L
0J!
1L!
0h!
0O!
1;!
0u
0<!
1J
1Y!
1I
1Z!
0~!
1{!
00"
13!
0z!
1[!
1C
1D"
1B
0="
1?"
1@
1`!
08
1y!
15
0#"
1$
0G"
14!
1(!
16!
1U!
1:!
1z
0L"
0+
0g!
1|
1Q!
1!!
1)!
1a!
0<"
0>"
1,!
03
12
0;"
1&!
0."
1"!
1}
0x
18!
0)
0H"
0%
19!
0y
0-
1.
00
0-"
1#!
1/
0,
1*
#35000
b100010010000010 !
b11101111001101 "
1T
1-!
04
0A"
0S
1B"
1L
1J!
0L!
1h!
1O!
0;!
1u
1<!
1K
1f!
04"
0i!
1j!
0+"
0J
0Y!
1+"
0[!
1G
1E"
0B
1="
0@
0`!
1."
1=
0M!
1w
1N!
0<
0J!
14"
1L!
0h!
0O!
1i!
0j!
1;!
0u
0<!
1:
1Y!
1[!
16
1x!
05
1#"
0$
1G"
10!
1w!
0|
1K!
0L!
1h!
1O!
0i!
1j!
0+"
0;!
1u
1<!
1y
0'!
1-"
0#!
1+!
12!
1B!
0,"
1/!
0@!
1A!
0t!
1v!
1v
1L"
0K"
17!
1g!
0e!
1c!
0d!
1.!
09!
0%"
0&"
0'
0,!
0/
10
1,
0}
1-
02
0*
#37000
b1000100101000011 !
b1111111111111111 "
1S
0B"
1P
1`!
0."
1O
0F"
1J
0|!
1F
0u!
1E
1D
0N"
1>
0_!
1{
1q!
0J"
1^!
0]!
0=
1M!
0w
0N!
1<
1J!
04"
0:
1|!
19
0}!
06
1t!
15
1&"
0'"
0$"
1$
06!
0z
1|
0K!
0y
0!!
0I"
1w
0M"
14
1%!
0G!
1\!
05"
1b!
1'!
0-"
1#!
0.!
13
1/
00
12"
01"
1~
1$!
1y
1x
1)
0y
0/
0,
#47000
b1010101111001101 !
b0 "
0T
1N"
0S
1B"
11"
0~
0R
03"
1@"
0Q
09"
0P
0`!
1."
0b!
0O
1F"
0N
1_!
0{
0q!
1J"
0^!
1]!
0M
1D!
0o!
0F!
0L
0J!
14"
1L!
0h!
0O!
1i!
0j!
1+"
1;!
0<!
0K
0f!
1K"
07!
1e!
0c!
1d!
0J
0Y!
0[!
0I
1}!
0H
0V!
1z!
0C!
1=!
01!
0>!
1,"
0/!
1@!
0A!
0x!
0G
0E"
0F
1u!
0v!
0E
1'"
0C
1A"
0*!
1B
13"
1A
19"
1=
0D!
1o!
1F!
1;
1f!
0K"
17!
0e!
1c!
0d!
17
1E"
1,!
1$"
0$
0G"
00!
1%"
0#"
1$
04!
0w!
1'
16!
0:!
0U!
1d!
1z
0L"
1K"
07!
0g!
1e!
0c!
1!!
1I"
0w
1}
0%!
1G!
0\!
15"
0u
0'!
02"
1-"
0#!
1>"
0?"
1M"
04
0(!
1<"
1/
10
1+
0$!
0-
1y
19!
0x
08!
0)
1(
12
09!
0y
0/
11
1;"
0&!
00
#57000
b0 !
b1001000110100 "
1R
0="
1?"
1P
1`!
1O
0F"
1K
0X!
17!
1j!
1c!
1W!
1H
1V!
0z!
1C!
0=!
11!
1>!
0,"
1/!
0@!
1A!
1x!
0D
0-!
14
0D"
0B
1="
0?"
0A
09"
0>
0R!
0=
1D!
0o!
0F!
0<
1E!
0;
1X!
07!
0j!
0c!
0W!
09
0Z!
1~!
0{!
10"
03!
1z!
0C!
1=!
01!
0>!
1,"
0/!
1@!
0A!
0x!
07
0E"
05
1#"
0$
1G"
02!
0B!
06!
0(
0z
0|
0Q!
0!!
0)!
0a!
03
0C"
14!
0'
1%!
0G!
1\!
1'!
10
1$!
1(
01
0"!
0}
1x
1)
1H"
1%
1y
1-
0.
1/
1,
#67000
b1000100010001 !
b1110111010101010 "
1S
0R
03"
1Q
19"
0P
0`!
1M
0D!
1o!
1J
1Y!
1I
1Z!
0~!
1{!
00"
13!
0z!
1C!
0=!
11!
1>!
1[!
0H
0V!
1z!
0C!
1=!
01!
0>!
1G
1E"
1F
1E
0'"
1D
1-!
04
1D"
1@
1`!
1<
0E!
1F!
18
1V!
0z!
1C!
0=!
11!
1>!
1z
1Q!
13
1C"
0B"
1*!
0$"
1$
0G"
10!
12!
1B!
0,"
1/!
0@!
1A!
1x!
16!
1U!
0(
1:!
1|
1)!
1a!
1b!
0+!
1.!
03
12"
11
1}
18!
0)
1w!
0u!
1v!
0H"
0x
0y
0%
0%"
0&"
1'"
19!
0-
1*
1$"
0$
1H"
0,
1%
#77000
b101010101010101 !
b1010101010101010 "
0J
0Y!
0[!
0F
1u!
0v!
1B
13"
0@"
1>
1R!
05"
1u
1:
1Y!
1[!
16
0t!
1v!
1!!
0+
1+!
0>"
1?"
1(!
0<"
0,!
1"!
1.
02
01
0;"
1&!
0."
00
0-"
1#!
0/
#87000
b1000000001010001 !
b1000000010000110 "
1R
0="
07"
1k!
0/"
1{
0l!
1~
0Q
09"
0O
1F"
0K
0f!
0I
0Z!
1~!
0{!
10"
03!
1z!
0C!
1=!
01!
0>!
1,"
0/!
1@!
0A!
1t!
0v!
0[!
0G
0E"
0B
1="
17"
0k!
1/"
0{
1l!
0~
0<
1E!
0F!
0:
0Y!
08
0V!
06
0x!
15
1&"
0'"
0$"
1$
1G"
00!
0w!
04!
0:!
0z
0Q!
15"
0u
02!
0B!
06!
0U!
1%"
0#"
0v
0%!
1G!
0\!
0b!
0)!
0a!
1<"
1;"
0&!
1."
11
02"
0$!
1)
1x
08!
09!
1y
1/
10
1-"
0#!
0/
1,
0*
#92000
b1111101011011100 !
b11011100 "
0S
1B"
0*!
1@"
1Q
19"
1P
0m!
1#!
1)"
1n!
1N
0_!
1{
1q!
0J"
1^!
0E
1'"
0D
0-!
14
0D"
1B
0="
1A
0:"
1&!
0."
0*"
1=
0M!
1w
1;
1f!
19
1Z!
0~!
1{!
00"
13!
18
1V!
0z!
1C!
0=!
11!
1>!
17
1E"
16
1x!
10!
1w!
12!
1B!
0,"
1/!
0@!
1A!
0t!
1v!
14!
16!
1v
0|
0y
00
0-"
0+!
13
0C"
1$"
0G"
0!!
0I"
0'!
06"
1/
1a!
0<"
0.!
1>"
03
0;"
10
0"!
0H"
0,
1+
0)
0%"
1#"
0$
1H"
0.
#94000
b100000010010110 !
b10000001001000 "
0R
1="
0?"
0P
1m!
0n!
0M
1M!
1G
08"
1C
1D"
0A
1:"
1*"
0)"
0>
1_!
0{
0q!
1J"
0^!
0;
0f!
09
0Z!
1~!
0{!
10"
03!
1z!
0C!
1=!
01!
0>!
1,"
0/!
1@!
0A!
1t!
0v!
08
0V!
07
18"
05
0&"
1G"
04!
06!
1%"
1&"
1&
1'
0v
1!!
1I"
0w
0}
1)!
1.!
1C"
1|
1'!
16"
1+!
0(!
1<"
1;"
0&!
1."
1,!
1}
13
1y
1"!
0+
1)
1.
1,
12
1-"
0#!
0/
#104000
b1000000100100 !
b1000000110010010 "
1S
0B"
1*!
0@"
0Q
09"
1P
0m!
1#!
1)"
1n!
0N
0R!
1M
0M!
1w
1L
0E!
1N!
1F!
0G
0E"
1E
0'"
0C
0D"
0@
1m!
0#!
0)"
0n!
1?
0H!
1\!
1b!
0=
1M!
0w
0N!
18
1V!
06
0x!
00!
0w!
14!
1%!
12"
0C"
1B"
0*!
1@"
0$"
1$
0G"
02!
0B!
1z
1Q!
0!!
0)!
0a!
0b!
02"
01
0"!
0x
0'
0H"
1$!
1(
0&
1/
0%
0y
0.
0,
#204000
b0 !
b1 "
1T
1-!
04
1D"
0S
0P
0`!
0M
1D!
0o!
0F!
0L
1E!
0E
1'"
0B
03"
0?
1H!
0\!
08
0V!
04!
0%!
0+!
1$"
0$
1G"
0z
0|
0Q!
0'!
0.!
1C"
00
0}
1x
1H"
0,!
0$!
0(
0/
02
1%
1y
1-
1,
