lockednetlistsimulation/32aor/xnor_based_ripple_carry_adder/sim/transcript
# //  ModelSim SE-64 6.6d Nov  1 2010 Linux 2.6.32-754.33.1.el6.x86_64
# //
# //  Copyright 1991-2010 Mentor Graphics Corporation
# //              All Rights Reserved.
# //
# //  THIS WORK CONTAINS TRADE SECRET AND 
# //  PROPRIETARY INFORMATION WHICH IS THE PROPERTY
# //  OF MENTOR GRAPHICS CORPORATION OR ITS LICENSORS
# //  AND IS SUBJECT TO LICENSE TERMS.
# //
# Loading project cla32aor
# Load canceled
# reading /var/autofs/misc/cad/mentor/modelsim-6.6d/modeltech/linux_x86_64/../modelsim.ini
# Loading project xrca32aor
# Compile of xnor_based_ripple_carry_adder16_aor_enc32.v was successful.
# Compile of xnor_based_ripple_carry_adder16_tb.v was successful.
# 2 compiles, 0 failed with no errors. 
vsim -novopt simulation.xnor_based_ripple_carry_adder16_tb
# vsim -novopt simulation.xnor_based_ripple_carry_adder16_tb 
# Refreshing /home/nayakkk/32aor/xnor_based_ripple_carry_adder/sim/simulation.xnor_based_ripple_carry_adder16_tb
# Loading simulation.xnor_based_ripple_carry_adder16_tb
# Refreshing /home/nayakkk/32aor/xnor_based_ripple_carry_adder/sim/simulation.xnor_based_ripple_carry_adder16_aor_enc32
# Loading simulation.xnor_based_ripple_carry_adder16_aor_enc32
vsim -novopt simulation.xnor_based_ripple_carry_adder16_tb
# vsim -novopt simulation.xnor_based_ripple_carry_adder16_tb 
# Loading simulation.xnor_based_ripple_carry_adder16_tb
# Loading simulation.xnor_based_ripple_carry_adder16_aor_enc32
add wave sim:/xnor_based_ripple_carry_adder16_tb/*
run
#                    0 add1_i= 0000, add2_i = 0000, keyinput= 2e798869, result_o = 00001 
#                   10 add1_i= 29af, add2_i = 7a1b, keyinput= 2e798869, result_o = 0a3cb 
#                   20 add1_i= 1100, add2_i = 1111, keyinput= 2e798869, result_o = 02212 
#                   30 add1_i= 8116, add2_i = 1cce, keyinput= 2e798869, result_o = 09de5 
#                   35 add1_i= 4482, add2_i = 3bcd, keyinput= 2e798869, result_o = 08050 
#                   43 add1_i= 8943, add2_i = ffff, keyinput= 2e798869, result_o = 18943 
#                   53 add1_i= abcd, add2_i = 0000, keyinput= 2e798869, result_o = 0abc2 
#                   63 add1_i= 0000, add2_i = 1234, keyinput= 2e798869, result_o = 01231 
#                   73 add1_i= 1111, add2_i = eeaa, keyinput= 2e798869, result_o = 0ffb4 
#                   83 add1_i= 5555, add2_i = aaaa, keyinput= 2e798869, result_o = 10000 
#                   93 add1_i= 8051, add2_i = 8086, keyinput= 2e798869, result_o = 100d8 
#                   98 add1_i= fadc, add2_i = 00dc, keyinput= 2e798869, result_o = 0fbb9 
#                  106 add1_i= 4096, add2_i = 2048, keyinput= 2e798869, result_o = 060d1 
#                  116 add1_i= 1024, add2_i = 8192, keyinput= 2e798869, result_o = 091b1 
#                  216 add1_i= 0000, add2_i = 0001, keyinput= 2e798869, result_o = 00002 
# ** Note: $finish    : /home/nayakkk/32aor/xnor_based_ripple_carry_adder/sim/xnor_based_ripple_carry_adder16_tb.v(83)
#    Time: 316 ns  Iteration: 0  Instance: /xnor_based_ripple_carry_adder16_tb
# 1
# Break in Module xnor_based_ripple_carry_adder16_tb at /home/nayakkk/32aor/xnor_based_ripple_carry_adder/sim/xnor_based_ripple_carry_adder16_tb.v line 83
# Compile of xnor_based_ripple_carry_adder16_aor_enc32.v was successful.
# Compile of xnor_based_ripple_carry_adder16_tb.v was successful.
# 2 compiles, 0 failed with no errors. 
vsim -novopt simulation.xnor_based_ripple_carry_adder16_tb
# vsim -novopt simulation.xnor_based_ripple_carry_adder16_tb 
# Refreshing /home/nayakkk/32aor/xnor_based_ripple_carry_adder/sim/simulation.xnor_based_ripple_carry_adder16_tb
# Loading simulation.xnor_based_ripple_carry_adder16_tb
# Refreshing /home/nayakkk/32aor/xnor_based_ripple_carry_adder/sim/simulation.xnor_based_ripple_carry_adder16_aor_enc32
# Loading simulation.xnor_based_ripple_carry_adder16_aor_enc32
add wave sim:/xnor_based_ripple_carry_adder16_tb/*
run
#                    0 add1_i= 0000, add2_i = 0000, keyinput= 2e798800, result_o = 10005 
#                   10 add1_i= 29af, add2_i = 7a1b, keyinput= 2e798800, result_o = 1a44b 
#                   20 add1_i= 1100, add2_i = 1111, keyinput= 2e798800, result_o = 12216 
#                   30 add1_i= 8116, add2_i = 1cce, keyinput= 2e798800, result_o = 19de5 
#                   35 add1_i= 4482, add2_i = 3bcd, keyinput= 2e798800, result_o = 180d0 
#                   43 add1_i= 8943, add2_i = ffff, keyinput= 2e798800, result_o = 188c3 
#                   53 add1_i= abcd, add2_i = 0000, keyinput= 2e798800, result_o = 1ac52 
#                   63 add1_i= 0000, add2_i = 1234, keyinput= 2e798800, result_o = 11239 
#                   73 add1_i= 1111, add2_i = eeaa, keyinput= 2e798800, result_o = 1ffb4 
#                   83 add1_i= 5555, add2_i = aaaa, keyinput= 2e798800, result_o = 1ff80 
#                   93 add1_i= 8051, add2_i = 8086, keyinput= 2e798800, result_o = 100d8 
#                   98 add1_i= fadc, add2_i = 00dc, keyinput= 2e798800, result_o = 1fbbd 
#                  106 add1_i= 4096, add2_i = 2048, keyinput= 2e798800, result_o = 16161 
#                  116 add1_i= 1024, add2_i = 8192, keyinput= 2e798800, result_o = 191b9 
#                  216 add1_i= 0000, add2_i = 0001, keyinput= 2e798800, result_o = 10006 
# ** Note: $finish    : /home/nayakkk/32aor/xnor_based_ripple_carry_adder/sim/xnor_based_ripple_carry_adder16_tb.v(83)
#    Time: 316 ns  Iteration: 0  Instance: /xnor_based_ripple_carry_adder16_tb
# 1
# Break in Module xnor_based_ripple_carry_adder16_tb at /home/nayakkk/32aor/xnor_based_ripple_carry_adder/sim/xnor_based_ripple_carry_adder16_tb.v line 83
# Compile of xnor_based_ripple_carry_adder16_aor_enc32.v was successful.
# Compile of xnor_based_ripple_carry_adder16_tb.v was successful.
# 2 compiles, 0 failed with no errors. 
vsim -novopt simulation.xnor_based_ripple_carry_adder16_tb
# vsim -novopt simulation.xnor_based_ripple_carry_adder16_tb 
# Refreshing /home/nayakkk/32aor/xnor_based_ripple_carry_adder/sim/simulation.xnor_based_ripple_carry_adder16_tb
# Loading simulation.xnor_based_ripple_carry_adder16_tb
# Refreshing /home/nayakkk/32aor/xnor_based_ripple_carry_adder/sim/simulation.xnor_based_ripple_carry_adder16_aor_enc32
# Loading simulation.xnor_based_ripple_carry_adder16_aor_enc32
add wave sim:/xnor_based_ripple_carry_adder16_tb/*
run
#                    0 add1_i= 0000, add2_i = 0000, keyinput= f0798869, result_o = 040c5 
#                   10 add1_i= 29af, add2_i = 7a1b, keyinput= f0798869, result_o = 0e443 
#                   20 add1_i= 1100, add2_i = 1111, keyinput= f0798869, result_o = 062d6 
#                   30 add1_i= 8116, add2_i = 1cce, keyinput= f0798869, result_o = 0de25 
#                   35 add1_i= 4482, add2_i = 3bcd, keyinput= f0798869, result_o = 0c090 
#                   43 add1_i= 8943, add2_i = ffff, keyinput= f0798869, result_o = 1c903 
#                   53 add1_i= abcd, add2_i = 0000, keyinput= f0798869, result_o = 0ec42 
#                   63 add1_i= 0000, add2_i = 1234, keyinput= f0798869, result_o = 052f1 
#                   73 add1_i= 1111, add2_i = eeaa, keyinput= f0798869, result_o = 14074 
#                   83 add1_i= 5555, add2_i = aaaa, keyinput= f0798869, result_o = 14040 
#                   93 add1_i= 8051, add2_i = 8086, keyinput= f0798869, result_o = 14160 
#                   98 add1_i= fadc, add2_i = 00dc, keyinput= f0798869, result_o = 0fbb5 
#                  106 add1_i= 4096, add2_i = 2048, keyinput= f0798869, result_o = 06111 
#                  116 add1_i= 1024, add2_i = 8192, keyinput= f0798869, result_o = 0d271 
#                  216 add1_i= 0000, add2_i = 0001, keyinput= f0798869, result_o = 040c6 
# ** Note: $finish    : /home/nayakkk/32aor/xnor_based_ripple_carry_adder/sim/xnor_based_ripple_carry_adder16_tb.v(83)
#    Time: 316 ns  Iteration: 0  Instance: /xnor_based_ripple_carry_adder16_tb
# 1
# Break in Module xnor_based_ripple_carry_adder16_tb at /home/nayakkk/32aor/xnor_based_ripple_carry_adder/sim/xnor_based_ripple_carry_adder16_tb.v line 83
# Compile of xnor_based_ripple_carry_adder16_aor_enc32.v was successful.
# Compile of xnor_based_ripple_carry_adder16_tb.v was successful.
# 2 compiles, 0 failed with no errors. 
vsim -novopt simulation.xnor_based_ripple_carry_adder16_tb
# vsim -novopt simulation.xnor_based_ripple_carry_adder16_tb 
# Refreshing /home/nayakkk/32aor/xnor_based_ripple_carry_adder/sim/simulation.xnor_based_ripple_carry_adder16_tb
# Loading simulation.xnor_based_ripple_carry_adder16_tb
# Refreshing /home/nayakkk/32aor/xnor_based_ripple_carry_adder/sim/simulation.xnor_based_ripple_carry_adder16_aor_enc32
# Loading simulation.xnor_based_ripple_carry_adder16_aor_enc32
add wave sim:/xnor_based_ripple_carry_adder16_tb/*
run
#                    0 add1_i= 0000, add2_i = 0000, keyinput= 2e770869, result_o = 00005 
#                   10 add1_i= 29af, add2_i = 7a1b, keyinput= 2e770869, result_o = 043cf 
#                   20 add1_i= 1100, add2_i = 1111, keyinput= 2e770869, result_o = 00216 
#                   30 add1_i= 8116, add2_i = 1cce, keyinput= 2e770869, result_o = 09de5 
#                   35 add1_i= 4482, add2_i = 3bcd, keyinput= 2e770869, result_o = 04054 
#                   43 add1_i= 8943, add2_i = ffff, keyinput= 2e770869, result_o = 14947 
#                   53 add1_i= abcd, add2_i = 0000, keyinput= 2e770869, result_o = 08bc6 
#                   63 add1_i= 0000, add2_i = 1234, keyinput= 2e770869, result_o = 01235 
#                   73 add1_i= 1111, add2_i = eeaa, keyinput= 2e770869, result_o = 0dfb4 
#                   83 add1_i= 5555, add2_i = aaaa, keyinput= 2e770869, result_o = 0c004 
#                   93 add1_i= 8051, add2_i = 8086, keyinput= 2e770869, result_o = 100dc 
#                   98 add1_i= fadc, add2_i = 00dc, keyinput= 2e770869, result_o = 0dbbd 
#                  106 add1_i= 4096, add2_i = 2048, keyinput= 2e770869, result_o = 040d5 
#                  116 add1_i= 1024, add2_i = 8192, keyinput= 2e770869, result_o = 091b5 
#                  216 add1_i= 0000, add2_i = 0001, keyinput= 2e770869, result_o = 00006 
# ** Note: $finish    : /home/nayakkk/32aor/xnor_based_ripple_carry_adder/sim/xnor_based_ripple_carry_adder16_tb.v(83)
#    Time: 316 ns  Iteration: 0  Instance: /xnor_based_ripple_carry_adder16_tb
