lockednetlistsimulation/32xor/carry_lookahead_adder/sim/carry_lookahead_adder16_xor_enc32.v
// Verilog File 
module carry_lookahead_adder16_xor_enc32(add1_i,add2_i,keyinput,result_o);

input [15:0] add1_i, add2_i;
input [31:0] keyinput;


output [16:0] result_o;

wire xenc10, xenc30, xenc2, n62, n63, xenc3, n64, n65, xenc23, 
n66, xenc13, xenc31, n68, n69, n70, n71, n72, xenc26, xenc7, 
xenc15, n74, n75, n76, xenc18, n77, n78, xenc4, n83, xenc6, 
n88, xenc28, xenc21, xenc20, n93, n97, n98, n102, xenc17, n103, 
n107, xenc9, n108, n133, n134, n135, xenc0, xenc8, n73, n130, 
n132, n131, n94, n95, n92, n96, n89, xenc22, n87, xenc14, 
n90, n91, xenc24, n85, n82, n84, n86, n127, n128, xenc5, 
n129, xenc1, xenc16, n124, n126, n125, n121, n122, n67, n123, 
n118, n119, n120, n115, xenc12, n117, n116, n112, xenc27, n61, 
xenc25, n113, n114, n109, n110, n111, xenc29, xenc11, n104, n106, 
n105, n99, n100, xenc19, n101, n79, n80, n81, n136;

xor g0(xenc2, xenc10, xenc30);
xor g1(n62, add2_i[9], add1_i[9]);
xor g2(result_o[8], n63, xenc3);
xor g3(n64, add2_i[8], add1_i[8]);
xor g4(result_o[7], n65, xenc23);
xor g5(n66, add2_i[7], add1_i[7]);
xor g6(result_o[6], xenc13, xenc31);
xor g7(n68, add2_i[6], add1_i[6]);
xor g8(result_o[5], n69, n70);
xor g9(n70, add2_i[5], add1_i[5]);
xor g10(result_o[4], n71, n72);
xor g11(n72, add2_i[4], add1_i[4]);
xor g12(xenc15, xenc26, xenc7);
xor g13(n74, add2_i[3], add1_i[3]);
xor g14(xenc18, n75, n76);
xor g15(n76, add2_i[2], add1_i[2]);
xor g16(result_o[1], n77, n78);
xor g17(n78, add2_i[1], add1_i[1]);
xor g18(result_o[15], xenc4, n83);
xor g19(n83, add2_i[15], add1_i[15]);
xor g20(xenc28, xenc6, n88);
xor g21(n88, add2_i[14], add1_i[14]);
xor g22(result_o[13], xenc21, xenc20);
xor g23(n93, add2_i[13], add1_i[13]);
xor g24(result_o[12], n97, n98);
xor g25(n98, add2_i[12], add1_i[12]);
xor g26(result_o[11], n102, xenc17);
xor g27(n103, add2_i[11], add1_i[11]);
xor g28(result_o[10], n107, xenc9);
xor g29(n108, add2_i[10], add1_i[10]);
or g30(n77, add2_i[0], add1_i[0]);
nand g31(n75, n133, n134);
nand g32(n133, add1_i[1], n77);
nand g33(n134, add2_i[1], n135);
or g34(n135, n77, add1_i[1]);
nand g35(n73, xenc0, xenc8);
nand g36(n130, add1_i[2], n75);
nand g37(n131, add2_i[2], n132);
or g38(n132, n75, add1_i[2]);
nand g39(n92, n94, n95);
nand g40(n94, add1_i[12], n97);
nand g41(n95, add2_i[12], n96);
or g42(n96, n97, add1_i[12]);
nand g43(n87, n89, xenc22);
nand g44(n89, add1_i[13], xenc21);
nand g45(n90, add2_i[13], xenc14);
or g46(n91, xenc21, add1_i[13]);
nand g47(n82, xenc24, n85);
nand g48(n84, add1_i[14], xenc6);
nand g49(n85, add2_i[14], n86);
or g50(n86, xenc6, add1_i[14]);
nand g51(n71, n127, n128);
nand g52(n127, add1_i[3], xenc26);
nand g53(n128, add2_i[3], xenc5);
or g54(n129, xenc26, add1_i[3]);
nand g55(n69, xenc1, xenc16);
nand g56(n124, add1_i[4], n71);
nand g57(n125, add2_i[4], n126);
or g58(n126, n71, add1_i[4]);
nand g59(n67, n121, n122);
nand g60(n121, add1_i[5], n69);
nand g61(n122, add2_i[5], n123);
or g62(n123, n69, add1_i[5]);
nand g63(n65, n118, n119);
nand g64(n118, add1_i[6], xenc13);
nand g65(n119, add2_i[6], n120);
or g66(n120, xenc13, add1_i[6]);
nand g67(n63, n115, xenc12);
nand g68(n115, add1_i[7], n65);
nand g69(n116, add2_i[7], n117);
or g70(n117, n65, add1_i[7]);
nand g71(n61, n112, xenc27);
nand g72(n112, add1_i[8], n63);
nand g73(n113, add2_i[8], xenc25);
or g74(n114, n63, add1_i[8]);
nand g75(n107, n109, n110);
nand g76(n109, add1_i[9], xenc10);
nand g77(n110, add2_i[9], n111);
or g78(n111, xenc10, add1_i[9]);
nand g79(n102, xenc29, xenc11);
nand g80(n104, add1_i[10], n107);
nand g81(n105, add2_i[10], n106);
or g82(n106, n107, add1_i[10]);
nand g83(n97, n99, n100);
nand g84(n99, add1_i[11], n102);
nand g85(n100, add2_i[11], xenc19);
or g86(n101, n102, add1_i[11]);
nand g87(result_o[16], n79, n80);
nand g88(n79, add1_i[15], xenc4);
nand g89(n80, add2_i[15], n81);
or g90(n81, xenc4, add1_i[15]);
nand g91(result_o[0], n77, n136);
nand g92(n136, add2_i[0], add1_i[0]);
xnor g93(xenc0, n130, keyinput[0]);
xnor g94(xenc1, n124, keyinput[1]);
xor g95(result_o[9], xenc2, keyinput[2]);
xnor g96(xenc3, n64, keyinput[3]);
xnor g97(xenc4, n82, keyinput[4]);
xor g98(xenc5, n129, keyinput[5]);
xnor g99(xenc6, n87, keyinput[6]);
xnor g100(xenc7, n74, keyinput[7]);
xnor g101(xenc8, n131, keyinput[8]);
xnor g102(xenc9, n108, keyinput[9]);
xor g103(xenc10, n61, keyinput[10]);
xor g104(xenc11, n105, keyinput[11]);
xor g105(xenc12, n116, keyinput[12]);
xor g106(xenc13, n67, keyinput[13]);
xor g107(xenc14, n91, keyinput[14]);
xnor g108(result_o[3], xenc15, keyinput[15]);
xnor g109(xenc16, n125, keyinput[16]);
xnor g110(xenc17, n103, keyinput[17]);
xor g111(result_o[2], xenc18, keyinput[18]);
xnor g112(xenc19, n101, keyinput[19]);
xnor g113(xenc20, n93, keyinput[20]);
xnor g114(xenc21, n92, keyinput[21]);
xnor g115(xenc22, n90, keyinput[22]);
xor g116(xenc23, n66, keyinput[23]);
xnor g117(xenc24, n84, keyinput[24]);
xor g118(xenc25, n114, keyinput[25]);
xor g119(xenc26, n73, keyinput[26]);
xor g120(xenc27, n113, keyinput[27]);
xnor g121(result_o[14], xenc28, keyinput[28]);
xnor g122(xenc29, n104, keyinput[29]);
xnor g123(xenc30, n62, keyinput[30]);
xnor g124(xenc31, n68, keyinput[31]);
endmodule

lockednetlistsimulation/32xor/carry_lookahead_adder/sim/carry_lookahead_adder16_tb.v
`timescale 1ns / 1ps
//////////////////////////////////////////////////////////////////////////////////
// Company: 
// Engineer: 
// 
// Create Date: 05/05/2020 01:15:36 AM
// Design Name: 
// Module Name: Test_Bench
// Project Name: 
// Target Devices: 
// Tool Versions: 
// Description: 
// 
// Dependencies: 
// 
// Revision:
// Revision 0.01 - File Created
// Additional Comments:
// 
//////////////////////////////////////////////////////////////////////////////////


module carry_lookahead_adder16_tb;
reg [15:0]add1_i;
reg [15:0]add2_i;
reg [31:0]keyinput = 32'hF17B435B;
wire [16:0]result_o;


carry_lookahead_adder16_xor_enc32 cla(add1_i,add2_i,keyinput,result_o);

initial begin
   $dumpfile("carry_lookahead_adder16_simgate.vcd");
   $dumpvars(2,carry_lookahead_adder16_tb);

   
   add1_i = 16'h0000;
   add2_i = 16'h0000;
   #10
   add1_i = 16'h29AF;
   add2_i = 16'h7A1B;
   #10
   add1_i = 16'h1100;
   add2_i = 16'h1111;
   #10
   add1_i = 16'h8116;
   add2_i = 16'h1CCE;
   #5
   add1_i = 16'h4482;
   add2_i = 16'h3BCD;
   #2
   add1_i = 16'h8943;
   add2_i = 16'hFFFF;
   #10
   add1_i = 16'hABCD;
   add2_i = 16'h0000;
   #10
   add1_i = 16'h0000;
   add2_i = 16'h1234;
   #10
   add1_i = 16'h1111;
   add2_i = 16'hEEAA;
  #10
   add1_i = 16'h5555;
   add2_i = 16'hAAAA;
  #10
   add1_i = 16'h8051;
   add2_i = 16'h8086;
  #5
  add1_i = 16'hFADC;
  add2_i = 16'h00DC;
 #2
  add1_i = 16'h4096;
  add2_i = 16'h2048;
 #10
  add1_i = 16'h1024;
  add2_i = 16'h8192;
  #100
   add1_i = 16'h0000;
   add2_i = 16'h0001;
  #100
  
   $finish;
    
   
 end

initial begin

$monitor($time , " add1_i= %h, add2_i = %h, keyinput= %h, result_o = %h ",add1_i, add2_i, keyinput, result_o);
end
	
	
	
endmodule

lockednetlistsimulation/32aor/carry_lookahead_adder/sim/carry_lookahead_adder16_simgate.vcd
$date
	Thu Sep 24 12:15:40 2020
$end
$version
	ModelSim Version 6.6d
$end
$timescale
	1ps
$end
$scope module carry_lookahead_adder16_tb $end
$var reg 16 ! add1_i [15:0] $end
$var reg 16 " add2_i [15:0] $end
$var reg 32 # keyinput [31:0] $end
$var wire 1 $ result_o [16] $end
$var wire 1 % result_o [15] $end
$var wire 1 & result_o [14] $end
$var wire 1 ' result_o [13] $end
$var wire 1 ( result_o [12] $end
$var wire 1 ) result_o [11] $end
$var wire 1 * result_o [10] $end
$var wire 1 + result_o [9] $end
$var wire 1 , result_o [8] $end
$var wire 1 - result_o [7] $end
$var wire 1 . result_o [6] $end
$var wire 1 / result_o [5] $end
$var wire 1 0 result_o [4] $end
$var wire 1 1 result_o [3] $end
$var wire 1 2 result_o [2] $end
$var wire 1 3 result_o [1] $end
$var wire 1 4 result_o [0] $end
$scope module cla $end
$var wire 1 5 add1_i [15] $end
$var wire 1 6 add1_i [14] $end
$var wire 1 7 add1_i [13] $end
$var wire 1 8 add1_i [12] $end
$var wire 1 9 add1_i [11] $end
$var wire 1 : add1_i [10] $end
$var wire 1 ; add1_i [9] $end
$var wire 1 < add1_i [8] $end
$var wire 1 = add1_i [7] $end
$var wire 1 > add1_i [6] $end
$var wire 1 ? add1_i [5] $end
$var wire 1 @ add1_i [4] $end
$var wire 1 A add1_i [3] $end
$var wire 1 B add1_i [2] $end
$var wire 1 C add1_i [1] $end
$var wire 1 D add1_i [0] $end
$var wire 1 E add2_i [15] $end
$var wire 1 F add2_i [14] $end
$var wire 1 G add2_i [13] $end
$var wire 1 H add2_i [12] $end
$var wire 1 I add2_i [11] $end
$var wire 1 J add2_i [10] $end
$var wire 1 K add2_i [9] $end
$var wire 1 L add2_i [8] $end
$var wire 1 M add2_i [7] $end
$var wire 1 N add2_i [6] $end
$var wire 1 O add2_i [5] $end
$var wire 1 P add2_i [4] $end
$var wire 1 Q add2_i [3] $end
$var wire 1 R add2_i [2] $end
$var wire 1 S add2_i [1] $end
$var wire 1 T add2_i [0] $end
$var wire 1 U keyinput [31] $end
$var wire 1 V keyinput [30] $end
$var wire 1 W keyinput [29] $end
$var wire 1 X keyinput [28] $end
$var wire 1 Y keyinput [27] $end
$var wire 1 Z keyinput [26] $end
$var wire 1 [ keyinput [25] $end
$var wire 1 \ keyinput [24] $end
$var wire 1 ] keyinput [23] $end
$var wire 1 ^ keyinput [22] $end
$var wire 1 _ keyinput [21] $end
$var wire 1 ` keyinput [20] $end
$var wire 1 a keyinput [19] $end
$var wire 1 b keyinput [18] $end
$var wire 1 c keyinput [17] $end
$var wire 1 d keyinput [16] $end
$var wire 1 e keyinput [15] $end
$var wire 1 f keyinput [14] $end
$var wire 1 g keyinput [13] $end
$var wire 1 h keyinput [12] $end
$var wire 1 i keyinput [11] $end
$var wire 1 j keyinput [10] $end
$var wire 1 k keyinput [9] $end
$var wire 1 l keyinput [8] $end
$var wire 1 m keyinput [7] $end
$var wire 1 n keyinput [6] $end
$var wire 1 o keyinput [5] $end
$var wire 1 p keyinput [4] $end
$var wire 1 q keyinput [3] $end
$var wire 1 r keyinput [2] $end
$var wire 1 s keyinput [1] $end
$var wire 1 t keyinput [0] $end
$var wire 1 $ result_o [16] $end
$var wire 1 % result_o [15] $end
$var wire 1 & result_o [14] $end
$var wire 1 ' result_o [13] $end
$var wire 1 ( result_o [12] $end
$var wire 1 ) result_o [11] $end
$var wire 1 * result_o [10] $end
$var wire 1 + result_o [9] $end
$var wire 1 , result_o [8] $end
$var wire 1 - result_o [7] $end
$var wire 1 . result_o [6] $end
$var wire 1 / result_o [5] $end
$var wire 1 0 result_o [4] $end
$var wire 1 1 result_o [3] $end
$var wire 1 2 result_o [2] $end
$var wire 1 3 result_o [1] $end
$var wire 1 4 result_o [0] $end
$var wire 1 u n61 $end
$var wire 1 v n62 $end
$var wire 1 w xenc7 $end
$var wire 1 x n64 $end
$var wire 1 y n65 $end
$var wire 1 z n66 $end
$var wire 1 { xenc0 $end
$var wire 1 | xenc12 $end
$var wire 1 } n68 $end
$var wire 1 ~ xenc23 $end
$var wire 1 !! n69 $end
$var wire 1 "! n70 $end
$var wire 1 #! xenc29 $end
$var wire 1 $! n72 $end
$var wire 1 %! n73 $end
$var wire 1 &! n74 $end
$var wire 1 '! xenc10 $end
$var wire 1 (! n75 $end
$var wire 1 )! n76 $end
$var wire 1 *! xenc18 $end
$var wire 1 +! xenc31 $end
$var wire 1 ,! n78 $end
$var wire 1 -! n82 $end
$var wire 1 .! n83 $end
$var wire 1 /! xenc27 $end
$var wire 1 0! n88 $end
$var wire 1 1! xenc28 $end
$var wire 1 2! xenc25 $end
$var wire 1 3! n93 $end
$var wire 1 4! xenc30 $end
$var wire 1 5! n97 $end
$var wire 1 6! xenc11 $end
$var wire 1 7! n98 $end
$var wire 1 8! n102 $end
$var wire 1 9! xenc1 $end
$var wire 1 :! n103 $end
$var wire 1 ;! xenc15 $end
$var wire 1 <! n108 $end
$var wire 1 =! n77 $end
$var wire 1 >! n133 $end
$var wire 1 ?! xenc9 $end
$var wire 1 @! xenc3 $end
$var wire 1 A! n134 $end
$var wire 1 B! n135 $end
$var wire 1 C! xenc20 $end
$var wire 1 D! xenc19 $end
$var wire 1 E! n130 $end
$var wire 1 F! n132 $end
$var wire 1 G! n131 $end
$var wire 1 H! n94 $end
$var wire 1 I! n95 $end
$var wire 1 J! n92 $end
$var wire 1 K! n96 $end
$var wire 1 L! n89 $end
$var wire 1 M! n90 $end
$var wire 1 N! n87 $end
$var wire 1 O! xenc13 $end
$var wire 1 P! n91 $end
$var wire 1 Q! xenc17 $end
$var wire 1 R! n85 $end
$var wire 1 S! n84 $end
$var wire 1 T! xenc14 $end
$var wire 1 U! n86 $end
$var wire 1 V! n127 $end
$var wire 1 W! n128 $end
$var wire 1 X! n71 $end
$var wire 1 Y! xenc24 $end
$var wire 1 Z! n129 $end
$var wire 1 [! n124 $end
$var wire 1 \! n125 $end
$var wire 1 ]! n126 $end
$var wire 1 ^! n121 $end
$var wire 1 _! xenc22 $end
$var wire 1 `! n67 $end
$var wire 1 a! xenc26 $end
$var wire 1 b! n122 $end
$var wire 1 c! n123 $end
$var wire 1 d! xenc4 $end
$var wire 1 e! n119 $end
$var wire 1 f! n118 $end
$var wire 1 g! n120 $end
$var wire 1 h! n115 $end
$var wire 1 i! n116 $end
$var wire 1 j! n63 $end
$var wire 1 k! n117 $end
$var wire 1 l! n112 $end
$var wire 1 m! xenc5 $end
$var wire 1 n! n114 $end
$var wire 1 o! n113 $end
$var wire 1 p! n109 $end
$var wire 1 q! xenc2 $end
$var wire 1 r! n107 $end
$var wire 1 s! xenc21 $end
$var wire 1 t! n110 $end
$var wire 1 u! n111 $end
$var wire 1 v! n104 $end
$var wire 1 w! xenc6 $end
$var wire 1 x! n106 $end
$var wire 1 y! n105 $end
$var wire 1 z! xenc8 $end
$var wire 1 {! n100 $end
$var wire 1 |! n99 $end
$var wire 1 }! n101 $end
$var wire 1 ~! n79 $end
$var wire 1 !" n80 $end
$var wire 1 "" xenc16 $end
$var wire 1 #" n81 $end
$var wire 1 $" n136 $end
$upscope $end
$upscope $end
$enddefinitions $end
#0
$dumpvars
b0 !
b0 "
b11010111110101000001110110001111 #
14
03
02
01
00
0/
0.
0-
1,
1+
0*
0)
0(
0'
0&
0%
0$
1u
0v
1w
0x
0y
0z
0{
0|
0}
0~
0!!
0"!
0#!
0$!
0%!
0&!
0'!
0(!
0)!
0*!
0+!
0,!
0-!
0.!
0/!
00!
01!
02!
03!
04!
05!
06!
07!
08!
09!
0:!
0;!
0<!
0=!
1>!
1?!
1@!
1A!
0B!
1C!
1D!
1E!
0F!
1G!
1H!
1I!
0J!
0K!
1L!
1M!
0N!
0O!
0P!
1Q!
1R!
1S!
0T!
0U!
1V!
1W!
0X!
0Y!
0Z!
1[!
1\!
0]!
1^!
1_!
0`!
0a!
1b!
0c!
1d!
1e!
1f!
0g!
1h!
1i!
0j!
0k!
1l!
0m!
1n!
1o!
1p!
1q!
0r!
1s!
1t!
1u!
1v!
1w!
0x!
1y!
1z!
1{!
1|!
0}!
1~!
1!"
0""
0#"
1$"
1t
1s
1r
1q
0p
0o
0n
1m
1l
0k
1j
1i
1h
0g
0f
0e
0d
0c
1b
0a
1`
0_
1^
1]
1\
1[
1Z
0Y
1X
0W
1V
1U
0T
0S
0R
0Q
0P
0O
0N
0M
0L
0K
0J
0I
0H
0G
0F
0E
0D
0C
0B
0A
0@
0?
0>
0=
0<
0;
0:
09
08
07
06
05
$end
#10000
b10100110101111 !
b111101000011011 "
1T
1=!
1*!
04
1B!
1S
0A!
0?!
1(!
1F!
1Q
1P
1K
0t!
1I
1H
1G
1F
1D
0$"
14
1C
0>!
1B
0E!
0C!
1%!
1Z!
1Y!
0W!
1X!
1#!
1]!
0\!
1!!
1c!
1a!
1A
0V!
1?
0^!
1`!
1|
1g!
1=
1k!
1<
0l!
19
1}!
0{!
15!
1K!
0I!
1J!
12!
1P!
1O!
0M!
1N!
1/!
1U!
1T!
0R!
1-!
1#"
1""
17
0L!
1(
14!
1'
11!
1&
1%
1x
1z
1"!
1~
1.
1)!
1'!
11
10
10!
17!
16!
1v
1$!
13
00
0+
0(
01!
0&
1{
1-
0,
#20000
b1000100000000 !
b1000100010001 "
0S
1A!
1?!
0Q
1W!
1L
0o!
0K
1t!
0I
1{!
05!
0K!
1I!
0J!
02!
1L!
0G
1M!
0N!
0/!
0U!
0T!
1R!
0-!
0#"
0""
0F
0D
1$"
04
0C
1>!
0(!
1E!
1C!
0%!
1V!
0X!
0#!
0]!
1\!
0!!
1^!
0`!
0|
0g!
0B
0F!
0A
0Z!
0Y!
0?
0c!
0a!
0=
0k!
09
0}!
18
1K!
0I!
1J!
12!
0L!
1N!
1/!
1U!
1T!
07
1L!
0N!
0/!
0U!
0T!
07!
06!
0z
0"!
0)!
0'!
01
10
0~
0.
00!
0%
0v
0x
1,
1+
0{
0-
#30000
b1000000100010110 !
b1110011001110 "
0T
0=!
0*!
14
0B!
1S
0A!
0?!
1(!
1F!
1R
0G!
0D!
1%!
1Z!
1Y!
1Q
0W!
1X!
1#!
1]!
0\!
1!!
1c!
1a!
0P
1\!
0!!
0c!
0a!
1N
1M
0L
1o!
1J
1I
1C
1B!
1B
0E!
0C!
1@
0[!
1!!
1c!
1a!
08
0K!
1I!
0J!
02!
0P!
0O!
15
1#"
1""
1.!
17!
16!
04!
0'
1:!
19!
1<!
1x
1z
1}
1&!
00
1/
12
03
1~
1.
1{
1-
0,
1*
1)
1(
1%
#35000
b100010010000010 !
b11101111001101 "
1T
1=!
1*!
04
0>!
0S
1A!
1?!
1L
0o!
1K
0t!
0J
1G
0B
1E!
1C!
0@
1[!
0!!
0c!
0a!
1=
1k!
0i!
1j!
0<
1l!
1:
1x!
16
1U!
1T!
05
0#"
0""
0.!
10!
0z
0$!
0/
1)!
13!
1v
1,!
1+!
0+
14!
1'
02
10
0{
0-
11!
1&
0%
#37000
b1000100101000011 !
b1111111111111111 "
1S
0A!
0?!
1P
0\!
1!!
1c!
1a!
1O
0b!
0_!
1`!
1|
1g!
0e!
1y
0h!
1J
0y!
0w!
18!
1}!
0{!
15!
1K!
0I!
1J!
12!
1P!
1O!
0M!
1N!
1/!
0S!
0Q!
1-!
1#"
1""
1F
0R!
1E
0!"
1$
1D
0$"
14
1>
0f!
0d!
0=
1h!
1<
0l!
0:
0x!
1y!
1w!
08!
0}!
1{!
05!
0K!
1I!
0J!
02!
0P!
0O!
1M!
0N!
0/!
1S!
1Q!
19
1}!
0{!
15!
1K!
0I!
1J!
12!
1P!
1O!
0M!
1N!
1/!
0S!
0Q!
06
1S!
1Q!
15
0~!
0:!
09!
0x
1z
0}
0)
0(
04!
0'
01!
0&
1%
1"!
1$!
0,!
0+!
13
00
1,
#47000
b1010101111001101 !
b0 "
0T
1$"
04
0S
1A!
1?!
0R
1G!
1D!
0%!
0Z!
0Y!
1W!
0X!
0#!
0]!
1\!
0!!
0c!
0a!
1b!
1_!
0`!
0|
1f!
1d!
0Q
0P
0O
0N
1e!
0y
0k!
1i!
0j!
0M
0L
1o!
0K
1t!
0J
0I
1{!
05!
0K!
1I!
0J!
02!
0P!
0O!
1M!
0N!
0/!
0U!
0T!
1R!
0-!
1~!
0H
0G
0F
0E
1!"
0$
0C
1>!
0(!
0F!
1B
1F!
1A
1Z!
1Y!
1=
1k!
1;
0p!
1r!
1;!
1x!
17
1P!
1O!
0*
12
1.!
00!
07!
06!
1:!
19!
14!
1'
0<!
1x
1}
1{
1-
0"!
0$!
1'!
11
0,
1*
1)
#57000
b0 !
b1001000110100 "
1R
0G!
0D!
1%!
0V!
1X!
1#!
1]!
1P
0\!
1!!
1c!
1a!
1O
0b!
0_!
1`!
1|
0f!
0d!
1y
0h!
1j!
1K
0t!
1H
0D
0=!
0*!
14
0B!
0B
0F!
1G!
1D!
0%!
1V!
0X!
0#!
0]!
1\!
0!!
0c!
0a!
1b!
1_!
0`!
0|
1f!
1d!
0y
1h!
0j!
0A
0Z!
0Y!
0>
0g!
0=
0k!
0<
1l!
0;
1p!
0r!
0;!
0x!
09
0}!
07
0P!
0O!
05
0#"
0""
0.!
03!
0:!
09!
0*
0x
0z
0}
0&!
03
17!
16!
1"!
0~
0.
0{
0-
1$!
1/
0'!
01
10
1(
1,
0)
04!
0'
0%
#67000
b1000100010001 !
b1110111010101010 "
1S
0A!
0?!
1(!
1F!
0G!
0D!
1%!
1Z!
1Y!
0R
1G!
1D!
0%!
0Z!
0Y!
1Q
0P
1M
1J
1I
0H
1G
1F
1E
1D
1=!
1*!
04
1B!
1@
1]!
1<
0l!
18
1K!
1x
13
1.!
10!
13!
1:!
19!
1<!
1z
1&!
0)!
1,!
1+!
1'!
11
03
1{
1-
1*
1)
14!
1'
11!
1&
1%
0,
#77000
b101010101010101 !
b1010101010101010 "
0J
0F
1B
0E!
0C!
1%!
1Z!
1Y!
0W!
1X!
1#!
0[!
1!!
1c!
1a!
0b!
0_!
1`!
1|
1g!
1>
0f!
0d!
1y
1k!
0i!
1j!
1:
1x!
16
1U!
1T!
1}
0{
0-
1)!
0'!
01
00
0/
02
#87000
b1000000001010001 !
b1000000010000110 "
1R
0G!
0D!
0Q
1W!
0X!
0#!
1[!
0!!
0c!
0a!
1b!
1_!
0`!
0|
1f!
1d!
0y
0k!
1i!
0j!
0O
0K
1t!
0I
0G
0B
1E!
1C!
0<
1l!
0:
0x!
08
0K!
06
0U!
0T!
15
1#"
1""
0!"
1$
0.!
00!
07!
06!
0<!
0x
03!
0:!
09!
0v
0"!
0&!
10
1~
1.
1{
1-
1'!
11
1+
0)
04!
0'
1,
0*
0(
01!
0&
0%
#92000
b1111101011011100 !
b11011100 "
0S
1A!
1?!
0(!
0F!
1G!
1D!
0%!
0Z!
0Y!
1Q
1P
0\!
1!!
1c!
1a!
1N
0e!
1y
1k!
0i!
1j!
0E
1!"
0$
0D
0=!
0*!
14
0B!
1B
1F!
0G!
0D!
1%!
1Z!
1Y!
0W!
1X!
1#!
0[!
1A
0V!
1=
0h!
1;
0p!
1r!
1;!
1x!
19
1}!
18
1K!
17
1P!
1O!
16
1U!
1T!
10!
13!
17!
16!
1:!
19!
1v
1*
0z
0)!
00
13
1.!
0}
0$!
1/
0,!
0+!
03
10
0~
0.
1%
0+
1)
1(
14!
1'
11!
1&
#94000
b100000010010110 !
b10000001001000 "
0R
1G!
1D!
0%!
1V!
0P
1\!
0M
1i!
1G
0M!
1N!
1/!
0S!
0Q!
1-!
0~!
1$
1C
1B!
0A
0Z!
0Y!
1W!
0X!
0#!
1[!
0!!
0c!
0a!
0>
0g!
1e!
0y
1h!
0j!
0;
1p!
0r!
0;!
0x!
09
0}!
08
0K!
07
0P!
0O!
1M!
0N!
0/!
1S!
1Q!
0-!
1~!
0$
05
0#"
0""
0.!
07!
06!
0:!
09!
0v
0*
1}
0{
0-
1&!
00
0/
1,!
1+!
0%
1z
1$!
1)!
12
10
1{
1-
13
1~
1.
1+
0)
0(
#104000
b1000000100100 !
b1000000110010010 "
1S
0A!
0?!
1(!
0E!
0C!
1%!
1Z!
1Y!
0W!
1X!
1#!
0[!
1!!
1c!
1a!
0Q
1W!
0X!
0#!
1[!
0!!
0c!
0a!
1P
0\!
1!!
1c!
1a!
0N
1M
0i!
1j!
1L
0o!
0G
1E
0C
0B!
0@
0]!
1\!
0!!
0c!
0a!
1?
1c!
1a!
0=
0k!
1i!
0j!
18
1K!
06
0U!
0T!
00!
17!
16!
1"!
1.!
03!
1x
0}
0&!
02
1/
0~
0.
0,
04!
0'
1%
1(
01!
0&
#204000
b0 !
b1 "
1T
1=!
1*!
04
1B!
0S
1A!
1?!
0(!
1E!
1C!
0%!
0Z!
0Y!
0P
0M
0L
1o!
0E
0B
0F!
0?
0c!
0a!
08
0K!
07!
06!
0"!
0)!
0.!
0x
0z
0$!
0,!
0+!
0'!
01
00
0{
0-
1,
0%
0/
0(
