lockednetlistsimulation/partial_key_simulation_random/64aor/xnor_based_ripple_carry_adder/sim/xnor_based_ripple_carry_adder32_gatesim.vcd
$date
	Thu Oct  1 11:20:51 2020
$end
$version
	ModelSim Version 6.6d
$end
$timescale
	1ps
$end
$scope module xnor_based_ripple_carry_adder32_tb $end
$var reg 32 ! add1_i [31:0] $end
$var reg 32 " add2_i [31:0] $end
$var reg 64 # keyinput [63:0] $end
$var wire 1 $ result_o [32] $end
$var wire 1 % result_o [31] $end
$var wire 1 & result_o [30] $end
$var wire 1 ' result_o [29] $end
$var wire 1 ( result_o [28] $end
$var wire 1 ) result_o [27] $end
$var wire 1 * result_o [26] $end
$var wire 1 + result_o [25] $end
$var wire 1 , result_o [24] $end
$var wire 1 - result_o [23] $end
$var wire 1 . result_o [22] $end
$var wire 1 / result_o [21] $end
$var wire 1 0 result_o [20] $end
$var wire 1 1 result_o [19] $end
$var wire 1 2 result_o [18] $end
$var wire 1 3 result_o [17] $end
$var wire 1 4 result_o [16] $end
$var wire 1 5 result_o [15] $end
$var wire 1 6 result_o [14] $end
$var wire 1 7 result_o [13] $end
$var wire 1 8 result_o [12] $end
$var wire 1 9 result_o [11] $end
$var wire 1 : result_o [10] $end
$var wire 1 ; result_o [9] $end
$var wire 1 < result_o [8] $end
$var wire 1 = result_o [7] $end
$var wire 1 > result_o [6] $end
$var wire 1 ? result_o [5] $end
$var wire 1 @ result_o [4] $end
$var wire 1 A result_o [3] $end
$var wire 1 B result_o [2] $end
$var wire 1 C result_o [1] $end
$var wire 1 D result_o [0] $end
$scope module xrca $end
$var wire 1 E add1_i [31] $end
$var wire 1 F add1_i [30] $end
$var wire 1 G add1_i [29] $end
$var wire 1 H add1_i [28] $end
$var wire 1 I add1_i [27] $end
$var wire 1 J add1_i [26] $end
$var wire 1 K add1_i [25] $end
$var wire 1 L add1_i [24] $end
$var wire 1 M add1_i [23] $end
$var wire 1 N add1_i [22] $end
$var wire 1 O add1_i [21] $end
$var wire 1 P add1_i [20] $end
$var wire 1 Q add1_i [19] $end
$var wire 1 R add1_i [18] $end
$var wire 1 S add1_i [17] $end
$var wire 1 T add1_i [16] $end
$var wire 1 U add1_i [15] $end
$var wire 1 V add1_i [14] $end
$var wire 1 W add1_i [13] $end
$var wire 1 X add1_i [12] $end
$var wire 1 Y add1_i [11] $end
$var wire 1 Z add1_i [10] $end
$var wire 1 [ add1_i [9] $end
$var wire 1 \ add1_i [8] $end
$var wire 1 ] add1_i [7] $end
$var wire 1 ^ add1_i [6] $end
$var wire 1 _ add1_i [5] $end
$var wire 1 ` add1_i [4] $end
$var wire 1 a add1_i [3] $end
$var wire 1 b add1_i [2] $end
$var wire 1 c add1_i [1] $end
$var wire 1 d add1_i [0] $end
$var wire 1 e add2_i [31] $end
$var wire 1 f add2_i [30] $end
$var wire 1 g add2_i [29] $end
$var wire 1 h add2_i [28] $end
$var wire 1 i add2_i [27] $end
$var wire 1 j add2_i [26] $end
$var wire 1 k add2_i [25] $end
$var wire 1 l add2_i [24] $end
$var wire 1 m add2_i [23] $end
$var wire 1 n add2_i [22] $end
$var wire 1 o add2_i [21] $end
$var wire 1 p add2_i [20] $end
$var wire 1 q add2_i [19] $end
$var wire 1 r add2_i [18] $end
$var wire 1 s add2_i [17] $end
$var wire 1 t add2_i [16] $end
$var wire 1 u add2_i [15] $end
$var wire 1 v add2_i [14] $end
$var wire 1 w add2_i [13] $end
$var wire 1 x add2_i [12] $end
$var wire 1 y add2_i [11] $end
$var wire 1 z add2_i [10] $end
$var wire 1 { add2_i [9] $end
$var wire 1 | add2_i [8] $end
$var wire 1 } add2_i [7] $end
$var wire 1 ~ add2_i [6] $end
$var wire 1 !! add2_i [5] $end
$var wire 1 "! add2_i [4] $end
$var wire 1 #! add2_i [3] $end
$var wire 1 $! add2_i [2] $end
$var wire 1 %! add2_i [1] $end
$var wire 1 &! add2_i [0] $end
$var wire 1 '! keyinput [63] $end
$var wire 1 (! keyinput [62] $end
$var wire 1 )! keyinput [61] $end
$var wire 1 *! keyinput [60] $end
$var wire 1 +! keyinput [59] $end
$var wire 1 ,! keyinput [58] $end
$var wire 1 -! keyinput [57] $end
$var wire 1 .! keyinput [56] $end
$var wire 1 /! keyinput [55] $end
$var wire 1 0! keyinput [54] $end
$var wire 1 1! keyinput [53] $end
$var wire 1 2! keyinput [52] $end
$var wire 1 3! keyinput [51] $end
$var wire 1 4! keyinput [50] $end
$var wire 1 5! keyinput [49] $end
$var wire 1 6! keyinput [48] $end
$var wire 1 7! keyinput [47] $end
$var wire 1 8! keyinput [46] $end
$var wire 1 9! keyinput [45] $end
$var wire 1 :! keyinput [44] $end
$var wire 1 ;! keyinput [43] $end
$var wire 1 <! keyinput [42] $end
$var wire 1 =! keyinput [41] $end
$var wire 1 >! keyinput [40] $end
$var wire 1 ?! keyinput [39] $end
$var wire 1 @! keyinput [38] $end
$var wire 1 A! keyinput [37] $end
$var wire 1 B! keyinput [36] $end
$var wire 1 C! keyinput [35] $end
$var wire 1 D! keyinput [34] $end
$var wire 1 E! keyinput [33] $end
$var wire 1 F! keyinput [32] $end
$var wire 1 G! keyinput [31] $end
$var wire 1 H! keyinput [30] $end
$var wire 1 I! keyinput [29] $end
$var wire 1 J! keyinput [28] $end
$var wire 1 K! keyinput [27] $end
$var wire 1 L! keyinput [26] $end
$var wire 1 M! keyinput [25] $end
$var wire 1 N! keyinput [24] $end
$var wire 1 O! keyinput [23] $end
$var wire 1 P! keyinput [22] $end
$var wire 1 Q! keyinput [21] $end
$var wire 1 R! keyinput [20] $end
$var wire 1 S! keyinput [19] $end
$var wire 1 T! keyinput [18] $end
$var wire 1 U! keyinput [17] $end
$var wire 1 V! keyinput [16] $end
$var wire 1 W! keyinput [15] $end
$var wire 1 X! keyinput [14] $end
$var wire 1 Y! keyinput [13] $end
$var wire 1 Z! keyinput [12] $end
$var wire 1 [! keyinput [11] $end
$var wire 1 \! keyinput [10] $end
$var wire 1 ]! keyinput [9] $end
$var wire 1 ^! keyinput [8] $end
$var wire 1 _! keyinput [7] $end
$var wire 1 `! keyinput [6] $end
$var wire 1 a! keyinput [5] $end
$var wire 1 b! keyinput [4] $end
$var wire 1 c! keyinput [3] $end
$var wire 1 d! keyinput [2] $end
$var wire 1 e! keyinput [1] $end
$var wire 1 f! keyinput [0] $end
$var wire 1 $ result_o [32] $end
$var wire 1 % result_o [31] $end
$var wire 1 & result_o [30] $end
$var wire 1 ' result_o [29] $end
$var wire 1 ( result_o [28] $end
$var wire 1 ) result_o [27] $end
$var wire 1 * result_o [26] $end
$var wire 1 + result_o [25] $end
$var wire 1 , result_o [24] $end
$var wire 1 - result_o [23] $end
$var wire 1 . result_o [22] $end
$var wire 1 / result_o [21] $end
$var wire 1 0 result_o [20] $end
$var wire 1 1 result_o [19] $end
$var wire 1 2 result_o [18] $end
$var wire 1 3 result_o [17] $end
$var wire 1 4 result_o [16] $end
$var wire 1 5 result_o [15] $end
$var wire 1 6 result_o [14] $end
$var wire 1 7 result_o [13] $end
$var wire 1 8 result_o [12] $end
$var wire 1 9 result_o [11] $end
$var wire 1 : result_o [10] $end
$var wire 1 ; result_o [9] $end
$var wire 1 < result_o [8] $end
$var wire 1 = result_o [7] $end
$var wire 1 > result_o [6] $end
$var wire 1 ? result_o [5] $end
$var wire 1 @ result_o [4] $end
$var wire 1 A result_o [3] $end
$var wire 1 B result_o [2] $end
$var wire 1 C result_o [1] $end
$var wire 1 D result_o [0] $end
$var wire 1 g! n345 $end
$var wire 1 h! xenc57 $end
$var wire 1 i! n203 $end
$var wire 1 j! n331 $end
$var wire 1 k! xenc1 $end
$var wire 1 l! n228 $end
$var wire 1 m! n237 $end
$var wire 1 n! xenc9 $end
$var wire 1 o! n250 $end
$var wire 1 p! xenc46 $end
$var wire 1 q! n284 $end
$var wire 1 r! n288 $end
$var wire 1 s! n292 $end
$var wire 1 t! n296 $end
$var wire 1 u! xenc53 $end
$var wire 1 v! xenc19 $end
$var wire 1 w! n190 $end
$var wire 1 x! n199 $end
$var wire 1 y! n216 $end
$var wire 1 z! n267 $end
$var wire 1 {! n277 $end
$var wire 1 |! n348 $end
$var wire 1 }! n326 $end
$var wire 1 ~! xenc26 $end
$var wire 1 !" n327 $end
$var wire 1 "" xenc23 $end
$var wire 1 #" n328 $end
$var wire 1 $" n217 $end
$var wire 1 %" xenc33 $end
$var wire 1 &" n218 $end
$var wire 1 '" n325 $end
$var wire 1 (" xenc28 $end
$var wire 1 )" n340 $end
$var wire 1 *" n274 $end
$var wire 1 +" n329 $end
$var wire 1 ," xenc41 $end
$var wire 1 -" n201 $end
$var wire 1 ." n322 $end
$var wire 1 /" xenc58 $end
$var wire 1 0" n339 $end
$var wire 1 1" xenc21 $end
$var wire 1 2" n321 $end
$var wire 1 3" xenc47 $end
$var wire 1 4" n313 $end
$var wire 1 5" n335 $end
$var wire 1 6" n195 $end
$var wire 1 7" n320 $end
$var wire 1 8" n248 $end
$var wire 1 9" n251 $end
$var wire 1 :" n249 $end
$var wire 1 ;" n187 $end
$var wire 1 <" xenc61 $end
$var wire 1 =" n300 $end
$var wire 1 >" xenc16 $end
$var wire 1 ?" n260 $end
$var wire 1 @" xenc14 $end
$var wire 1 A" xenc56 $end
$var wire 1 B" xenc50 $end
$var wire 1 C" n206 $end
$var wire 1 D" n343 $end
$var wire 1 E" n342 $end
$var wire 1 F" n346 $end
$var wire 1 G" n214 $end
$var wire 1 H" n330 $end
$var wire 1 I" n332 $end
$var wire 1 J" n209 $end
$var wire 1 K" n208 $end
$var wire 1 L" n333 $end
$var wire 1 M" n268 $end
$var wire 1 N" n334 $end
$var wire 1 O" xenc60 $end
$var wire 1 P" n270 $end
$var wire 1 Q" n273 $end
$var wire 1 R" n336 $end
$var wire 1 S" n212 $end
$var wire 1 T" n213 $end
$var wire 1 U" n337 $end
$var wire 1 V" n235 $end
$var wire 1 W" n236 $end
$var wire 1 X" n338 $end
$var wire 1 Y" n269 $end
$var wire 1 Z" xenc4 $end
$var wire 1 [" xenc52 $end
$var wire 1 \" n341 $end
$var wire 1 ]" n264 $end
$var wire 1 ^" n263 $end
$var wire 1 _" n242 $end
$var wire 1 `" n241 $end
$var wire 1 a" n188 $end
$var wire 1 b" n344 $end
$var wire 1 c" n238 $end
$var wire 1 d" n350 $end
$var wire 1 e" xenc12 $end
$var wire 1 f" n347 $end
$var wire 1 g" n349 $end
$var wire 1 h" n276 $end
$var wire 1 i" n285 $end
$var wire 1 j" n293 $end
$var wire 1 k" n351 $end
$var wire 1 l" n352 $end
$var wire 1 m" xenc6 $end
$var wire 1 n" n281 $end
$var wire 1 o" xenc11 $end
$var wire 1 p" n280 $end
$var wire 1 q" n367 $end
$var wire 1 r" n353 $end
$var wire 1 s" n362 $end
$var wire 1 t" n355 $end
$var wire 1 u" n354 $end
$var wire 1 v" n356 $end
$var wire 1 w" n259 $end
$var wire 1 x" n297 $end
$var wire 1 y" xenc0 $end
$var wire 1 z" n211 $end
$var wire 1 {" n210 $end
$var wire 1 |" n357 $end
$var wire 1 }" n361 $end
$var wire 1 ~" n358 $end
$var wire 1 !# n360 $end
$var wire 1 "# n234 $end
$var wire 1 ## xenc51 $end
$var wire 1 $# n233 $end
$var wire 1 %# n359 $end
$var wire 1 &# xenc15 $end
$var wire 1 '# xenc39 $end
$var wire 1 (# xenc54 $end
$var wire 1 )# n255 $end
$var wire 1 *# n215 $end
$var wire 1 +# n200 $end
$var wire 1 ,# n183 $end
$var wire 1 -# n193 $end
$var wire 1 .# n181 $end
$var wire 1 /# n189 $end
$var wire 1 0# xenc30 $end
$var wire 1 1# n192 $end
$var wire 1 2# n369 $end
$var wire 1 3# xenc5 $end
$var wire 1 4# n366 $end
$var wire 1 5# n365 $end
$var wire 1 6# n319 $end
$var wire 1 7# xenc20 $end
$var wire 1 8# n178 $end
$var wire 1 9# n221 $end
$var wire 1 :# n363 $end
$var wire 1 ;# n246 $end
$var wire 1 <# xenc38 $end
$var wire 1 =# n315 $end
$var wire 1 ># xenc34 $end
$var wire 1 ?# xenc49 $end
$var wire 1 @# n272 $end
$var wire 1 A# n364 $end
$var wire 1 B# n186 $end
$var wire 1 C# xenc3 $end
$var wire 1 D# n198 $end
$var wire 1 E# n196 $end
$var wire 1 F# n265 $end
$var wire 1 G# n266 $end
$var wire 1 H# n305 $end
$var wire 1 I# n302 $end
$var wire 1 J# n304 $end
$var wire 1 K# n239 $end
$var wire 1 L# n310 $end
$var wire 1 M# xenc48 $end
$var wire 1 N# n309 $end
$var wire 1 O# xenc36 $end
$var wire 1 P# xenc43 $end
$var wire 1 Q# n316 $end
$var wire 1 R# n312 $end
$var wire 1 S# n179 $end
$var wire 1 T# xenc10 $end
$var wire 1 U# n318 $end
$var wire 1 V# n317 $end
$var wire 1 W# n324 $end
$var wire 1 X# xenc31 $end
$var wire 1 Y# n368 $end
$var wire 1 Z# n202 $end
$var wire 1 [# n323 $end
$var wire 1 \# n290 $end
$var wire 1 ]# n298 $end
$var wire 1 ^# n307 $end
$var wire 1 _# xenc55 $end
$var wire 1 `# n220 $end
$var wire 1 a# xenc13 $end
$var wire 1 b# n294 $end
$var wire 1 c# xenc18 $end
$var wire 1 d# n301 $end
$var wire 1 e# n303 $end
$var wire 1 f# n244 $end
$var wire 1 g# n243 $end
$var wire 1 h# xenc8 $end
$var wire 1 i# n261 $end
$var wire 1 j# xenc40 $end
$var wire 1 k# n231 $end
$var wire 1 l# xenc24 $end
$var wire 1 m# n204 $end
$var wire 1 n# n253 $end
$var wire 1 o# n279 $end
$var wire 1 p# n278 $end
$var wire 1 q# n207 $end
$var wire 1 r# n257 $end
$var wire 1 s# xenc42 $end
$var wire 1 t# n256 $end
$var wire 1 u# n283 $end
$var wire 1 v# n282 $end
$var wire 1 w# n306 $end
$var wire 1 x# n314 $end
$var wire 1 y# xenc63 $end
$var wire 1 z# n286 $end
$var wire 1 {# n308 $end
$var wire 1 |# n311 $end
$var wire 1 }# xenc22 $end
$var wire 1 ~# xenc37 $end
$var wire 1 !$ n180 $end
$var wire 1 "$ n219 $end
$var wire 1 #$ n229 $end
$var wire 1 $$ n226 $end
$var wire 1 %$ xenc27 $end
$var wire 1 &$ n240 $end
$var wire 1 '$ n254 $end
$var wire 1 ($ n252 $end
$var wire 1 )$ xenc7 $end
$var wire 1 *$ n291 $end
$var wire 1 +$ n289 $end
$var wire 1 ,$ xenc45 $end
$var wire 1 -$ xenc29 $end
$var wire 1 .$ xenc35 $end
$var wire 1 /$ xenc62 $end
$var wire 1 0$ xenc25 $end
$var wire 1 1$ n205 $end
$var wire 1 2$ n197 $end
$var wire 1 3$ xenc17 $end
$var wire 1 4$ n191 $end
$var wire 1 5$ n225 $end
$var wire 1 6$ n227 $end
$var wire 1 7$ xenc59 $end
$var wire 1 8$ n224 $end
$var wire 1 9$ n222 $end
$var wire 1 :$ n245 $end
$var wire 1 ;$ n258 $end
$var wire 1 <$ xenc32 $end
$var wire 1 =$ n299 $end
$var wire 1 >$ xenc44 $end
$var wire 1 ?$ xenc2 $end
$var wire 1 @$ n223 $end
$var wire 1 A$ n230 $end
$var wire 1 B$ n232 $end
$var wire 1 C$ n262 $end
$var wire 1 D$ n275 $end
$var wire 1 E$ n287 $end
$var wire 1 F$ n295 $end
$upscope $end
$upscope $end
$enddefinitions $end
#0
$dumpvars
b0 !
b0 "
b11110111100110011110110010011001011000110111000001101111111110 #
1D
0C
0B
0A
0@
0?
0>
0=
0<
0;
0:
09
08
07
06
05
04
03
02
01
00
0/
0.
0-
0,
0+
0*
0)
0(
0'
0&
0%
0$
0g!
0h!
0i!
0j!
0k!
0l!
0m!
0n!
0o!
0p!
0q!
0r!
0s!
0t!
0u!
0v!
0w!
0x!
0y!
0z!
0{!
1|!
0}!
0~!
1!"
1""
0#"
1$"
1%"
1&"
1'"
0("
1)"
1*"
0+"
0,"
0-"
1."
0/"
10"
11"
12"
13"
04"
05"
06"
17"
18"
09"
1:"
0;"
0<"
0="
0>"
0?"
0@"
0A"
0B"
0C"
1D"
1E"
1F"
0G"
1H"
1I"
1J"
1K"
0L"
0M"
0N"
0O"
1P"
0Q"
0R"
1S"
1T"
0U"
1V"
1W"
0X"
1Y"
1Z"
1["
0\"
0]"
0^"
0_"
0`"
0a"
1b"
0c"
1d"
0e"
0f"
1g"
0h"
0i"
0j"
1k"
1l"
0m"
0n"
1o"
0p"
0q"
1r"
1s"
1t"
1u"
1v"
0w"
0x"
1y"
0z"
0{"
0|"
1}"
1~"
1!#
0"#
1##
0$#
1%#
0&#
0'#
1(#
0)#
0*#
1+#
0,#
1-#
0.#
1/#
00#
01#
12#
03#
14#
15#
16#
17#
18#
09#
0:#
0;#
0<#
1=#
1>#
0?#
0@#
1A#
1B#
0C#
0D#
1E#
0F#
1G#
0H#
1I#
0J#
1K#
1L#
1M#
0N#
1O#
0P#
1Q#
0R#
1S#
0T#
1U#
0V#
1W#
1X#
1Y#
1Z#
1[#
1\#
1]#
1^#
1_#
1`#
1a#
1b#
1c#
0d#
1e#
1f#
1g#
0h#
1i#
0j#
1k#
1l#
1m#
1n#
1o#
1p#
0q#
1r#
1s#
0t#
1u#
1v#
0w#
1x#
0y#
1z#
1{#
1|#
1}#
0~#
1!$
1"$
1#$
0$$
1%$
1&$
1'$
0($
1)$
1*$
0+$
1,$
1-$
1.$
0/$
00$
11$
02$
13$
04$
15$
06$
07$
08$
19$
0:$
1;$
1<$
1=$
1>$
0?$
0@$
1A$
1B$
1C$
1D$
1E$
1F$
0f!
1e!
1d!
1c!
1b!
1a!
1`!
1_!
1^!
1]!
0\!
1[!
1Z!
0Y!
0X!
0W!
0V!
0U!
1T!
1S!
1R!
0Q!
1P!
1O!
0N!
0M!
0L!
1K!
1J!
0I!
1H!
0G!
0F!
1E!
1D!
0C!
0B!
1A!
0@!
0?!
1>!
1=!
0<!
1;!
1:!
19!
18!
07!
06!
15!
14!
03!
02!
11!
10!
1/!
1.!
0-!
1,!
1+!
1*!
1)!
0(!
0'!
0&!
0%!
0$!
0#!
0"!
0!!
0~
0}
0|
0{
0z
0y
0x
0w
0v
0u
0t
0s
0r
0q
0p
0o
0n
0m
0l
0k
0j
0i
0h
0g
0f
0e
0d
0c
0b
0a
0`
0_
0^
0]
0\
0[
0Z
0Y
0X
0W
0V
0U
0T
0S
0R
0Q
0P
0O
0N
0M
0L
0K
0J
0I
0H
0G
0F
0E
$end
#10000
b101001101011110010010000110000 !
b1111010000110111001101010111100 "
1$!
1#!
0+#
1,#
1,"
1"!
1!!
1}
1{
1y
1x
1u
1t
1s
1q
1p
1k
1i
0B#
18$
1h
1g
1f
1`
02"
0I"
10$
1?
14"
1_
1D#
0E#
1>
1Z
1H#
1J#
1v!
1W
0d"
1T
0l"
0o"
1S
0|!
1R
1@#
0A#
0>#
1R"
1O"
1Q
0E"
1O
0}"
0(#
1M
1:$
1h#
1L
0D"
1I
1@$
17$
09$
07#
19#
0`#
1*#
1G
0S"
1z"
1U"
0s"
1{"
1~!
0J"
1q#
1&#
1L"
0!"
0""
1#"
0A$
0}#
0#$
16$
1k!
1`"
1f"
1n!
1:#
1)#
1@"
1^"
1>"
0C$
0<$
1w"
1?#
12
1}!
1/"
00"
0Y"
1]"
0i#
1A#
1>#
1h"
0D$
0l#
1Q"
1p"
1p!
0o#
1{!
0*"
1+"
1("
0)"
1s!
1:
1'
1l!
1+
10
15
1u!
18
19
1<"
1;
1w!
1i!
1y!
0%#
0%"
17
0}!
0/"
10"
0h"
1D$
1l#
0?#
02
0^"
0>"
1C$
1<$
1?"
0r#
1t#
1'#
0n#
1($
1y#
19"
1o!
1/
1<#
1-
1,
1C"
1%
00
0)#
0@"
1.
11
13
0/
#20000
b10001000000000011010001010110 !
b10001000100010010001100100011 "
1&!
0r"
1N"
1e"
0$"
1%!
0&"
1F#
0'"
1-"
0Z#
02#
13#
1@
0$!
0#!
1+#
03#
0@
0,#
0,"
0"!
12"
1I"
00$
0?
04"
0}
1|
0y
0x
1w
0*$
1+$
1m"
0u
0s
0q
1l
0&$
1c"
0k
0i
1B#
08$
19$
17#
09#
1`#
0*#
1S"
0z"
0U"
1#$
06$
0k!
0g
0f
1J"
0q#
0&#
0L"
1c
1q"
0F#
1M"
1b
0_
0D#
1E#
0>
1^
1X
0t"
0y"
0T
1l"
1o"
0S
1*"
0Q"
0+"
0("
1)"
1Y"
0]"
1i#
0w"
0A#
0>#
1|!
0R
0@#
1A#
1>#
0R"
0O"
0Q
1E"
0O
1n#
0($
0y#
09"
0o!
1}"
1(#
0M
0:$
0h#
0I
0@$
07$
1H
08#
19#
0`#
1*#
0S"
1z"
1U"
0G
1S"
0z"
0U"
1s"
0l!
1A$
1}#
0:#
1)#
1@"
0.
1}!
1/"
1h"
0?"
1r#
0t#
0'#
0p"
0p!
1o#
0{!
1t!
1|"
0!$
03$
16"
0-#
1.#
0U#
1V#
1T#
0Q#
1R#
1B"
1&
0C"
0'
1G"
0H"
1j!
0{"
0~!
1!"
1""
0#"
0+
0,
1m!
01
05
07
1r!
09
1h!
1<
0w!
1Q#
0R#
1x!
0i!
1A
1z!
0G#
1C
0D
16
1+
0B"
0&
1'
0%
14
0}!
0/"
0h"
10
0)#
0@"
0<#
0-
03
#30000
b10000001000101100000100001110011 !
b11100110011100000000101111000 "
0&!
0N"
0e"
0%!
0q"
1F#
0C
1r"
0M"
1$"
1'"
0-"
1Z#
0A
12#
1#!
0+#
1,#
1,"
1"!
02"
0I"
14$
10#
0/#
1=
12$
1C#
0E#
14"
1~
06#
0,$
11#
0S#
01"
0{
0w
1*$
0+$
0m"
0t
1s
1r
15"
1q
0p
1n
1m
0l
1&$
0c"
1j
1i
0B#
18$
1d
0r"
1N"
1e"
0$"
0'"
1-"
0."
0Z#
1A
02#
0b
1_
1D#
07"
0-$
0Z
0H#
0J#
0v!
1Y
04#
0O#
0X
1t"
1y"
0W
1d"
1S
0|!
1R
1@#
0A#
0>#
1R"
1O"
0P"
1]"
1P
0u"
0H
18#
09#
1`#
0*#
1E
0!#
1C"
0G"
1H"
0j!
1l!
1?"
1^"
1>"
0C$
0<$
1w"
0;$
0s#
1t#
1'#
1}!
1/"
00"
0Y"
1A#
1>#
05"
1P"
1h"
0D$
0l#
1Q"
0s!
0t!
1="
0:
1-#
04$
00#
02$
0C#
0.#
10$
1?
1U#
0y!
1?$
1B
1%#
1%"
1'"
0-"
1."
1Z#
0A
12#
1~#
1)
1*
1,
0m!
1:#
1.
1?#
12
04
0r!
0<"
0;
0|"
1!$
13$
1>
06"
17"
1-$
0x!
1i!
06
1<#
1-
0+
19
0u!
08
0?"
1)#
1@"
1(
0'
1%
1/
00
#35000
b100000001000000010000000010010 !
b11011110101011011011111011101111 "
1&!
1%!
1q"
0F#
1C
1M"
1$!
0"!
12"
1I"
00$
0?
1}
0|
1{
1z
1y
0=$
1x"
1x
1w
1u
1t
0s
1D$
1l#
0Q"
10"
1Y"
0]"
0A#
0>#
15"
0P"
1]"
1o
0'$
1($
1y#
19"
1o!
0:"
1;#
1:$
1h#
0f#
1_"
0K#
0%$
1c"
0n
1:"
0;#
0:$
0h#
1f#
0_"
1K#
1%$
0c"
1k
1f
1e
01$
0.$
1/$
1$
0d
0_
0D#
1E#
0>
0^
16#
1,$
01#
1S#
11"
0V#
0T#
04"
1/#
0=
0Y
14#
1O#
1W
0d"
0S
1|!
0R
0@#
1A#
1>#
0R"
0O"
1P"
0]"
0P
1;$
1s#
0t#
0'#
1u"
1O
0}"
0(#
0L
1D"
1G
0s"
0E
1!#
0C"
11$
1.$
0/$
0$
1G"
0H"
1j!
1?"
0}!
0/"
0h"
1s!
0*$
1+$
1m"
0="
1=$
0x"
1|"
0!$
03$
16"
0-#
1.#
0U#
1V#
1T#
1B"
1&
1+
0/
0`"
0f"
0n!
0^"
0>"
1C$
1<$
0w"
14
15
1u!
18
1:
1<"
1;
0h!
0<
1w!
0Q#
1R#
1x!
1y!
0?$
0B
0%#
0%"
0'"
1-"
0."
0I"
14$
10#
0/#
12$
1C#
0E#
14"
0x#
0Z#
02#
1a"
0b"
1g!
11
0?"
0,
1r!
1'
16
1h!
1<
#43000
b10001001010000111101111010101111 !
b11011010101011011011101010101101 "
0%!
0q"
1F#
0C
0M"
0~
0z
0j
1d
1b
0W#
0Y#
1a
0[#
0X#
0`
1_
1D#
07"
0-$
11#
0S#
01"
1]
0=#
03"
1[
05#
1Z
1H#
1J#
1v!
1Y
04#
0O#
1X
0t"
0y"
0W
1d"
1V
0z#
1i"
0k"
1U
0v#
1n"
0g"
1T
0p#
1{!
0l"
0o"
1S
0*"
1Q"
1@#
0A#
0>#
1R"
1O"
0P"
1]"
1+"
1("
0|!
0O
1}"
1(#
1N
08"
1;#
1:$
1h#
0f#
1_"
0o!
1L
0K#
0%$
1c"
0D"
1I
1@$
17$
09$
07#
19#
0`#
1*#
0S"
1z"
1U"
0G
1S"
0z"
0U"
1s"
1E
0!#
1C"
01$
0.$
1/$
1$
0A$
0}#
0#$
16$
1k!
1m!
0W"
1"#
1X"
1j#
0.
0<#
0-
0)#
0@"
1'$
0($
0y#
18"
0;#
0:$
0h#
1f#
0_"
1K#
1%$
0c"
1o!
1^"
1>"
0C$
0<$
1w"
0?#
02
0r!
0s!
1*$
0+$
0m"
1z#
0i"
1v#
0n"
1p#
0{!
1*"
0Q"
0@#
1A#
1>#
0R"
0O"
1P"
0]"
0+"
0("
1t!
0F$
0a#
1j"
1="
0=$
1x"
0b#
1;"
0{#
1w#
0I#
1d#
1P#
0]#
0>$
0J#
0v!
0w!
1Q#
1=
1-#
04$
00#
02$
0C#
0.#
10$
1?
1U#
0x!
13#
1@
1."
1I"
00$
0?
0i!
1A
0y!
1?$
1B
1%#
1%"
1'"
0z!
1D
0*
0:
0|"
1!$
13$
1>
06"
17"
1-$
01#
1S#
11"
0V#
0T#
1/#
0=
0<"
0;
0="
1=$
0t!
1F$
1a#
1s!
0*$
1+$
1m"
0z#
1i"
0v#
1n"
0p#
1{!
0*"
1Q"
1@#
0A#
0>#
1R"
1O"
0P"
1]"
1+"
1("
06
01
1?"
1/
1.
1<#
1-
1`"
1f"
1n!
0m!
1W"
0"#
0X"
0j#
0~#
0)
0(
0%
1,
10
#53000
b10101011110011010001001000110100 !
b0 "
0&!
0$!
1W#
1Z#
0A
0#!
1[#
1X#
12#
03#
0@
1Y#
0-"
0!!
0D#
1E#
0>
0}
1=#
13"
0R#
1x#
04"
0{
1{#
0w#
1I#
0d#
0P#
1]#
1>$
0x"
1b#
0j"
1J#
1v!
0y
0x
0w
1*$
0+$
0m"
1z#
0i"
1v#
0n"
1p#
0{!
1*"
0Q"
0@#
1A#
1>#
0R"
0O"
1P"
0]"
0+"
0("
0u
0t
0r
05"
0q
1C$
1<$
0w"
0o
0m
0k
0i
1B#
08$
19$
17#
09#
1`#
0*#
1#$
06$
0k!
0h
0f
0e
11$
1.$
0/$
0$
0d
1G#
1r"
0?$
0B
0N"
0e"
1$"
0c
1&"
0F#
0a
1+#
0,#
0,"
1`
0]
0Z
0H#
0J#
0v!
0Y
14#
1O#
0V
1k"
0U
1g"
0S
1|!
1R
1@#
0A#
0>#
1R"
1O"
1Q
0E"
1M
1:$
1h#
1K
0F"
1G
0s"
1m!
1x!
1%
0B"
0&
0l!
1~#
1)
0/
11
0?"
04
05
17
1p"
1p!
1?#
12
0u!
08
09
1<"
1;
1t!
0s!
0a"
1b"
0g!
0-#
1.#
1y!
0%#
0%"
0h!
0<
07
1u!
18
14
00
#63000
b0 !
b10010001101000101011001111000 "
1#!
0+#
1,#
1,"
1"!
02"
0I"
12$
1C#
0E#
1>
14"
1!!
1D#
1~
1{
0{#
1w#
1H#
1J#
1v!
1z
0e#
0c#
1d#
1P#
1x
0F$
0a#
1j"
1v
1r
15"
0P"
1]"
0i#
1w"
1p
1o
1k
0W"
1"#
1X"
1j#
1h
0b
0`
12"
1I"
02$
0C#
04"
0_
0D#
1E#
0>
0[
15#
0X
1t"
1y"
0T
1l"
1o"
0R
0@#
1A#
1>#
0R"
0O"
1P"
0]"
1i#
0w"
0Q
1E"
0N
09"
0o!
0M
0:$
0h#
0L
1D"
0K
1F"
0I
0@$
07$
0G
1s"
0E
1!#
0C"
0G"
1H"
0j!
1A$
1}#
0m!
1W"
0"#
0X"
0j#
0`"
0f"
0n!
0:#
0.
0p"
0p!
0t!
1F$
1a#
0j"
0;"
1{#
0w#
0H#
0J#
0v!
1e#
1c#
0d#
0P#
0y!
1%#
1%"
1l!
1/
10
0^"
0>"
16
1:
1|"
0U#
1V#
1T#
0!$
03$
16"
1i!
01
1(
04
0<#
0-
0,
0~#
0)
0'
0%
#73000
b10001000100010100010001110111 !
b11101110101010100000000000000000 "
0#!
1+#
0,#
0,"
0"!
0!!
0~
0{
0z
0x
0v
1s
0r
05"
1q
0p
1m
1j
1i
0B#
18$
0h
1g
1f
1e
1d
0G#
1C
0r"
1N"
1e"
0$"
1c
0&"
1?$
1B
1F#
0C
1b
1`
1_
1^
1Z
1H#
1J#
1v!
1V
0k"
1T
0l"
0o"
1P
0u"
1L
0D"
1H
08#
19#
1`"
1f"
1n!
1?"
1p"
1p!
1r!
1y!
0?$
0B
0%#
0%"
0'"
1-"
0Z#
02#
1z!
0D
1%
1B"
1&
1'
1~#
1)
1*
1:#
11
0?#
02
13
0u!
08
0<"
0;
0i!
1A
1<#
1-
14
1,
