lockednetlistsimulation/32xor/ripple_carry_adder/sim/transcript
# //  ModelSim SE-64 6.6d Nov  1 2010 Linux 2.6.32-754.33.1.el6.x86_64
# //
# //  Copyright 1991-2010 Mentor Graphics Corporation
# //              All Rights Reserved.
# //
# //  THIS WORK CONTAINS TRADE SECRET AND 
# //  PROPRIETARY INFORMATION WHICH IS THE PROPERTY
# //  OF MENTOR GRAPHICS CORPORATION OR ITS LICENSORS
# //  AND IS SUBJECT TO LICENSE TERMS.
# //
# Loading project rca64aor
# reading /var/autofs/misc/cad/mentor/modelsim-6.6d/modeltech/linux_x86_64/../modelsim.ini
# Loading project rca32xor
# Compile of ripple_carry_adder16_tb.v was successful.
# Compile of ripple_carry_adder16_xor_enc32.v was successful.
# 2 compiles, 0 failed with no errors. 
vsim -novopt simulation.ripple_carry_adder16_tb
# vsim -novopt simulation.ripple_carry_adder16_tb 
# Refreshing /home/nayakkk/32xor/ripple_carry_adder/sim/simulation.ripple_carry_adder16_tb
# Loading simulation.ripple_carry_adder16_tb
# Refreshing /home/nayakkk/32xor/ripple_carry_adder/sim/simulation.ripple_carry_adder16_xor_enc32
# Loading simulation.ripple_carry_adder16_xor_enc32
add wave sim:/ripple_carry_adder16_tb/*
run
#                    0 add1_i= 0000, add2_i = 0000, keyinput= bdd1c4ef, result_o = 00001 
#                   10 add1_i= 29af, add2_i = 7a1b, keyinput= bdd1c4ef, result_o = 0a3cb 
#                   20 add1_i= 1100, add2_i = 1111, keyinput= bdd1c4ef, result_o = 02212 
#                   30 add1_i= 8116, add2_i = 1cce, keyinput= bdd1c4ef, result_o = 09de5 
#                   35 add1_i= 4482, add2_i = 3bcd, keyinput= bdd1c4ef, result_o = 08050 
#                   43 add1_i= 8943, add2_i = ffff, keyinput= bdd1c4ef, result_o = 18943 
#                   53 add1_i= abcd, add2_i = 0000, keyinput= bdd1c4ef, result_o = 0abce 
#                   63 add1_i= 0000, add2_i = 1234, keyinput= bdd1c4ef, result_o = 01235 
#                   73 add1_i= 1111, add2_i = eeaa, keyinput= bdd1c4ef, result_o = 0ffbc 
#                   83 add1_i= 5555, add2_i = aaaa, keyinput= bdd1c4ef, result_o = 10000 
#                   93 add1_i= 8051, add2_i = 8086, keyinput= bdd1c4ef, result_o = 100d8 
#                   98 add1_i= fadc, add2_i = 00dc, keyinput= bdd1c4ef, result_o = 0fbb9 
#                  106 add1_i= 4096, add2_i = 2048, keyinput= bdd1c4ef, result_o = 060df 
#                  116 add1_i= 1024, add2_i = 8192, keyinput= bdd1c4ef, result_o = 091b7 
#                  126 add1_i= 0000, add2_i = 0001, keyinput= bdd1c4ef, result_o = 00002 

#                  136 add1_i= 0000, add2_i = 0000, keyinput= bdd1c4ee, result_o = 01001 
#                  146 add1_i= 29af, add2_i = 7a1b, keyinput= bdd1c4ee, result_o = 093cb 
#                  156 add1_i= 1100, add2_i = 1111, keyinput= bdd1c4ee, result_o = 03212 
#                  166 add1_i= 8116, add2_i = 1cce, keyinput= bdd1c4ee, result_o = 0ade5 
#                  171 add1_i= 4482, add2_i = 3bcd, keyinput= bdd1c4ee, result_o = 07050 
#                  179 add1_i= 8943, add2_i = ffff, keyinput= bdd1c4ee, result_o = 17943 
#                  189 add1_i= abcd, add2_i = 0000, keyinput= bdd1c4ee, result_o = 0bbce 
#                  199 add1_i= 0000, add2_i = 1234, keyinput= bdd1c4ee, result_o = 02235 
#                  209 add1_i= 1111, add2_i = eeaa, keyinput= bdd1c4ee, result_o = 10fbc 
#                  219 add1_i= 5555, add2_i = aaaa, keyinput= bdd1c4ee, result_o = 0f000 
#                  229 add1_i= 8051, add2_i = 8086, keyinput= bdd1c4ee, result_o = 110d8 
#                  234 add1_i= fadc, add2_i = 00dc, keyinput= bdd1c4ee, result_o = 10bb9 
#                  242 add1_i= 4096, add2_i = 2048, keyinput= bdd1c4ee, result_o = 070df 
#                  252 add1_i= 1024, add2_i = 8192, keyinput= bdd1c4ee, result_o = 0a1b7 
#                  262 add1_i= 0000, add2_i = 0001, keyinput= bdd1c4ee, result_o = 01002 

#                  272 add1_i= 0000, add2_i = 0000, keyinput= bdd1c4ec, result_o = 01081 
#                  282 add1_i= 29af, add2_i = 7a1b, keyinput= bdd1c4ec, result_o = 0934b 
#                  292 add1_i= 1100, add2_i = 1111, keyinput= bdd1c4ec, result_o = 03292 
#                  302 add1_i= 8116, add2_i = 1cce, keyinput= bdd1c4ec, result_o = 0ae65 
#                  307 add1_i= 4482, add2_i = 3bcd, keyinput= bdd1c4ec, result_o = 08fd0 
#                  315 add1_i= 8943, add2_i = ffff, keyinput= bdd1c4ec, result_o = 178c3 
#                  325 add1_i= abcd, add2_i = 0000, keyinput= bdd1c4ec, result_o = 0bb4e 
#                  335 add1_i= 0000, add2_i = 1234, keyinput= bdd1c4ec, result_o = 022b5 
#                  345 add1_i= 1111, add2_i = eeaa, keyinput= bdd1c4ec, result_o = 0f03c 
#                  355 add1_i= 5555, add2_i = aaaa, keyinput= bdd1c4ec, result_o = 10f80 
#                  365 add1_i= 8051, add2_i = 8086, keyinput= bdd1c4ec, result_o = 11158 
#                  370 add1_i= fadc, add2_i = 00dc, keyinput= bdd1c4ec, result_o = 10b39 
#                  378 add1_i= 4096, add2_i = 2048, keyinput= bdd1c4ec, result_o = 0705f 
#                  388 add1_i= 1024, add2_i = 8192, keyinput= bdd1c4ec, result_o = 0a237 
#                  398 add1_i= 0000, add2_i = 0001, keyinput= bdd1c4ec, result_o = 01082 

#                  408 add1_i= 0000, add2_i = 0000, keyinput= bdd1c4e8, result_o = 01881 
#                  418 add1_i= 29af, add2_i = 7a1b, keyinput= bdd1c4e8, result_o = 09b4b 
#                  428 add1_i= 1100, add2_i = 1111, keyinput= bdd1c4e8, result_o = 03a92 
#                  438 add1_i= 8116, add2_i = 1cce, keyinput= bdd1c4e8, result_o = 09665 
#                  443 add1_i= 4482, add2_i = 3bcd, keyinput= bdd1c4e8, result_o = 077d0 
#                  451 add1_i= 8943, add2_i = ffff, keyinput= bdd1c4e8, result_o = 170c3 
#                  461 add1_i= abcd, add2_i = 0000, keyinput= bdd1c4e8, result_o = 0a34e 
#                  471 add1_i= 0000, add2_i = 1234, keyinput= bdd1c4e8, result_o = 02ab5 
#                  481 add1_i= 1111, add2_i = eeaa, keyinput= bdd1c4e8, result_o = 1083c 
#                  491 add1_i= 5555, add2_i = aaaa, keyinput= bdd1c4e8, result_o = 0f780 
#                  501 add1_i= 8051, add2_i = 8086, keyinput= bdd1c4e8, result_o = 11958 
#                  506 add1_i= fadc, add2_i = 00dc, keyinput= bdd1c4e8, result_o = 0f339 
#                  514 add1_i= 4096, add2_i = 2048, keyinput= bdd1c4e8, result_o = 0785f 
#                  524 add1_i= 1024, add2_i = 8192, keyinput= bdd1c4e8, result_o = 0aa37 
#                  534 add1_i= 0000, add2_i = 0001, keyinput= bdd1c4e8, result_o = 01882 

#                  544 add1_i= 0000, add2_i = 0000, keyinput= bdd1c4e0, result_o = 01801 
#                  554 add1_i= 29af, add2_i = 7a1b, keyinput= bdd1c4e0, result_o = 09bcb 
#                  564 add1_i= 1100, add2_i = 1111, keyinput= bdd1c4e0, result_o = 03a12 
#                  574 add1_i= 8116, add2_i = 1cce, keyinput= bdd1c4e0, result_o = 096e5 
#                  579 add1_i= 4482, add2_i = 3bcd, keyinput= bdd1c4e0, result_o = 07750 
#                  587 add1_i= 8943, add2_i = ffff, keyinput= bdd1c4e0, result_o = 17043 
#                  597 add1_i= abcd, add2_i = 0000, keyinput= bdd1c4e0, result_o = 0a3ce 
#                  607 add1_i= 0000, add2_i = 1234, keyinput= bdd1c4e0, result_o = 02a35 
#                  617 add1_i= 1111, add2_i = eeaa, keyinput= bdd1c4e0, result_o = 108bc 
#                  627 add1_i= 5555, add2_i = aaaa, keyinput= bdd1c4e0, result_o = 0f700 
#                  637 add1_i= 8051, add2_i = 8086, keyinput= bdd1c4e0, result_o = 119d8 
#                  642 add1_i= fadc, add2_i = 00dc, keyinput= bdd1c4e0, result_o = 0f3b9 
#                  650 add1_i= 4096, add2_i = 2048, keyinput= bdd1c4e0, result_o = 078df 
#                  660 add1_i= 1024, add2_i = 8192, keyinput= bdd1c4e0, result_o = 0aab7 
#                  670 add1_i= 0000, add2_i = 0001, keyinput= bdd1c4e0, result_o = 01802 

#                  680 add1_i= 0000, add2_i = 0000, keyinput= bdd1c480, result_o = 01a21 
#                  690 add1_i= 29af, add2_i = 7a1b, keyinput= bdd1c480, result_o = 09deb 
#                  700 add1_i= 1100, add2_i = 1111, keyinput= bdd1c480, result_o = 03a32 
#                  710 add1_i= 8116, add2_i = 1cce, keyinput= bdd1c480, result_o = 094c5 
#                  715 add1_i= 4482, add2_i = 3bcd, keyinput= bdd1c480, result_o = 07170 
#                  723 add1_i= 8943, add2_i = ffff, keyinput= bdd1c480, result_o = 17023 
#                  733 add1_i= abcd, add2_i = 0000, keyinput= bdd1c480, result_o = 0a5ee 
#                  743 add1_i= 0000, add2_i = 1234, keyinput= bdd1c480, result_o = 02c55 
#                  753 add1_i= 1111, add2_i = eeaa, keyinput= bdd1c480, result_o = 0f6dc 
#                  763 add1_i= 5555, add2_i = aaaa, keyinput= bdd1c480, result_o = 0f6e0 
#                  773 add1_i= 8051, add2_i = 8086, keyinput= bdd1c480, result_o = 11bf8 
#                  778 add1_i= fadc, add2_i = 00dc, keyinput= bdd1c480, result_o = 0f599 
#                  786 add1_i= 4096, add2_i = 2048, keyinput= bdd1c480, result_o = 07aff 
#                  796 add1_i= 1024, add2_i = 8192, keyinput= bdd1c480, result_o = 0aa97 
#                  806 add1_i= 0000, add2_i = 0001, keyinput= bdd1c480, result_o = 01a22 

#                  816 add1_i= 0000, add2_i = 0000, keyinput= add1c4ef, result_o = 10001 
#                  826 add1_i= 29af, add2_i = 7a1b, keyinput= add1c4ef, result_o = 1a3cb 
#                  836 add1_i= 1100, add2_i = 1111, keyinput= add1c4ef, result_o = 12212 
#                  846 add1_i= 8116, add2_i = 1cce, keyinput= add1c4ef, result_o = 19de5 
#                  851 add1_i= 4482, add2_i = 3bcd, keyinput= add1c4ef, result_o = 18050 
#                  859 add1_i= 8943, add2_i = ffff, keyinput= add1c4ef, result_o = 18943 
#                  869 add1_i= abcd, add2_i = 0000, keyinput= add1c4ef, result_o = 1abce 
#                  879 add1_i= 0000, add2_i = 1234, keyinput= add1c4ef, result_o = 11235 
#                  889 add1_i= 1111, add2_i = eeaa, keyinput= add1c4ef, result_o = 1ffbc 
#                  899 add1_i= 5555, add2_i = aaaa, keyinput= add1c4ef, result_o = 00000 
#                  909 add1_i= 8051, add2_i = 8086, keyinput= add1c4ef, result_o = 000d8 
#                  914 add1_i= fadc, add2_i = 00dc, keyinput= add1c4ef, result_o = 1fbb9 
#                  922 add1_i= 4096, add2_i = 2048, keyinput= add1c4ef, result_o = 160df 
#                  932 add1_i= 1024, add2_i = 8192, keyinput= add1c4ef, result_o = 191b7 
#                  942 add1_i= 0000, add2_i = 0001, keyinput= add1c4ef, result_o = 10002 

#                  952 add1_i= 0000, add2_i = 0000, keyinput= 8dd1c4ef, result_o = 10002 
#                  962 add1_i= 29af, add2_i = 7a1b, keyinput= 8dd1c4ef, result_o = 1a3c9 
#                  972 add1_i= 1100, add2_i = 1111, keyinput= 8dd1c4ef, result_o = 12211 
#                  982 add1_i= 8116, add2_i = 1cce, keyinput= 8dd1c4ef, result_o = 19de6 
#                  987 add1_i= 4482, add2_i = 3bcd, keyinput= 8dd1c4ef, result_o = 1804f 
#                  995 add1_i= 8943, add2_i = ffff, keyinput= 8dd1c4ef, result_o = 18941 
#                 1005 add1_i= abcd, add2_i = 0000, keyinput= 8dd1c4ef, result_o = 1abcd 
#                 1015 add1_i= 0000, add2_i = 1234, keyinput= 8dd1c4ef, result_o = 11236 
#                 1025 add1_i= 1111, add2_i = eeaa, keyinput= 8dd1c4ef, result_o = 1ffbb 
#                 1035 add1_i= 5555, add2_i = aaaa, keyinput= 8dd1c4ef, result_o = 1ffff 
#                 1045 add1_i= 8051, add2_i = 8086, keyinput= 8dd1c4ef, result_o = 000d7 
#                 1050 add1_i= fadc, add2_i = 00dc, keyinput= 8dd1c4ef, result_o = 1fbba 
#                 1058 add1_i= 4096, add2_i = 2048, keyinput= 8dd1c4ef, result_o = 160e0 
#                 1068 add1_i= 1024, add2_i = 8192, keyinput= 8dd1c4ef, result_o = 191b8 
#                 1078 add1_i= 0000, add2_i = 0001, keyinput= 8dd1c4ef, result_o = 10001 

#                 1088 add1_i= 0000, add2_i = 0000, keyinput= 0dd1c4ef, result_o = 10012 
#                 1098 add1_i= 29af, add2_i = 7a1b, keyinput= 0dd1c4ef, result_o = 1a3b9 
#                 1108 add1_i= 1100, add2_i = 1111, keyinput= 0dd1c4ef, result_o = 12221 
#                 1118 add1_i= 8116, add2_i = 1cce, keyinput= 0dd1c4ef, result_o = 19de6 
#                 1123 add1_i= 4482, add2_i = 3bcd, keyinput= 0dd1c4ef, result_o = 1805f 
#                 1131 add1_i= 8943, add2_i = ffff, keyinput= 0dd1c4ef, result_o = 18941 
#                 1141 add1_i= abcd, add2_i = 0000, keyinput= 0dd1c4ef, result_o = 1abdd 
#                 1151 add1_i= 0000, add2_i = 1234, keyinput= 0dd1c4ef, result_o = 11246 
#                 1161 add1_i= 1111, add2_i = eeaa, keyinput= 0dd1c4ef, result_o = 1ffcb 
#                 1171 add1_i= 5555, add2_i = aaaa, keyinput= 0dd1c4ef, result_o = 0000f 
#                 1181 add1_i= 8051, add2_i = 8086, keyinput= 0dd1c4ef, result_o = 000e7 
#                 1186 add1_i= fadc, add2_i = 00dc, keyinput= 0dd1c4ef, result_o = 1fbaa 
#                 1194 add1_i= 4096, add2_i = 2048, keyinput= 0dd1c4ef, result_o = 160e0 
#                 1204 add1_i= 1024, add2_i = 8192, keyinput= 0dd1c4ef, result_o = 191c8 
#                 1214 add1_i= 0000, add2_i = 0001, keyinput= 0dd1c4ef, result_o = 10011 

#                 1224 add1_i= 0000, add2_i = 0000, keyinput= 0cd1c4ef, result_o = 10212 
#                 1234 add1_i= 29af, add2_i = 7a1b, keyinput= 0cd1c4ef, result_o = 1a5b9 
#                 1244 add1_i= 1100, add2_i = 1111, keyinput= 0cd1c4ef, result_o = 12021 
#                 1254 add1_i= 8116, add2_i = 1cce, keyinput= 0cd1c4ef, result_o = 19fe6 
#                 1259 add1_i= 4482, add2_i = 3bcd, keyinput= 0cd1c4ef, result_o = 17e5f 
#                 1267 add1_i= 8943, add2_i = ffff, keyinput= 0cd1c4ef, result_o = 18741 
#                 1277 add1_i= abcd, add2_i = 0000, keyinput= 0cd1c4ef, result_o = 1a9dd 
#                 1287 add1_i= 0000, add2_i = 1234, keyinput= 0cd1c4ef, result_o = 11446 
#                 1297 add1_i= 1111, add2_i = eeaa, keyinput= 0cd1c4ef, result_o = 001cb 
#                 1307 add1_i= 5555, add2_i = aaaa, keyinput= 0cd1c4ef, result_o = 1fe0f 
#                 1317 add1_i= 8051, add2_i = 8086, keyinput= 0cd1c4ef, result_o = 002e7 
#                 1322 add1_i= fadc, add2_i = 00dc, keyinput= 0cd1c4ef, result_o = 1f9aa 
#                 1330 add1_i= 4096, add2_i = 2048, keyinput= 0cd1c4ef, result_o = 162e0 
#                 1340 add1_i= 1024, add2_i = 8192, keyinput= 0cd1c4ef, result_o = 193c8 
#                 1350 add1_i= 0000, add2_i = 0001, keyinput= 0cd1c4ef, result_o = 10211 

#                 1360 add1_i= 0000, add2_i = 0000, keyinput= 00d1c4ef, result_o = 10a52 
#                 1370 add1_i= 29af, add2_i = 7a1b, keyinput= 00d1c4ef, result_o = 1adf9 
#                 1380 add1_i= 1100, add2_i = 1111, keyinput= 00d1c4ef, result_o = 12861 
#                 1390 add1_i= 8116, add2_i = 1cce, keyinput= 00d1c4ef, result_o = 1a7a6 
#                 1395 add1_i= 4482, add2_i = 3bcd, keyinput= 00d1c4ef, result_o = 1861f 
#                 1403 add1_i= 8943, add2_i = ffff, keyinput= 00d1c4ef, result_o = 18f01 
#                 1413 add1_i= abcd, add2_i = 0000, keyinput= 00d1c4ef, result_o = 1b19d 
#                 1423 add1_i= 0000, add2_i = 1234, keyinput= 00d1c4ef, result_o = 11c06 
#                 1433 add1_i= 1111, add2_i = eeaa, keyinput= 00d1c4ef, result_o = 1f98b 
#                 1443 add1_i= 5555, add2_i = aaaa, keyinput= 00d1c4ef, result_o = 0064f 
#                 1453 add1_i= 8051, add2_i = 8086, keyinput= 00d1c4ef, result_o = 00aa7 
#                 1458 add1_i= fadc, add2_i = 00dc, keyinput= 00d1c4ef, result_o = 101ea 
#                 1466 add1_i= 4096, add2_i = 2048, keyinput= 00d1c4ef, result_o = 16aa0 
#                 1476 add1_i= 1024, add2_i = 8192, keyinput= 00d1c4ef, result_o = 19b88 
#                 1486 add1_i= 0000, add2_i = 0001, keyinput= 00d1c4ef, result_o = 10a51 

#                 1496 add1_i= 0000, add2_i = 0000, keyinput= bdd3c4ef, result_o = 00101 
#                 1506 add1_i= 29af, add2_i = 7a1b, keyinput= bdd3c4ef, result_o = 0a4cb 
#                 1516 add1_i= 1100, add2_i = 1111, keyinput= bdd3c4ef, result_o = 02312 
#                 1526 add1_i= 8116, add2_i = 1cce, keyinput= bdd3c4ef, result_o = 09ee5 
#                 1531 add1_i= 4482, add2_i = 3bcd, keyinput= bdd3c4ef, result_o = 08050 
#                 1539 add1_i= 8943, add2_i = ffff, keyinput= bdd3c4ef, result_o = 18943 
#                 1549 add1_i= abcd, add2_i = 0000, keyinput= bdd3c4ef, result_o = 0acce 
#                 1559 add1_i= 0000, add2_i = 1234, keyinput= bdd3c4ef, result_o = 01335 
#                 1569 add1_i= 1111, add2_i = eeaa, keyinput= bdd3c4ef, result_o = 100bc 
#                 1579 add1_i= 5555, add2_i = aaaa, keyinput= bdd3c4ef, result_o = 10000 
#                 1589 add1_i= 8051, add2_i = 8086, keyinput= bdd3c4ef, result_o = 101d8 
#                 1594 add1_i= fadc, add2_i = 00dc, keyinput= bdd3c4ef, result_o = 0fab9 
#                 1602 add1_i= 4096, add2_i = 2048, keyinput= bdd3c4ef, result_o = 061df 
#                 1612 add1_i= 1024, add2_i = 8192, keyinput= bdd3c4ef, result_o = 092b7 
#                 1622 add1_i= 0000, add2_i = 0001, keyinput= bdd3c4ef, result_o = 00102 

#                 1632 add1_i= 0000, add2_i = 0000, keyinput= bdd7c4ef, result_o = 00301 
#                 1642 add1_i= 29af, add2_i = 7a1b, keyinput= bdd7c4ef, result_o = 0a2cb 
#                 1652 add1_i= 1100, add2_i = 1111, keyinput= bdd7c4ef, result_o = 02112 
#                 1662 add1_i= 8116, add2_i = 1cce, keyinput= bdd7c4ef, result_o = 09ce5 
#                 1667 add1_i= 4482, add2_i = 3bcd, keyinput= bdd7c4ef, result_o = 07e50 
#                 1675 add1_i= 8943, add2_i = ffff, keyinput= bdd7c4ef, result_o = 18743 
#                 1685 add1_i= abcd, add2_i = 0000, keyinput= bdd7c4ef, result_o = 0aace 
#                 1695 add1_i= 0000, add2_i = 1234, keyinput= bdd7c4ef, result_o = 01535 
#                 1705 add1_i= 1111, add2_i = eeaa, keyinput= bdd7c4ef, result_o = 0febc 
#                 1715 add1_i= 5555, add2_i = aaaa, keyinput= bdd7c4ef, result_o = 0fe00 
#                 1725 add1_i= 8051, add2_i = 8086, keyinput= bdd7c4ef, result_o = 103d8 
#                 1730 add1_i= fadc, add2_i = 00dc, keyinput= bdd7c4ef, result_o = 0fcb9 
#                 1738 add1_i= 4096, add2_i = 2048, keyinput= bdd7c4ef, result_o = 063df 
#                 1748 add1_i= 1024, add2_i = 8192, keyinput= bdd7c4ef, result_o = 090b7 
#                 1758 add1_i= 0000, add2_i = 0001, keyinput= bdd7c4ef, result_o = 00302 

#                 1768 add1_i= 0000, add2_i = 0000, keyinput= bddfc4ef, result_o = 00341 
#                 1778 add1_i= 29af, add2_i = 7a1b, keyinput= bddfc4ef, result_o = 0a28b 
#                 1788 add1_i= 1100, add2_i = 1111, keyinput= bddfc4ef, result_o = 02152 
#                 1798 add1_i= 8116, add2_i = 1cce, keyinput= bddfc4ef, result_o = 09c25 
#                 1803 add1_i= 4482, add2_i = 3bcd, keyinput= bddfc4ef, result_o = 08190 
#                 1811 add1_i= 8943, add2_i = ffff, keyinput= bddfc4ef, result_o = 18703 
#                 1821 add1_i= abcd, add2_i = 0000, keyinput= bddfc4ef, result_o = 0aa8e 
#                 1831 add1_i= 0000, add2_i = 1234, keyinput= bddfc4ef, result_o = 01575 
#                 1841 add1_i= 1111, add2_i = eeaa, keyinput= bddfc4ef, result_o = 0fefc 
#                 1851 add1_i= 5555, add2_i = aaaa, keyinput= bddfc4ef, result_o = 0fe40 
#                 1861 add1_i= 8051, add2_i = 8086, keyinput= bddfc4ef, result_o = 10398 
#                 1866 add1_i= fadc, add2_i = 00dc, keyinput= bddfc4ef, result_o = 0fd79 
#                 1874 add1_i= 4096, add2_i = 2048, keyinput= bddfc4ef, result_o = 0621f 
#                 1884 add1_i= 1024, add2_i = 8192, keyinput= bddfc4ef, result_o = 090f7 
#                 1894 add1_i= 0000, add2_i = 0001, keyinput= bddfc4ef, result_o = 00342 

#                 1904 add1_i= 0000, add2_i = 0000, keyinput= bddf84ef, result_o = 02341 
#                 1914 add1_i= 29af, add2_i = 7a1b, keyinput= bddf84ef, result_o = 0828b 
#                 1924 add1_i= 1100, add2_i = 1111, keyinput= bddf84ef, result_o = 00152 
#                 1934 add1_i= 8116, add2_i = 1cce, keyinput= bddf84ef, result_o = 0bc25 
#                 1939 add1_i= 4482, add2_i = 3bcd, keyinput= bddf84ef, result_o = 06190 
#                 1947 add1_i= 8943, add2_i = ffff, keyinput= bddf84ef, result_o = 16703 
#                 1957 add1_i= abcd, add2_i = 0000, keyinput= bddf84ef, result_o = 0ca8e 
#                 1967 add1_i= 0000, add2_i = 1234, keyinput= bddf84ef, result_o = 03575 
#                 1977 add1_i= 1111, add2_i = eeaa, keyinput= bddf84ef, result_o = 11efc 
#                 1987 add1_i= 5555, add2_i = aaaa, keyinput= bddf84ef, result_o = 11e40 
#                 1997 add1_i= 8051, add2_i = 8086, keyinput= bddf84ef, result_o = 12398 
#                 2002 add1_i= fadc, add2_i = 00dc, keyinput= bddf84ef, result_o = 11d79 
#                 2010 add1_i= 4096, add2_i = 2048, keyinput= bddf84ef, result_o = 0821f 
#                 2020 add1_i= 1024, add2_i = 8192, keyinput= bddf84ef, result_o = 0b0f7 
#                 2030 add1_i= 0000, add2_i = 0001, keyinput= bddf84ef, result_o = 02342 

#                 2040 add1_i= 0000, add2_i = 0000, keyinput= bddfb4ef, result_o = 00345 
#                 2050 add1_i= 29af, add2_i = 7a1b, keyinput= bddfb4ef, result_o = 0828f 
#                 2060 add1_i= 1100, add2_i = 1111, keyinput= bddfb4ef, result_o = 00156 
#                 2070 add1_i= 8116, add2_i = 1cce, keyinput= bddfb4ef, result_o = 09c21 
#                 2075 add1_i= 4482, add2_i = 3bcd, keyinput= bddfb4ef, result_o = 06194 
#                 2083 add1_i= 8943, add2_i = ffff, keyinput= bddfb4ef, result_o = 16707 
#                 2093 add1_i= abcd, add2_i = 0000, keyinput= bddfb4ef, result_o = 0aa8a 
#                 2103 add1_i= 0000, add2_i = 1234, keyinput= bddfb4ef, result_o = 01571 
#                 2113 add1_i= 1111, add2_i = eeaa, keyinput= bddfb4ef, result_o = 0fef8 
#                 2123 add1_i= 5555, add2_i = aaaa, keyinput= bddfb4ef, result_o = 0fe44 
#                 2133 add1_i= 8051, add2_i = 8086, keyinput= bddfb4ef, result_o = 1039c 
#                 2138 add1_i= fadc, add2_i = 00dc, keyinput= bddfb4ef, result_o = 0fd7d 
#                 2146 add1_i= 4096, add2_i = 2048, keyinput= bddfb4ef, result_o = 0621b 
#                 2156 add1_i= 1024, add2_i = 8192, keyinput= bddfb4ef, result_o = 090f3 
#                 2166 add1_i= 0000, add2_i = 0001, keyinput= bddfb4ef, result_o = 00346 
# ** Note: $finish    : /home/nayakkk/32xor/ripple_carry_adder/sim/ripple_carry_adder16_tb.v(788)
#    Time: 2176 ns  Iteration: 0  Instance: /ripple_carry_adder16_tb
