lockednetlistsimulation/64xor/lower_part_or_carry_lookahead_adder/sim/lower_part_or_carry_lookahead_adder32_gatesim.vcd
$date
	Sun Oct  4 09:29:04 2020
$end
$version
	ModelSim Version 6.6d
$end
$timescale
	1ps
$end
$scope module lower_part_or_carry_lookahead_adder32_tb $end
$var reg 32 ! add1_i [31:0] $end
$var reg 32 " add2_i [31:0] $end
$var reg 64 # keyinput [63:0] $end
$var wire 1 $ result_o [32] $end
$var wire 1 % result_o [31] $end
$var wire 1 & result_o [30] $end
$var wire 1 ' result_o [29] $end
$var wire 1 ( result_o [28] $end
$var wire 1 ) result_o [27] $end
$var wire 1 * result_o [26] $end
$var wire 1 + result_o [25] $end
$var wire 1 , result_o [24] $end
$var wire 1 - result_o [23] $end
$var wire 1 . result_o [22] $end
$var wire 1 / result_o [21] $end
$var wire 1 0 result_o [20] $end
$var wire 1 1 result_o [19] $end
$var wire 1 2 result_o [18] $end
$var wire 1 3 result_o [17] $end
$var wire 1 4 result_o [16] $end
$var wire 1 5 result_o [15] $end
$var wire 1 6 result_o [14] $end
$var wire 1 7 result_o [13] $end
$var wire 1 8 result_o [12] $end
$var wire 1 9 result_o [11] $end
$var wire 1 : result_o [10] $end
$var wire 1 ; result_o [9] $end
$var wire 1 < result_o [8] $end
$var wire 1 = result_o [7] $end
$var wire 1 > result_o [6] $end
$var wire 1 ? result_o [5] $end
$var wire 1 @ result_o [4] $end
$var wire 1 A result_o [3] $end
$var wire 1 B result_o [2] $end
$var wire 1 C result_o [1] $end
$var wire 1 D result_o [0] $end
$scope module loacla $end
$var wire 1 E add1_i [31] $end
$var wire 1 F add1_i [30] $end
$var wire 1 G add1_i [29] $end
$var wire 1 H add1_i [28] $end
$var wire 1 I add1_i [27] $end
$var wire 1 J add1_i [26] $end
$var wire 1 K add1_i [25] $end
$var wire 1 L add1_i [24] $end
$var wire 1 M add1_i [23] $end
$var wire 1 N add1_i [22] $end
$var wire 1 O add1_i [21] $end
$var wire 1 P add1_i [20] $end
$var wire 1 Q add1_i [19] $end
$var wire 1 R add1_i [18] $end
$var wire 1 S add1_i [17] $end
$var wire 1 T add1_i [16] $end
$var wire 1 U add1_i [15] $end
$var wire 1 V add1_i [14] $end
$var wire 1 W add1_i [13] $end
$var wire 1 X add1_i [12] $end
$var wire 1 Y add1_i [11] $end
$var wire 1 Z add1_i [10] $end
$var wire 1 [ add1_i [9] $end
$var wire 1 \ add1_i [8] $end
$var wire 1 ] add1_i [7] $end
$var wire 1 ^ add1_i [6] $end
$var wire 1 _ add1_i [5] $end
$var wire 1 ` add1_i [4] $end
$var wire 1 a add1_i [3] $end
$var wire 1 b add1_i [2] $end
$var wire 1 c add1_i [1] $end
$var wire 1 d add1_i [0] $end
$var wire 1 e add2_i [31] $end
$var wire 1 f add2_i [30] $end
$var wire 1 g add2_i [29] $end
$var wire 1 h add2_i [28] $end
$var wire 1 i add2_i [27] $end
$var wire 1 j add2_i [26] $end
$var wire 1 k add2_i [25] $end
$var wire 1 l add2_i [24] $end
$var wire 1 m add2_i [23] $end
$var wire 1 n add2_i [22] $end
$var wire 1 o add2_i [21] $end
$var wire 1 p add2_i [20] $end
$var wire 1 q add2_i [19] $end
$var wire 1 r add2_i [18] $end
$var wire 1 s add2_i [17] $end
$var wire 1 t add2_i [16] $end
$var wire 1 u add2_i [15] $end
$var wire 1 v add2_i [14] $end
$var wire 1 w add2_i [13] $end
$var wire 1 x add2_i [12] $end
$var wire 1 y add2_i [11] $end
$var wire 1 z add2_i [10] $end
$var wire 1 { add2_i [9] $end
$var wire 1 | add2_i [8] $end
$var wire 1 } add2_i [7] $end
$var wire 1 ~ add2_i [6] $end
$var wire 1 !! add2_i [5] $end
$var wire 1 "! add2_i [4] $end
$var wire 1 #! add2_i [3] $end
$var wire 1 $! add2_i [2] $end
$var wire 1 %! add2_i [1] $end
$var wire 1 &! add2_i [0] $end
$var wire 1 '! keyinput [63] $end
$var wire 1 (! keyinput [62] $end
$var wire 1 )! keyinput [61] $end
$var wire 1 *! keyinput [60] $end
$var wire 1 +! keyinput [59] $end
$var wire 1 ,! keyinput [58] $end
$var wire 1 -! keyinput [57] $end
$var wire 1 .! keyinput [56] $end
$var wire 1 /! keyinput [55] $end
$var wire 1 0! keyinput [54] $end
$var wire 1 1! keyinput [53] $end
$var wire 1 2! keyinput [52] $end
$var wire 1 3! keyinput [51] $end
$var wire 1 4! keyinput [50] $end
$var wire 1 5! keyinput [49] $end
$var wire 1 6! keyinput [48] $end
$var wire 1 7! keyinput [47] $end
$var wire 1 8! keyinput [46] $end
$var wire 1 9! keyinput [45] $end
$var wire 1 :! keyinput [44] $end
$var wire 1 ;! keyinput [43] $end
$var wire 1 <! keyinput [42] $end
$var wire 1 =! keyinput [41] $end
$var wire 1 >! keyinput [40] $end
$var wire 1 ?! keyinput [39] $end
$var wire 1 @! keyinput [38] $end
$var wire 1 A! keyinput [37] $end
$var wire 1 B! keyinput [36] $end
$var wire 1 C! keyinput [35] $end
$var wire 1 D! keyinput [34] $end
$var wire 1 E! keyinput [33] $end
$var wire 1 F! keyinput [32] $end
$var wire 1 G! keyinput [31] $end
$var wire 1 H! keyinput [30] $end
$var wire 1 I! keyinput [29] $end
$var wire 1 J! keyinput [28] $end
$var wire 1 K! keyinput [27] $end
$var wire 1 L! keyinput [26] $end
$var wire 1 M! keyinput [25] $end
$var wire 1 N! keyinput [24] $end
$var wire 1 O! keyinput [23] $end
$var wire 1 P! keyinput [22] $end
$var wire 1 Q! keyinput [21] $end
$var wire 1 R! keyinput [20] $end
$var wire 1 S! keyinput [19] $end
$var wire 1 T! keyinput [18] $end
$var wire 1 U! keyinput [17] $end
$var wire 1 V! keyinput [16] $end
$var wire 1 W! keyinput [15] $end
$var wire 1 X! keyinput [14] $end
$var wire 1 Y! keyinput [13] $end
$var wire 1 Z! keyinput [12] $end
$var wire 1 [! keyinput [11] $end
$var wire 1 \! keyinput [10] $end
$var wire 1 ]! keyinput [9] $end
$var wire 1 ^! keyinput [8] $end
$var wire 1 _! keyinput [7] $end
$var wire 1 `! keyinput [6] $end
$var wire 1 a! keyinput [5] $end
$var wire 1 b! keyinput [4] $end
$var wire 1 c! keyinput [3] $end
$var wire 1 d! keyinput [2] $end
$var wire 1 e! keyinput [1] $end
$var wire 1 f! keyinput [0] $end
$var wire 1 $ result_o [32] $end
$var wire 1 % result_o [31] $end
$var wire 1 & result_o [30] $end
$var wire 1 ' result_o [29] $end
$var wire 1 ( result_o [28] $end
$var wire 1 ) result_o [27] $end
$var wire 1 * result_o [26] $end
$var wire 1 + result_o [25] $end
$var wire 1 , result_o [24] $end
$var wire 1 - result_o [23] $end
$var wire 1 . result_o [22] $end
$var wire 1 / result_o [21] $end
$var wire 1 0 result_o [20] $end
$var wire 1 1 result_o [19] $end
$var wire 1 2 result_o [18] $end
$var wire 1 3 result_o [17] $end
$var wire 1 4 result_o [16] $end
$var wire 1 5 result_o [15] $end
$var wire 1 6 result_o [14] $end
$var wire 1 7 result_o [13] $end
$var wire 1 8 result_o [12] $end
$var wire 1 9 result_o [11] $end
$var wire 1 : result_o [10] $end
$var wire 1 ; result_o [9] $end
$var wire 1 < result_o [8] $end
$var wire 1 = result_o [7] $end
$var wire 1 > result_o [6] $end
$var wire 1 ? result_o [5] $end
$var wire 1 @ result_o [4] $end
$var wire 1 A result_o [3] $end
$var wire 1 B result_o [2] $end
$var wire 1 C result_o [1] $end
$var wire 1 D result_o [0] $end
$var wire 1 g! n28 $end
$var wire 1 h! n29 $end
$var wire 1 i! n30 $end
$var wire 1 j! xenc27 $end
$var wire 1 k! xenc14 $end
$var wire 1 l! n31 $end
$var wire 1 m! n35 $end
$var wire 1 n! n36 $end
$var wire 1 o! n40 $end
$var wire 1 p! n41 $end
$var wire 1 q! n45 $end
$var wire 1 r! n46 $end
$var wire 1 s! n50 $end
$var wire 1 t! n51 $end
$var wire 1 u! n55 $end
$var wire 1 v! xenc61 $end
$var wire 1 w! n56 $end
$var wire 1 x! xenc52 $end
$var wire 1 y! n61 $end
$var wire 1 z! xenc50 $end
$var wire 1 {! n65 $end
$var wire 1 |! n66 $end
$var wire 1 }! xenc57 $end
$var wire 1 ~! xenc40 $end
$var wire 1 !" n71 $end
$var wire 1 "" xenc15 $end
$var wire 1 #" xenc37 $end
$var wire 1 $" xenc58 $end
$var wire 1 %" xenc43 $end
$var wire 1 &" n76 $end
$var wire 1 '" xenc45 $end
$var wire 1 (" n81 $end
$var wire 1 )" xenc16 $end
$var wire 1 *" xenc56 $end
$var wire 1 +" n86 $end
$var wire 1 ," xenc22 $end
$var wire 1 -" xenc30 $end
$var wire 1 ." n91 $end
$var wire 1 /" xenc17 $end
$var wire 1 0" n96 $end
$var wire 1 1" xenc20 $end
$var wire 1 2" n100 $end
$var wire 1 3" xenc11 $end
$var wire 1 4" n101 $end
$var wire 1 5" n105 $end
$var wire 1 6" n106 $end
$var wire 1 7" xenc47 $end
$var wire 1 8" n111 $end
$var wire 1 9" n115 $end
$var wire 1 :" xenc0 $end
$var wire 1 ;" n116 $end
$var wire 1 <" xenc13 $end
$var wire 1 =" n121 $end
$var wire 1 >" xenc55 $end
$var wire 1 ?" xenc46 $end
$var wire 1 @" n126 $end
$var wire 1 A" xenc28 $end
$var wire 1 B" xenc26 $end
$var wire 1 C" n131 $end
$var wire 1 D" n135 $end
$var wire 1 E" xenc54 $end
$var wire 1 F" n136 $end
$var wire 1 G" xenc60 $end
$var wire 1 H" xenc19 $end
$var wire 1 I" n141 $end
$var wire 1 J" xenc36 $end
$var wire 1 K" n26 $end
$var wire 1 L" xenc59 $end
$var wire 1 M" n145 $end
$var wire 1 N" n146 $end
$var wire 1 O" xenc39 $end
$var wire 1 P" n147 $end
$var wire 1 Q" n142 $end
$var wire 1 R" n143 $end
$var wire 1 S" n140 $end
$var wire 1 T" n144 $end
$var wire 1 U" n137 $end
$var wire 1 V" n138 $end
$var wire 1 W" xenc24 $end
$var wire 1 X" n139 $end
$var wire 1 Y" n132 $end
$var wire 1 Z" xenc7 $end
$var wire 1 [" n130 $end
$var wire 1 \" xenc44 $end
$var wire 1 ]" n133 $end
$var wire 1 ^" n134 $end
$var wire 1 _" n127 $end
$var wire 1 `" xenc12 $end
$var wire 1 a" n125 $end
$var wire 1 b" n129 $end
$var wire 1 c" n128 $end
$var wire 1 d" xenc63 $end
$var wire 1 e" xenc48 $end
$var wire 1 f" n120 $end
$var wire 1 g" n122 $end
$var wire 1 h" xenc32 $end
$var wire 1 i" n123 $end
$var wire 1 j" n124 $end
$var wire 1 k" xenc9 $end
$var wire 1 l" n118 $end
$var wire 1 m" n117 $end
$var wire 1 n" xenc2 $end
$var wire 1 o" n119 $end
$var wire 1 p" n112 $end
$var wire 1 q" xenc1 $end
$var wire 1 r" n110 $end
$var wire 1 s" xenc31 $end
$var wire 1 t" n113 $end
$var wire 1 u" n114 $end
$var wire 1 v" xenc10 $end
$var wire 1 w" n108 $end
$var wire 1 x" n107 $end
$var wire 1 y" n109 $end
$var wire 1 z" xenc53 $end
$var wire 1 {" xenc35 $end
$var wire 1 |" n102 $end
$var wire 1 }" n104 $end
$var wire 1 ~" n103 $end
$var wire 1 !# n97 $end
$var wire 1 "# n98 $end
$var wire 1 ## n95 $end
$var wire 1 $# xenc5 $end
$var wire 1 %# n99 $end
$var wire 1 &# n92 $end
$var wire 1 '# xenc34 $end
$var wire 1 (# n90 $end
$var wire 1 )# xenc23 $end
$var wire 1 *# n93 $end
$var wire 1 +# n94 $end
$var wire 1 ,# n87 $end
$var wire 1 -# n88 $end
$var wire 1 .# n85 $end
$var wire 1 /# xenc21 $end
$var wire 1 0# n89 $end
$var wire 1 1# xenc18 $end
$var wire 1 2# n83 $end
$var wire 1 3# n80 $end
$var wire 1 4# n82 $end
$var wire 1 5# xenc49 $end
$var wire 1 6# n84 $end
$var wire 1 7# xenc6 $end
$var wire 1 8# n78 $end
$var wire 1 9# n75 $end
$var wire 1 :# n77 $end
$var wire 1 ;# xenc62 $end
$var wire 1 <# n79 $end
$var wire 1 =# n72 $end
$var wire 1 ># xenc33 $end
$var wire 1 ?# n70 $end
$var wire 1 @# xenc8 $end
$var wire 1 A# n73 $end
$var wire 1 B# n74 $end
$var wire 1 C# n67 $end
$var wire 1 D# n68 $end
$var wire 1 E# n69 $end
$var wire 1 F# xenc25 $end
$var wire 1 G# n63 $end
$var wire 1 H# n60 $end
$var wire 1 I# n62 $end
$var wire 1 J# n64 $end
$var wire 1 K# n57 $end
$var wire 1 L# n58 $end
$var wire 1 M# n59 $end
$var wire 1 N# n52 $end
$var wire 1 O# n53 $end
$var wire 1 P# xenc4 $end
$var wire 1 Q# n54 $end
$var wire 1 R# xenc41 $end
$var wire 1 S# n48 $end
$var wire 1 T# n47 $end
$var wire 1 U# n49 $end
$var wire 1 V# n42 $end
$var wire 1 W# n43 $end
$var wire 1 X# n44 $end
$var wire 1 Y# xenc29 $end
$var wire 1 Z# n38 $end
$var wire 1 [# n37 $end
$var wire 1 \# n39 $end
$var wire 1 ]# n32 $end
$var wire 1 ^# xenc51 $end
$var wire 1 _# n34 $end
$var wire 1 `# n33 $end
$var wire 1 a# n27 $end
$var wire 1 b# xenc3 $end
$var wire 1 c# xenc42 $end
$var wire 1 d# xenc38 $end
$upscope $end
$upscope $end
$enddefinitions $end
#0
$dumpvars
b0 !
b0 "
b1111100010000101101100001110001110001110101101111101001110000000 #
0D
0C
0B
0A
0@
0?
0>
0=
0<
0;
0:
09
08
07
06
05
04
03
02
01
00
0/
0.
0-
0,
0+
0*
0)
0(
0'
0&
0%
0$
0g!
0h!
0i!
0j!
0k!
0l!
0m!
0n!
0o!
0p!
0q!
0r!
0s!
0t!
0u!
0v!
0w!
0x!
0y!
0z!
0{!
0|!
0}!
0~!
0!"
0""
0#"
0$"
0%"
0&"
0'"
0("
0)"
0*"
0+"
0,"
0-"
0."
0/"
00"
01"
02"
03"
04"
05"
06"
07"
08"
09"
0:"
0;"
0<"
0="
0>"
0?"
0@"
0A"
0B"
0C"
0D"
0E"
0F"
0G"
0H"
0I"
1J"
1K"
0L"
1M"
1N"
0O"
0P"
1Q"
1R"
0S"
0T"
1U"
1V"
0W"
0X"
1Y"
1Z"
0["
0\"
1]"
0^"
1_"
1`"
0a"
0b"
1c"
1d"
1e"
0f"
1g"
0h"
1i"
0j"
1k"
1l"
1m"
0n"
0o"
1p"
1q"
0r"
0s"
1t"
0u"
1v"
1w"
1x"
0y"
1z"
1{"
1|"
0}"
1~"
1!#
1"#
0##
0$#
0%#
1&#
1'#
0(#
0)#
1*#
0+#
1,#
1-#
0.#
0/#
00#
11#
12#
03#
14#
05#
06#
17#
18#
09#
1:#
0;#
0<#
1=#
1>#
0?#
0@#
1A#
0B#
1C#
1D#
0E#
1F#
1G#
0H#
1I#
0J#
1K#
1L#
0M#
1N#
1O#
0P#
0Q#
1R#
1S#
1T#
0U#
1V#
1W#
0X#
1Y#
1Z#
1[#
0\#
1]#
1^#
0_#
1`#
1a#
0b#
0c#
0d#
0f!
0e!
0d!
0c!
0b!
0a!
0`!
1_!
1^!
1]!
0\!
0[!
1Z!
0Y!
1X!
1W!
1V!
1U!
1T!
0S!
1R!
1Q!
0P!
1O!
0N!
1M!
1L!
1K!
0J!
0I!
0H!
1G!
1F!
1E!
0D!
0C!
0B!
1A!
1@!
1?!
0>!
0=!
0<!
0;!
1:!
19!
08!
17!
16!
05!
14!
03!
02!
01!
00!
1/!
0.!
0-!
0,!
1+!
1*!
1)!
1(!
1'!
0&!
0%!
0$!
0#!
0"!
0!!
0~
0}
0|
0{
0z
0y
0x
0w
0v
0u
0t
0s
0r
0q
0p
0o
0n
0m
0l
0k
0j
0i
0h
0g
0f
0e
0d
0c
0b
0a
0`
0_
0^
0]
0\
0[
0Z
0Y
0X
0W
0V
0U
0T
0S
0R
0Q
0P
0O
0N
0M
0L
0K
0J
0I
0H
0G
0F
0E
$end
#10000
b101001101011110010010000110000 !
b1111010000110111001101010111100 "
1$!
1B
1#!
1A
1"!
1c#
1!!
1?
1}
0a#
1{
1y
1x
1u
1t
1s
1q
1p
1k
1i
1h
1g
1f
1`
1_
1Z
1X"
1W
1j"
1T
1y"
0w"
15"
1}"
0~"
1S
0|"
1R
1%#
1Q
1+#
1O
16#
1M
1B#
1L
1E#
1I
1Q#
1G
1X#
0W#
1o!
1\#
0Z#
1m!
1_#
1&
1%
1P#
0O#
1s!
1U#
0S#
1q!
0V#
1!"
1&"
1@#
1+"
15#
1)#
0*#
14"
1$#
0z"
12"
0!#
1##
13
0{"
1@"
1h"
1I"
1W"
1p!
1t!
1|!
1."
1;"
1C"
1F"
1h!
0J"
1L"
1@
1=
1;
1E"
18
1:"
10
1}!
0&
1H"
1A"
12
1/"
0&#
1(#
13"
0'#
1,"
1$"
1""
1'
1,
1%"
1/
02
11"
1-"
10#
17
1:
1+
15
19
00
1/#
0-#
1.#
11
1-
1*"
04#
0,"
01#
13#
1'"
1<#
0/
1)"
1;#
1.
#20000
b10001000000000011010001010110 !
b10001000100010010001100100011 "
1&!
1D
1%!
1b#
0$!
0B
0#!
0A
0"!
0}
1a#
1|
1P"
0y
0x
1w
0i"
0u
0s
1~"
0q
1*#
1l
0D#
1{!
1J#
0G#
1H#
0k
1G#
0H#
0i
1O#
0s!
0U#
1S#
0q!
1V#
0g
1W#
0o!
0\#
1Z#
0m!
0_#
0f
1c
1b
1B
0_
1^
1d#
1X
1b"
0T
0y"
1w"
05"
1|"
0S
0}"
0R
1!#
0##
0Q
1&#
0O
14#
0M
0B#
0I
0Q#
1H
1U#
0S#
1q!
0V#
1o!
1\#
0G
1V#
0o!
0\#
0t!
0P#
0&"
0@#
0+"
11#
03#
04"
0/"
0+#
18"
03
1z"
1>
0p!
0%
0|!
0!"
1'#
0(#
1{"
02"
0%#
0;"
0@"
0e"
1f"
0F"
1l!
1O"
1J"
0L"
1C
0=
1j!
0E"
1<"
1o"
0A"
0:"
12
0$#
0-"
00#
0""
14
01"
0)#
03"
0'"
0<#
1,"
0$"
0%"
1/
0)"
0;#
02
01
0,
10
0/#
1-#
0.#
05
07
1>"
1n"
09
1k!
1<
16
0*"
06#
0.
0-
0,"
05#
0/
#30000
b10000001000101100000100001110011 !
b11100110011100000000101111000 "
0&!
0D
0%!
1#!
1A
1"!
1~
0{
0w
1i"
0t
1s
1r
1q
0p
1n
1m
0l
1D#
0{!
0J#
1j
1i
1d
1D
0b
0B
1_
0Z
0X"
1Y
1^"
0X
0b"
0W
0j"
1S
1}"
0~"
1R
1%#
1P
10#
0H
0U#
1S#
0q!
0X#
1E
1_#
1n!
1t!
0'
1/#
1$#
0"#
1##
0{"
12"
0!#
0h"
0C"
1F"
1\"
0I"
0W"
1w!
1y!
1!"
0}!
1&"
1("
10"
08"
1e"
0f"
0h!
0;
0<"
0o"
04
11"
1)"
1$"
0+
1""
1z!
1v!
0H"
1E"
08
12
1/"
1+#
1(
1%
01"
1)#
0*#
19
0:
1)
1*
1,
1%"
1.
0>"
0n"
06
1-
0'#
1(#
1-"
0,#
1.#
00
1*"
16#
1,"
15#
1/
#35000
b100000001000000010000000010010 !
b11011110101011011011111011101111 "
1&!
1%!
1$!
1B
0"!
1}
0a#
0|
0P"
1{
1z
1y
0]"
1x
1w
1u
1t
0s
1~"
1o
02#
13#
0n
1k
1f
1e
0`#
0d
0_
0^
0Y
0^"
1W
1j"
0S
0}"
0R
1!#
0P
1,#
0.#
1O
04#
0L
0E#
1G
1X#
0E
0_#
1`#
1r!
0!"
01#
0."
0*"
14#
14"
1h"
0i"
0\"
1]"
1p!
1|!
0("
1'"
1<#
1{"
02"
0%#
18"
1;"
1C"
1I"
1h!
0l!
0O"
0J"
1L"
1=
0j!
1;
1H"
18
1:"
14
02
0$#
1"#
0##
1;#
1}!
1&
0e"
1f"
13"
0,"
11#
10
0""
1'
0,
0/
12
1<"
1o"
1+
0/"
0+#
15
1:
0k!
0<
11"
0)#
1*#
1>"
1n"
16
1'#
0(#
11
0-"
00#
00
0/#
#43000
b10001001010000111101111010101111 !
b11011010101011011011101010101101 "
0%!
0~
0d#
0z
0j
1d
1b
1a
0`
0c#
1_
1]
0K"
1i!
1[
1T"
0R"
1S"
1Z
1X"
1Y
1^"
1X
1b"
0c"
0W
0j"
1V
0m"
1U
1u"
1T
1y"
0w"
15"
1}"
1S
0|"
0O
06#
1N
0:#
1L
1E#
1I
1Q#
0G
0X#
1E
1_#
0`#
0n!
0^#
1$
0r!
0w!
1P#
0O#
1s!
1U#
0S#
1q!
1X#
1!"
1("
07#
19#
1+"
05#
12#
03#
16"
0z"
12"
1%#
08"
0;"
1s"
0t"
1="
0k"
19"
0p"
1r"
1@"
0h"
1i"
0C"
0`"
1a"
0F"
1\"
0]"
1W"
0h!
1G"
0U"
1D"
0Y"
1["
1k!
0@
0y!
0>
0z!
1<
0:
09
1B"
0_"
0;
0Z"
0E"
1?"
1j"
1e"
0f"
05
17"
0x"
0>"
0q"
0:"
02
1$#
0"#
1##
0'"
1:#
1,"
1#"
1B#
1""
0(
0v!
0%
0)
1,
0%"
1@#
0A#
1/
17#
09#
1/"
1+#
15
06
0v"
0<"
1m"
1h"
0i"
19
0*
0e"
1f"
1>"
1k"
09"
1p"
01"
1)#
0*#
0#"
0B#
0>#
1?#
0-
1~!
0C#
1{!
1J#
0G#
1H#
1%"
0@#
1A#
0'#
1(#
01
05
16
1<"
0m"
0>"
0k"
19"
0p"
1-"
10#
1>#
0?#
1-
0""
0}!
1x!
1M#
1z!
0+
0,
0~!
1C#
0{!
0J#
1G#
0H#
10
1/#
15
06
1""
1}!
0x!
0M#
1*
0z!
1+
1,
0*
#53000
b10101011110011010001001000110100 !
b0 "
0&!
0$!
0#!
0!!
0}
1a#
0{
1R"
0S"
0y
1]"
0x
1c"
0w
1i"
0u
1t"
0t
1w"
0r
1"#
0##
0q
1*#
0o
0m
0k
0i
1O#
0s!
0U#
1S#
0q!
0X#
0h
0f
0e
1`#
0d
0D
0c
0b#
0a
0A
1`
1c#
0]
1K"
0i!
0Z
1U"
0D"
1Y"
0Y
0^"
0V
1m"
0U
1p"
0S
1|"
1R
0!#
1##
1Q
0&#
1M
1B#
1K
1J#
1G
1X#
1r!
1@#
06"
1z"
02"
1!#
0##
0="
1k"
09"
0u"
0\"
0I"
09
0k!
1@
0C
1n!
1^#
0$
0p!
0t!
1w!
0+"
1'#
0/"
1&#
0(#
18"
1q"
0r"
0@"
1e"
0f"
1C"
1`"
1Z"
0["
1h!
0G"
0X"
1J"
0L"
0=
1:
0W"
1;
0B"
1_"
0a"
0<"
0o"
1A"
07"
1x"
11"
0-"
00#
0,"
1v!
0&
1%
0<
0H"
05
0s"
12
13
0:
1)
0/
00
0/#
11
1v"
05"
0}"
17
0n"
0?"
0j"
0A"
0h"
03
07
#63000
b0 !
b10010001101000101011001111000 "
1#!
1A
1"!
1!!
1~
1d#
1{
0R"
1S"
1z
1x
0c"
1v
1r
0"#
1##
1p
1o
1k
0G#
1H#
1h
0b
0B
0`
0_
0[
0T"
1R"
0S"
0X
0b"
1c"
0T
0y"
0R
0%#
0Q
0+#
0N
0<#
0M
0B#
0L
0E#
0K
0J#
1G#
0H#
0I
0Q#
0G
0X#
0E
0_#
0n!
0r!
0w!
0P#
0!"
0&"
0@#
0("
0;#
00"
0)#
0$#
1"#
0##
08"
1t!
1+"
1."
1="
1I"
1>
1H"
1>"
10
1,"
1(
04
01"
0)"
0$"
0""
0v!
0'
0%
0)
0,
0%"
0.
01
1/
16
1:
0-
#73000
b10001000100010100010001110111 !
b11101110101010100000000000000000 "
0#!
0A
0"!
0c#
0!!
0?
0~
0d#
0{
0z
0x
0v
1s
0r
1q
0p
1m
1j
1i
0h
1g
1f
1e
1d
1D
1c
1b#
1b
1B
1`
1c#
1_
1?
1^
1d#
1Z
1X"
1V
1o"
1T
1y"
1P
10#
1L
1E#
1H
1U#
1!"
1/#
18"
1n"
1W"
1C
1n!
1p!
1r!
1w!
1y!
1&"
10"
04"
16"
0C"
0h!
0;
08
13
03"
11"
1$"
1z!
1v!
1'
1&
1%
14
1""
1,
1)
1*
1%"
11
02
1-
#83000
b1010101010101010101010101010101 !
b10101010101010101010101010101010 "
1%!
1#!
1A
1!!
1}
0a#
1{
1y
1w
1u
0j
0f
0c
0_
1\
1P"
1X
1b"
1R
1%#
1N
1<#
1J
1M#
1F
1\#
1("
1;#
14"
1$#
1C"
1l!
1O"
1;"
1@"
1F"
1h!
0J"
1L"
1=
1;
1E"
1A"
1:"
1j!
18
13"
1)"
1.
12
1k!
15
17
19
1<
#93000
b10000000010100011001100001100000 !
b10000000100001101011101000111110 "
1$!
1"!
0}
1a#
1x
0c"
1r
0"#
1##
0q
0o
0k
0i
0g
0d
0D
0b
0`
1_
0\
0P"
0Z
0X"
1Y
1^"
0V
0o"
1U
1u"
0R
0%#
0L
0E#
0J
0M#
0H
0U#
0F
0\#
1E
1_#
0`#
0n!
0^#
1$
0p!
0t!
0y!
0!"
0$#
1"#
0##
0;"
1s"
0t"
0="
0n"
0F"
1\"
0]"
0I"
0W"
0l!
0O"
0r!
0w!
0|!
0+"
00"
0C"
0`"
1a"
1J"
0L"
0=
1?"
1j"
08
01"
0,"
0}!
0v!
0'
0j!
0H"
0Z"
1["
0E"
0>"
0q"
1r"
0:"
0""
0z!
0(
0&
0%
0*
0,
05
17"
0x"
06
09
1B"
0_"
0:
0k!
0)
0+
0/
01
0A"
1h"
0i"
0e"
1f"
07
0<
18
04
0v"
15"
1}"
0~"
03
0{"
12"
1%#
1<"
1o"
1>"
1n"
02
1$#
0"#
1##
1/"
1+#
16
11"
1)#
11
#98000
b11111010110111000000011100100000 !
b110111000000100000010000 "
0%!
0b#
0$!
0B
0#!
0A
0!!
0{
0x
1c"
0w
1i"
0u
1t"
0s
1~"
1q
0*#
1p
0-#
1.#
1n
08#
19#
0e
1`#
0^
0d#
1\
1P"
1[
1T"
1Z
1X"
0Y
0^"
0X
1_"
0U
0u"
0T
1x"
1R
0!#
1Q
0&#
1(#
1M
1B#
1K
1J#
1I
1Q#
1H
1U#
1G
1X#
1F
1\#
1p!
1r!
1t!
1w!
1P#
1|!
0&"
1@#
0A#
1-"
0,#
04"
08"
1v"
05"
0}"
0s"
1F"
0\"
1]"
1I"
1W"
1l!
1O"
0>
1n!
1^#
0$
0("
1#"
0=#
1?#
0."
1*"
16#
0'#
06"
1{"
02"
1!#
1q"
0r"
0@"
1e"
0f"
1`"
0a"
0C
0?"
0j"
0<"
0o"
07"
0y"
12
1,"
15#
0%"
1~!
1E#
0)"
1%
1j!
1H"
1Z"
0["
1E"
03"
0>#
0$"
1}!
1v!
1(
1'
1&
1)
1+
1%"
02
19
0B"
0b"
1:
1k!
0.
1""
1/
0>"
0n"
0h"
06
1,
1<
08
#106000
b1000000100101100010000001001000 !
b100000010010000100000010010110 "
1%!
1b#
1$!
1B
1}
0a#
0y
1v
0r
1"#
0##
0p
1-#
0m
1A#
1g
0W#
1o!
0[#
1a
1A
0_
0?
1^
1d#
0\
0P"
0[
0T"
0Z
0X"
1W
1j"
1S
1}"
0Q
1&#
0N
0<#
0K
0J#
0I
0Q#
0H
0U#
0G
0X#
1W#
0o!
1[#
0E
0_#
0n!
0t!
0w!
0P#
0|!
1("
0;#
18#
09#
10"
16"
1@"
1h"
0I"
0W"
0h!
0l!
0O"
1>
1&"
1>#
1."
14"
0/"
0+#
1="
0F"
0J"
1L"
1C
1=
0E"
1>"
0)#
1*#
13"
00
1$"
0j!
0;
0H"
1A"
13
0#"
1=#
0?#
1)"
0}!
0v!
0(
0%
0)
0+
1.
0~!
0E#
17
0:
0k!
12
1'#
0(#
16
09
0-"
1,#
0.#
0<
0""
0,
10
0*"
06#
0,"
05#
0/
#116000
b10000001001000010000001001000 !
b10000001100100100100000010010110 "
1s
0~"
0q
1p
0-#
1.#
0n
1m
0A#
1l
0g
1e
0S
0}"
1~"
0P
00#
1O
16#
0M
0B#
1H
1U#
0F
0\#
0p!
1t!
0@#
1A#
1+"
15#
0/#
1-#
0.#
1n!
0r!
1!"
0("
00"
01"
0)"
1""
0'
1%
1,"
1(
0&
1/
1,
0.
01
#126000
b1 !
b11011110101011111011111011101111 "
1&!
1D
1#!
0"!
0c#
1!!
1?
1~
1{
1z
1y
1x
1w
0i"
0v
1u
1t
1r
0"#
1##
1q
0p
1o
02#
13#
0l
1k
1j
1i
1h
0S#
1q!
1X#
1f
1d
0a
0^
0W
0j"
0R
0%#
0O
06#
0H
0U#
1S#
0q!
0X#
05#
12#
03#
0$#
1"#
0##
0h"
1i"
1p!
1w!
1y!
1|!
0!"
0."
10"
18"
1;"
0="
1C"
1F"
1I"
1h!
0@
1;
1H"
1E"
18
0>"
1:"
14
11"
00
0""
1}!
1z!
1v!
1&
1)
1*
1+
0,
11
15
06
19
1:
#136000
b1111100010000101101100001110001110001110101101111101001110000001 #
b0 !
b0 "
0&!
0%!
0b#
0$!
0B
0#!
0A
0!!
0?
0~
0d#
0}
1a#
0{
0z
0y
0x
0w
0u
0t
0s
0r
0q
0o
0m
0k
0j
0i
0h
0f
0e
0d
0D
1f!
0:"
0n!
0p!
0t!
0w!
0y!
0|!
0&"
0+"
00"
04"
06"
08"
0;"
0@"
0C"
0F"
0I"
0h!
1J"
0L"
0>
0C
0=
0;
0H"
0E"
08
0A"
1:"
04
03
03"
01"
0,"
0$"
0}!
0z!
0v!
0(
0&
0%
0)
0*
0+
0%"
0/
01
02
07
09
0:
0-
