lockednetlistsimulation/64xor/xnor_based_carry_lookahead_adder/sim/xnor_based_carry_lookahead_adder32_gatesim.vcd
$date
	Sun Oct  4 11:16:26 2020
$end
$version
	ModelSim Version 6.6d
$end
$timescale
	1ps
$end
$scope module xnor_based_carry_lookahead_adder32_tb $end
$var reg 32 ! add1_i [31:0] $end
$var reg 32 " add2_i [31:0] $end
$var reg 64 # keyinput [63:0] $end
$var wire 1 $ result_o [32] $end
$var wire 1 % result_o [31] $end
$var wire 1 & result_o [30] $end
$var wire 1 ' result_o [29] $end
$var wire 1 ( result_o [28] $end
$var wire 1 ) result_o [27] $end
$var wire 1 * result_o [26] $end
$var wire 1 + result_o [25] $end
$var wire 1 , result_o [24] $end
$var wire 1 - result_o [23] $end
$var wire 1 . result_o [22] $end
$var wire 1 / result_o [21] $end
$var wire 1 0 result_o [20] $end
$var wire 1 1 result_o [19] $end
$var wire 1 2 result_o [18] $end
$var wire 1 3 result_o [17] $end
$var wire 1 4 result_o [16] $end
$var wire 1 5 result_o [15] $end
$var wire 1 6 result_o [14] $end
$var wire 1 7 result_o [13] $end
$var wire 1 8 result_o [12] $end
$var wire 1 9 result_o [11] $end
$var wire 1 : result_o [10] $end
$var wire 1 ; result_o [9] $end
$var wire 1 < result_o [8] $end
$var wire 1 = result_o [7] $end
$var wire 1 > result_o [6] $end
$var wire 1 ? result_o [5] $end
$var wire 1 @ result_o [4] $end
$var wire 1 A result_o [3] $end
$var wire 1 B result_o [2] $end
$var wire 1 C result_o [1] $end
$var wire 1 D result_o [0] $end
$scope module xcla $end
$var wire 1 E add1_i [31] $end
$var wire 1 F add1_i [30] $end
$var wire 1 G add1_i [29] $end
$var wire 1 H add1_i [28] $end
$var wire 1 I add1_i [27] $end
$var wire 1 J add1_i [26] $end
$var wire 1 K add1_i [25] $end
$var wire 1 L add1_i [24] $end
$var wire 1 M add1_i [23] $end
$var wire 1 N add1_i [22] $end
$var wire 1 O add1_i [21] $end
$var wire 1 P add1_i [20] $end
$var wire 1 Q add1_i [19] $end
$var wire 1 R add1_i [18] $end
$var wire 1 S add1_i [17] $end
$var wire 1 T add1_i [16] $end
$var wire 1 U add1_i [15] $end
$var wire 1 V add1_i [14] $end
$var wire 1 W add1_i [13] $end
$var wire 1 X add1_i [12] $end
$var wire 1 Y add1_i [11] $end
$var wire 1 Z add1_i [10] $end
$var wire 1 [ add1_i [9] $end
$var wire 1 \ add1_i [8] $end
$var wire 1 ] add1_i [7] $end
$var wire 1 ^ add1_i [6] $end
$var wire 1 _ add1_i [5] $end
$var wire 1 ` add1_i [4] $end
$var wire 1 a add1_i [3] $end
$var wire 1 b add1_i [2] $end
$var wire 1 c add1_i [1] $end
$var wire 1 d add1_i [0] $end
$var wire 1 e add2_i [31] $end
$var wire 1 f add2_i [30] $end
$var wire 1 g add2_i [29] $end
$var wire 1 h add2_i [28] $end
$var wire 1 i add2_i [27] $end
$var wire 1 j add2_i [26] $end
$var wire 1 k add2_i [25] $end
$var wire 1 l add2_i [24] $end
$var wire 1 m add2_i [23] $end
$var wire 1 n add2_i [22] $end
$var wire 1 o add2_i [21] $end
$var wire 1 p add2_i [20] $end
$var wire 1 q add2_i [19] $end
$var wire 1 r add2_i [18] $end
$var wire 1 s add2_i [17] $end
$var wire 1 t add2_i [16] $end
$var wire 1 u add2_i [15] $end
$var wire 1 v add2_i [14] $end
$var wire 1 w add2_i [13] $end
$var wire 1 x add2_i [12] $end
$var wire 1 y add2_i [11] $end
$var wire 1 z add2_i [10] $end
$var wire 1 { add2_i [9] $end
$var wire 1 | add2_i [8] $end
$var wire 1 } add2_i [7] $end
$var wire 1 ~ add2_i [6] $end
$var wire 1 !! add2_i [5] $end
$var wire 1 "! add2_i [4] $end
$var wire 1 #! add2_i [3] $end
$var wire 1 $! add2_i [2] $end
$var wire 1 %! add2_i [1] $end
$var wire 1 &! add2_i [0] $end
$var wire 1 '! keyinput [63] $end
$var wire 1 (! keyinput [62] $end
$var wire 1 )! keyinput [61] $end
$var wire 1 *! keyinput [60] $end
$var wire 1 +! keyinput [59] $end
$var wire 1 ,! keyinput [58] $end
$var wire 1 -! keyinput [57] $end
$var wire 1 .! keyinput [56] $end
$var wire 1 /! keyinput [55] $end
$var wire 1 0! keyinput [54] $end
$var wire 1 1! keyinput [53] $end
$var wire 1 2! keyinput [52] $end
$var wire 1 3! keyinput [51] $end
$var wire 1 4! keyinput [50] $end
$var wire 1 5! keyinput [49] $end
$var wire 1 6! keyinput [48] $end
$var wire 1 7! keyinput [47] $end
$var wire 1 8! keyinput [46] $end
$var wire 1 9! keyinput [45] $end
$var wire 1 :! keyinput [44] $end
$var wire 1 ;! keyinput [43] $end
$var wire 1 <! keyinput [42] $end
$var wire 1 =! keyinput [41] $end
$var wire 1 >! keyinput [40] $end
$var wire 1 ?! keyinput [39] $end
$var wire 1 @! keyinput [38] $end
$var wire 1 A! keyinput [37] $end
$var wire 1 B! keyinput [36] $end
$var wire 1 C! keyinput [35] $end
$var wire 1 D! keyinput [34] $end
$var wire 1 E! keyinput [33] $end
$var wire 1 F! keyinput [32] $end
$var wire 1 G! keyinput [31] $end
$var wire 1 H! keyinput [30] $end
$var wire 1 I! keyinput [29] $end
$var wire 1 J! keyinput [28] $end
$var wire 1 K! keyinput [27] $end
$var wire 1 L! keyinput [26] $end
$var wire 1 M! keyinput [25] $end
$var wire 1 N! keyinput [24] $end
$var wire 1 O! keyinput [23] $end
$var wire 1 P! keyinput [22] $end
$var wire 1 Q! keyinput [21] $end
$var wire 1 R! keyinput [20] $end
$var wire 1 S! keyinput [19] $end
$var wire 1 T! keyinput [18] $end
$var wire 1 U! keyinput [17] $end
$var wire 1 V! keyinput [16] $end
$var wire 1 W! keyinput [15] $end
$var wire 1 X! keyinput [14] $end
$var wire 1 Y! keyinput [13] $end
$var wire 1 Z! keyinput [12] $end
$var wire 1 [! keyinput [11] $end
$var wire 1 \! keyinput [10] $end
$var wire 1 ]! keyinput [9] $end
$var wire 1 ^! keyinput [8] $end
$var wire 1 _! keyinput [7] $end
$var wire 1 `! keyinput [6] $end
$var wire 1 a! keyinput [5] $end
$var wire 1 b! keyinput [4] $end
$var wire 1 c! keyinput [3] $end
$var wire 1 d! keyinput [2] $end
$var wire 1 e! keyinput [1] $end
$var wire 1 f! keyinput [0] $end
$var wire 1 $ result_o [32] $end
$var wire 1 % result_o [31] $end
$var wire 1 & result_o [30] $end
$var wire 1 ' result_o [29] $end
$var wire 1 ( result_o [28] $end
$var wire 1 ) result_o [27] $end
$var wire 1 * result_o [26] $end
$var wire 1 + result_o [25] $end
$var wire 1 , result_o [24] $end
$var wire 1 - result_o [23] $end
$var wire 1 . result_o [22] $end
$var wire 1 / result_o [21] $end
$var wire 1 0 result_o [20] $end
$var wire 1 1 result_o [19] $end
$var wire 1 2 result_o [18] $end
$var wire 1 3 result_o [17] $end
$var wire 1 4 result_o [16] $end
$var wire 1 5 result_o [15] $end
$var wire 1 6 result_o [14] $end
$var wire 1 7 result_o [13] $end
$var wire 1 8 result_o [12] $end
$var wire 1 9 result_o [11] $end
$var wire 1 : result_o [10] $end
$var wire 1 ; result_o [9] $end
$var wire 1 < result_o [8] $end
$var wire 1 = result_o [7] $end
$var wire 1 > result_o [6] $end
$var wire 1 ? result_o [5] $end
$var wire 1 @ result_o [4] $end
$var wire 1 A result_o [3] $end
$var wire 1 B result_o [2] $end
$var wire 1 C result_o [1] $end
$var wire 1 D result_o [0] $end
$var wire 1 g! n412 $end
$var wire 1 h! n413 $end
$var wire 1 i! xenc28 $end
$var wire 1 j! xenc23 $end
$var wire 1 k! n415 $end
$var wire 1 l! n429 $end
$var wire 1 m! n430 $end
$var wire 1 n! n434 $end
$var wire 1 o! n435 $end
$var wire 1 p! xenc27 $end
$var wire 1 q! n439 $end
$var wire 1 r! n442 $end
$var wire 1 s! n446 $end
$var wire 1 t! n447 $end
$var wire 1 u! n451 $end
$var wire 1 v! n452 $end
$var wire 1 w! n456 $end
$var wire 1 x! xenc57 $end
$var wire 1 y! xenc17 $end
$var wire 1 z! n457 $end
$var wire 1 {! n461 $end
$var wire 1 |! n462 $end
$var wire 1 }! xenc14 $end
$var wire 1 ~! xenc6 $end
$var wire 1 !" n467 $end
$var wire 1 "" n471 $end
$var wire 1 #" n472 $end
$var wire 1 $" n476 $end
$var wire 1 %" xenc59 $end
$var wire 1 &" n477 $end
$var wire 1 '" n481 $end
$var wire 1 (" xenc53 $end
$var wire 1 )" n482 $end
$var wire 1 *" n486 $end
$var wire 1 +" xenc29 $end
$var wire 1 ," n487 $end
$var wire 1 -" n493 $end
$var wire 1 ." xenc4 $end
$var wire 1 /" n494 $end
$var wire 1 0" n498 $end
$var wire 1 1" n499 $end
$var wire 1 2" xenc37 $end
$var wire 1 3" n504 $end
$var wire 1 4" xenc60 $end
$var wire 1 5" n508 $end
$var wire 1 6" n509 $end
$var wire 1 7" xenc46 $end
$var wire 1 8" n514 $end
$var wire 1 9" xenc52 $end
$var wire 1 :" n518 $end
$var wire 1 ;" n519 $end
$var wire 1 <" n523 $end
$var wire 1 =" n524 $end
$var wire 1 >" xenc25 $end
$var wire 1 ?" n529 $end
$var wire 1 @" xenc49 $end
$var wire 1 A" n534 $end
$var wire 1 B" n538 $end
$var wire 1 C" n539 $end
$var wire 1 D" n580 $end
$var wire 1 E" n586 $end
$var wire 1 F" n588 $end
$var wire 1 G" n582 $end
$var wire 1 H" xenc15 $end
$var wire 1 I" n496 $end
$var wire 1 J" n568 $end
$var wire 1 K" n584 $end
$var wire 1 L" n569 $end
$var wire 1 M" n511 $end
$var wire 1 N" xenc54 $end
$var wire 1 O" n570 $end
$var wire 1 P" xenc39 $end
$var wire 1 Q" n617 $end
$var wire 1 R" n572 $end
$var wire 1 S" xenc9 $end
$var wire 1 T" n571 $end
$var wire 1 U" xenc8 $end
$var wire 1 V" n573 $end
$var wire 1 W" xenc47 $end
$var wire 1 X" n583 $end
$var wire 1 Y" xenc34 $end
$var wire 1 Z" n530 $end
$var wire 1 [" n574 $end
$var wire 1 \" n575 $end
$var wire 1 ]" n589 $end
$var wire 1 ^" n576 $end
$var wire 1 _" xenc33 $end
$var wire 1 `" n577 $end
$var wire 1 a" n585 $end
$var wire 1 b" n578 $end
$var wire 1 c" n483 $end
$var wire 1 d" n579 $end
$var wire 1 e" n616 $end
$var wire 1 f" n608 $end
$var wire 1 g" n547 $end
$var wire 1 h" n417 $end
$var wire 1 i" n581 $end
$var wire 1 j" n526 $end
$var wire 1 k" n479 $end
$var wire 1 l" n612 $end
$var wire 1 m" n626 $end
$var wire 1 n" n628 $end
$var wire 1 o" n614 $end
$var wire 1 p" n610 $end
$var wire 1 q" n618 $end
$var wire 1 r" n606 $end
$var wire 1 s" n624 $end
$var wire 1 t" n531 $end
$var wire 1 u" n587 $end
$var wire 1 v" n484 $end
$var wire 1 w" n602 $end
$var wire 1 x" n604 $end
$var wire 1 y" n622 $end
$var wire 1 z" xenc44 $end
$var wire 1 {" n590 $end
$var wire 1 |" n419 $end
$var wire 1 }" n591 $end
$var wire 1 ~" n425 $end
$var wire 1 !# xenc48 $end
$var wire 1 "# n592 $end
$var wire 1 ## n441 $end
$var wire 1 $# xenc38 $end
$var wire 1 %# n593 $end
$var wire 1 &# xenc32 $end
$var wire 1 '# n594 $end
$var wire 1 (# n421 $end
$var wire 1 )# n595 $end
$var wire 1 *# n492 $end
$var wire 1 +# n620 $end
$var wire 1 ,# xenc21 $end
$var wire 1 -# n596 $end
$var wire 1 .# n607 $end
$var wire 1 /# n540 $end
$var wire 1 0# n597 $end
$var wire 1 1# n623 $end
$var wire 1 2# n598 $end
$var wire 1 3# n599 $end
$var wire 1 4# n625 $end
$var wire 1 5# xenc24 $end
$var wire 1 6# n505 $end
$var wire 1 7# n600 $end
$var wire 1 8# n601 $end
$var wire 1 9# xenc1 $end
$var wire 1 :# n567 $end
$var wire 1 ;# n603 $end
$var wire 1 <# n550 $end
$var wire 1 =# n605 $end
$var wire 1 ># xenc31 $end
$var wire 1 ?# n541 $end
$var wire 1 @# xenc41 $end
$var wire 1 A# n536 $end
$var wire 1 B# n609 $end
$var wire 1 C# xenc42 $end
$var wire 1 D# n521 $end
$var wire 1 E# xenc30 $end
$var wire 1 F# xenc2 $end
$var wire 1 G# n474 $end
$var wire 1 H# n611 $end
$var wire 1 I# n613 $end
$var wire 1 J# n553 $end
$var wire 1 K# xenc18 $end
$var wire 1 L# n615 $end
$var wire 1 M# n489 $end
$var wire 1 N# n544 $end
$var wire 1 O# n619 $end
$var wire 1 P# n449 $end
$var wire 1 Q# xenc63 $end
$var wire 1 R# n621 $end
$var wire 1 S# n556 $end
$var wire 1 T# n506 $end
$var wire 1 U# n501 $end
$var wire 1 V# n558 $end
$var wire 1 W# xenc13 $end
$var wire 1 X# n423 $end
$var wire 1 Y# n561 $end
$var wire 1 Z# xenc20 $end
$var wire 1 [# xenc43 $end
$var wire 1 \# n559 $end
$var wire 1 ]# n627 $end
$var wire 1 ^# n516 $end
$var wire 1 _# xenc11 $end
$var wire 1 `# n629 $end
$var wire 1 a# n437 $end
$var wire 1 b# xenc10 $end
$var wire 1 c# n535 $end
$var wire 1 d# n533 $end
$var wire 1 e# xenc56 $end
$var wire 1 f# n562 $end
$var wire 1 g# n414 $end
$var wire 1 h# n448 $end
$var wire 1 i# xenc62 $end
$var wire 1 j# n426 $end
$var wire 1 k# n427 $end
$var wire 1 l# xenc36 $end
$var wire 1 m# n478 $end
$var wire 1 n# xenc22 $end
$var wire 1 o# n500 $end
$var wire 1 p# n528 $end
$var wire 1 q# n564 $end
$var wire 1 r# n566 $end
$var wire 1 s# n515 $end
$var wire 1 t# n513 $end
$var wire 1 u# xenc51 $end
$var wire 1 v# xenc61 $end
$var wire 1 w# n431 $end
$var wire 1 x# xenc45 $end
$var wire 1 y# n463 $end
$var wire 1 z# n464 $end
$var wire 1 {# xenc7 $end
$var wire 1 |# n432 $end
$var wire 1 }# n436 $end
$var wire 1 ~# n453 $end
$var wire 1 !$ n455 $end
$var wire 1 "$ n465 $end
$var wire 1 #$ n468 $end
$var wire 1 $$ n470 $end
$var wire 1 %$ n473 $end
$var wire 1 &$ n488 $end
$var wire 1 '$ n520 $end
$var wire 1 ($ n525 $end
$var wire 1 )$ n543 $end
$var wire 1 *$ n555 $end
$var wire 1 +$ n563 $end
$var wire 1 ,$ n428 $end
$var wire 1 -$ n433 $end
$var wire 1 .$ n443 $end
$var wire 1 /$ n445 $end
$var wire 1 0$ n458 $end
$var wire 1 1$ n460 $end
$var wire 1 2$ n495 $end
$var wire 1 3$ n510 $end
$var wire 1 4$ n546 $end
$var wire 1 5$ n549 $end
$var wire 1 6$ n552 $end
$var wire 1 7$ n560 $end
$var wire 1 8$ n444 $end
$var wire 1 9$ xenc3 $end
$var wire 1 :$ xenc50 $end
$var wire 1 ;$ n459 $end
$var wire 1 <$ xenc19 $end
$var wire 1 =$ n454 $end
$var wire 1 >$ xenc35 $end
$var wire 1 ?$ xenc12 $end
$var wire 1 @$ n469 $end
$var wire 1 A$ n466 $end
$var wire 1 B$ n491 $end
$var wire 1 C$ xenc5 $end
$var wire 1 D$ xenc16 $end
$var wire 1 E$ n503 $end
$var wire 1 F$ xenc58 $end
$var wire 1 G$ xenc26 $end
$var wire 1 H$ xenc55 $end
$var wire 1 I$ xenc40 $end
$var wire 1 J$ xenc0 $end
$var wire 1 K$ n565 $end
$upscope $end
$upscope $end
$enddefinitions $end
#0
$dumpvars
b0 !
b0 "
b110011000011011000010111010010001000011011010000101101011101011 #
1D
0C
0B
0A
0@
0?
0>
0=
0<
0;
0:
09
08
07
06
05
04
03
02
01
00
0/
0.
0-
0,
0+
0*
0)
0(
0'
0&
0%
0$
0g!
0h!
0i!
0j!
0k!
0l!
0m!
0n!
0o!
0p!
0q!
0r!
0s!
0t!
0u!
0v!
0w!
0x!
0y!
0z!
0{!
0|!
0}!
0~!
0!"
0""
0#"
0$"
0%"
0&"
0'"
0("
0)"
0*"
0+"
0,"
0-"
0."
0/"
00"
01"
02"
03"
04"
05"
06"
07"
08"
09"
0:"
0;"
0<"
0="
0>"
0?"
0@"
0A"
0B"
0C"
1D"
1E"
1F"
1G"
0H"
1I"
0J"
1K"
0L"
1M"
1N"
1O"
1P"
1Q"
1R"
1S"
1T"
1U"
1V"
1W"
1X"
1Y"
1Z"
1["
1\"
1]"
1^"
1_"
1`"
1a"
1b"
1c"
0d"
1e"
1f"
1g"
0h"
1i"
1j"
1k"
1l"
1m"
1n"
1o"
1p"
1q"
1r"
1s"
1t"
1u"
1v"
1w"
1x"
1y"
1z"
1{"
0|"
1}"
0~"
1!#
1"#
0##
1$#
1%#
0&#
1'#
0(#
1)#
1*#
1+#
1,#
1-#
1.#
1/#
10#
11#
12#
13#
14#
15#
16#
17#
08#
09#
1:#
1;#
1<#
1=#
1>#
1?#
1@#
1A#
1B#
1C#
1D#
1E#
1F#
1G#
1H#
1I#
1J#
1K#
1L#
1M#
1N#
1O#
1P#
1Q#
1R#
1S#
1T#
1U#
1V#
1W#
0X#
1Y#
1Z#
0[#
1\#
1]#
1^#
1_#
1`#
1a#
1b#
1c#
0d#
0e#
1f#
0g#
1h#
0i#
1j#
1k#
0l#
1m#
1n#
1o#
0p#
1q#
0r#
1s#
0t#
1u#
0v#
1w#
1x#
1y#
1z#
0{#
1|#
1}#
1~#
0!$
0"$
1#$
0$$
1%$
1&$
1'$
1($
1)$
1*$
0+$
0,$
0-$
1.$
0/$
10$
01$
12$
13$
14$
15$
16$
07$
18$
19$
1:$
1;$
0<$
1=$
0>$
1?$
1@$
0A$
0B$
1C$
1D$
0E$
1F$
1G$
1H$
1I$
1J$
1K$
1f!
1e!
0d!
1c!
0b!
1a!
1`!
1_!
0^!
1]!
0\!
1[!
1Z!
0Y!
1X!
0W!
0V!
0U!
0T!
1S!
0R!
1Q!
1P!
0O!
1N!
1M!
0L!
0K!
0J!
0I!
1H!
0G!
0F!
0E!
1D!
0C!
0B!
1A!
0@!
1?!
1>!
1=!
0<!
1;!
0:!
09!
08!
07!
16!
15!
04!
13!
12!
01!
00!
0/!
0.!
1-!
1,!
0+!
0*!
1)!
1(!
0'!
0&!
0%!
0$!
0#!
0"!
0!!
0~
0}
0|
0{
0z
0y
0x
0w
0v
0u
0t
0s
0r
0q
0p
0o
0n
0m
0l
0k
0j
0i
0h
0g
0f
0e
0d
0c
0b
0a
0`
0_
0^
0]
0\
0[
0Z
0Y
0X
0W
0V
0U
0T
0S
0R
0Q
0P
0O
0N
0M
0L
0K
0J
0I
0H
0G
0F
0E
$end
#10000
b101001101011110010010000110000 !
b1111010000110111001101010111100 "
1$!
1#!
1"!
0+#
1!!
0l"
1}
0D"
1{
0x"
1y
0E"
1x
0G"
1u
1t
0y"
1s
0s"
1q
0o"
1p
0F"
1k
1i
0q"
1h
1g
0n"
1f
1`
0R#
1_
0I#
0J#
1|"
0;#
1>
1Z
00#
0-#
0.#
1W
0B#
1T
01#
0T#
1E$
02#
04#
0U#
1S
07#
1R
1J"
1Q
0L#
1O
0b"
0`"
0a"
1M
1$$
1L
1"$
1I
0O#
0P#
1s!
1/$
08$
1q!
0`#
1G
0}#
09$
1n!
1-$
1(
1'
1!"
1#"
1)"
11"
1H"
05#
03#
0n#
10"
02$
1B$
12"
0o#
1="
1C"
1o!
0_#
0a#
1t!
1|!
1,"
0K#
0M#
1*"
0]"
0v"
1'"
0m#
1$"
0H#
0^"
18"
1?"
1A"
1h!
0>#
0{"
0Q#
0S#
1(#
06$
1?
0"#
0%#
0$#
0!#
0H$
0z"
1i!
19
18
19"
10
0_"
1/
1.
0E#
1+"
1+
0(
0:$
1:
17
14"
1."
0&$
1("
1-
1~!
1{#
0|#
0x#
1l!
1,$
1,
0/
11
13
00
15
1;
1%
1v#
#20000
b10001000000000011010001010110 !
b10001000100010010001100100011 "
1&!
18#
1r#
0*#
19#
1d"
1%!
0K$
0$!
0#!
0"!
1+#
0}
1D"
1|
0e"
0y
1E"
0x
1G"
1w
0f"
0u
0s
1s"
1U#
0q
1o"
1l
0z#
1{!
11$
0k
0i
1q"
1P#
0s!
0/$
18$
0q!
1}#
0g
1n"
0f
1|#
1c
1b
1+$
0_
16$
1^
05$
1h"
0i"
1X
0\"
0T
11#
1T#
0E$
12#
0S
1o#
17#
0R
12$
0B$
0Q
1&$
0O
1m#
0$"
1H#
1b"
1`"
0M
0$$
0I
1O#
1H
1/$
08$
1q!
0}#
0G
1}#
0t!
0#"
0)"
0.
1E#
01"
0."
1L#
1M#
0*"
1]"
1v"
0'"
1^"
15#
13#
14#
16"
02"
0Y"
0["
0}"
0>
0N"
0)#
0?
1H$
1e#
0o!
1x#
0l!
0,$
1_#
1a#
19$
0|!
0!"
1<$
1K#
1n#
00"
0J"
08"
0="
0C#
0D#
0A"
1k!
1{"
0'#
1Q#
1S#
0(#
1I#
1J#
0|"
15$
0h"
1i"
1"#
0J$
1##
0Y#
1~"
17$
1i#
0q#
0D
1C
1[#
1!#
1A
1N"
1z"
1<
09
0G$
1:"
0]#
07
09"
0H"
0~!
1:$
0n!
0-$
0%
0v#
0W"
0X"
04"
14
01
10
1_"
1a"
1/
0("
0-
0/
03
0{#
0,
05
16
#30000
b10000001000101100000100001110011 !
b11100110011100000000101111000 "
0&!
08#
1*#
09#
0d"
0%!
1K$
1#!
0\#
1"!
0+#
1~
0w"
0<#
0{
1x"
0w
1f"
0t
1y"
1s
0s"
1r
1q
0o"
0p
1F"
1n
0p"
1m
0l
1z#
0{!
01$
1j
1i
0q"
1d
18#
0*#
19#
1d"
0b
1Y#
0~"
07$
0A
1_
0I#
0J#
1|"
05$
1h"
1=
0i"
0Z
10#
1-#
1.#
1Y
0u"
0X
1\"
0W
1B#
1D#
1S
07#
1R
1J"
1P
0]"
0H
0/$
18$
0q!
1`#
1E
1,$
1m!
1v#
1t!
0'
1H"
0I"
1B$
05#
03#
04#
0U#
1G$
0:"
1]#
0?"
1Y"
1["
1A"
0U"
0C"
1)#
0N"
1%#
0[#
1\#
1v!
1z!
1!"
0+
0<$
1#"
1&"
0F#
1/"
0K#
06"
1C#
0h!
1>#
0I$
1}"
1>
1'#
0Q#
0S#
1(#
06$
1?
0"#
1-"
09#
1J$
0C
0!#
0H$
0i!
04
11
1%"
1-
1~!
1x!
1)
1$#
1B
0:
19
1W"
1X"
08
06
0n#
10"
02$
1."
0L#
0M#
1*"
0c"
1'"
0`"
0a"
1(
1%
01
00
1/
12
1y!
1,
1.
0;
1*
#35000
b100000001000000010000000010010 !
b11011110101011011011111011101111 "
1&!
0:#
1D
1%!
0K$
1$!
0f#
0"!
1+#
1}
0D"
0g"
1g#
0O"
0Q"
0N#
1g!
0=#
0|
1e"
1N#
0g!
1=#
1{
0x"
1z
0r"
1y
0E"
0t"
1p#
0V"
0X"
1x
0G"
0j"
1w
0f"
1u
1t
0y"
0s
1s"
1U#
1o
0K"
0k"
1$"
0H#
0n
1p"
1k
1f
1e
0k#
1l#
0d
1:#
0D
0_
16$
0^
15$
0Y
1u"
1W
0B#
0S
17#
0R
12$
0P
1c"
0'"
1`"
1a"
1k"
0$"
1H#
1O
0b"
0`"
0a"
0k"
1$"
0H#
0L
0"$
1G
0`#
0E
0,$
0v#
1k#
0l#
1r!
0!"
0,"
0/
11"
15#
13#
14#
1U"
1t"
0p#
1V"
1X"
1j"
0}"
0>
0)#
0?
1H$
1o!
1|!
0&"
1F#
0.
0E#
1n#
00"
0J"
16"
18"
0C#
0D#
1?"
1C"
0@#
1h!
0>#
0k!
1i!
1j!
0{"
0'#
1Q#
1S#
0(#
1I#
1J#
0|"
1;#
1<#
0%#
0Z#
1~"
17$
0-"
19#
0J$
1C
1[#
0\#
0$#
0B
1I$
0h"
0=
1i"
0z"
1;
1:
18
0G$
1:"
0]#
19"
14
0H"
1I"
0B$
0%"
1+
1p!
0+"
0~!
1'
0,
10
1&
1.
0."
1L#
1M#
0*"
1]"
15
16
1N"
1g"
0g#
1O"
1Q"
0W#
1X#
1&#
0*$
0j!
11
00
0<
0u#
1(#
0I#
0J#
1|"
0;#
0<#
0I$
1h"
0i"
0N"
0g"
1g#
0O"
0Q"
1j!
1<
#43000
b10001001010000111101111010101111 !
b11011010101011011011101010101101 "
0%!
1K$
0~
1w"
1<#
0z
1r"
0j
1d
0:#
1D
1b
0Y#
1a
0V#
0`
1*$
1_
06$
1]
04$
1[
0=#
0?#
1Z
00#
0-#
0.#
0A#
1Y
0u"
1X
0\"
0W
1B#
1D#
1V
0s#
1t#
1U
1L"
0M"
1T
01#
0T#
1E$
02#
04#
1S
07#
0O
1b"
1`"
1a"
1k"
0$"
1H#
1N
0H#
1L
1"$
1I
0O#
0P#
1s!
1/$
08$
1q!
0}#
0G
1}#
1E
1,$
0m!
1v#
0k#
1l#
0r!
0v!
0(
1!"
1&"
1)"
0.
13"
05#
03#
06"
12"
0o#
10"
1J"
08"
0D$
15"
06#
1;"
17"
03$
1="
1G$
0:"
1s#
0t#
0?"
0Y"
0["
0A"
0U"
0t"
1p#
0V"
0X"
0j"
0b#
1d#
0h!
0,#
1B"
0c#
1{"
0S"
0T"
1)#
1?
0H$
1'#
1@
1u#
0(#
16$
0?
1"#
1%#
0z!
1@#
1A#
1I$
0h"
14$
1}"
1>
1-"
09#
1J$
0C
1S"
1T"
1b#
0x!
1$#
1B
1!#
1A
1H$
1z"
0:
0i!
1@"
0Z"
0F$
1<"
0B#
0D#
1>"
0($
0W"
07"
13$
09"
02
1H"
0I"
1B$
1("
1%"
1~!
0)
1$
0%
1,
1.
1/
1."
0L#
0M#
1*"
0]"
05
0G$
1:"
0s#
1t#
0;
0y!
0*
06
17"
03$
01
10
19"
0C$
15
#53000
b10101011110011010001001000110100 !
b0 "
0&!
1:#
0D
0$!
1f#
0#!
1\#
0!!
1l"
1J#
0|"
1;#
0>
0}
1D"
1g"
0g#
1O"
1Q"
0{
1x"
0y
1E"
1t"
1V"
0x
1G"
1j"
0w
1f"
0u
1M"
0t
1y"
1T#
12#
0r
1I"
0B$
0q
1o"
0o
1K"
0m
0k
0i
1q"
1P#
0s!
0/$
18$
0q!
1`#
0h
0f
0e
1k#
0l#
0d
08#
1*#
0d"
0c
0r#
1q#
0##
1Y#
0B
0a
1V#
1`
0*$
0]
1i"
0Z
1c#
0d#
10#
1-#
0Y
1Z"
0p#
0V
1s#
0t#
0U
13$
0S
1o#
00"
0J"
17#
1R
1J"
1Q
0&$
1M
1$$
1K
11$
1G
0`#
1r!
1<$
03"
15#
12
1C$
0;"
07"
0L"
0>"
1($
0C"
0@"
1u"
1N"
0'#
0@
0u#
1(#
06$
1?
0-"
0i#
1D
1m!
0$
0o!
0t!
1v!
0)"
1K#
1M#
0."
1&$
0*"
1]"
16"
1D$
05"
16#
0E$
13#
14#
0="
1C#
1D#
1?"
1F$
0<"
1B#
1h!
1>#
1?#
0j!
0)#
0?
1W#
0X#
0%#
1Z#
0~"
07$
0A
0[#
0$#
0&#
1*$
0<
1,#
0B"
1.#
1i!
1G$
0:"
1]#
02"
11
00
0("
1)
0p!
1%
0H$
1|"
0;#
1>
09
1U"
09"
05
0&
0/
1;
1u#
0(#
16$
1H$
0|"
1;#
0>
#63000
b0 !
b10010001101000101011001111000 "
1#!
1"!
0+#
1!!
0l"
0J#
1|"
0;#
1>
1~
0w"
0<#
1{
0x"
1z
0r"
1x
0G"
0j"
1v
0m"
1r
0I"
1B$
1p
0F"
1o
0K"
1k
0;$
1w!
1!$
1h
0b
0+$
0`
1R#
0_
1I#
1J#
0|"
1;#
1<#
0>
0[
1=#
0X
1\"
0T
11#
0R
0J"
0Q
1L#
0N
1H#
0M
0$$
0L
0"$
0K
01$
0I
1O#
0G
1`#
0E
0,$
0m!
0v#
0r!
0v!
0<$
1;$
0w!
0!$
0!"
0#"
0&"
1E#
0/"
0H"
1I"
0B$
06"
1Y"
1["
1%#
0e#
1t!
1)"
1,"
1;"
0F$
1<"
0B#
1C"
0@#
0>#
0}"
0Q#
0"#
0!#
1:
17
16
1+"
1("
1(
1$#
1W"
1X"
1j"
04
01
0%"
0-
0~!
0)
0'
0%
0,
0.
1F$
0<"
1B#
1/
10
07
#73000
b10001000100010100010001110111 !
b11101110101010100000000000000000 "
0#!
0"!
1+#
0!!
1l"
0~
1w"
0{
1x"
0z
1r"
0x
1G"
0v
1m"
1s
0s"
0r
1q
0o"
0p
1F"
1m
1j
1i
0q"
0h
1g
0n"
1f
1e
1d
18#
1r#
0*#
19#
1d"
1c
1b
1+$
1`
0R#
0S#
1(#
0I#
1_
06$
1^
0;#
1Z
00#
0-#
0.#
0A#
1V
0]#
1T
01#
1P
0]"
1L
1"$
1H
1/$
1!"
16"
0b#
1d#
0H$
1|"
05$
1h"
1=
0i"
0%#
1e#
1-"
09#
1i#
0q#
1##
0Y#
1~"
17$
1B
0D
1m!
1o!
1r!
0_#
1v!
1z!
1#"
1/"
0K#
01"
13"
0?"
1@#
1A#
0h!
1>#
1Q#
1S#
0(#
16$
1"#
1!#
1A
1H$
0|"
15$
0h"
0=
1i"
0i!
1b#
0d#
08
14"
02
11
1-
1x!
1)
1'
1p!
1%
1[#
0$#
0B
14
1~!
1,
1&
1y!
13
0;
1*
