lockednetlistsimulation/64aor/error_tolerant_adder/sim/error_tolerant_type2_adder32_gatesim.vcd
$date
	Wed Sep 30 19:41:30 2020
$end
$version
	ModelSim Version 6.6d
$end
$timescale
	1ps
$end
$scope module error_tolerant_type2_adder32_tb $end
$var reg 32 ! add1_i [31:0] $end
$var reg 32 " add2_i [31:0] $end
$var reg 64 # keyinput [63:0] $end
$var wire 1 $ result_o [32] $end
$var wire 1 % result_o [31] $end
$var wire 1 & result_o [30] $end
$var wire 1 ' result_o [29] $end
$var wire 1 ( result_o [28] $end
$var wire 1 ) result_o [27] $end
$var wire 1 * result_o [26] $end
$var wire 1 + result_o [25] $end
$var wire 1 , result_o [24] $end
$var wire 1 - result_o [23] $end
$var wire 1 . result_o [22] $end
$var wire 1 / result_o [21] $end
$var wire 1 0 result_o [20] $end
$var wire 1 1 result_o [19] $end
$var wire 1 2 result_o [18] $end
$var wire 1 3 result_o [17] $end
$var wire 1 4 result_o [16] $end
$var wire 1 5 result_o [15] $end
$var wire 1 6 result_o [14] $end
$var wire 1 7 result_o [13] $end
$var wire 1 8 result_o [12] $end
$var wire 1 9 result_o [11] $end
$var wire 1 : result_o [10] $end
$var wire 1 ; result_o [9] $end
$var wire 1 < result_o [8] $end
$var wire 1 = result_o [7] $end
$var wire 1 > result_o [6] $end
$var wire 1 ? result_o [5] $end
$var wire 1 @ result_o [4] $end
$var wire 1 A result_o [3] $end
$var wire 1 B result_o [2] $end
$var wire 1 C result_o [1] $end
$var wire 1 D result_o [0] $end
$scope module eta $end
$var wire 1 E add1_i [31] $end
$var wire 1 F add1_i [30] $end
$var wire 1 G add1_i [29] $end
$var wire 1 H add1_i [28] $end
$var wire 1 I add1_i [27] $end
$var wire 1 J add1_i [26] $end
$var wire 1 K add1_i [25] $end
$var wire 1 L add1_i [24] $end
$var wire 1 M add1_i [23] $end
$var wire 1 N add1_i [22] $end
$var wire 1 O add1_i [21] $end
$var wire 1 P add1_i [20] $end
$var wire 1 Q add1_i [19] $end
$var wire 1 R add1_i [18] $end
$var wire 1 S add1_i [17] $end
$var wire 1 T add1_i [16] $end
$var wire 1 U add1_i [15] $end
$var wire 1 V add1_i [14] $end
$var wire 1 W add1_i [13] $end
$var wire 1 X add1_i [12] $end
$var wire 1 Y add1_i [11] $end
$var wire 1 Z add1_i [10] $end
$var wire 1 [ add1_i [9] $end
$var wire 1 \ add1_i [8] $end
$var wire 1 ] add1_i [7] $end
$var wire 1 ^ add1_i [6] $end
$var wire 1 _ add1_i [5] $end
$var wire 1 ` add1_i [4] $end
$var wire 1 a add1_i [3] $end
$var wire 1 b add1_i [2] $end
$var wire 1 c add1_i [1] $end
$var wire 1 d add1_i [0] $end
$var wire 1 e add2_i [31] $end
$var wire 1 f add2_i [30] $end
$var wire 1 g add2_i [29] $end
$var wire 1 h add2_i [28] $end
$var wire 1 i add2_i [27] $end
$var wire 1 j add2_i [26] $end
$var wire 1 k add2_i [25] $end
$var wire 1 l add2_i [24] $end
$var wire 1 m add2_i [23] $end
$var wire 1 n add2_i [22] $end
$var wire 1 o add2_i [21] $end
$var wire 1 p add2_i [20] $end
$var wire 1 q add2_i [19] $end
$var wire 1 r add2_i [18] $end
$var wire 1 s add2_i [17] $end
$var wire 1 t add2_i [16] $end
$var wire 1 u add2_i [15] $end
$var wire 1 v add2_i [14] $end
$var wire 1 w add2_i [13] $end
$var wire 1 x add2_i [12] $end
$var wire 1 y add2_i [11] $end
$var wire 1 z add2_i [10] $end
$var wire 1 { add2_i [9] $end
$var wire 1 | add2_i [8] $end
$var wire 1 } add2_i [7] $end
$var wire 1 ~ add2_i [6] $end
$var wire 1 !! add2_i [5] $end
$var wire 1 "! add2_i [4] $end
$var wire 1 #! add2_i [3] $end
$var wire 1 $! add2_i [2] $end
$var wire 1 %! add2_i [1] $end
$var wire 1 &! add2_i [0] $end
$var wire 1 '! keyinput [63] $end
$var wire 1 (! keyinput [62] $end
$var wire 1 )! keyinput [61] $end
$var wire 1 *! keyinput [60] $end
$var wire 1 +! keyinput [59] $end
$var wire 1 ,! keyinput [58] $end
$var wire 1 -! keyinput [57] $end
$var wire 1 .! keyinput [56] $end
$var wire 1 /! keyinput [55] $end
$var wire 1 0! keyinput [54] $end
$var wire 1 1! keyinput [53] $end
$var wire 1 2! keyinput [52] $end
$var wire 1 3! keyinput [51] $end
$var wire 1 4! keyinput [50] $end
$var wire 1 5! keyinput [49] $end
$var wire 1 6! keyinput [48] $end
$var wire 1 7! keyinput [47] $end
$var wire 1 8! keyinput [46] $end
$var wire 1 9! keyinput [45] $end
$var wire 1 :! keyinput [44] $end
$var wire 1 ;! keyinput [43] $end
$var wire 1 <! keyinput [42] $end
$var wire 1 =! keyinput [41] $end
$var wire 1 >! keyinput [40] $end
$var wire 1 ?! keyinput [39] $end
$var wire 1 @! keyinput [38] $end
$var wire 1 A! keyinput [37] $end
$var wire 1 B! keyinput [36] $end
$var wire 1 C! keyinput [35] $end
$var wire 1 D! keyinput [34] $end
$var wire 1 E! keyinput [33] $end
$var wire 1 F! keyinput [32] $end
$var wire 1 G! keyinput [31] $end
$var wire 1 H! keyinput [30] $end
$var wire 1 I! keyinput [29] $end
$var wire 1 J! keyinput [28] $end
$var wire 1 K! keyinput [27] $end
$var wire 1 L! keyinput [26] $end
$var wire 1 M! keyinput [25] $end
$var wire 1 N! keyinput [24] $end
$var wire 1 O! keyinput [23] $end
$var wire 1 P! keyinput [22] $end
$var wire 1 Q! keyinput [21] $end
$var wire 1 R! keyinput [20] $end
$var wire 1 S! keyinput [19] $end
$var wire 1 T! keyinput [18] $end
$var wire 1 U! keyinput [17] $end
$var wire 1 V! keyinput [16] $end
$var wire 1 W! keyinput [15] $end
$var wire 1 X! keyinput [14] $end
$var wire 1 Y! keyinput [13] $end
$var wire 1 Z! keyinput [12] $end
$var wire 1 [! keyinput [11] $end
$var wire 1 \! keyinput [10] $end
$var wire 1 ]! keyinput [9] $end
$var wire 1 ^! keyinput [8] $end
$var wire 1 _! keyinput [7] $end
$var wire 1 `! keyinput [6] $end
$var wire 1 a! keyinput [5] $end
$var wire 1 b! keyinput [4] $end
$var wire 1 c! keyinput [3] $end
$var wire 1 d! keyinput [2] $end
$var wire 1 e! keyinput [1] $end
$var wire 1 f! keyinput [0] $end
$var wire 1 $ result_o [32] $end
$var wire 1 % result_o [31] $end
$var wire 1 & result_o [30] $end
$var wire 1 ' result_o [29] $end
$var wire 1 ( result_o [28] $end
$var wire 1 ) result_o [27] $end
$var wire 1 * result_o [26] $end
$var wire 1 + result_o [25] $end
$var wire 1 , result_o [24] $end
$var wire 1 - result_o [23] $end
$var wire 1 . result_o [22] $end
$var wire 1 / result_o [21] $end
$var wire 1 0 result_o [20] $end
$var wire 1 1 result_o [19] $end
$var wire 1 2 result_o [18] $end
$var wire 1 3 result_o [17] $end
$var wire 1 4 result_o [16] $end
$var wire 1 5 result_o [15] $end
$var wire 1 6 result_o [14] $end
$var wire 1 7 result_o [13] $end
$var wire 1 8 result_o [12] $end
$var wire 1 9 result_o [11] $end
$var wire 1 : result_o [10] $end
$var wire 1 ; result_o [9] $end
$var wire 1 < result_o [8] $end
$var wire 1 = result_o [7] $end
$var wire 1 > result_o [6] $end
$var wire 1 ? result_o [5] $end
$var wire 1 @ result_o [4] $end
$var wire 1 A result_o [3] $end
$var wire 1 B result_o [2] $end
$var wire 1 C result_o [1] $end
$var wire 1 D result_o [0] $end
$var wire 1 g! n143 $end
$var wire 1 h! xenc19 $end
$var wire 1 i! n144 $end
$var wire 1 j! xenc44 $end
$var wire 1 k! n145 $end
$var wire 1 l! n146 $end
$var wire 1 m! xenc13 $end
$var wire 1 n! n149 $end
$var wire 1 o! xenc49 $end
$var wire 1 p! n150 $end
$var wire 1 q! xenc37 $end
$var wire 1 r! n154 $end
$var wire 1 s! n153 $end
$var wire 1 t! xenc46 $end
$var wire 1 u! n158 $end
$var wire 1 v! n157 $end
$var wire 1 w! n171 $end
$var wire 1 x! n172 $end
$var wire 1 y! n188 $end
$var wire 1 z! n189 $end
$var wire 1 {! n192 $end
$var wire 1 |! xenc6 $end
$var wire 1 }! n175 $end
$var wire 1 ~! xenc23 $end
$var wire 1 !" xenc28 $end
$var wire 1 "" xenc27 $end
$var wire 1 #" n196 $end
$var wire 1 $" n204 $end
$var wire 1 %" n205 $end
$var wire 1 &" n217 $end
$var wire 1 '" n218 $end
$var wire 1 (" xenc7 $end
$var wire 1 )" n222 $end
$var wire 1 *" n221 $end
$var wire 1 +" n225 $end
$var wire 1 ," xenc33 $end
$var wire 1 -" n229 $end
$var wire 1 ." n230 $end
$var wire 1 /" xenc29 $end
$var wire 1 0" xenc42 $end
$var wire 1 1" n243 $end
$var wire 1 2" xenc56 $end
$var wire 1 3" n247 $end
$var wire 1 4" n246 $end
$var wire 1 5" xenc10 $end
$var wire 1 6" n251 $end
$var wire 1 7" n250 $end
$var wire 1 8" n254 $end
$var wire 1 9" xenc32 $end
$var wire 1 :" xenc26 $end
$var wire 1 ;" xenc61 $end
$var wire 1 <" n200 $end
$var wire 1 =" n201 $end
$var wire 1 >" xenc5 $end
$var wire 1 ?" xenc18 $end
$var wire 1 @" n268 $end
$var wire 1 A" xenc8 $end
$var wire 1 B" n272 $end
$var wire 1 C" n271 $end
$var wire 1 D" xenc62 $end
$var wire 1 E" xenc12 $end
$var wire 1 F" xenc9 $end
$var wire 1 G" n275 $end
$var wire 1 H" n279 $end
$var wire 1 I" n280 $end
$var wire 1 J" n292 $end
$var wire 1 K" n293 $end
$var wire 1 L" xenc4 $end
$var wire 1 M" n296 $end
$var wire 1 N" n297 $end
$var wire 1 O" n300 $end
$var wire 1 P" xenc17 $end
$var wire 1 Q" n304 $end
$var wire 1 R" n305 $end
$var wire 1 S" xenc2 $end
$var wire 1 T" n318 $end
$var wire 1 U" n321 $end
$var wire 1 V" n322 $end
$var wire 1 W" xenc35 $end
$var wire 1 X" n328 $end
$var wire 1 Y" n170 $end
$var wire 1 Z" n142 $end
$var wire 1 [" xenc22 $end
$var wire 1 \" xenc41 $end
$var wire 1 ]" n320 $end
$var wire 1 ^" n317 $end
$var wire 1 _" n319 $end
$var wire 1 `" n148 $end
$var wire 1 a" n295 $end
$var wire 1 b" n270 $end
$var wire 1 c" n245 $end
$var wire 1 d" n220 $end
$var wire 1 e" n191 $end
$var wire 1 f" n155 $end
$var wire 1 g" n156 $end
$var wire 1 h" n302 $end
$var wire 1 i" xenc38 $end
$var wire 1 j" n301 $end
$var wire 1 k" n303 $end
$var wire 1 l" n277 $end
$var wire 1 m" n278 $end
$var wire 1 n" n276 $end
$var wire 1 o" n252 $end
$var wire 1 p" n253 $end
$var wire 1 q" n227 $end
$var wire 1 r" n228 $end
$var wire 1 s" n226 $end
$var wire 1 t" n202 $end
$var wire 1 u" n203 $end
$var wire 1 v" n197 $end
$var wire 1 w" n151 $end
$var wire 1 x" n152 $end
$var wire 1 y" xenc0 $end
$var wire 1 z" n299 $end
$var wire 1 {" n298 $end
$var wire 1 |" n273 $end
$var wire 1 }" n274 $end
$var wire 1 ~" n248 $end
$var wire 1 !# xenc20 $end
$var wire 1 "# n249 $end
$var wire 1 ## n223 $end
$var wire 1 $# xenc40 $end
$var wire 1 %# n224 $end
$var wire 1 &# xenc55 $end
$var wire 1 '# n195 $end
$var wire 1 (# n193 $end
$var wire 1 )# n194 $end
$var wire 1 *# n326 $end
$var wire 1 +# n327 $end
$var wire 1 ,# n325 $end
$var wire 1 -# n323 $end
$var wire 1 .# n324 $end
$var wire 1 /# xenc3 $end
$var wire 1 0# xenc47 $end
$var wire 1 1# xenc39 $end
$var wire 1 2# n329 $end
$var wire 1 3# n331 $end
$var wire 1 4# n330 $end
$var wire 1 5# n306 $end
$var wire 1 6# xenc60 $end
$var wire 1 7# n309 $end
$var wire 1 8# n308 $end
$var wire 1 9# n307 $end
$var wire 1 :# n281 $end
$var wire 1 ;# n282 $end
$var wire 1 <# xenc24 $end
$var wire 1 =# n283 $end
$var wire 1 ># n256 $end
$var wire 1 ?# xenc48 $end
$var wire 1 @# n255 $end
$var wire 1 A# xenc45 $end
$var wire 1 B# n258 $end
$var wire 1 C# n257 $end
$var wire 1 D# n231 $end
$var wire 1 E# n232 $end
$var wire 1 F# n234 $end
$var wire 1 G# n233 $end
$var wire 1 H# n206 $end
$var wire 1 I# n207 $end
$var wire 1 J# n209 $end
$var wire 1 K# n208 $end
$var wire 1 L# n337 $end
$var wire 1 M# xenc57 $end
$var wire 1 N# n336 $end
$var wire 1 O# n339 $end
$var wire 1 P# n338 $end
$var wire 1 Q# n314 $end
$var wire 1 R# xenc50 $end
$var wire 1 S# n313 $end
$var wire 1 T# n316 $end
$var wire 1 U# n315 $end
$var wire 1 V# n289 $end
$var wire 1 W# n290 $end
$var wire 1 X# n288 $end
$var wire 1 Y# n291 $end
$var wire 1 Z# n264 $end
$var wire 1 [# n265 $end
$var wire 1 \# n263 $end
$var wire 1 ]# n266 $end
$var wire 1 ^# n239 $end
$var wire 1 _# xenc58 $end
$var wire 1 `# n238 $end
$var wire 1 a# n241 $end
$var wire 1 b# n240 $end
$var wire 1 c# n214 $end
$var wire 1 d# xenc14 $end
$var wire 1 e# n213 $end
$var wire 1 f# n216 $end
$var wire 1 g# n215 $end
$var wire 1 h# n163 $end
$var wire 1 i# n164 $end
$var wire 1 j# n162 $end
$var wire 1 k# n166 $end
$var wire 1 l# n165 $end
$var wire 1 m# xenc34 $end
$var wire 1 n# n334 $end
$var wire 1 o# n332 $end
$var wire 1 p# xenc15 $end
$var wire 1 q# n333 $end
$var wire 1 r# n335 $end
$var wire 1 s# n310 $end
$var wire 1 t# n311 $end
$var wire 1 u# n312 $end
$var wire 1 v# xenc54 $end
$var wire 1 w# n286 $end
$var wire 1 x# n284 $end
$var wire 1 y# n285 $end
$var wire 1 z# n287 $end
$var wire 1 {# xenc25 $end
$var wire 1 |# xenc43 $end
$var wire 1 }# n259 $end
$var wire 1 ~# n260 $end
$var wire 1 !$ n262 $end
$var wire 1 "$ n261 $end
$var wire 1 #$ n235 $end
$var wire 1 $$ n236 $end
$var wire 1 %$ n237 $end
$var wire 1 &$ n210 $end
$var wire 1 '$ n211 $end
$var wire 1 ($ n212 $end
$var wire 1 )$ n159 $end
$var wire 1 *$ n160 $end
$var wire 1 +$ xenc53 $end
$var wire 1 ,$ n161 $end
$var wire 1 -$ n147 $end
$var wire 1 .$ xenc16 $end
$var wire 1 /$ n294 $end
$var wire 1 0$ n269 $end
$var wire 1 1$ xenc52 $end
$var wire 1 2$ n267 $end
$var wire 1 3$ n244 $end
$var wire 1 4$ n242 $end
$var wire 1 5$ xenc1 $end
$var wire 1 6$ xenc11 $end
$var wire 1 7$ n219 $end
$var wire 1 8$ n190 $end
$var wire 1 9$ n167 $end
$var wire 1 :$ n168 $end
$var wire 1 ;$ xenc21 $end
$var wire 1 <$ n169 $end
$var wire 1 =$ n173 $end
$var wire 1 >$ n174 $end
$var wire 1 ?$ xenc31 $end
$var wire 1 @$ n199 $end
$var wire 1 A$ n176 $end
$var wire 1 B$ n198 $end
$var wire 1 C$ n185 $end
$var wire 1 D$ xenc51 $end
$var wire 1 E$ n184 $end
$var wire 1 F$ n187 $end
$var wire 1 G$ n186 $end
$var wire 1 H$ xenc36 $end
$var wire 1 I$ n182 $end
$var wire 1 J$ n180 $end
$var wire 1 K$ n181 $end
$var wire 1 L$ n183 $end
$var wire 1 M$ n177 $end
$var wire 1 N$ xenc63 $end
$var wire 1 O$ xenc30 $end
$var wire 1 P$ xenc59 $end
$var wire 1 Q$ n178 $end
$var wire 1 R$ n179 $end
$upscope $end
$upscope $end
$enddefinitions $end
#0
$dumpvars
b0 !
b0 "
b1111111110110110011110000001011111111011111100011000101011101111 #
1D
0C
0B
0A
0@
0?
0>
0=
0<
0;
0:
09
08
07
06
05
04
03
02
01
00
0/
0.
0-
0,
0+
0*
0)
0(
0'
0&
0%
0$
0g!
0h!
0i!
0j!
0k!
0l!
0m!
0n!
0o!
0p!
0q!
0r!
0s!
0t!
0u!
0v!
0w!
0x!
0y!
0z!
0{!
0|!
0}!
0~!
0!"
0""
0#"
0$"
0%"
0&"
0'"
0("
0)"
0*"
0+"
0,"
0-"
0."
0/"
00"
01"
02"
03"
04"
05"
06"
07"
08"
09"
0:"
0;"
0<"
0="
0>"
0?"
0@"
0A"
0B"
0C"
0D"
0E"
0F"
0G"
0H"
0I"
0J"
0K"
0L"
0M"
0N"
0O"
0P"
0Q"
0R"
0S"
0T"
0U"
0V"
0W"
0X"
1Y"
0Z"
1["
1\"
1]"
0^"
1_"
1`"
1a"
1b"
1c"
1d"
1e"
1f"
1g"
1h"
1i"
0j"
1k"
1l"
1m"
0n"
1o"
1p"
1q"
1r"
0s"
1t"
1u"
0v"
1w"
1x"
1y"
1z"
1{"
1|"
1}"
1~"
1!#
1"#
1##
1$#
1%#
1&#
1'#
0(#
1)#
1*#
1+#
0,#
1-#
1.#
1/#
10#
01#
12#
03#
14#
15#
16#
07#
08#
19#
1:#
1;#
0<#
0=#
1>#
1?#
0@#
0A#
0B#
1C#
1D#
1E#
0F#
0G#
1H#
1I#
0J#
0K#
1L#
1M#
0N#
0O#
1P#
1Q#
1R#
0S#
0T#
1U#
1V#
1W#
0X#
0Y#
1Z#
1[#
0\#
0]#
1^#
1_#
0`#
0a#
1b#
1c#
1d#
0e#
0f#
1g#
1h#
1i#
0j#
0k#
0l#
1m#
1n#
0o#
0p#
1q#
0r#
1s#
1t#
0u#
1v#
1w#
0x#
1y#
0z#
1{#
1|#
0}#
1~#
0!$
1"$
1#$
1$$
0%$
1&$
1'$
0($
1)$
1*$
0+$
0,$
1-$
1.$
1/$
10$
11$
02$
13$
04$
15$
16$
17$
18$
19$
1:$
0;$
0<$
1=$
1>$
1?$
1@$
0A$
1B$
1C$
1D$
0E$
0F$
1G$
1H$
1I$
0J$
1K$
0L$
1M$
1N$
0O$
0P$
1Q$
0R$
1f!
1e!
1d!
1c!
0b!
1a!
1`!
1_!
0^!
1]!
0\!
1[!
0Z!
0Y!
0X!
1W!
1V!
0U!
0T!
0S!
1R!
1Q!
1P!
1O!
1N!
1M!
0L!
1K!
1J!
1I!
1H!
1G!
1F!
1E!
1D!
0C!
1B!
0A!
0@!
0?!
0>!
0=!
0<!
1;!
1:!
19!
18!
07!
06!
15!
14!
03!
12!
11!
00!
1/!
1.!
1-!
1,!
1+!
1*!
1)!
1(!
1'!
0&!
0%!
0$!
0#!
0"!
0!!
0~
0}
0|
0{
0z
0y
0x
0w
0v
0u
0t
0s
0r
0q
0p
0o
0n
0m
0l
0k
0j
0i
0h
0g
0f
0e
0d
0c
0b
0a
0`
0_
0^
0]
0\
0[
0Z
0Y
0X
0W
0V
0U
0T
0S
0R
0Q
0P
0O
0N
0M
0L
0K
0J
0I
0H
0G
0F
0E
$end
#10000
b101001101011110010010000110000 !
b1111010000110111001101010111100 "
1$!
1#!
1"!
1!!
1O#
1}
1{
1T#
1y
1x
1u
1t
1s
1]#
1q
1p
1k
1f#
1i
1h
1g
1F$
1f
1`
0P#
0M#
1N#
1p#
1r#
1_
0L#
1Z
1u#
1W
1Y#
1T
0[#
1\#
1!$
1S
0Z#
1R
0~#
0{#
1}#
1A#
1B#
0C#
0?#
1@#
1:"
1Q
0>#
1O
1a#
1M
1G#
1L
1I
1K#
0I#
1%"
1G
0C$
1E$
1L$
0I$
1J$
1R$
1P$
1#"
1!"
0'#
1(#
1|!
1$"
0u"
1v"
1""
0)#
0&#
1-"
11"
10"
17"
15"
1C"
1A"
18"
0p"
16"
0~"
13"
1G"
1D"
0}"
1B"
00$
12$
1>"
1H"
0m"
1n"
1F"
0|"
1O"
1U"
1s!
1q!
0x"
1p!
1v!
1t!
0g"
1r!
0w"
1&
1+
1K"
18
1T"
1h!
1;
1l!
1x!
1B
1A
1m!
1=
19
1L"
15
0s!
0q!
1x"
1n!
1:
17
0G"
0D"
1}"
0C"
0A"
11
07"
05"
14"
12"
1-
1,
0#"
0!"
1'#
1{!
0e"
1y!
0&
1%
1'
1.
1E"
13
1o!
1>
1?
#20000
b10001000000000011010001010110 !
b10001000100010010001100100011 "
1&!
1<"
0["
0D
1%!
0$!
0#!
0"!
1P#
1M#
1g"
0r!
1w"
0p!
0}
1|
0y
0x
1w
0V#
1X#
1z#
0z"
1N"
0u
0s
1Z#
0q
1C#
1?#
1l
0g#
0d#
1e#
1($
0r"
1s"
1,"
0k
0f#
1g#
1d#
0e#
0($
0i
1I#
0%"
0g
1C$
0E$
0L$
1I$
0J$
0R$
0P$
0f
1e"
0y!
1c
0@$
1A$
1~!
1<$
0:$
1k#
1l#
1b
0=$
1w!
0h#
1j#
1+$
1,$
0_
1L#
0N#
0p#
0r#
1^
1r#
1X
0T
1[#
0\#
1~#
1{#
0}#
0A#
1>#
0@#
0:"
0S
0]#
1|"
0B"
10$
02$
0>"
0R
0!$
0Q
0B#
0O
0a#
1~"
03"
0M
0G#
0I
0K#
1H
0G$
0D$
1E$
1L$
0G
0F$
1G$
1D$
0E$
0L$
1)#
1&#
0(#
0|!
1#"
1!"
0{!
01"
00"
17"
15"
04"
02"
1G"
1D"
01
0H"
1m"
0n"
0F"
08"
1p"
06"
1Q"
0A
0%
0+
0,
1+"
0K"
07
1M"
0T"
1j!
1<
0l!
1@
0x!
0B
1C
1A
0m!
0=
09
16
0L"
05
1+
19"
10
07"
05"
14
0G"
0D"
0.
0-
0E"
03
#30000
b10000001000101100000100001110011 !
b11100110011100000000101111000 "
0&!
0<"
1@$
0A$
0~!
1=$
0w!
1["
1D
0%!
1:$
0k#
1h#
0j#
0+$
0,$
1#!
1"!
0P#
0M#
1N#
1p#
0q#
0m#
1o#
11#
13#
0g"
1r!
1~
0n#
0`"
0.$
1k!
0{
0T#
0w
1V#
0X#
0z#
1z"
0N"
0t
1s
1]#
1r
1q
0p
1n
1m
0l
1r"
0s"
0,"
1j
1i
1d
1<"
0@$
1A$
1~!
0=$
1w!
0["
0D
0b
1=$
0w!
0l#
1_
0L#
0w"
1p!
0-$
0Z
0u#
1Y
18#
0X
0W
0Y#
1S
0Z#
1\#
1!$
0"$
0|#
1}#
1A#
1B#
0C#
0?#
1@#
1:"
1R
0~#
0{#
1P
0o"
16"
0H
1E
1R$
1P$
1z!
0$"
1u"
0v"
0""
17"
15"
1C"
1A"
0b"
01$
12$
1>"
1G"
1D"
0}"
1B"
00$
0O"
0Q"
1T"
0U"
0n!
1`"
1.$
1'"
1*
1,
0+"
11"
10"
1.
09"
00
1@"
1?"
04
0M"
0h!
0;
1m!
1=
0@
1x!
0C
1}!
1B
06
1-
0+
1)
0:
19
08
0C"
0A"
1b"
11$
1/
1(
0#"
0!"
1%
0'
12
#35000
b100000001000000010000000010010 !
b11011110101011011011111011101111 "
1&!
0Y"
1["
1D
1Z"
1;$
09$
1k#
1l#
1%!
0:$
1$!
0>$
1w!
0i#
1j#
1+$
1,$
0*$
1u!
0f"
0"!
1P#
1M#
1g"
1}
04#
00#
1X"
0|
1{
1T#
1z
1y
09#
06#
1R"
1x
1w
1Y#
1u
1t
0s
1Z#
0\#
1~#
1{#
1}"
0B"
10$
02$
0>"
1o
1a#
0"#
0!#
13"
0n
1k
1f#
1f
1e
0Q$
0N$
1O$
1$
0d
1Y"
0["
0D
0Z"
0;$
19$
0_
1L#
0N#
0p#
1q#
1m#
1w"
0p!
1-$
0k!
0^
0r#
1n#
0o#
01#
03#
14#
10#
0X"
0Y
08#
19#
16#
0R"
1W
0V#
1X#
1z#
0S
0]#
0R
0!$
1"$
1|#
0}#
0A#
0B#
1C#
1?#
0@#
0:"
1o"
06"
0P
1O
0^#
1`#
1%$
0L
1G
1F$
0E
0R$
0P$
1Q$
1N$
0O$
0$
1#"
1!"
0-"
0G"
0D"
1O"
0z"
1N"
1s!
1q!
0x"
1p!
1n!
0`"
0.$
1k!
1&
1+
0.
0/
14"
12"
11
14
1K"
18
1:
1h!
1;
0j!
0<
1l!
1@
0B
0v!
0t!
0A
1C
0@
0m!
0=
1L"
15
1.
0o!
0>
0?
1M"
0,
1'
16
#43000
b10001001010000111101111010101111 !
b11011010101011011011101010101101 "
0%!
1:$
0k#
0l#
1i#
0j#
0+$
0,$
1*$
0u!
1f"
0r!
0~
1`"
1.$
0k!
0z
0j
1d
0Y"
1["
1D
1Z"
1;$
09$
1k#
1l#
0i#
1j#
1+$
1,$
0*$
1u!
0f"
1r!
1b
0=$
0h#
1a
0)$
0`
1f"
0r!
1_
0L#
1N#
1p#
1r#
1]
13#
04#
00#
1X"
1[
0Q#
1S#
1u#
1Z
0s#
17#
18#
09#
06#
1R"
1Y
05#
1X
0W#
0h"
1j"
1P"
0{"
0y"
0W
1V#
1{"
1y"
1V
0/$
1J"
0y#
0v#
1x#
1<#
1=#
0;#
1I"
1U
0:#
1T
0l"
1n"
1F"
1S
1]#
0[#
1\#
1!$
0"$
0|#
1}#
1A#
1B#
0C#
0?#
1@#
1:"
0|"
1B"
0O
1^#
0`#
0%$
1N
03$
14$
1/"
1%$
1L
1I
1K#
0I#
1%"
0G
0F$
1E
1R$
1P$
0Q$
0N$
1O$
1$
0z!
0#"
0!"
0'"
1$"
0u"
1v"
1""
1-"
04"
02"
0-
07"
05"
1"#
1!#
03"
13$
04$
0/"
1C"
1A"
0b"
01$
12$
1>"
18"
0K"
0M"
0T"
1U"
1g!
0.#
1V"
0_"
0\"
1^"
1S"
0l!
1i!
0x!
0}!
1>$
0*
1o!
1>
0C
1v!
1t!
1@
1B
1A
1j!
1<
0h!
0;
0U"
06
19"
10
02
01
1/
14"
12"
1-
1,
0(
1#"
1!"
0)
0%
0:
#53000
b10101011110011010001001000110100 !
b0 "
0&!
1Y"
0["
0D
0Z"
0;$
19$
0k#
1h#
0$!
1i#
0j#
0+$
1)$
0#!
1*$
0u!
0!!
1L#
0N#
0p#
0r#
1x"
0p!
0}
14#
10#
0X"
0{
1Q#
0S#
1s#
07#
15#
1.#
0V"
1_"
1\"
0^"
0S"
0y
19#
16#
0R"
1h"
0j"
0P"
0x
1W#
0X#
1y#
1v#
0x#
0<#
1:#
0w
0Y#
1z"
0N"
1/$
0J"
0u
1;#
0I"
1l"
0n"
0F"
1|"
0B"
0t
1[#
0\#
0!$
1"$
1|#
0}#
0A#
0B#
1C#
1?#
0@#
0:"
0r
1b"
11$
02$
0>"
0q
0o
0a#
0m
0k
0f#
0i
1I#
0%"
0h
1u"
0v"
0""
0f
0e
1Q$
1N$
0O$
0$
0d
0<"
1@$
0A$
0~!
1=$
0w!
1["
1D
0c
0<$
0a
0,$
1`
0]
03#
0Z
0u#
0Y
08#
0V
0z#
0U
0=#
0S
0]#
1R
1!$
1Q
1B#
1M
1G#
1K
1f#
1G
1F$
1+"
1}!
0A
1z!
0&
1(
1'"
0$"
0/
12
11
04
08"
1H"
17
0L"
05
08
1Q"
0O"
1h!
1;
09
0i!
1?
0n!
0o!
0>
0j!
0<
07
18
14
09"
00
0(
1)
1%
#63000
b0 !
b10010001101000101011001111000 "
1#!
1"!
0P#
0M#
1N#
1p#
1r#
0g"
1r!
0w"
1p!
1!!
0L#
0x"
1~
0n#
1o#
11#
13#
1{
0Q#
1S#
1u#
0.#
1V"
1z
0t#
17#
18#
1x
0k"
0i"
1j"
1P"
1v
1r
0"$
0|#
1}#
1A#
0>#
1@#
1:"
0b"
01$
12$
1>"
1p
1o
1a#
1k
0c#
1e#
1($
0%#
0$#
1)"
1h
0b
0l#
0`
1P#
1M#
0_
1L#
0N#
0p#
0r#
1n#
0o#
01#
03#
1w"
0[
1Q#
0S#
0u#
1t#
07#
08#
0X
0T
0R
0!$
1"$
1|#
0}#
0A#
1>#
0@#
0:"
0Q
0B#
0N
0%$
0M
0G#
0L
0K
1c#
0e#
0($
0I
0K#
0G
0F$
0E
0R$
0P$
0z!
0#"
0!"
0'"
0+"
1%#
1$#
0)"
0-"
01"
00"
04"
02"
0@"
0?"
0C"
0A"
1b"
11$
02$
0>"
0H"
0Q"
1k"
1i"
0j"
0P"
0g!
1.#
0V"
0v!
0t!
1g"
0r!
0}!
1(
1/
19"
10
01
16
1:
1o!
1>
0?
0s!
0q!
1x"
0p!
1x!
1A
1?
0B
04
0.
0-
0,
0)
0'
0%
#73000
b10001000100010100010001110111 !
b11101110101010100000000000000000 "
0#!
0"!
0!!
0O#
0~
0{
0T#
0z
0x
0v
1s
1]#
0r
1q
0p
1m
1j
1i
0h
1g
1F$
1f
1e
1d
1<"
0["
0D
1c
0@$
1A$
1~!
1<$
1b
0=$
1w!
1l#
1`
1_
1O#
1^
1r#
1Z
1u#
1V
1z#
1T
1P
1L
1H
1$"
1-"
18"
1H"
1M"
1U"
1n!
1s!
1q!
1v!
1t!
0A
1z!
1&
1'
1'"
1*
11"
10"
1@"
1?"
02
1E"
13
08
0h!
0;
0x!
1A
11
1-
1)
1%
14
1,
