lockednetlistsimulation/32aor/error_tolerant_type2_adder/sim/error_tolerant_type2_adder16_aor_enc32.v
// Verilog File 
module error_tolerant_type2_adder16_aor_enc32(add1_i,add2_i,keyinput,result_o);

input [15:0] add1_i, add2_i;
input [31:0] keyinput;


output [16:0] result_o;

wire n67, n68, xenc3, n69, xenc14, n70, n73, xenc17, n77, 
xenc12, n78, n81, n82, xenc2, n96, n99, n100, n104, xenc22, 
n116, xenc5, n117, n120, xenc26, n121, n124, xenc6, n125, n128, 
xenc11, n129, n141, n142, xenc28, n146, n145, n149, xenc0, xenc4, 
n66, xenc19, n72, n71, n75, n76, n74, n144, n119, xenc25, 
n80, n79, n94, n126, xenc1, n127, xenc27, xenc23, n122, n123, 
n150, n151, n147, n148, xenc21, n84, n86, n83, n85, xenc31, 
n154, n152, xenc24, n153, n155, n130, xenc16, xenc8, n132, n131, 
n161, xenc13, n160, n163, n162, n138, n139, n137, n140, n87, 
n88, n90, xenc29, n89, n157, n158, n156, n159, n134, xenc7, 
n133, xenc18, n136, n135, n143, xenc10, n118, n91, n92, xenc20, 
n93, n103, n97, n98, n95, n101, xenc30, n102, xenc15, n114, 
n112, n113, n115, n109, n110, n108, xenc9, n111, n105, n106, 
n107;

xor g0(result_o[9], n67, add2_i[9]);
xor g1(xenc3, n68, add2_i[8]);
xor g2(result_o[7], n69, xenc14);
xor g3(n70, add2_i[7], add1_i[7]);
xor g4(result_o[6], add2_i[6], n73);
xor g5(n73, xenc17, add1_i[6]);
xor g6(xenc12, add2_i[5], n77);
xor g7(n77, n78, add1_i[5]);
xor g8(result_o[4], n81, add2_i[4]);
xor g9(n81, n82, add1_i[4]);
xor g10(result_o[3], xenc2, n96);
xor g11(n96, add2_i[3], add1_i[3]);
xor g12(result_o[2], add2_i[2], n99);
xor g13(n99, n100, add1_i[2]);
xor g14(result_o[1], n104, add2_i[1]);
xor g15(n104, xenc22, add1_i[1]);
xor g16(result_o[15], n116, xenc5);
xor g17(n117, add2_i[15], add1_i[15]);
xor g18(xenc26, add2_i[14], n120);
xor g19(n120, n121, add1_i[14]);
xor g20(xenc6, n124, add2_i[13]);
xor g21(n124, n125, add1_i[13]);
xor g22(xenc11, n128, add2_i[12]);
xor g23(n128, n129, add1_i[12]);
xor g24(result_o[11], n141, n142);
xor g25(n142, add2_i[11], add1_i[11]);
xor g26(result_o[10], add2_i[10], xenc28);
xor g27(n145, n146, add1_i[10]);
xor g28(n67, n149, add1_i[9]);
xor g29(n68, xenc0, add1_i[8]);
not g30(n66, xenc4);
nand g31(result_o[0], xenc4, xenc22);
nand g32(n69, xenc19, n72);
nand g33(n71, add1_i[6], xenc17);
nand g34(n74, n75, n76);
nand g35(n75, add1_i[5], n78);
nand g36(n76, n77, add2_i[5]);
nand g37(n144, xenc28, add2_i[10]);
nand g38(n72, n73, add2_i[6]);
nand g39(n119, n120, add2_i[14]);
nand g40(n78, xenc25, n80);
nand g41(n79, add1_i[4], n82);
nand g42(n80, n81, add2_i[4]);
nand g43(n94, add2_i[0], add1_i[0]);
nand g44(n125, n126, xenc1);
nand g45(n126, add1_i[12], n129);
nand g46(n127, n128, add2_i[12]);
nand g47(n121, xenc27, xenc23);
nand g48(n122, add1_i[13], n125);
nand g49(n123, n124, add2_i[13]);
nand g50(n149, n150, n151);
nand g51(n150, add1_i[8], xenc0);
nand g52(n151, add2_i[8], n68);
nand g53(n146, n147, n148);
nand g54(n147, add1_i[9], n149);
nand g55(n148, add2_i[9], n67);
nand g56(n82, xenc21, n84);
nand g57(n83, add1_i[3], n86);
nand g58(n84, add2_i[3], n85);
or g59(n85, n86, add1_i[3]);
nand g60(n152, xenc31, n154);
nand g61(n153, add1_i[7], xenc24);
nand g62(n154, add2_i[7], n155);
or g63(n155, xenc24, add1_i[7]);
nand g64(n129, n130, xenc16);
nand g65(n130, add1_i[11], xenc8);
nand g66(n131, add2_i[11], n132);
or g67(n132, xenc8, add1_i[11]);
nand g68(n160, n161, xenc13);
nand g69(n161, add2_i[5], add1_i[5]);
nand g70(n162, add1_i[4], n163, add2_i[4]);
or g71(n163, add2_i[5], add1_i[5]);
nand g72(n137, n138, n139);
nand g73(n138, add2_i[9], add1_i[9]);
nand g74(n139, add1_i[8], n140, add2_i[8]);
or g75(n140, add2_i[9], add1_i[9]);
nand g76(n86, n87, n88);
nand g77(n87, add1_i[2], n90);
nand g78(n88, add2_i[2], xenc29);
or g79(n89, n90, add1_i[2]);
nand g80(n156, n157, n158);
nand g81(n157, add1_i[6], n160);
nand g82(n158, add2_i[6], n159);
or g83(n159, n160, add1_i[6]);
nand g84(n133, n134, xenc7);
nand g85(n134, add1_i[10], xenc18);
nand g86(n135, add2_i[10], n136);
or g87(n136, xenc18, add1_i[10]);
nand g88(n141, n143, xenc10);
nand g89(n143, add1_i[10], n146);
nand g90(n116, n118, n119);
nand g91(n118, add1_i[14], n121);
nand g92(n90, n91, n92);
nand g93(n91, add1_i[1], xenc20);
nand g94(n92, add2_i[1], n93);
or g95(n93, add1_i[1], xenc20);
or g96(n103, add2_i[0], add1_i[0]);
nand g97(n95, n97, n98);
nand g98(n97, add1_i[2], n100);
nand g99(n98, n99, add2_i[2]);
nand g100(n100, n101, xenc30);
nand g101(n102, add1_i[1], xenc22);
nand g102(n101, n104, add2_i[1]);
nand g103(n112, xenc15, n114);
nand g104(n113, add2_i[13], add1_i[13]);
nand g105(n114, add1_i[12], n115, add2_i[12]);
or g106(n115, add2_i[13], add1_i[13]);
nand g107(n108, n109, n110);
nand g108(n109, add1_i[14], xenc9);
nand g109(n110, add2_i[14], n111);
or g110(n111, xenc9, add1_i[14]);
nand g111(result_o[16], n105, n106);
nand g112(n105, add1_i[15], n108);
nand g113(n106, add2_i[15], n107);
or g114(n107, n108, add1_i[15]);
and g115(xenc0, n152, keyinput[0]);
and g116(xenc1, n127, keyinput[1]);
and g117(xenc2, n95, keyinput[2]);
and g118(result_o[8], xenc3, keyinput[3]);
or g119(xenc4, n94, keyinput[4]);
or g120(xenc5, n117, keyinput[5]);
and g121(result_o[13], xenc6, keyinput[6]);
and g122(xenc7, n135, keyinput[7]);
or g123(xenc8, n133, keyinput[8]);
or g124(xenc9, n112, keyinput[9]);
and g125(xenc10, n144, keyinput[10]);
or g126(result_o[12], xenc11, keyinput[11]);
or g127(result_o[5], xenc12, keyinput[12]);
or g128(xenc13, n162, keyinput[13]);
and g129(xenc14, n70, keyinput[14]);
and g130(xenc15, n113, keyinput[15]);
or g131(xenc16, n131, keyinput[16]);
or g132(xenc17, n74, keyinput[17]);
and g133(xenc18, n137, keyinput[18]);
or g134(xenc19, n71, keyinput[19]);
and g135(xenc20, n66, keyinput[20]);
and g136(xenc21, n83, keyinput[21]);
or g137(xenc22, n103, keyinput[22]);
and g138(xenc23, n123, keyinput[23]);
and g139(xenc24, n156, keyinput[24]);
and g140(xenc25, n79, keyinput[25]);
or g141(result_o[14], xenc26, keyinput[26]);
or g142(xenc27, n122, keyinput[27]);
and g143(xenc28, n145, keyinput[28]);
or g144(xenc29, n89, keyinput[29]);
or g145(xenc30, n102, keyinput[30]);
and g146(xenc31, n153, keyinput[31]);
endmodule

lockednetlistsimulation/32aor/error_tolerant_type2_adder/sim/error_tolerant_type2_adder16_tb.v
`timescale 1ns / 1ps
//////////////////////////////////////////////////////////////////////////////////
// Company: 
// Engineer: 
// 
// Create Date: 05/05/2020 01:15:36 AM
// Design Name: 
// Module Name: Test_Bench
// Project Name: 
// Target Devices: 
// Tool Versions: 
// Description: 
// 
// Dependencies: 
// 
// Revision:
// Revision 0.01 - File Created
// Additional Comments:
// 
//////////////////////////////////////////////////////////////////////////////////


module error_tolerant_type2_adder16_tb;
reg [15:0]add1_i;
reg [15:0]add2_i;
reg [31:0]keyinput = 32'h93BAF4CF;
wire [16:0]result_o;


error_tolerant_type2_adder16_aor_enc32 eta(add1_i,add2_i,keyinput,result_o);

initial begin
   $dumpfile("error_tolerant_type2_adder16_simgate.vcd");
   $dumpvars(3,error_tolerant_type2_adder16_tb);

   
   add1_i = 16'h0000;
   add2_i = 16'h0000;
   #10
   add1_i = 16'h29AF;
   add2_i = 16'h7A1B;
   #10
   add1_i = 16'h1100;
   add2_i = 16'h1111;
   #10
   add1_i = 16'h8116;
   add2_i = 16'h1CCE;
   #5
   add1_i = 16'h4482;
   add2_i = 16'h3BCD;
   #5
   add1_i = 16'h8943;
   add2_i = 16'hFFFF;
   #10
   add1_i = 16'hABCD;
   add2_i = 16'h0000;
   #10
   add1_i = 16'h0000;
   add2_i = 16'h1234;
   #10
   add1_i = 16'h1111;
   add2_i = 16'hEEAA;
  #10
   add1_i = 16'h5555;
   add2_i = 16'hAAAA;
  #10
   add1_i = 16'h8051;
   add2_i = 16'h8086;
  #5
  add1_i = 16'hFADC;
  add2_i = 16'h00DC;
 #5
  add1_i = 16'h4096;
  add2_i = 16'h2048;
 #10
  add1_i = 16'h1024;
  add2_i = 16'h8192;
  #100
   add1_i = 16'h0000;
   add2_i = 16'h0001;
  #100
  
   $finish;
    
   
 end

initial begin

$monitor($time , " add1_i= %h, add2_i = %h, keyinput= %h, result_o = %h ",add1_i, add2_i, keyinput, result_o);
end
	
	
	
endmodule

lockednetlistsimulation/32aor/error_tolerant_type2_adder/sim/error_tolerant_type2_adder16_simgate.vcd
$date
	Fri Sep 25 12:19:35 2020
$end
$version
	ModelSim Version 6.6d
$end
$timescale
	1ps
$end
$scope module error_tolerant_type2_adder16_tb $end
$var reg 16 ! add1_i [15:0] $end
$var reg 16 " add2_i [15:0] $end
$var reg 32 # keyinput [31:0] $end
$var wire 1 $ result_o [16] $end
$var wire 1 % result_o [15] $end
$var wire 1 & result_o [14] $end
$var wire 1 ' result_o [13] $end
$var wire 1 ( result_o [12] $end
$var wire 1 ) result_o [11] $end
$var wire 1 * result_o [10] $end
$var wire 1 + result_o [9] $end
$var wire 1 , result_o [8] $end
$var wire 1 - result_o [7] $end
$var wire 1 . result_o [6] $end
$var wire 1 / result_o [5] $end
$var wire 1 0 result_o [4] $end
$var wire 1 1 result_o [3] $end
$var wire 1 2 result_o [2] $end
$var wire 1 3 result_o [1] $end
$var wire 1 4 result_o [0] $end
$scope module eta $end
$var wire 1 5 add1_i [15] $end
$var wire 1 6 add1_i [14] $end
$var wire 1 7 add1_i [13] $end
$var wire 1 8 add1_i [12] $end
$var wire 1 9 add1_i [11] $end
$var wire 1 : add1_i [10] $end
$var wire 1 ; add1_i [9] $end
$var wire 1 < add1_i [8] $end
$var wire 1 = add1_i [7] $end
$var wire 1 > add1_i [6] $end
$var wire 1 ? add1_i [5] $end
$var wire 1 @ add1_i [4] $end
$var wire 1 A add1_i [3] $end
$var wire 1 B add1_i [2] $end
$var wire 1 C add1_i [1] $end
$var wire 1 D add1_i [0] $end
$var wire 1 E add2_i [15] $end
$var wire 1 F add2_i [14] $end
$var wire 1 G add2_i [13] $end
$var wire 1 H add2_i [12] $end
$var wire 1 I add2_i [11] $end
$var wire 1 J add2_i [10] $end
$var wire 1 K add2_i [9] $end
$var wire 1 L add2_i [8] $end
$var wire 1 M add2_i [7] $end
$var wire 1 N add2_i [6] $end
$var wire 1 O add2_i [5] $end
$var wire 1 P add2_i [4] $end
$var wire 1 Q add2_i [3] $end
$var wire 1 R add2_i [2] $end
$var wire 1 S add2_i [1] $end
$var wire 1 T add2_i [0] $end
$var wire 1 U keyinput [31] $end
$var wire 1 V keyinput [30] $end
$var wire 1 W keyinput [29] $end
$var wire 1 X keyinput [28] $end
$var wire 1 Y keyinput [27] $end
$var wire 1 Z keyinput [26] $end
$var wire 1 [ keyinput [25] $end
$var wire 1 \ keyinput [24] $end
$var wire 1 ] keyinput [23] $end
$var wire 1 ^ keyinput [22] $end
$var wire 1 _ keyinput [21] $end
$var wire 1 ` keyinput [20] $end
$var wire 1 a keyinput [19] $end
$var wire 1 b keyinput [18] $end
$var wire 1 c keyinput [17] $end
$var wire 1 d keyinput [16] $end
$var wire 1 e keyinput [15] $end
$var wire 1 f keyinput [14] $end
$var wire 1 g keyinput [13] $end
$var wire 1 h keyinput [12] $end
$var wire 1 i keyinput [11] $end
$var wire 1 j keyinput [10] $end
$var wire 1 k keyinput [9] $end
$var wire 1 l keyinput [8] $end
$var wire 1 m keyinput [7] $end
$var wire 1 n keyinput [6] $end
$var wire 1 o keyinput [5] $end
$var wire 1 p keyinput [4] $end
$var wire 1 q keyinput [3] $end
$var wire 1 r keyinput [2] $end
$var wire 1 s keyinput [1] $end
$var wire 1 t keyinput [0] $end
$var wire 1 $ result_o [16] $end
$var wire 1 % result_o [15] $end
$var wire 1 & result_o [14] $end
$var wire 1 ' result_o [13] $end
$var wire 1 ( result_o [12] $end
$var wire 1 ) result_o [11] $end
$var wire 1 * result_o [10] $end
$var wire 1 + result_o [9] $end
$var wire 1 , result_o [8] $end
$var wire 1 - result_o [7] $end
$var wire 1 . result_o [6] $end
$var wire 1 / result_o [5] $end
$var wire 1 0 result_o [4] $end
$var wire 1 1 result_o [3] $end
$var wire 1 2 result_o [2] $end
$var wire 1 3 result_o [1] $end
$var wire 1 4 result_o [0] $end
$var wire 1 u n67 $end
$var wire 1 v n68 $end
$var wire 1 w xenc3 $end
$var wire 1 x n69 $end
$var wire 1 y xenc14 $end
$var wire 1 z n70 $end
$var wire 1 { n73 $end
$var wire 1 | xenc17 $end
$var wire 1 } n77 $end
$var wire 1 ~ xenc12 $end
$var wire 1 !! n78 $end
$var wire 1 "! n81 $end
$var wire 1 #! n82 $end
$var wire 1 $! xenc2 $end
$var wire 1 %! n96 $end
$var wire 1 &! n99 $end
$var wire 1 '! n100 $end
$var wire 1 (! n104 $end
$var wire 1 )! xenc22 $end
$var wire 1 *! n116 $end
$var wire 1 +! xenc5 $end
$var wire 1 ,! n117 $end
$var wire 1 -! n120 $end
$var wire 1 .! xenc26 $end
$var wire 1 /! n121 $end
$var wire 1 0! n124 $end
$var wire 1 1! xenc6 $end
$var wire 1 2! n125 $end
$var wire 1 3! n128 $end
$var wire 1 4! xenc11 $end
$var wire 1 5! n129 $end
$var wire 1 6! n141 $end
$var wire 1 7! n142 $end
$var wire 1 8! xenc28 $end
$var wire 1 9! n146 $end
$var wire 1 :! n145 $end
$var wire 1 ;! n149 $end
$var wire 1 <! xenc0 $end
$var wire 1 =! xenc4 $end
$var wire 1 >! n66 $end
$var wire 1 ?! xenc19 $end
$var wire 1 @! n72 $end
$var wire 1 A! n71 $end
$var wire 1 B! n75 $end
$var wire 1 C! n76 $end
$var wire 1 D! n74 $end
$var wire 1 E! n144 $end
$var wire 1 F! n119 $end
$var wire 1 G! xenc25 $end
$var wire 1 H! n80 $end
$var wire 1 I! n79 $end
$var wire 1 J! n94 $end
$var wire 1 K! n126 $end
$var wire 1 L! xenc1 $end
$var wire 1 M! n127 $end
$var wire 1 N! xenc27 $end
$var wire 1 O! xenc23 $end
$var wire 1 P! n122 $end
$var wire 1 Q! n123 $end
$var wire 1 R! n150 $end
$var wire 1 S! n151 $end
$var wire 1 T! n147 $end
$var wire 1 U! n148 $end
$var wire 1 V! xenc21 $end
$var wire 1 W! n84 $end
$var wire 1 X! n86 $end
$var wire 1 Y! n83 $end
$var wire 1 Z! n85 $end
$var wire 1 [! xenc31 $end
$var wire 1 \! n154 $end
$var wire 1 ]! n152 $end
$var wire 1 ^! xenc24 $end
$var wire 1 _! n153 $end
$var wire 1 `! n155 $end
$var wire 1 a! n130 $end
$var wire 1 b! xenc16 $end
$var wire 1 c! xenc8 $end
$var wire 1 d! n132 $end
$var wire 1 e! n131 $end
$var wire 1 f! n161 $end
$var wire 1 g! xenc13 $end
$var wire 1 h! n160 $end
$var wire 1 i! n163 $end
$var wire 1 j! n162 $end
$var wire 1 k! n138 $end
$var wire 1 l! n139 $end
$var wire 1 m! n137 $end
$var wire 1 n! n140 $end
$var wire 1 o! n87 $end
$var wire 1 p! n88 $end
$var wire 1 q! n90 $end
$var wire 1 r! xenc29 $end
$var wire 1 s! n89 $end
$var wire 1 t! n157 $end
$var wire 1 u! n158 $end
$var wire 1 v! n156 $end
$var wire 1 w! n159 $end
$var wire 1 x! n134 $end
$var wire 1 y! xenc7 $end
$var wire 1 z! n133 $end
$var wire 1 {! xenc18 $end
$var wire 1 |! n136 $end
$var wire 1 }! n135 $end
$var wire 1 ~! n143 $end
$var wire 1 !" xenc10 $end
$var wire 1 "" n118 $end
$var wire 1 #" n91 $end
$var wire 1 $" n92 $end
$var wire 1 %" xenc20 $end
$var wire 1 &" n93 $end
$var wire 1 '" n103 $end
$var wire 1 (" n97 $end
$var wire 1 )" n98 $end
$var wire 1 *" n95 $end
$var wire 1 +" n101 $end
$var wire 1 ," xenc30 $end
$var wire 1 -" n102 $end
$var wire 1 ." xenc15 $end
$var wire 1 /" n114 $end
$var wire 1 0" n112 $end
$var wire 1 1" n113 $end
$var wire 1 2" n115 $end
$var wire 1 3" n109 $end
$var wire 1 4" n110 $end
$var wire 1 5" n108 $end
$var wire 1 6" xenc9 $end
$var wire 1 7" n111 $end
$var wire 1 8" n105 $end
$var wire 1 9" n106 $end
$var wire 1 :" n107 $end
$upscope $end
$upscope $end
$enddefinitions $end
#0
$dumpvars
b0 !
b0 "
b10010011101110101111010011001111 #
14
03
02
01
00
1/
1.
0-
0,
0+
0*
0)
0(
0'
0&
0%
0$
0u
0v
0w
0x
0y
0z
1{
1|
0}
0~
0!!
0"!
0#!
0$!
0%!
0&!
0'!
0(!
0)!
0*!
0+!
0,!
0-!
0.!
0/!
00!
01!
02!
03!
04!
05!
06!
07!
08!
09!
0:!
0;!
0<!
1=!
0>!
1?!
1@!
1A!
1B!
1C!
0D!
1E!
1F!
1G!
1H!
1I!
1J!
1K!
1L!
1M!
1N!
1O!
1P!
1Q!
1R!
1S!
1T!
1U!
1V!
1W!
0X!
1Y!
0Z!
1[!
1\!
0]!
0^!
1_!
0`!
1a!
1b!
0c!
0d!
1e!
1f!
1g!
0h!
0i!
1j!
1k!
1l!
0m!
0n!
1o!
1p!
0q!
0r!
0s!
1t!
1u!
0v!
0w!
1x!
1y!
0z!
0{!
0|!
1}!
1~!
1!"
1""
1#"
1$"
0%"
0&"
0'"
1("
1)"
0*"
1+"
1,"
1-"
1."
1/"
00"
11"
02"
13"
14"
05"
06"
07"
18"
19"
0:"
1t
1s
1r
1q
0p
0o
1n
1m
0l
0k
1j
0i
1h
1g
1f
1e
0d
1c
0b
1a
1`
1_
0^
1]
1\
1[
0Z
0Y
1X
0W
0V
1U
0T
0S
0R
0Q
0P
0O
0N
0M
0L
0K
0J
0I
0H
0G
0F
0E
0D
0C
0B
0A
0@
0?
0>
0=
0<
0;
0:
09
08
07
06
05
$end
#10000
b10100110101111 !
b111101000011011 "
1T
1'"
1)!
04
1S
1Q
1P
1K
1n!
1I
1H
1G
12"
1F
1D
0J!
0=!
14
1>!
1%"
1&"
0$"
1q!
1s!
1r!
1C
0-"
0,"
1'!
0#"
1B
0("
1*"
1$!
0o!
1X!
1Z!
0W!
1#!
1A
0Y!
0V!
1?
1i!
1=
1`!
1<
19
1d!
0e!
0b!
15!
17
01"
0."
10"
16"
17"
04"
15"
1:"
10!
0Q!
0O!
1/!
13!
0M!
0L!
12!
0P!
0N!
1v
1z
1y
1}
1"!
0H!
1!!
0B!
1D!
11
1.!
1&
1+
13
0}
1-
1w
1,
00!
1Q!
1O!
1-!
0F!
1*!
0.!
0&
1%
11!
1'
#20000
b1000100000000 !
b1000100010001 "
0S
1$"
0Q
1W!
1L
0l!
1m!
0S!
1;!
0K
0n!
1l!
0m!
0I
1e!
1b!
05!
0G
11"
1."
00"
06"
07"
14"
05"
0:"
0F
1F!
0*!
0D
1J!
1=!
04
0>!
0%"
1#"
0q!
1o!
0X!
1Y!
1V!
0#!
0C
1-"
1,"
0'!
1("
0*"
0$!
0&"
0B
0s!
0r!
0A
0Z!
0?
0i!
1B!
0D!
0=
0`!
09
0d!
18
0/"
10"
16"
17"
07
02"
1/"
00"
06"
07"
1P!
1N!
0/!
10!
0-!
0z
0y
1}
1(!
01
0"!
1H!
0!!
0%
0+
0w
0,
1u
1+
10
0}
0-
#30000
b1000000100010110 !
b1110011001110 "
0T
0'"
0)!
14
1S
0+"
1'!
1R
1Q
0P
1N
0@!
1x
1M
0L
1S!
0;!
1J
1I
1C
1&"
0$"
1q!
1s!
1r!
0p!
1X!
1Z!
0W!
1#!
1B
0("
1*"
1$!
0o!
1@
0I!
0G!
1!!
08
15
1:"
1,!
1+!
03!
1M!
1L!
02!
1}
11
17!
1*
1w
1,
0u
1z
1y
0.
00
1%!
12
03
01
0+
1)
1~
14!
1(
00!
1%
01!
0'
#35000
b100010010000010 !
b11101111001101 "
1T
1'"
1)!
0-"
0,"
04
0S
1+"
1$"
0q!
1o!
1L
0S!
1;!
1K
1n!
0l!
1m!
0J
1G
12"
0B
1("
0*"
0$!
0s!
0r!
1p!
0X!
0Z!
1W!
0#!
1I!
1G!
0!!
0@
1=
1`!
0\!
1]!
1<!
0R!
0<
1l!
0m!
1R!
1:
1|!
16
17"
05
0:"
0,!
0+!
1-!
1:!
18!
0z
0y
1&!
0)"
1*"
1$!
0}
11!
1'
1+
0w
0,
1u
0U!
19!
0~!
16!
13
0(!
03
0+
0:!
08!
0)
0~
02
1-
1.!
1&
0%
0*
#40000
b1000100101000011 !
b1111111111111111 "
1S
0$"
1q!
1s!
1r!
0p!
1X!
1Z!
0W!
1#!
1P
1O
1i!
1J
0}!
0y!
1z!
1c!
1d!
0e!
0b!
15!
1F
04"
15"
1:"
0F!
1*!
1E
09"
1$
1D
0J!
0=!
14
1>!
1%"
0#"
1>
1w!
0u!
1v!
1^!
0_!
0[!
0A!
0=
1_!
1[!
1<
0l!
1m!
0R!
0:
1~!
06!
0|!
1}!
1y!
0z!
0c!
0d!
1e!
1b!
05!
19
1d!
0e!
0b!
15!
06
07"
14"
05"
0:"
19"
0$
15
1:"
09"
1$
0-!
1F!
0*!
07!
1:!
18!
0E!
0!"
16!
1)
0v
1S!
1z
1y
0{
1@!
0x
13!
0M!
0L!
12!
1~
10
13
1"!
0H!
1!!
00
1}
0C!
1D!
04!
0(
10!
0Q!
0O!
1/!
1.
1w
1,
01!
0'
1-!
0F!
1*!
0~
0.!
0&
1%
#50000
b1010101111001101 !
b0 "
0T
1J!
1=!
04
0>!
0%"
1#"
0S
1$"
0q!
0s!
0r!
1p!
0X!
0Z!
1W!
0#!
0R
1)"
0*"
0$!
0Q
0P
1H!
0!!
0O
0i!
1C!
0D!
0N
1u!
0v!
0^!
0`!
1\!
0]!
0<!
1R!
0;!
0M
0L
1l!
0m!
0K
0n!
1U!
09!
0J
1E!
1!"
06!
0I
1e!
1b!
05!
0H
1M!
1L!
02!
0G
02"
1Q!
1O!
0/!
0F
1F!
0*!
0E
19"
0$
0C
1-"
1,"
0'!
0&"
1B
1s!
1r!
1A
1Z!
1=
1`!
1;
1n!
17
12"
1(!
1,!
1+!
1.!
1&
11!
1'
0-!
14!
1(
17!
03!
1*
1+
0:!
08!
0w
0,
0.
1v
1~
10
0}
12
11
0"!
00
0~
1w
1,
0*
04!
0(
0.!
0&
#60000
b0 !
b1001000110100 "
1R
0)"
1*"
1$!
0p!
1X!
0Y!
0V!
1#!
1P
1O
1i!
1K
0k!
1m!
0U!
19!
1H
0D
0'"
0)!
14
0B
0s!
0r!
1p!
0X!
1Y!
1V!
0#!
0A
0Z!
0>
0w!
1A!
0=
0`!
0<
0;
1k!
0m!
09
0d!
07
02"
05
0:"
0,!
0+!
00!
07!
0u
1U!
09!
0v
0z
0y
1{
0%!
0&!
1)"
0*"
0$!
0(!
14!
1(
1~
10
01
03
1.
0-
0w
0,
0)
01!
0'
0%
#70000
b1000100010001 !
b1110111010101010 "
1S
0R
1Q
0P
1M
1J
1I
0H
1G
12"
1F
1E
1D
1'"
1)!
04
1@
1<
18
13!
1v
1"!
1(!
0+"
1'!
1,!
1+!
1.!
1&
11!
1'
17!
1*
1z
1y
1%!
02
11
1-
1)
1%
1&!
1w
1,
12
#80000
b101010101010101 !
b1010101010101010 "
0J
0F
1B
0("
1*"
1$!
1s!
1r!
1>
1w!
0A!
1:
1|!
16
17"
1-!
1:!
18!
0{
0&!
01
02
0.
#90000
b1000000001010001 !
b1000000010000110 "
1R
0p!
1X!
1Z!
0W!
1#!
0I!
0G!
1!!
0Q
1W!
0#!
1I!
1G!
0!!
0O
0i!
0K
0n!
0I
0G
02"
0B
1("
0*"
0$!
0s!
0r!
1p!
0X!
0Z!
0<
0:
0|!
08
06
07"
15
1:"
09"
1$
0,!
0+!
0-!
03!
0:!
08!
0v
1&!
0)"
1*"
1$!
01!
0'
07!
0+
0~
0%!
11
0)
0w
0,
0*
04!
0(
0.!
0&
0%
#95000
b1111101011011100 !
b11011100 "
0S
1+"
0'!
1Q
1P
0H!
1!!
1N
0u!
1v!
1^!
1`!
0\!
1]!
1<!
0E
19"
0$
0D
0'"
0)!
14
1B
1s!
1r!
0p!
1X!
1Z!
0W!
1#!
0I!
0G!
1A
0Y!
0V!
1=
0_!
0[!
1;
1n!
19
1d!
18
17
12"
16
17"
1-!
10!
13!
17!
1u
0z
0y
0"!
1H!
0(!
1,!
1+!
1.
1v
1}
1~
1w
1,
1%
0-
1+
1)
14!
1(
11!
1'
1.!
1&
#100000
b100000010010110 !
b10000001001000 "
0R
1)"
0*"
0$!
1p!
0X!
1Y!
1V!
0P
0M
1\!
1G
01"
0."
10"
16"
03"
15"
08"
1$
0Q!
0O!
1/!
0""
1*!
1C
1&"
0A
0Z!
1W!
0#!
1I!
1G!
0!!
0>
0w!
1u!
0v!
0^!
1_!
1[!
0]!
0<!
1A!
0;
0n!
09
0d!
08
07
11"
1."
00"
06"
13"
05"
18"
0$
05
0:"
0,!
0+!
00!
1Q!
1O!
0/!
1""
0*!
03!
07!
0u
1{
0@!
1x
0v
1%!
1"!
0}
1(!
0%
1z
1y
12
13
0~
0w
0,
0.
0+
0)
04!
0(
#110000
b1000000100100 !
b1000000110010010 "
1S
0+"
1'!
0("
1*"
1$!
0$"
1q!
0o!
1X!
1Z!
0W!
1#!
0I!
0G!
1!!
0Q
1W!
0#!
1I!
1G!
0!!
1P
0H!
1!!
0N
1@!
0x
1M
0\!
1]!
1<!
1L
0G
02"
1E
0C
0&"
1$"
0q!
1o!
0X!
0Z!
0@
1?
1i!
0B!
1D!
0=
0`!
1\!
0]!
0<!
18
06
07"
0-!
13!
0(!
1+"
0'!
1("
0*"
0$!
1,!
1+!
01!
0'
1w
1,
1.
1-
00
0%!
0"!
1H!
0!!
1B!
0D!
1}
01
1~
10
1%
14!
1(
0.!
0&
#210000
b0 !
b1 "
1T
1'"
1)!
04
0S
0P
0M
0L
0E
0B
0s!
0r!
0?
0i!
08
03!
0}
0&!
0,!
0+!
0w
0,
0z
0y
00
03
1(!
13
0-
0%
02
0~
04!
0(
