lockednetlistsimulation/64xor/ripple_carry_adder/sim/ripple_carry_adder32_gatesim.vcd
$date
	Sat Oct  3 11:34:54 2020
$end
$version
	ModelSim Version 6.6d
$end
$timescale
	1ps
$end
$scope module ripple_carry_adder32_tb $end
$var reg 32 ! add1_i [31:0] $end
$var reg 32 " add2_i [31:0] $end
$var reg 64 # keyinput [63:0] $end
$var wire 1 $ result_o [32] $end
$var wire 1 % result_o [31] $end
$var wire 1 & result_o [30] $end
$var wire 1 ' result_o [29] $end
$var wire 1 ( result_o [28] $end
$var wire 1 ) result_o [27] $end
$var wire 1 * result_o [26] $end
$var wire 1 + result_o [25] $end
$var wire 1 , result_o [24] $end
$var wire 1 - result_o [23] $end
$var wire 1 . result_o [22] $end
$var wire 1 / result_o [21] $end
$var wire 1 0 result_o [20] $end
$var wire 1 1 result_o [19] $end
$var wire 1 2 result_o [18] $end
$var wire 1 3 result_o [17] $end
$var wire 1 4 result_o [16] $end
$var wire 1 5 result_o [15] $end
$var wire 1 6 result_o [14] $end
$var wire 1 7 result_o [13] $end
$var wire 1 8 result_o [12] $end
$var wire 1 9 result_o [11] $end
$var wire 1 : result_o [10] $end
$var wire 1 ; result_o [9] $end
$var wire 1 < result_o [8] $end
$var wire 1 = result_o [7] $end
$var wire 1 > result_o [6] $end
$var wire 1 ? result_o [5] $end
$var wire 1 @ result_o [4] $end
$var wire 1 A result_o [3] $end
$var wire 1 B result_o [2] $end
$var wire 1 C result_o [1] $end
$var wire 1 D result_o [0] $end
$scope module rca $end
$var wire 1 E add1_i [31] $end
$var wire 1 F add1_i [30] $end
$var wire 1 G add1_i [29] $end
$var wire 1 H add1_i [28] $end
$var wire 1 I add1_i [27] $end
$var wire 1 J add1_i [26] $end
$var wire 1 K add1_i [25] $end
$var wire 1 L add1_i [24] $end
$var wire 1 M add1_i [23] $end
$var wire 1 N add1_i [22] $end
$var wire 1 O add1_i [21] $end
$var wire 1 P add1_i [20] $end
$var wire 1 Q add1_i [19] $end
$var wire 1 R add1_i [18] $end
$var wire 1 S add1_i [17] $end
$var wire 1 T add1_i [16] $end
$var wire 1 U add1_i [15] $end
$var wire 1 V add1_i [14] $end
$var wire 1 W add1_i [13] $end
$var wire 1 X add1_i [12] $end
$var wire 1 Y add1_i [11] $end
$var wire 1 Z add1_i [10] $end
$var wire 1 [ add1_i [9] $end
$var wire 1 \ add1_i [8] $end
$var wire 1 ] add1_i [7] $end
$var wire 1 ^ add1_i [6] $end
$var wire 1 _ add1_i [5] $end
$var wire 1 ` add1_i [4] $end
$var wire 1 a add1_i [3] $end
$var wire 1 b add1_i [2] $end
$var wire 1 c add1_i [1] $end
$var wire 1 d add1_i [0] $end
$var wire 1 e add2_i [31] $end
$var wire 1 f add2_i [30] $end
$var wire 1 g add2_i [29] $end
$var wire 1 h add2_i [28] $end
$var wire 1 i add2_i [27] $end
$var wire 1 j add2_i [26] $end
$var wire 1 k add2_i [25] $end
$var wire 1 l add2_i [24] $end
$var wire 1 m add2_i [23] $end
$var wire 1 n add2_i [22] $end
$var wire 1 o add2_i [21] $end
$var wire 1 p add2_i [20] $end
$var wire 1 q add2_i [19] $end
$var wire 1 r add2_i [18] $end
$var wire 1 s add2_i [17] $end
$var wire 1 t add2_i [16] $end
$var wire 1 u add2_i [15] $end
$var wire 1 v add2_i [14] $end
$var wire 1 w add2_i [13] $end
$var wire 1 x add2_i [12] $end
$var wire 1 y add2_i [11] $end
$var wire 1 z add2_i [10] $end
$var wire 1 { add2_i [9] $end
$var wire 1 | add2_i [8] $end
$var wire 1 } add2_i [7] $end
$var wire 1 ~ add2_i [6] $end
$var wire 1 !! add2_i [5] $end
$var wire 1 "! add2_i [4] $end
$var wire 1 #! add2_i [3] $end
$var wire 1 $! add2_i [2] $end
$var wire 1 %! add2_i [1] $end
$var wire 1 &! add2_i [0] $end
$var wire 1 '! keyinput [63] $end
$var wire 1 (! keyinput [62] $end
$var wire 1 )! keyinput [61] $end
$var wire 1 *! keyinput [60] $end
$var wire 1 +! keyinput [59] $end
$var wire 1 ,! keyinput [58] $end
$var wire 1 -! keyinput [57] $end
$var wire 1 .! keyinput [56] $end
$var wire 1 /! keyinput [55] $end
$var wire 1 0! keyinput [54] $end
$var wire 1 1! keyinput [53] $end
$var wire 1 2! keyinput [52] $end
$var wire 1 3! keyinput [51] $end
$var wire 1 4! keyinput [50] $end
$var wire 1 5! keyinput [49] $end
$var wire 1 6! keyinput [48] $end
$var wire 1 7! keyinput [47] $end
$var wire 1 8! keyinput [46] $end
$var wire 1 9! keyinput [45] $end
$var wire 1 :! keyinput [44] $end
$var wire 1 ;! keyinput [43] $end
$var wire 1 <! keyinput [42] $end
$var wire 1 =! keyinput [41] $end
$var wire 1 >! keyinput [40] $end
$var wire 1 ?! keyinput [39] $end
$var wire 1 @! keyinput [38] $end
$var wire 1 A! keyinput [37] $end
$var wire 1 B! keyinput [36] $end
$var wire 1 C! keyinput [35] $end
$var wire 1 D! keyinput [34] $end
$var wire 1 E! keyinput [33] $end
$var wire 1 F! keyinput [32] $end
$var wire 1 G! keyinput [31] $end
$var wire 1 H! keyinput [30] $end
$var wire 1 I! keyinput [29] $end
$var wire 1 J! keyinput [28] $end
$var wire 1 K! keyinput [27] $end
$var wire 1 L! keyinput [26] $end
$var wire 1 M! keyinput [25] $end
$var wire 1 N! keyinput [24] $end
$var wire 1 O! keyinput [23] $end
$var wire 1 P! keyinput [22] $end
$var wire 1 Q! keyinput [21] $end
$var wire 1 R! keyinput [20] $end
$var wire 1 S! keyinput [19] $end
$var wire 1 T! keyinput [18] $end
$var wire 1 U! keyinput [17] $end
$var wire 1 V! keyinput [16] $end
$var wire 1 W! keyinput [15] $end
$var wire 1 X! keyinput [14] $end
$var wire 1 Y! keyinput [13] $end
$var wire 1 Z! keyinput [12] $end
$var wire 1 [! keyinput [11] $end
$var wire 1 \! keyinput [10] $end
$var wire 1 ]! keyinput [9] $end
$var wire 1 ^! keyinput [8] $end
$var wire 1 _! keyinput [7] $end
$var wire 1 `! keyinput [6] $end
$var wire 1 a! keyinput [5] $end
$var wire 1 b! keyinput [4] $end
$var wire 1 c! keyinput [3] $end
$var wire 1 d! keyinput [2] $end
$var wire 1 e! keyinput [1] $end
$var wire 1 f! keyinput [0] $end
$var wire 1 $ result_o [32] $end
$var wire 1 % result_o [31] $end
$var wire 1 & result_o [30] $end
$var wire 1 ' result_o [29] $end
$var wire 1 ( result_o [28] $end
$var wire 1 ) result_o [27] $end
$var wire 1 * result_o [26] $end
$var wire 1 + result_o [25] $end
$var wire 1 , result_o [24] $end
$var wire 1 - result_o [23] $end
$var wire 1 . result_o [22] $end
$var wire 1 / result_o [21] $end
$var wire 1 0 result_o [20] $end
$var wire 1 1 result_o [19] $end
$var wire 1 2 result_o [18] $end
$var wire 1 3 result_o [17] $end
$var wire 1 4 result_o [16] $end
$var wire 1 5 result_o [15] $end
$var wire 1 6 result_o [14] $end
$var wire 1 7 result_o [13] $end
$var wire 1 8 result_o [12] $end
$var wire 1 9 result_o [11] $end
$var wire 1 : result_o [10] $end
$var wire 1 ; result_o [9] $end
$var wire 1 < result_o [8] $end
$var wire 1 = result_o [7] $end
$var wire 1 > result_o [6] $end
$var wire 1 ? result_o [5] $end
$var wire 1 @ result_o [4] $end
$var wire 1 A result_o [3] $end
$var wire 1 B result_o [2] $end
$var wire 1 C result_o [1] $end
$var wire 1 D result_o [0] $end
$var wire 1 g! n886 $end
$var wire 1 h! xenc16 $end
$var wire 1 i! n812 $end
$var wire 1 j! n816 $end
$var wire 1 k! n817 $end
$var wire 1 l! xenc10 $end
$var wire 1 m! xenc42 $end
$var wire 1 n! xenc57 $end
$var wire 1 o! n820 $end
$var wire 1 p! n837 $end
$var wire 1 q! xenc48 $end
$var wire 1 r! xenc31 $end
$var wire 1 s! n846 $end
$var wire 1 t! xenc18 $end
$var wire 1 u! n857 $end
$var wire 1 v! xenc38 $end
$var wire 1 w! n859 $end
$var wire 1 x! xenc8 $end
$var wire 1 y! n863 $end
$var wire 1 z! n864 $end
$var wire 1 {! n867 $end
$var wire 1 |! xenc63 $end
$var wire 1 }! n871 $end
$var wire 1 ~! xenc23 $end
$var wire 1 !" n875 $end
$var wire 1 "" xenc26 $end
$var wire 1 #" xenc32 $end
$var wire 1 $" xenc2 $end
$var wire 1 %" n887 $end
$var wire 1 &" xenc56 $end
$var wire 1 '" xenc59 $end
$var wire 1 (" n894 $end
$var wire 1 )" xenc19 $end
$var wire 1 *" n907 $end
$var wire 1 +" n912 $end
$var wire 1 ," n913 $end
$var wire 1 -" xenc41 $end
$var wire 1 ." xenc22 $end
$var wire 1 /" n926 $end
$var wire 1 0" xenc35 $end
$var wire 1 1" n927 $end
$var wire 1 2" xenc53 $end
$var wire 1 3" n960 $end
$var wire 1 4" n796 $end
$var wire 1 5" n992 $end
$var wire 1 6" n841 $end
$var wire 1 7" n1002 $end
$var wire 1 8" n915 $end
$var wire 1 9" n1001 $end
$var wire 1 :" n911 $end
$var wire 1 ;" n836 $end
$var wire 1 <" n998 $end
$var wire 1 =" n995 $end
$var wire 1 >" n931 $end
$var wire 1 ?" n977 $end
$var wire 1 @" xenc28 $end
$var wire 1 A" n959 $end
$var wire 1 B" n958 $end
$var wire 1 C" n957 $end
$var wire 1 D" n965 $end
$var wire 1 E" xenc36 $end
$var wire 1 F" n996 $end
$var wire 1 G" n800 $end
$var wire 1 H" n900 $end
$var wire 1 I" n901 $end
$var wire 1 J" n893 $end
$var wire 1 K" n966 $end
$var wire 1 L" n974 $end
$var wire 1 M" n928 $end
$var wire 1 N" xenc15 $end
$var wire 1 O" n988 $end
$var wire 1 P" n948 $end
$var wire 1 Q" n985 $end
$var wire 1 R" n967 $end
$var wire 1 S" n1000 $end
$var wire 1 T" n865 $end
$var wire 1 U" n902 $end
$var wire 1 V" n969 $end
$var wire 1 W" n976 $end
$var wire 1 X" n830 $end
$var wire 1 Y" n827 $end
$var wire 1 Z" n937 $end
$var wire 1 [" xenc51 $end
$var wire 1 \" n938 $end
$var wire 1 ]" xenc21 $end
$var wire 1 ^" n921 $end
$var wire 1 _" n872 $end
$var wire 1 `" n855 $end
$var wire 1 a" n968 $end
$var wire 1 b" xenc58 $end
$var wire 1 c" n980 $end
$var wire 1 d" n840 $end
$var wire 1 e" n983 $end
$var wire 1 f" n818 $end
$var wire 1 g" n904 $end
$var wire 1 h" n903 $end
$var wire 1 i" n799 $end
$var wire 1 j" n896 $end
$var wire 1 k" n881 $end
$var wire 1 l" n880 $end
$var wire 1 m" n823 $end
$var wire 1 n" xenc40 $end
$var wire 1 o" n849 $end
$var wire 1 p" xenc61 $end
$var wire 1 q" n848 $end
$var wire 1 r" n1003 $end
$var wire 1 s" n970 $end
$var wire 1 t" n897 $end
$var wire 1 u" xenc30 $end
$var wire 1 v" n910 $end
$var wire 1 w" n971 $end
$var wire 1 x" n815 $end
$var wire 1 y" n936 $end
$var wire 1 z" n972 $end
$var wire 1 {" n973 $end
$var wire 1 |" xenc5 $end
$var wire 1 }" n925 $end
$var wire 1 ~" xenc46 $end
$var wire 1 !# n860 $end
$var wire 1 "# n975 $end
$var wire 1 ## n941 $end
$var wire 1 $# xenc7 $end
$var wire 1 %# n892 $end
$var wire 1 &# n978 $end
$var wire 1 '# n890 $end
$var wire 1 (# n979 $end
$var wire 1 )# n990 $end
$var wire 1 *# n991 $end
$var wire 1 +# n981 $end
$var wire 1 ,# n982 $end
$var wire 1 -# n986 $end
$var wire 1 .# n984 $end
$var wire 1 /# xenc25 $end
$var wire 1 0# n987 $end
$var wire 1 1# n918 $end
$var wire 1 2# n989 $end
$var wire 1 3# xenc13 $end
$var wire 1 4# xenc44 $end
$var wire 1 5# n916 $end
$var wire 1 6# n845 $end
$var wire 1 7# n847 $end
$var wire 1 8# n993 $end
$var wire 1 9# n933 $end
$var wire 1 :# n801 $end
$var wire 1 ;# xenc1 $end
$var wire 1 <# n994 $end
$var wire 1 =# n831 $end
$var wire 1 ># n997 $end
$var wire 1 ?# n999 $end
$var wire 1 @# n862 $end
$var wire 1 A# xenc37 $end
$var wire 1 B# n954 $end
$var wire 1 C# n1005 $end
$var wire 1 D# n1004 $end
$var wire 1 E# n930 $end
$var wire 1 F# n876 $end
$var wire 1 G# n1006 $end
$var wire 1 H# n1007 $end
$var wire 1 I# xenc33 $end
$var wire 1 J# n884 $end
$var wire 1 K# xenc49 $end
$var wire 1 L# n1012 $end
$var wire 1 M# n1011 $end
$var wire 1 N# n833 $end
$var wire 1 O# n834 $end
$var wire 1 P# n835 $end
$var wire 1 Q# n851 $end
$var wire 1 R# n850 $end
$var wire 1 S# n852 $end
$var wire 1 T# n798 $end
$var wire 1 U# n853 $end
$var wire 1 V# n951 $end
$var wire 1 W# xenc62 $end
$var wire 1 X# xenc14 $end
$var wire 1 Y# xenc45 $end
$var wire 1 Z# n1008 $end
$var wire 1 [# n1009 $end
$var wire 1 \# n832 $end
$var wire 1 ]# n802 $end
$var wire 1 ^# xenc54 $end
$var wire 1 _# n939 $end
$var wire 1 `# n944 $end
$var wire 1 a# n940 $end
$var wire 1 b# xenc29 $end
$var wire 1 c# n945 $end
$var wire 1 d# n803 $end
$var wire 1 e# n898 $end
$var wire 1 f# n917 $end
$var wire 1 g# n1010 $end
$var wire 1 h# n814 $end
$var wire 1 i# xenc47 $end
$var wire 1 j# xenc52 $end
$var wire 1 k# n797 $end
$var wire 1 l# n947 $end
$var wire 1 m# n943 $end
$var wire 1 n# n888 $end
$var wire 1 o# n889 $end
$var wire 1 p# n885 $end
$var wire 1 q# xenc34 $end
$var wire 1 r# n879 $end
$var wire 1 s# n924 $end
$var wire 1 t# n923 $end
$var wire 1 u# n922 $end
$var wire 1 v# xenc0 $end
$var wire 1 w# n861 $end
$var wire 1 x# n825 $end
$var wire 1 y# n826 $end
$var wire 1 z# n824 $end
$var wire 1 {# xenc43 $end
$var wire 1 |# n956 $end
$var wire 1 }# n914 $end
$var wire 1 ~# n955 $end
$var wire 1 !$ n952 $end
$var wire 1 "$ n873 $end
$var wire 1 #$ xenc55 $end
$var wire 1 $$ n919 $end
$var wire 1 %$ xenc6 $end
$var wire 1 &$ xenc60 $end
$var wire 1 '$ n963 $end
$var wire 1 ($ n962 $end
$var wire 1 )$ n877 $end
$var wire 1 *$ xenc3 $end
$var wire 1 +$ n821 $end
$var wire 1 ,$ n866 $end
$var wire 1 -$ n810 $end
$var wire 1 .$ n932 $end
$var wire 1 /$ n946 $end
$var wire 1 0$ n839 $end
$var wire 1 1$ xenc4 $end
$var wire 1 2$ n869 $end
$var wire 1 3$ n868 $end
$var wire 1 4$ n905 $end
$var wire 1 5$ n953 $end
$var wire 1 6$ n819 $end
$var wire 1 7$ n828 $end
$var wire 1 8$ xenc20 $end
$var wire 1 9$ n891 $end
$var wire 1 :$ xenc17 $end
$var wire 1 ;$ xenc50 $end
$var wire 1 <$ n935 $end
$var wire 1 =$ n811 $end
$var wire 1 >$ n934 $end
$var wire 1 ?$ n858 $end
$var wire 1 @$ n856 $end
$var wire 1 A$ n854 $end
$var wire 1 B$ xenc27 $end
$var wire 1 C$ n878 $end
$var wire 1 D$ n929 $end
$var wire 1 E$ n809 $end
$var wire 1 F$ xenc24 $end
$var wire 1 G$ n822 $end
$var wire 1 H$ n808 $end
$var wire 1 I$ n883 $end
$var wire 1 J$ n882 $end
$var wire 1 K$ n906 $end
$var wire 1 L$ xenc12 $end
$var wire 1 M$ n961 $end
$var wire 1 N$ xenc39 $end
$var wire 1 O$ n895 $end
$var wire 1 P$ n870 $end
$var wire 1 Q$ n874 $end
$var wire 1 R$ n909 $end
$var wire 1 S$ n920 $end
$var wire 1 T$ xenc9 $end
$var wire 1 U$ xenc11 $end
$var wire 1 V$ n942 $end
$upscope $end
$upscope $end
$enddefinitions $end
#0
$dumpvars
b0 !
b0 "
b110011101110010111000011101000101010111011101100011000101101000 #
1D
0C
0B
0A
0@
0?
0>
0=
0<
0;
0:
09
08
07
06
05
04
03
02
01
00
0/
0.
0-
0,
0+
0*
0)
0(
0'
0&
0%
0$
0g!
0h!
0i!
0j!
0k!
0l!
0m!
0n!
0o!
0p!
0q!
0r!
0s!
0t!
0u!
0v!
0w!
0x!
0y!
0z!
0{!
0|!
0}!
0~!
0!"
0""
0#"
0$"
0%"
0&"
0'"
1("
1)"
0*"
0+"
0,"
0-"
0."
0/"
00"
01"
02"
03"
14"
15"
06"
17"
18"
19"
0:"
0;"
1<"
1="
0>"
0?"
1@"
1A"
1B"
0C"
1D"
0E"
1F"
1G"
1H"
1I"
0J"
0K"
1L"
1M"
1N"
0O"
0P"
0Q"
0R"
1S"
1T"
0U"
1V"
1W"
1X"
0Y"
1Z"
0["
1\"
0]"
0^"
0_"
0`"
1a"
0b"
0c"
0d"
0e"
0f"
0g"
1h"
1i"
0j"
0k"
1l"
0m"
0n"
1o"
1p"
1q"
1r"
1s"
0t"
1u"
1v"
0w"
1x"
1y"
0z"
1{"
1|"
0}"
1~"
1!#
0"#
1##
1$#
1%#
1&#
0'#
0(#
0)#
0*#
0+#
0,#
0-#
1.#
1/#
10#
01#
02#
03#
14#
05#
06#
07#
08#
19#
1:#
1;#
0<#
1=#
1>#
1?#
0@#
0A#
0B#
1C#
1D#
0E#
0F#
1G#
1H#
0I#
0J#
0K#
1L#
1M#
0N#
1O#
1P#
0Q#
1R#
1S#
1T#
1U#
0V#
0W#
0X#
0Y#
0Z#
0[#
0\#
1]#
0^#
0_#
0`#
1a#
0b#
1c#
1d#
1e#
1f#
1g#
0h#
1i#
0j#
1k#
1l#
0m#
1n#
1o#
0p#
0q#
0r#
1s#
1t#
0u#
0v#
1w#
1x#
1y#
0z#
0{#
1|#
1}#
1~#
1!$
1"$
0#$
1$$
1%$
1&$
0'$
1($
1)$
1*$
1+$
1,$
1-$
1.$
1/$
10$
11$
12$
03$
14$
15$
06$
07$
08$
09$
1:$
1;$
0<$
0=$
1>$
1?$
0@$
0A$
1B$
1C$
1D$
0E$
1F$
1G$
1H$
1I$
1J$
1K$
0L$
1M$
0N$
1O$
1P$
1Q$
1R$
1S$
1T$
1U$
1V$
0f!
0e!
0d!
1c!
0b!
1a!
1`!
0_!
1^!
0]!
0\!
0[!
1Z!
1Y!
0X!
0W!
0V!
1U!
1T!
0S!
1R!
1Q!
1P!
0O!
1N!
1M!
1L!
0K!
1J!
0I!
1H!
0G!
1F!
0E!
0D!
0C!
1B!
0A!
1@!
1?!
1>!
0=!
0<!
0;!
0:!
19!
18!
17!
06!
15!
04!
03!
12!
11!
10!
0/!
1.!
1-!
1,!
0+!
0*!
1)!
1(!
0'!
0&!
0%!
0$!
0#!
0"!
0!!
0~
0}
0|
0{
0z
0y
0x
0w
0v
0u
0t
0s
0r
0q
0p
0o
0n
0m
0l
0k
0j
0i
0h
0g
0f
0e
0d
0c
0b
0a
0`
0_
0^
0]
0\
0[
0Z
0Y
0X
0W
0V
0U
0T
0S
0R
0Q
0P
0O
0N
0M
0L
0K
0J
0I
0H
0G
0F
0E
$end
#10000
b101001101011110010010000110000 !
b1111010000110111001101010111100 "
1$!
1#!
1"!
1!!
1}
1{
1y
1x
1u
1t
1s
1q
1p
1k
1i
1h
1g
1f
1`
0r"
1_
1P"
1k!
0l#
1m#
1Z
0D#
1W
15#
12#
1T
1U"
0H"
1J"
0%#
19$
1'#
0e#
1j"
1S
0G"
0V"
1t"
0i"
1e#
0j"
0O$
0&#
1R
1Q
0G#
1O
0C#
1M
0M#
1L
0S"
1@#
1I
0k#
1G
0>#
1N#
0X"
17$
1Y"
0y#
1z#
1K#
1X#
04#
17#
1s!
05"
1)#
1;"
0="
0=#
1e"
0a"
1d"
1,#
0P#
16"
1z!
1v#
1{!
1!"
1J#
0("
0)"
0h"
1#$
18$
0n#
1p#
1A#
0f#
1?"
1E#
1["
1j!
1f"
05$
1V#
0/$
1Z#
1(
1x!
1^#
1'"
13
15
1."
11"
1j#
1=
1o!
1q!
1B
1m!
1;
10"
18
11
10
1+
1W#
0N"
0k!
1>
12"
17
1I#
0J$
1k"
1r#
0)$
1F#
0"$
1_"
1&"
0I$
1""
1|!
1,
1E"
1r!
00$
1\#
1m"
1n"
0(
1'
1-
1/
0'"
0J#
0l"
0!"
1}!
1:
1?
19
1n!
1A
1~!
0""
0^#
0&"
1I$
01
1%
1'"
00
0/
1.
11
#20000
b10001000000000011010001010110 !
b10001000100010010001100100011 "
1&!
1g!
1'$
1%!
0($
0$!
0#!
0"!
15$
0V#
1/$
0}
1|
0y
0x
1w
0}#
1+"
09"
1:"
0u
0s
1%#
0q
1l
0w#
0k
0i
15"
0)#
0;"
1="
1=#
0e"
1a"
0d"
0,#
1P#
06"
0g
1X"
07$
0Y"
1y#
0z#
0f
1c
0M$
1b
0_
0P"
1l#
1^
1O"
00#
1X
0T
0U"
1H"
1V"
0t"
1i"
0e#
09$
1O$
0S
1G"
0J"
1e#
0R
1n#
0p#
1&#
0'#
0Q
1J$
0k"
0r#
1)$
0F#
1"$
0_"
1G#
0O
1C#
0M
1M#
0I
1k#
1H
0O#
1;"
0="
0=#
17$
1Y"
1e"
0a"
1d"
1,#
0P#
0F"
0G
1>#
1F"
1="
1=#
07$
0Y"
14#
07#
0s!
0{!
1J#
1l"
0}!
0#$
1("
0I#
1h"
1)"
08$
1^"
0/#
1-#
0Z"
0j!
0.#
1h#
0g#
1`#
1p!
0&$
13"
0B"
16$
1C"
0Z#
0K#
0X#
0E"
1O#
0x!
0z!
0~"
1`"
1"#
1A$
0'"
03
05
07
16
0."
01"
1i!
1@
1N"
0-#
1Z"
1j!
1.#
0h#
1g#
0`#
0o!
0%$
1$"
0D
1C
0m!
0=
1<
00"
08
01
1b#
1w!
0,
0+
1Y#
0m"
0W#
0p!
1{#
1l!
1-"
14
0J#
0~!
1^#
0|!
0-
10
0.
1."
0q!
0Y#
0n"
1x!
09
1+
0%
0B
18
#30000
b10000001000101100000100001110011 !
b11100110011100000000101111000 "
0&!
0g!
1M$
0%!
1($
1#!
0|#
1B#
0!$
1V#
1P"
1k!
1(#
0.#
1h#
0g#
1`#
0l#
1Q"
0Z"
0j!
1"!
05$
1~
0c#
0{
0w
1}#
0+"
19"
0:"
0t
1s
1r
1q
0p
1n
1m
0l
1w#
1j
1i
1d
1g!
0M$
0b
1B"
06$
0C"
1_
0/$
0Z
1D#
1Y
0L"
0X
0W
05#
02#
1S
0G"
1J"
0%#
19$
1'#
0e#
1j"
1R
0&#
1P
1r#
0H
0;"
0e"
1a"
0d"
0,#
1P#
0N#
1E
0H#
1m"
0r!
10$
0\#
0l"
1N$
0O$
1#$
0o#
1p#
18$
0n#
0A#
1f#
0^"
11"
0|"
1}"
0?"
0E#
0N"
0k!
0(#
1.#
0h#
1g#
0`#
1-#
0.#
1h#
0g#
1`#
0Q"
1p!
0{#
1|#
0B#
1!$
0l!
1)
1u!
1z!
1~"
0`"
0"#
0A$
1|!
1~!
1'"
04
06
0j#
0T$
0@
1o!
1=
1%"
1%$
1#"
1m!
0;
11
1.
1-
0b#
0w!
1,
1v!
1q!
02"
10"
0-"
1I#
0)"
1(
0'
1n"
1%
12
1J#
0."
19
0:
1B
1*
0x!
0$"
0C
0+
08
1&"
0I$
1k"
0C$
0'"
1l"
0*$
1F#
1!"
0^#
01
00
1""
1/
#35000
b100000001000000010000000010010 !
b11011110101011011011111011101111 "
1&!
1%!
0($
1$!
0A"
16$
1C"
0"!
15$
0V#
1/$
1}
0y"
1=$
1z"
0a#
1_#
09#
1E$
1<$
1<#
0H$
0|
19#
0E$
0<$
0<#
1H$
1{
1z
1y
0s#
1u#
1x
1w
1u
1t
0s
1%#
09$
0j"
1o
0Q$
0n
1k
1f
1e
0G$
1$
0d
0_
0P"
1l#
0^
0O"
10#
0Y
1L"
1W
15#
0}#
1+"
12#
0S
1G"
0J"
1e#
0R
1n#
1&#
0'#
0P
1C$
1O
0"$
1_"
0C#
0L
1S"
0@#
1G
0>#
1N#
0E
1H#
0m"
1G$
0$
1[#
0z!
0v#
0!"
1Q$
1}!
0l"
1*$
0F#
1"$
0_"
0#$
1o#
0p#
0("
1A#
0f#
09"
1:"
16
1|"
0}"
1s#
0u#
1/#
0-#
1Z"
1j!
0\"
1.#
0h#
1y"
0=$
0z"
1g#
1Z#
1x!
0N$
1O$
08$
14
15
1."
1:
1j#
0i!
1@
1N"
0m#
0q!
1{#
0|#
1B#
0!$
1V#
1P"
1k!
0l#
1m#
1l!
0%"
0%$
0#"
0n!
0f"
0?
0B
0<
1;
18
1)"
1+
1W#
0U$
1h#
0y"
1=$
1z"
0g#
0>
0I#
1!"
0Q$
0}!
1^#
0,
1'
10
0~!
0""
0B$
1_"
0J#
0=
1h!
1Y#
0@
0A
1$"
1C
1&
1<
0&"
1I$
0k"
0r#
1}!
0/
0.
1~!
1'"
1l"
0^#
11
1.
00
#43000
b10001001010000111101111010101111 !
b11011010101011011011101010101101 "
0%!
1($
0~
1c#
1\"
0z
0j
1d
1b
0B"
1a
0~#
0D"
0`
1!$
0V#
0P"
0k!
1l#
0m#
1r"
1_
1P"
1k!
0l#
1m#
1]
0d#
1[
0:#
1E$
1<#
0H$
1Z
0D#
1Y
0L"
1X
0W
05#
1}#
0+"
02#
1V
07"
1U
0L#
1T
1U"
0H"
1J"
0e#
1S
0G"
0V"
1t"
0i"
1e#
19$
0O$
0&#
1'#
0O
1C#
1N
02$
13$
1L
0S"
1@#
1I
0k#
0G
1>#
0N#
1E
0H#
1m"
0G$
1$
0[#
04#
17#
1s!
05"
1)#
1;"
1e"
0a"
1d"
1,#
0P#
1N#
16"
1z!
1v#
0}!
1q#
0!"
1Q$
1#$
0o#
1p#
0)"
18$
0h"
1*"
0K$
1g"
0I"
0s"
1,"
0A#
1f#
19"
1^"
01"
0|"
1}"
0s#
1u#
1?"
1E#
0i#
1L$
0.$
1>"
0M"
1/"
0t#
1K"
1f"
0o!
0@"
0p!
1A"
1D
0u!
0:
1>
1U$
1T$
1%"
1%$
1#"
0v!
1q!
0m!
1@
0?"
0E#
09
0j#
1]"
0$$
00"
1-"
0S$
17
05
1h"
02
1I#
1""
1B$
0_"
12$
03$
1{!
0,$
1y!
0!#
1`"
1"#
1A$
0?#
0~!
1E"
1r!
00$
1\#
0)
0n"
0%
0(
0.
0|!
1b#
0S#
1Q#
1w!
0?$
1@$
1}!
0q#
1/
1J#
0."
0;$
11#
15#
0}#
1+"
0R$
12#
19
0^"
0:$
0;
1n!
1B
0*
0$"
0C
1A
0-"
1S$
1A#
0f#
09"
06
0u"
18#
1w"
04$
08
1&"
0I$
1k"
1r#
0{!
1,$
0y!
1!#
0`"
0"#
0A$
1?#
1~!
0x!
1t!
0-
1v!
0+
1.
1|!
1,
0b#
1S#
0Q#
0w!
1?$
0@$
0'"
0l"
0*"
1K$
07
1."
1;$
18
15
1^#
01
1x!
0t!
1-
1*
0v!
1+
10
0*
#53000
b10101011110011010001001000110100 !
b0 "
0&!
0$!
0#!
1|#
0!!
1l#
0m#
0}
1y"
0=$
0z"
1a#
0_#
0{
1.$
0>"
1M"
0/"
1t#
0K"
0y
1s#
0u#
0x
0w
1}#
0+"
1R$
19"
0u
0t
1H"
1V"
0r
1o#
0p#
0q
1I$
0k"
0r#
0o
0m
0k
0i
15"
0)#
0;"
0e"
1a"
0d"
0,#
1P#
0N#
06"
0h
10$
0\#
0f
0e
1G$
0$
0d
0g!
1M$
0c
0'$
0a
1~#
0B#
1D"
1`
0r"
0]
1d#
0h#
1g#
0`#
0Z
1D#
0Y
1L"
0V
17"
0:"
0U
14$
0g"
1I"
1s"
0t"
1i"
0e#
09$
1O$
1&#
0'#
1L#
0S
1G"
0J"
1e#
1R
0n#
1p#
0&#
1'#
1Q
0J$
1k"
1r#
0G#
1M
0M#
1K
1A$
1G
0>#
1N#
1[#
1w!
1b#
1{!
0J#
1*"
0h"
1)"
08$
1n#
0p#
0,"
1|"
0}"
1@"
0%"
1$"
1&$
03"
1B"
06$
0C"
1n"
0Z#
1(
1)
0E"
0r!
0""
1'"
0I#
1J$
0k"
0r#
17
1u"
08#
0w"
0."
0]"
1$$
1j#
09
0h!
1?
0["
0j!
0q!
0B
0>
0<
1;
1^"
1:$
01#
05#
02#
08
0*"
1J#
1l"
11
0/
0(
0W#
1%
1p!
0{#
0l!
1C
0#"
12
0$"
0n!
1q!
0Y#
0^#
05
0A#
1f#
1-"
1."
07
00
0&
1B
0A
0C
18
#63000
b0 !
b10010001101000101011001111000 "
1#!
1"!
05$
1V#
0/$
1!!
0l#
1m#
1~
1{
0.$
1>"
1z
1x
0S$
1v
1r
0o#
1p#
1p
1o
1k
0?$
1@$
0S#
1Q#
1h
0b
0`
1r"
0_
1/$
0[
1:#
0E$
0<#
1H$
0X
0T
0U"
0R
1&#
0'#
0Q
1G#
0N
0M
1M#
0L
1S"
0@#
0K
0A$
0I
1k#
0G
1>#
0N#
0E
1H#
0m"
0[#
14#
07#
0s!
0w!
1?$
0@$
0b#
1S#
0Q#
0z!
0v#
0{!
0}!
0J#
0#$
1o#
0p#
1h"
0^"
1i#
0L$
1.$
0>"
0f"
15$
0V#
0P"
0k!
1l#
0m#
0p!
1(
1""
1^#
1,"
0."
0;$
11#
15#
12#
1:
1>
1o!
1m!
1A#
0f#
08
16
10
1/
0q!
0-"
1S$
04
0&"
0~!
0|!
0,
0)
0'
0n"
0%
0-
0.
0'"
1."
1;$
01#
05#
02#
0B
17
1n!
1A
0A#
1f#
18
01
07
