lockednetlistsimulation/64xor/xnor_based_ripple_carry_adder/sim/xnor_based_ripple_carry_adder32_gatesim.vcd
$date
	Sun Oct  4 13:02:11 2020
$end
$version
	ModelSim Version 6.6d
$end
$timescale
	1ps
$end
$scope module xnor_based_ripple_carry_adder32_tb $end
$var reg 32 ! add1_i [31:0] $end
$var reg 32 " add2_i [31:0] $end
$var reg 64 # keyinput [63:0] $end
$var wire 1 $ result_o [32] $end
$var wire 1 % result_o [31] $end
$var wire 1 & result_o [30] $end
$var wire 1 ' result_o [29] $end
$var wire 1 ( result_o [28] $end
$var wire 1 ) result_o [27] $end
$var wire 1 * result_o [26] $end
$var wire 1 + result_o [25] $end
$var wire 1 , result_o [24] $end
$var wire 1 - result_o [23] $end
$var wire 1 . result_o [22] $end
$var wire 1 / result_o [21] $end
$var wire 1 0 result_o [20] $end
$var wire 1 1 result_o [19] $end
$var wire 1 2 result_o [18] $end
$var wire 1 3 result_o [17] $end
$var wire 1 4 result_o [16] $end
$var wire 1 5 result_o [15] $end
$var wire 1 6 result_o [14] $end
$var wire 1 7 result_o [13] $end
$var wire 1 8 result_o [12] $end
$var wire 1 9 result_o [11] $end
$var wire 1 : result_o [10] $end
$var wire 1 ; result_o [9] $end
$var wire 1 < result_o [8] $end
$var wire 1 = result_o [7] $end
$var wire 1 > result_o [6] $end
$var wire 1 ? result_o [5] $end
$var wire 1 @ result_o [4] $end
$var wire 1 A result_o [3] $end
$var wire 1 B result_o [2] $end
$var wire 1 C result_o [1] $end
$var wire 1 D result_o [0] $end
$scope module xrca $end
$var wire 1 E add1_i [31] $end
$var wire 1 F add1_i [30] $end
$var wire 1 G add1_i [29] $end
$var wire 1 H add1_i [28] $end
$var wire 1 I add1_i [27] $end
$var wire 1 J add1_i [26] $end
$var wire 1 K add1_i [25] $end
$var wire 1 L add1_i [24] $end
$var wire 1 M add1_i [23] $end
$var wire 1 N add1_i [22] $end
$var wire 1 O add1_i [21] $end
$var wire 1 P add1_i [20] $end
$var wire 1 Q add1_i [19] $end
$var wire 1 R add1_i [18] $end
$var wire 1 S add1_i [17] $end
$var wire 1 T add1_i [16] $end
$var wire 1 U add1_i [15] $end
$var wire 1 V add1_i [14] $end
$var wire 1 W add1_i [13] $end
$var wire 1 X add1_i [12] $end
$var wire 1 Y add1_i [11] $end
$var wire 1 Z add1_i [10] $end
$var wire 1 [ add1_i [9] $end
$var wire 1 \ add1_i [8] $end
$var wire 1 ] add1_i [7] $end
$var wire 1 ^ add1_i [6] $end
$var wire 1 _ add1_i [5] $end
$var wire 1 ` add1_i [4] $end
$var wire 1 a add1_i [3] $end
$var wire 1 b add1_i [2] $end
$var wire 1 c add1_i [1] $end
$var wire 1 d add1_i [0] $end
$var wire 1 e add2_i [31] $end
$var wire 1 f add2_i [30] $end
$var wire 1 g add2_i [29] $end
$var wire 1 h add2_i [28] $end
$var wire 1 i add2_i [27] $end
$var wire 1 j add2_i [26] $end
$var wire 1 k add2_i [25] $end
$var wire 1 l add2_i [24] $end
$var wire 1 m add2_i [23] $end
$var wire 1 n add2_i [22] $end
$var wire 1 o add2_i [21] $end
$var wire 1 p add2_i [20] $end
$var wire 1 q add2_i [19] $end
$var wire 1 r add2_i [18] $end
$var wire 1 s add2_i [17] $end
$var wire 1 t add2_i [16] $end
$var wire 1 u add2_i [15] $end
$var wire 1 v add2_i [14] $end
$var wire 1 w add2_i [13] $end
$var wire 1 x add2_i [12] $end
$var wire 1 y add2_i [11] $end
$var wire 1 z add2_i [10] $end
$var wire 1 { add2_i [9] $end
$var wire 1 | add2_i [8] $end
$var wire 1 } add2_i [7] $end
$var wire 1 ~ add2_i [6] $end
$var wire 1 !! add2_i [5] $end
$var wire 1 "! add2_i [4] $end
$var wire 1 #! add2_i [3] $end
$var wire 1 $! add2_i [2] $end
$var wire 1 %! add2_i [1] $end
$var wire 1 &! add2_i [0] $end
$var wire 1 '! keyinput [63] $end
$var wire 1 (! keyinput [62] $end
$var wire 1 )! keyinput [61] $end
$var wire 1 *! keyinput [60] $end
$var wire 1 +! keyinput [59] $end
$var wire 1 ,! keyinput [58] $end
$var wire 1 -! keyinput [57] $end
$var wire 1 .! keyinput [56] $end
$var wire 1 /! keyinput [55] $end
$var wire 1 0! keyinput [54] $end
$var wire 1 1! keyinput [53] $end
$var wire 1 2! keyinput [52] $end
$var wire 1 3! keyinput [51] $end
$var wire 1 4! keyinput [50] $end
$var wire 1 5! keyinput [49] $end
$var wire 1 6! keyinput [48] $end
$var wire 1 7! keyinput [47] $end
$var wire 1 8! keyinput [46] $end
$var wire 1 9! keyinput [45] $end
$var wire 1 :! keyinput [44] $end
$var wire 1 ;! keyinput [43] $end
$var wire 1 <! keyinput [42] $end
$var wire 1 =! keyinput [41] $end
$var wire 1 >! keyinput [40] $end
$var wire 1 ?! keyinput [39] $end
$var wire 1 @! keyinput [38] $end
$var wire 1 A! keyinput [37] $end
$var wire 1 B! keyinput [36] $end
$var wire 1 C! keyinput [35] $end
$var wire 1 D! keyinput [34] $end
$var wire 1 E! keyinput [33] $end
$var wire 1 F! keyinput [32] $end
$var wire 1 G! keyinput [31] $end
$var wire 1 H! keyinput [30] $end
$var wire 1 I! keyinput [29] $end
$var wire 1 J! keyinput [28] $end
$var wire 1 K! keyinput [27] $end
$var wire 1 L! keyinput [26] $end
$var wire 1 M! keyinput [25] $end
$var wire 1 N! keyinput [24] $end
$var wire 1 O! keyinput [23] $end
$var wire 1 P! keyinput [22] $end
$var wire 1 Q! keyinput [21] $end
$var wire 1 R! keyinput [20] $end
$var wire 1 S! keyinput [19] $end
$var wire 1 T! keyinput [18] $end
$var wire 1 U! keyinput [17] $end
$var wire 1 V! keyinput [16] $end
$var wire 1 W! keyinput [15] $end
$var wire 1 X! keyinput [14] $end
$var wire 1 Y! keyinput [13] $end
$var wire 1 Z! keyinput [12] $end
$var wire 1 [! keyinput [11] $end
$var wire 1 \! keyinput [10] $end
$var wire 1 ]! keyinput [9] $end
$var wire 1 ^! keyinput [8] $end
$var wire 1 _! keyinput [7] $end
$var wire 1 `! keyinput [6] $end
$var wire 1 a! keyinput [5] $end
$var wire 1 b! keyinput [4] $end
$var wire 1 c! keyinput [3] $end
$var wire 1 d! keyinput [2] $end
$var wire 1 e! keyinput [1] $end
$var wire 1 f! keyinput [0] $end
$var wire 1 $ result_o [32] $end
$var wire 1 % result_o [31] $end
$var wire 1 & result_o [30] $end
$var wire 1 ' result_o [29] $end
$var wire 1 ( result_o [28] $end
$var wire 1 ) result_o [27] $end
$var wire 1 * result_o [26] $end
$var wire 1 + result_o [25] $end
$var wire 1 , result_o [24] $end
$var wire 1 - result_o [23] $end
$var wire 1 . result_o [22] $end
$var wire 1 / result_o [21] $end
$var wire 1 0 result_o [20] $end
$var wire 1 1 result_o [19] $end
$var wire 1 2 result_o [18] $end
$var wire 1 3 result_o [17] $end
$var wire 1 4 result_o [16] $end
$var wire 1 5 result_o [15] $end
$var wire 1 6 result_o [14] $end
$var wire 1 7 result_o [13] $end
$var wire 1 8 result_o [12] $end
$var wire 1 9 result_o [11] $end
$var wire 1 : result_o [10] $end
$var wire 1 ; result_o [9] $end
$var wire 1 < result_o [8] $end
$var wire 1 = result_o [7] $end
$var wire 1 > result_o [6] $end
$var wire 1 ? result_o [5] $end
$var wire 1 @ result_o [4] $end
$var wire 1 A result_o [3] $end
$var wire 1 B result_o [2] $end
$var wire 1 C result_o [1] $end
$var wire 1 D result_o [0] $end
$var wire 1 g! n345 $end
$var wire 1 h! n203 $end
$var wire 1 i! n331 $end
$var wire 1 j! xenc40 $end
$var wire 1 k! n228 $end
$var wire 1 l! xenc59 $end
$var wire 1 m! xenc0 $end
$var wire 1 n! xenc15 $end
$var wire 1 o! n280 $end
$var wire 1 p! n284 $end
$var wire 1 q! xenc21 $end
$var wire 1 r! n292 $end
$var wire 1 s! n296 $end
$var wire 1 t! xenc62 $end
$var wire 1 u! n190 $end
$var wire 1 v! n199 $end
$var wire 1 w! n216 $end
$var wire 1 x! n267 $end
$var wire 1 y! n277 $end
$var wire 1 z! n348 $end
$var wire 1 {! n326 $end
$var wire 1 |! n210 $end
$var wire 1 }! n327 $end
$var wire 1 ~! n328 $end
$var wire 1 !" n217 $end
$var wire 1 "" xenc3 $end
$var wire 1 #" n218 $end
$var wire 1 $" n325 $end
$var wire 1 %" xenc56 $end
$var wire 1 &" n340 $end
$var wire 1 '" n274 $end
$var wire 1 (" n329 $end
$var wire 1 )" n183 $end
$var wire 1 *" n201 $end
$var wire 1 +" n322 $end
$var wire 1 ," n339 $end
$var wire 1 -" n179 $end
$var wire 1 ." xenc46 $end
$var wire 1 /" n315 $end
$var wire 1 0" n313 $end
$var wire 1 1" xenc33 $end
$var wire 1 2" n335 $end
$var wire 1 3" n195 $end
$var wire 1 4" n320 $end
$var wire 1 5" n248 $end
$var wire 1 6" n251 $end
$var wire 1 7" n249 $end
$var wire 1 8" n187 $end
$var wire 1 9" xenc60 $end
$var wire 1 :" xenc31 $end
$var wire 1 ;" n263 $end
$var wire 1 <" n260 $end
$var wire 1 =" xenc34 $end
$var wire 1 >" n255 $end
$var wire 1 ?" xenc20 $end
$var wire 1 @" n233 $end
$var wire 1 A" xenc38 $end
$var wire 1 B" xenc28 $end
$var wire 1 C" xenc54 $end
$var wire 1 D" n343 $end
$var wire 1 E" n342 $end
$var wire 1 F" n346 $end
$var wire 1 G" n214 $end
$var wire 1 H" n330 $end
$var wire 1 I" xenc1 $end
$var wire 1 J" n332 $end
$var wire 1 K" n209 $end
$var wire 1 L" n208 $end
$var wire 1 M" n333 $end
$var wire 1 N" n268 $end
$var wire 1 O" n334 $end
$var wire 1 P" n336 $end
$var wire 1 Q" n270 $end
$var wire 1 R" n273 $end
$var wire 1 S" n212 $end
$var wire 1 T" xenc55 $end
$var wire 1 U" n337 $end
$var wire 1 V" n235 $end
$var wire 1 W" n236 $end
$var wire 1 X" n338 $end
$var wire 1 Y" n269 $end
$var wire 1 Z" n231 $end
$var wire 1 [" xenc22 $end
$var wire 1 \" n341 $end
$var wire 1 ]" xenc51 $end
$var wire 1 ^" n242 $end
$var wire 1 _" n241 $end
$var wire 1 `" n188 $end
$var wire 1 a" n344 $end
$var wire 1 b" n238 $end
$var wire 1 c" n237 $end
$var wire 1 d" n350 $end
$var wire 1 e" n347 $end
$var wire 1 f" n349 $end
$var wire 1 g" n276 $end
$var wire 1 h" n285 $end
$var wire 1 i" n293 $end
$var wire 1 j" xenc39 $end
$var wire 1 k" n351 $end
$var wire 1 l" n352 $end
$var wire 1 m" n289 $end
$var wire 1 n" n288 $end
$var wire 1 o" n281 $end
$var wire 1 p" xenc53 $end
$var wire 1 q" n367 $end
$var wire 1 r" n353 $end
$var wire 1 s" n362 $end
$var wire 1 t" n355 $end
$var wire 1 u" n354 $end
$var wire 1 v" n356 $end
$var wire 1 w" n259 $end
$var wire 1 x" xenc47 $end
$var wire 1 y" xenc52 $end
$var wire 1 z" n211 $end
$var wire 1 {" n357 $end
$var wire 1 |" n361 $end
$var wire 1 }" n358 $end
$var wire 1 ~" n360 $end
$var wire 1 !# n234 $end
$var wire 1 "# xenc13 $end
$var wire 1 ## n359 $end
$var wire 1 $# xenc19 $end
$var wire 1 %# xenc32 $end
$var wire 1 &# n206 $end
$var wire 1 '# xenc9 $end
$var wire 1 (# n215 $end
$var wire 1 )# n200 $end
$var wire 1 *# n193 $end
$var wire 1 +# n181 $end
$var wire 1 ,# n189 $end
$var wire 1 -# n191 $end
$var wire 1 .# xenc4 $end
$var wire 1 /# n369 $end
$var wire 1 0# xenc7 $end
$var wire 1 1# n366 $end
$var wire 1 2# n365 $end
$var wire 1 3# n319 $end
$var wire 1 4# n222 $end
$var wire 1 5# n178 $end
$var wire 1 6# n221 $end
$var wire 1 7# n363 $end
$var wire 1 8# n246 $end
$var wire 1 9# n250 $end
$var wire 1 :# n321 $end
$var wire 1 ;# n364 $end
$var wire 1 <# xenc8 $end
$var wire 1 =# n272 $end
$var wire 1 ># n186 $end
$var wire 1 ?# xenc12 $end
$var wire 1 @# xenc49 $end
$var wire 1 A# n196 $end
$var wire 1 B# n198 $end
$var wire 1 C# n265 $end
$var wire 1 D# xenc36 $end
$var wire 1 E# xenc25 $end
$var wire 1 F# n266 $end
$var wire 1 G# n305 $end
$var wire 1 H# xenc16 $end
$var wire 1 I# n304 $end
$var wire 1 J# n239 $end
$var wire 1 K# xenc30 $end
$var wire 1 L# n311 $end
$var wire 1 M# n309 $end
$var wire 1 N# xenc58 $end
$var wire 1 O# n301 $end
$var wire 1 P# n300 $end
$var wire 1 Q# xenc23 $end
$var wire 1 R# n312 $end
$var wire 1 S# xenc43 $end
$var wire 1 T# n316 $end
$var wire 1 U# xenc27 $end
$var wire 1 V# n317 $end
$var wire 1 W# n324 $end
$var wire 1 X# xenc6 $end
$var wire 1 Y# n368 $end
$var wire 1 Z# xenc61 $end
$var wire 1 [# n323 $end
$var wire 1 \# xenc17 $end
$var wire 1 ]# n202 $end
$var wire 1 ^# xenc50 $end
$var wire 1 _# n290 $end
$var wire 1 `# n298 $end
$var wire 1 a# n307 $end
$var wire 1 b# n219 $end
$var wire 1 c# n220 $end
$var wire 1 d# xenc18 $end
$var wire 1 e# n294 $end
$var wire 1 f# xenc63 $end
$var wire 1 g# n303 $end
$var wire 1 h# n244 $end
$var wire 1 i# xenc42 $end
$var wire 1 j# n245 $end
$var wire 1 k# n264 $end
$var wire 1 l# n261 $end
$var wire 1 m# xenc35 $end
$var wire 1 n# xenc10 $end
$var wire 1 o# n204 $end
$var wire 1 p# n253 $end
$var wire 1 q# n279 $end
$var wire 1 r# n278 $end
$var wire 1 s# n207 $end
$var wire 1 t# n257 $end
$var wire 1 u# n258 $end
$var wire 1 v# n256 $end
$var wire 1 w# n283 $end
$var wire 1 x# n282 $end
$var wire 1 y# n306 $end
$var wire 1 z# n302 $end
$var wire 1 {# xenc44 $end
$var wire 1 |# n252 $end
$var wire 1 }# n286 $end
$var wire 1 ~# n308 $end
$var wire 1 !$ xenc11 $end
$var wire 1 "$ xenc45 $end
$var wire 1 #$ n314 $end
$var wire 1 $$ n230 $end
$var wire 1 %$ n180 $end
$var wire 1 &$ n229 $end
$var wire 1 '$ n226 $end
$var wire 1 ($ n240 $end
$var wire 1 )$ n254 $end
$var wire 1 *$ n287 $end
$var wire 1 +$ xenc5 $end
$var wire 1 ,$ n291 $end
$var wire 1 -$ xenc29 $end
$var wire 1 .$ n318 $end
$var wire 1 /$ n192 $end
$var wire 1 0$ xenc37 $end
$var wire 1 1$ xenc41 $end
$var wire 1 2$ xenc24 $end
$var wire 1 3$ n205 $end
$var wire 1 4$ n197 $end
$var wire 1 5$ n225 $end
$var wire 1 6$ n227 $end
$var wire 1 7$ xenc48 $end
$var wire 1 8$ n224 $end
$var wire 1 9$ n243 $end
$var wire 1 :$ xenc26 $end
$var wire 1 ;$ xenc2 $end
$var wire 1 <$ xenc57 $end
$var wire 1 =$ n297 $end
$var wire 1 >$ n310 $end
$var wire 1 ?$ n213 $end
$var wire 1 @$ n223 $end
$var wire 1 A$ n232 $end
$var wire 1 B$ n262 $end
$var wire 1 C$ xenc14 $end
$var wire 1 D$ n275 $end
$var wire 1 E$ n295 $end
$var wire 1 F$ n299 $end
$upscope $end
$upscope $end
$enddefinitions $end
#0
$dumpvars
b0 !
b0 "
b110111110011011010011001110010111110011110111011001100101101000 #
1D
0C
0B
0A
0@
0?
0>
0=
0<
0;
0:
09
08
07
06
05
04
03
02
01
00
0/
0.
0-
0,
0+
0*
0)
0(
0'
0&
0%
0$
0g!
0h!
0i!
0j!
0k!
0l!
0m!
0n!
0o!
0p!
0q!
0r!
0s!
0t!
0u!
0v!
0w!
0x!
0y!
1z!
0{!
0|!
1}!
0~!
1!"
1""
1#"
1$"
0%"
1&"
1'"
0("
0)"
0*"
1+"
1,"
1-"
1."
1/"
00"
11"
02"
03"
14"
15"
06"
17"
08"
09"
0:"
0;"
0<"
0="
0>"
0?"
0@"
0A"
0B"
0C"
1D"
1E"
1F"
0G"
1H"
1I"
1J"
1K"
1L"
0M"
0N"
0O"
0P"
1Q"
0R"
1S"
1T"
0U"
1V"
1W"
0X"
1Y"
1Z"
1["
0\"
0]"
0^"
0_"
0`"
1a"
0b"
0c"
1d"
0e"
1f"
0g"
0h"
0i"
1j"
1k"
1l"
0m"
0n"
0o"
1p"
0q"
1r"
1s"
1t"
1u"
1v"
0w"
0x"
1y"
0z"
0{"
1|"
1}"
1~"
0!#
1"#
1##
0$#
1%#
0&#
0'#
0(#
1)#
1*#
0+#
1,#
0-#
0.#
1/#
00#
11#
12#
13#
14#
15#
06#
07#
08#
09#
1:#
1;#
1<#
0=#
1>#
0?#
0@#
1A#
0B#
0C#
1D#
0E#
1F#
0G#
1H#
0I#
1J#
1K#
1L#
0M#
1N#
0O#
0P#
1Q#
0R#
0S#
1T#
1U#
0V#
1W#
1X#
1Y#
1Z#
1[#
1\#
1]#
0^#
1_#
1`#
1a#
1b#
1c#
1d#
1e#
1f#
1g#
1h#
1i#
0j#
0k#
1l#
0m#
1n#
1o#
1p#
1q#
1r#
0s#
1t#
1u#
0v#
1w#
1x#
0y#
1z#
1{#
0|#
1}#
1~#
0!$
0"$
1#$
1$$
1%$
1&$
0'$
1($
1)$
1*$
1+$
1,$
0-$
1.$
0/$
10$
11$
02$
13$
04$
15$
06$
07$
08$
19$
1:$
1;$
1<$
0=$
1>$
1?$
0@$
1A$
1B$
0C$
1D$
1E$
1F$
0f!
0e!
0d!
1c!
0b!
1a!
1`!
0_!
1^!
0]!
0\!
1[!
1Z!
0Y!
0X!
1W!
1V!
0U!
1T!
1S!
1R!
0Q!
1P!
1O!
1N!
1M!
0L!
0K!
1J!
1I!
1H!
1G!
1F!
0E!
1D!
0C!
0B!
1A!
1@!
1?!
0>!
0=!
1<!
1;!
0:!
09!
18!
07!
16!
15!
04!
13!
12!
01!
00!
1/!
1.!
1-!
1,!
1+!
0*!
1)!
1(!
0'!
0&!
0%!
0$!
0#!
0"!
0!!
0~
0}
0|
0{
0z
0y
0x
0w
0v
0u
0t
0s
0r
0q
0p
0o
0n
0m
0l
0k
0j
0i
0h
0g
0f
0e
0d
0c
0b
0a
0`
0_
0^
0]
0\
0[
0Z
0Y
0X
0W
0V
0U
0T
0S
0R
0Q
0P
0O
0N
0M
0L
0K
0J
0I
0H
0G
0F
0E
$end
#10000
b101001101011110010010000110000 !
b1111010000110111001101010111100 "
1$!
1#!
0)#
1)"
1"!
1!!
1}
1{
1y
1x
1u
1t
1s
1q
1p
1k
1i
0>#
18$
1h
1g
1f
1`
0:#
1_
1B#
1Z
1G#
1I#
1W
0d"
1T
0l"
1S
0z!
1R
1=#
0;#
1P"
1Q
0E"
1O
0|"
1M
1j#
1L
0D"
1I
1@$
1G
0s"
1G"
0?$
0H"
17$
04#
16#
0c#
1(#
0S"
1z"
1U"
0$$
0&$
16$
1_"
1e"
17#
1>"
1;"
0B$
12
1{!
0,"
0Y"
1g"
0p"
0j"
1t!
1@#
0A#
1>
0."
0J"
1?
10"
1B"
1'
1k!
1+
1="
14
15
18
19
1;
1u!
1h!
1w!
0##
0""
10
1(
1&
1"$
1:
1r!
1o!
0q#
1y!
0'"
1R"
1("
1C$
0D$
0<#
1k#
1;#
0;$
1w"
1?"
1-
1m!
1j!
0G"
1?$
1H"
1|!
0K"
1s#
1M"
0}!
1~!
1A"
1$#
0(
1,
1/
1<"
0t#
1v#
02
1]"
0l#
0n#
04
0{!
1,"
1Y"
0g"
1%"
0&"
17
01"
0Y"
0C$
1D$
1:"
0;"
1B$
0:$
0="
1'#
0p#
1|#
16"
19#
1&#
0B"
0&
1C"
0>"
1n!
00
11
1;$
13
1n#
1.
0?"
1%
0/
#20000
b10001000000000011010001010110 !
b10001000100010010001100100011 "
1&!
0r"
1O"
0!"
1%!
0#"
1C#
0$"
0$!
0#!
1)#
0)"
0"!
1:#
0}
1|
0y
0x
1w
0,$
1m"
0u
0s
0q
1l
0($
1b"
0k
0i
1>#
08$
14#
06#
1c#
0(#
1S"
0z"
0U"
1&$
06$
0g
0f
1K"
0s#
0M"
1c
1q"
0C#
1N"
1b
0_
0B#
1^
1X
0t"
0T
1l"
0S
1'"
0R"
0("
1z!
0R
0=#
0P"
1&"
0Q
1l#
1E"
0O
1p#
0|#
06"
09#
1|"
0M
0j#
0I
0@$
1H
0b#
1(#
0S"
1z"
1U"
05#
16#
0c#
0G
1S"
0z"
0U"
1s"
0k!
07$
1$$
07#
1>"
0n!
1;"
1:$
0w"
11"
1Y"
1{!
1g"
0%"
1p"
0y"
1{"
0%$
0>
13"
0*#
1-#
0,#
14$
1+#
0@#
1A#
1B"
0$#
0'
0j!
1b#
1G"
0H"
0|!
1}!
0~!
0+
0,
1c"
05
07
1n"
08
09
1<
0u!
1=
1v!
1."
1J"
0-#
1,#
0=
04$
0?
00"
0h!
0\#
1*"
0]#
1x!
0F#
0D
0D#
1E#
0Z#
1^#
0/#
0"$
1q!
1l!
0A"
0I"
1i!
0&#
1&
1-$
0.$
1s!
0o!
1q#
0y!
1C$
1<#
0k#
0<"
1t#
0v#
0.
1?"
0-
1/
1="
0'#
0]"
14
0{!
0g"
18
0U#
1V#
0C"
1'
0B"
1+
16
1A
1C
0&
0%
1S#
0C$
0:"
0;"
0>"
10
0?"
01
03
0/
#30000
b10000001000101100000100001110011 !
b11100110011100000000101111000 "
0&!
0O"
0%!
0q"
1C#
0E#
1r"
0N"
1!"
1$"
1#!
0)#
1)"
0+"
0J"
1-#
0,#
1=
14$
10"
1"!
0:#
1~
03#
1/$
0{
0w
1,$
0m"
0t
1s
1r
12"
1q
0p
1n
1m
0l
1($
0b"
1j
1i
0>#
18$
1d
0r"
1O"
0!"
0$"
0b
1_
1B#
04"
0Z
0G#
0I#
1Y
01#
0X
1t"
0W
1d"
1S
0z!
1R
1=#
0;#
1P"
0Q"
1k#
1P
0u"
0H
15#
06#
1c#
0(#
1E
0~"
0%#
0G"
1H"
1k!
1<"
1]"
1{!
0,"
0Y"
02"
1Q"
0k#
1g"
1j"
1y"
1P#
0t!
1*#
0-#
1,#
0=
04$
0+#
1@#
0A#
0w!
1B
1##
1)
1*
1,
0c"
17#
1.
11
04
17
0n"
0;
0{"
1.$
1%$
1>
03"
14"
1.#
0-"
0,#
1=
0v!
10#
1+"
1J"
0."
0J"
1h!
0^#
1"$
0C
0A
1@
1U#
0q!
1-
0l!
1""
1$"
0-$
1?
0:
19"
0s!
0r!
1C$
0D$
0]"
0<#
1k#
1;#
1(
1I"
0i!
1&#
1C"
0'
12
1]"
0n#
1R"
07
08
19
1\#
0*"
1]#
0+
06
1Z#
1/#
00#
1;"
0B$
1%
01
0;$
1w"
0u#
1v#
0@
0<"
1'#
1>"
0="
00
1?"
1/
#35000
b100000001000000010000000010010 !
b11011110101011011011111011101111 "
1&!
1%!
1q"
0C#
1E#
1N"
1$!
0"!
1:#
1}
0|
1{
1z
1y
0F$
1x
1w
1u
1t
0s
1D$
1,"
1Y"
12"
0Q"
1o
0)$
1|#
16"
19#
07"
18#
1j#
0h#
1^"
0J#
1b"
0n
17"
08#
0j#
1h#
0^"
1J#
0b"
1k
1f
1e
03$
0d
0_
0B#
0^
13#
0/$
0Y
11#
1W
0d"
0S
1z!
0R
0P
1u#
0v#
1u"
1O
0p#
0|"
0L
1D"
1G
0s"
0E
1~"
1%#
1G"
0H"
0>"
1)$
1<"
0'#
1p#
0|#
06"
09#
0{!
0g"
0j"
0P#
1{"
0%$
0>
13"
0.#
1-"
0V#
1,#
0=
0*#
1-#
0,#
1=
14$
1+#
0@#
1A#
0%
01$
12$
1B"
1+
0.
0_"
0e"
1<#
0;#
1n#
0R"
0=#
1;#
0P"
1Q"
0k#
14
15
17
18
09
0<$
1=$
1:
1;
0<
1u!
0T#
0=
1v!
1."
1J"
0-#
1,#
04$
0?
00"
1w!
0B
0##
1C
0""
0$"
0"$
0Q#
1R#
1x"
0]"
0m!
1&
1$
1-$
0.$
0S#
1T#
09"
1F$
1r!
0,$
1m"
0C$
1>"
0)$
1|#
16"
19#
1="
0I"
1i!
0&#
0C"
13$
1'
10
0?"
1n!
07
1n"
19
1<$
0=$
1Q#
0R#
0U#
1V#
0,
0;"
1B$
1s!
0E$
0\#
1*"
0+"
0J"
1-#
0,#
14$
10"
0]#
0Z#
0/#
1"$
1?#
0A#
08
0d#
1i"
0_#
11
1;$
0w"
1S#
0T#
0x"
1q!
1.
0/
1%
11$
02$
0$
16
0s!
1E$
0Q#
1R#
0<"
0r!
1,$
17
0="
1!$
0#$
18
1d#
0i"
1_#
0m"
1r!
0,$
1m"
0{#
00
1`"
0a"
1g!
07
1<
#43000
b10001001010000111101111010101111 !
b11011010101011011011101010101101 "
0%!
0q"
1C#
0E#
0N"
0~
0z
0j
1d
1b
0W#
0Y#
1a
0[#
0`
1_
1B#
04"
1/$
1]
0/"
1[
02#
1Z
1G#
1I#
1Y
01#
1X
0t"
0W
1d"
1V
0}#
0k"
1U
0f"
1T
0l"
1S
0z!
0O
1|"
1N
05"
18#
1j#
0h#
1^"
09#
1L
0J#
1b"
0D"
1I
1@$
0G
1s"
1E
0~"
0%#
0G"
1H"
17$
04#
16#
0c#
1(#
0$$
0&$
16$
1c"
0n!
0-
0>"
1)$
0|#
15"
08#
0j#
1h#
0^"
1J#
0b"
19#
1{!
1g"
0p"
1p!
0w#
1o"
0r#
1y!
0'"
1R"
1=#
0;#
1P"
0Q"
1k#
1("
0n"
0+$
1h"
0x#
1j"
0y"
1P#
1t!
0N#
0u!
1T#
1=
1.#
0-"
1*#
0-#
04$
0+#
1@#
0v!
10#
1+"
1J"
0h!
1^#
0X#
0w!
1B
1##
0x!
1D
0*
0{"
1.$
1%$
1>
03"
14"
0/$
0C
0.#
1-"
1,#
0=
1U#
0V#
1""
1$"
1A
1@
0-$
0?#
1Q#
18"
0~#
1y#
0z#
19"
0F$
1s!
0E$
0r!
1,$
0m"
1}#
0p!
1w#
0q!
0{!
0g"
1%"
1]"
02
1?"
1n!
1-
1_"
1e"
0c"
0)
1j!
1G"
0H"
1&#
1C"
03$
0(
1m!
1/
1;"
0B$
06
17
1n"
1+$
0h"
1x#
0o"
1r#
0y!
1'"
0R"
0=#
1;#
0P"
1Q"
0k#
0("
08
0d#
1i"
09
0<$
1=$
0;
0H#
1O#
0`#
0I#
1\#
0S#
0t!
0P#
1x"
0e#
1r!
0,$
1m"
0}#
1p!
0w#
1o"
0r#
1y!
0'"
1R"
1=#
0;#
1P"
0Q"
1k#
1("
1q!
01
0;$
1w"
1,
0%
01$
12$
1$
1<"
16
05
07
0n"
0+$
1h"
0x#
0s!
1E$
09"
1F$
0:
19
1<$
18
1d#
0p!
1w#
0q!
1="
10
06
15
#53000
b10101011110011010001001000110100 !
b0 "
0&!
0$!
1W#
1]#
0#!
1[#
0!!
0B#
0}
1/"
0R#
00"
0{
1~#
0y#
1z#
0y
0x
0w
1,$
0m"
1}#
0u
0t
0r
02"
1Q"
0k#
0q
1B$
0o
0m
0k
0i
1>#
08$
14#
06#
1c#
0(#
1&$
06$
0h
0f
0e
13$
0d
1F#
1r"
0B
0O"
1!"
0c
1#"
0C#
1E#
0a
1)#
00#
0)"
1`
0]
0Z
0G#
0Y
1`#
0=$
11#
0V
1k"
0U
1x#
0o"
1r#
0y!
1'"
0R"
0=#
1;#
0P"
0("
1f"
0S
1z!
1R
1=#
0;#
1P"
0&"
1Q
0l#
0E"
1M
1j#
1K
0F"
1G
0s"
1c"
0;"
0:$
01"
0Y"
1p!
1o!
0%"
1&"
1P#
0x"
1e#
0i"
1v!
0@
1C
1D#
0E#
1%
11$
02$
0B"
0k!
0j!
1)
0+
0?"
1;$
0]"
1l#
12
17
1+$
0h"
08
09
1;
1H#
0O#
0"$
1#$
0!$
0*#
1+#
0@#
1A#
0>
1X#
1Y#
0*"
1w!
0##
1Z#
0^#
1/#
0A
0""
1-$
1{#
0P#
0p!
1;"
1:$
0w"
0/
0&
0$
0C
1s!
0r!
11"
1Y"
1l!
1+
07
18
0<"
11
05
0`"
1a"
0g!
0<
0="
00
#63000
b0 !
b10010001101000101011001111000 "
1#!
0)#
1)"
1"!
0:#
1!!
1B#
1~
1{
0~#
1y#
1G#
1I#
1z
1x
0E$
1v
1r
12"
0Q"
1k#
1p
1o
1k
0W"
1!#
1X"
1h
0b
0`
1:#
0_
0B#
0[
12#
0X
1t"
0T
1l"
0R
0=#
1;#
0P"
1Q"
0k#
0Q
1E"
0N
06"
09#
0M
0j#
0L
1D"
0K
1F"
0I
0@$
0G
1s"
0E
1~"
1%#
0G"
1H"
07$
1$$
0c"
0_"
0e"
07#
0n!
0;"
1p"
1y"
1N#
0w!
1##
1k!
0+
1m#
1@"
1?"
1="
16
08
0d#
1i"
1:
0;
1t!
0g#
1{"
0.$
0%$
13"
1h!
0U#
1V#
0:
0f#
1O#
1r!
10
1/
1*
1(
1""
08"
1~#
0y#
0G#
0I#
0s!
1E$
0o!
01
0.
0-
0m!
0l!
1W"
0!#
0X"
0)
1I"
0i!
0&#
0C"
0'
1+
0m#
0@"
0,
04
18
1d#
0i"
1;
0t!
1g#
17
1P#
1S#
19"
1:
1f#
0O#
0r!
0*
0%
07
0P#
19
09"
09
