lockednetlistsimulation/32xor/error_tolerant_type2_adder/sim/transcript
# //  ModelSim SE-64 6.6d Nov  1 2010 Linux 2.6.32-754.33.1.el6.x86_64
# //
# //  Copyright 1991-2010 Mentor Graphics Corporation
# //              All Rights Reserved.
# //
# //  THIS WORK CONTAINS TRADE SECRET AND 
# //  PROPRIETARY INFORMATION WHICH IS THE PROPERTY
# //  OF MENTOR GRAPHICS CORPORATION OR ITS LICENSORS
# //  AND IS SUBJECT TO LICENSE TERMS.
# //
# Loading project rca64aor
# reading /var/autofs/misc/cad/mentor/modelsim-6.6d/modeltech/linux_x86_64/../modelsim.ini
# Loading project eta32xor
# Compile of error_tolerant_type2_adder16_tb.v was successful.
# Compile of error_tolerant_type2_adder16_xor_enc32.v was successful.
# 2 compiles, 0 failed with no errors. 
# Optimization canceled
vsim -novopt simulation.error_tolerant_type2_adder16_tb
# vsim -novopt simulation.error_tolerant_type2_adder16_tb 
# Refreshing /home/nayakkk/32xor/error_tolerant_type2_adder/sim/simulation.error_tolerant_type2_adder16_tb
# Loading simulation.error_tolerant_type2_adder16_tb
# Refreshing /home/nayakkk/32xor/error_tolerant_type2_adder/sim/simulation.error_tolerant_type2_adder16_xor_enc32
# Loading simulation.error_tolerant_type2_adder16_xor_enc32
vsim -novopt simulation.error_tolerant_type2_adder16_tb
# vsim -novopt simulation.error_tolerant_type2_adder16_tb 
# Loading simulation.error_tolerant_type2_adder16_tb
# Loading simulation.error_tolerant_type2_adder16_xor_enc32
add wave sim:/error_tolerant_type2_adder16_tb/*
run
#                    0 add1_i= 0000, add2_i = 0000, keyinput= 00b89eb1, result_o = 00001 
#                   10 add1_i= 29af, add2_i = 7a1b, keyinput= 00b89eb1, result_o = 0a3cb 
#                   20 add1_i= 1100, add2_i = 1111, keyinput= 00b89eb1, result_o = 02212 
#                   30 add1_i= 8116, add2_i = 1cce, keyinput= 00b89eb1, result_o = 09de5 
#                   35 add1_i= 4482, add2_i = 3bcd, keyinput= 00b89eb1, result_o = 07040 
#                   43 add1_i= 8943, add2_i = ffff, keyinput= 00b89eb1, result_o = 18943 
#                   53 add1_i= abcd, add2_i = 0000, keyinput= 00b89eb1, result_o = 0abce 
#                   63 add1_i= 0000, add2_i = 1234, keyinput= 00b89eb1, result_o = 01235 
#                   73 add1_i= 1111, add2_i = eeaa, keyinput= 00b89eb1, result_o = 0ffbc 
#                   83 add1_i= 5555, add2_i = aaaa, keyinput= 00b89eb1, result_o = 0fff0 
#                   93 add1_i= 8051, add2_i = 8086, keyinput= 00b89eb1, result_o = 100d8 
#                   98 add1_i= fadc, add2_i = 00dc, keyinput= 00b89eb1, result_o = 0fbb9 
#                  106 add1_i= 4096, add2_i = 2048, keyinput= 00b89eb1, result_o = 060df 
#                  116 add1_i= 1024, add2_i = 8192, keyinput= 00b89eb1, result_o = 091b7 
#                  126 add1_i= 0000, add2_i = 0001, keyinput= 00b89eb1, result_o = 00002 
#                  136 add1_i= 0000, add2_i = 0000, keyinput= 00b89eb0, result_o = 01001 
#                  146 add1_i= 29af, add2_i = 7a1b, keyinput= 00b89eb0, result_o = 093cb 
#                  156 add1_i= 1100, add2_i = 1111, keyinput= 00b89eb0, result_o = 03212 
#                  166 add1_i= 8116, add2_i = 1cce, keyinput= 00b89eb0, result_o = 0ade5 
#                  171 add1_i= 4482, add2_i = 3bcd, keyinput= 00b89eb0, result_o = 08040 
#                  179 add1_i= 8943, add2_i = ffff, keyinput= 00b89eb0, result_o = 17943 
#                  189 add1_i= abcd, add2_i = 0000, keyinput= 00b89eb0, result_o = 0bbce 
#                  199 add1_i= 0000, add2_i = 1234, keyinput= 00b89eb0, result_o = 02235 
#                  209 add1_i= 1111, add2_i = eeaa, keyinput= 00b89eb0, result_o = 00fbc 
#                  219 add1_i= 5555, add2_i = aaaa, keyinput= 00b89eb0, result_o = 00ff0 
#                  229 add1_i= 8051, add2_i = 8086, keyinput= 00b89eb0, result_o = 110d8 
#                  234 add1_i= fadc, add2_i = 00dc, keyinput= 00b89eb0, result_o = 00bb9 
#                  242 add1_i= 4096, add2_i = 2048, keyinput= 00b89eb0, result_o = 070df 
#                  252 add1_i= 1024, add2_i = 8192, keyinput= 00b89eb0, result_o = 0a1b7 
#                  262 add1_i= 0000, add2_i = 0001, keyinput= 00b89eb0, result_o = 01002 
#                  272 add1_i= 0000, add2_i = 0000, keyinput= 00b89ea0, result_o = 01001 
#                  282 add1_i= 29af, add2_i = 7a1b, keyinput= 00b89ea0, result_o = 093cb 
#                  292 add1_i= 1100, add2_i = 1111, keyinput= 00b89ea0, result_o = 03212 
#                  302 add1_i= 8116, add2_i = 1cce, keyinput= 00b89ea0, result_o = 0ade5 
#                  307 add1_i= 4482, add2_i = 3bcd, keyinput= 00b89ea0, result_o = 08050 
#                  315 add1_i= 8943, add2_i = ffff, keyinput= 00b89ea0, result_o = 17943 
#                  325 add1_i= abcd, add2_i = 0000, keyinput= 00b89ea0, result_o = 0bbde 
#                  335 add1_i= 0000, add2_i = 1234, keyinput= 00b89ea0, result_o = 02235 
#                  345 add1_i= 1111, add2_i = eeaa, keyinput= 00b89ea0, result_o = 00fbc 
#                  355 add1_i= 5555, add2_i = aaaa, keyinput= 00b89ea0, result_o = 00f00 
#                  365 add1_i= 8051, add2_i = 8086, keyinput= 00b89ea0, result_o = 110d8 
#                  370 add1_i= fadc, add2_i = 00dc, keyinput= 00b89ea0, result_o = 00bb9 
#                  378 add1_i= 4096, add2_i = 2048, keyinput= 00b89ea0, result_o = 070ef 
#                  388 add1_i= 1024, add2_i = 8192, keyinput= 00b89ea0, result_o = 0a1b7 
#                  398 add1_i= 0000, add2_i = 0001, keyinput= 00b89ea0, result_o = 01002 
#                  408 add1_i= 0000, add2_i = 0000, keyinput= 00b89e80, result_o = 11001 
#                  418 add1_i= 29af, add2_i = 7a1b, keyinput= 00b89e80, result_o = 193cb 
#                  428 add1_i= 1100, add2_i = 1111, keyinput= 00b89e80, result_o = 13212 
#                  438 add1_i= 8116, add2_i = 1cce, keyinput= 00b89e80, result_o = 1ade5 
#                  443 add1_i= 4482, add2_i = 3bcd, keyinput= 00b89e80, result_o = 18050 
#                  451 add1_i= 8943, add2_i = ffff, keyinput= 00b89e80, result_o = 07943 
#                  461 add1_i= abcd, add2_i = 0000, keyinput= 00b89e80, result_o = 1bbde 
#                  471 add1_i= 0000, add2_i = 1234, keyinput= 00b89e80, result_o = 12235 
#                  481 add1_i= 1111, add2_i = eeaa, keyinput= 00b89e80, result_o = 10fbc 
#                  491 add1_i= 5555, add2_i = aaaa, keyinput= 00b89e80, result_o = 10f00 
#                  501 add1_i= 8051, add2_i = 8086, keyinput= 00b89e80, result_o = 010d8 
#                  506 add1_i= fadc, add2_i = 00dc, keyinput= 00b89e80, result_o = 10bb9 
#                  514 add1_i= 4096, add2_i = 2048, keyinput= 00b89e80, result_o = 170ef 
#                  524 add1_i= 1024, add2_i = 8192, keyinput= 00b89e80, result_o = 1a1b7 
#                  534 add1_i= 0000, add2_i = 0001, keyinput= 00b89e80, result_o = 11002 
#                  544 add1_i= 0000, add2_i = 0000, keyinput= 00b89e00, result_o = 19001 
#                  554 add1_i= 29af, add2_i = 7a1b, keyinput= 00b89e00, result_o = 113cb 
#                  564 add1_i= 1100, add2_i = 1111, keyinput= 00b89e00, result_o = 1b212 
#                  574 add1_i= 8116, add2_i = 1cce, keyinput= 00b89e00, result_o = 12de5 
#                  579 add1_i= 4482, add2_i = 3bcd, keyinput= 00b89e00, result_o = 10050 
#                  587 add1_i= 8943, add2_i = ffff, keyinput= 00b89e00, result_o = 0f943 
#                  597 add1_i= abcd, add2_i = 0000, keyinput= 00b89e00, result_o = 13bde 
#                  607 add1_i= 0000, add2_i = 1234, keyinput= 00b89e00, result_o = 1a235 
#                  617 add1_i= 1111, add2_i = eeaa, keyinput= 00b89e00, result_o = 18fbc 
#                  627 add1_i= 5555, add2_i = aaaa, keyinput= 00b89e00, result_o = 18f00 
#                  637 add1_i= 8051, add2_i = 8086, keyinput= 00b89e00, result_o = 090d8 
#                  642 add1_i= fadc, add2_i = 00dc, keyinput= 00b89e00, result_o = 18bb9 
#                  650 add1_i= 4096, add2_i = 2048, keyinput= 00b89e00, result_o = 1f0ef 
#                  660 add1_i= 1024, add2_i = 8192, keyinput= 00b89e00, result_o = 121b7 
#                  670 add1_i= 0000, add2_i = 0001, keyinput= 00b89e00, result_o = 19002 
#                  680 add1_i= 0000, add2_i = 0000, keyinput= 00b89e48, result_o = 19081 
#                  690 add1_i= 29af, add2_i = 7a1b, keyinput= 00b89e48, result_o = 1134b 
#                  700 add1_i= 1100, add2_i = 1111, keyinput= 00b89e48, result_o = 1b292 
#                  710 add1_i= 8116, add2_i = 1cce, keyinput= 00b89e48, result_o = 12d65 
#                  715 add1_i= 4482, add2_i = 3bcd, keyinput= 00b89e48, result_o = 100c0 
#                  723 add1_i= 8943, add2_i = ffff, keyinput= 00b89e48, result_o = 0f9c3 
#                  733 add1_i= abcd, add2_i = 0000, keyinput= 00b89e48, result_o = 13b5e 
#                  743 add1_i= 0000, add2_i = 1234, keyinput= 00b89e48, result_o = 1a2b5 
#                  753 add1_i= 1111, add2_i = eeaa, keyinput= 00b89e48, result_o = 18f3c 
#                  763 add1_i= 5555, add2_i = aaaa, keyinput= 00b89e48, result_o = 18f80 
#                  773 add1_i= 8051, add2_i = 8086, keyinput= 00b89e48, result_o = 09058 
#                  778 add1_i= fadc, add2_i = 00dc, keyinput= 00b89e48, result_o = 18b39 
#                  786 add1_i= 4096, add2_i = 2048, keyinput= 00b89e48, result_o = 1f05f 
#                  796 add1_i= 1024, add2_i = 8192, keyinput= 00b89e48, result_o = 12137 
#                  806 add1_i= 0000, add2_i = 0001, keyinput= 00b89e48, result_o = 19082 
#                  816 add1_i= 0000, add2_i = 0000, keyinput= 10b89eb1, result_o = 00001 
#                  826 add1_i= 29af, add2_i = 7a1b, keyinput= 10b89eb1, result_o = 0a3cb 
#                  836 add1_i= 1100, add2_i = 1111, keyinput= 10b89eb1, result_o = 02212 
#                  846 add1_i= 8116, add2_i = 1cce, keyinput= 10b89eb1, result_o = 09de5 
#                  851 add1_i= 4482, add2_i = 3bcd, keyinput= 10b89eb1, result_o = 07040 
#                  859 add1_i= 8943, add2_i = ffff, keyinput= 10b89eb1, result_o = 18943 
#                  869 add1_i= abcd, add2_i = 0000, keyinput= 10b89eb1, result_o = 0abce 
#                  879 add1_i= 0000, add2_i = 1234, keyinput= 10b89eb1, result_o = 01235 
#                  889 add1_i= 1111, add2_i = eeaa, keyinput= 10b89eb1, result_o = 0ffbc 
#                  899 add1_i= 5555, add2_i = aaaa, keyinput= 10b89eb1, result_o = 0ff00 
#                  909 add1_i= 8051, add2_i = 8086, keyinput= 10b89eb1, result_o = 100d8 
#                  914 add1_i= fadc, add2_i = 00dc, keyinput= 10b89eb1, result_o = 0fbb9 
#                  922 add1_i= 4096, add2_i = 2048, keyinput= 10b89eb1, result_o = 060df 
#                  932 add1_i= 1024, add2_i = 8192, keyinput= 10b89eb1, result_o = 091b7 
#                  942 add1_i= 0000, add2_i = 0001, keyinput= 10b89eb1, result_o = 00002 
#                  952 add1_i= 0000, add2_i = 0000, keyinput= 14b89eb1, result_o = 00011 
#                  962 add1_i= 29af, add2_i = 7a1b, keyinput= 14b89eb1, result_o = 0a3cb 
#                  972 add1_i= 1100, add2_i = 1111, keyinput= 14b89eb1, result_o = 02222 
#                  982 add1_i= 8116, add2_i = 1cce, keyinput= 14b89eb1, result_o = 09dd5 
#                  987 add1_i= 4482, add2_i = 3bcd, keyinput= 14b89eb1, result_o = 07050 
#                  995 add1_i= 8943, add2_i = ffff, keyinput= 14b89eb1, result_o = 18933 
#                 1005 add1_i= abcd, add2_i = 0000, keyinput= 14b89eb1, result_o = 0abde 
#                 1015 add1_i= 0000, add2_i = 1234, keyinput= 14b89eb1, result_o = 01245 
#                 1025 add1_i= 1111, add2_i = eeaa, keyinput= 14b89eb1, result_o = 0ffcc 
#                 1035 add1_i= 5555, add2_i = aaaa, keyinput= 14b89eb1, result_o = 0fff0 
#                 1045 add1_i= 8051, add2_i = 8086, keyinput= 14b89eb1, result_o = 100e8 
#                 1050 add1_i= fadc, add2_i = 00dc, keyinput= 14b89eb1, result_o = 0fbb9 
#                 1058 add1_i= 4096, add2_i = 2048, keyinput= 14b89eb1, result_o = 060ef 
#                 1068 add1_i= 1024, add2_i = 8192, keyinput= 14b89eb1, result_o = 091c7 
#                 1078 add1_i= 0000, add2_i = 0001, keyinput= 14b89eb1, result_o = 00012 
#                 1088 add1_i= 0000, add2_i = 0000, keyinput= 54b89eb1, result_o = 00019 
#                 1098 add1_i= 29af, add2_i = 7a1b, keyinput= 54b89eb1, result_o = 0a3c3 
#                 1108 add1_i= 1100, add2_i = 1111, keyinput= 54b89eb1, result_o = 0222a 
#                 1118 add1_i= 8116, add2_i = 1cce, keyinput= 54b89eb1, result_o = 09ddd 
#                 1123 add1_i= 4482, add2_i = 3bcd, keyinput= 54b89eb1, result_o = 07050 
#                 1131 add1_i= 8943, add2_i = ffff, keyinput= 54b89eb1, result_o = 18933 
#                 1141 add1_i= abcd, add2_i = 0000, keyinput= 54b89eb1, result_o = 0abd6 
#                 1151 add1_i= 0000, add2_i = 1234, keyinput= 54b89eb1, result_o = 0124d 
#                 1161 add1_i= 1111, add2_i = eeaa, keyinput= 54b89eb1, result_o = 0ffc4 
#                 1171 add1_i= 5555, add2_i = aaaa, keyinput= 54b89eb1, result_o = 0fff8 
#                 1181 add1_i= 8051, add2_i = 8086, keyinput= 54b89eb1, result_o = 100e8 
#                 1186 add1_i= fadc, add2_i = 00dc, keyinput= 54b89eb1, result_o = 0fbb9 
#                 1194 add1_i= 4096, add2_i = 2048, keyinput= 54b89eb1, result_o = 060e7 
#                 1204 add1_i= 1024, add2_i = 8192, keyinput= 54b89eb1, result_o = 091cf 
#                 1214 add1_i= 0000, add2_i = 0001, keyinput= 54b89eb1, result_o = 0001a 
#                 1224 add1_i= 0000, add2_i = 0000, keyinput= 55b89eb1, result_o = 00059 
#                 1234 add1_i= 29af, add2_i = 7a1b, keyinput= 55b89eb1, result_o = 0a383 
#                 1244 add1_i= 1100, add2_i = 1111, keyinput= 55b89eb1, result_o = 0226a 
#                 1254 add1_i= 8116, add2_i = 1cce, keyinput= 55b89eb1, result_o = 09d9d 
#                 1259 add1_i= 4482, add2_i = 3bcd, keyinput= 55b89eb1, result_o = 07010 
#                 1267 add1_i= 8943, add2_i = ffff, keyinput= 55b89eb1, result_o = 18973 
#                 1277 add1_i= abcd, add2_i = 0000, keyinput= 55b89eb1, result_o = 0ab96 
#                 1287 add1_i= 0000, add2_i = 1234, keyinput= 55b89eb1, result_o = 0120d 
#                 1297 add1_i= 1111, add2_i = eeaa, keyinput= 55b89eb1, result_o = 0ff84 
#                 1307 add1_i= 5555, add2_i = aaaa, keyinput= 55b89eb1, result_o = 0ffb8 
#                 1317 add1_i= 8051, add2_i = 8086, keyinput= 55b89eb1, result_o = 100a8 
#                 1322 add1_i= fadc, add2_i = 00dc, keyinput= 55b89eb1, result_o = 0fbf9 
#                 1330 add1_i= 4096, add2_i = 2048, keyinput= 55b89eb1, result_o = 060a7 
#                 1340 add1_i= 1024, add2_i = 8192, keyinput= 55b89eb1, result_o = 0918f 
#                 1350 add1_i= 0000, add2_i = 0001, keyinput= 55b89eb1, result_o = 0005a 
#                 1360 add1_i= 0000, add2_i = 0000, keyinput= 77b89eb1, result_o = 08259 
#                 1370 add1_i= 29af, add2_i = 7a1b, keyinput= 77b89eb1, result_o = 02183 
#                 1380 add1_i= 1100, add2_i = 1111, keyinput= 77b89eb1, result_o = 0a06a 
#                 1390 add1_i= 8116, add2_i = 1cce, keyinput= 77b89eb1, result_o = 01f9d 
#                 1395 add1_i= 4482, add2_i = 3bcd, keyinput= 77b89eb1, result_o = 0f210 
#                 1403 add1_i= 8943, add2_i = ffff, keyinput= 77b89eb1, result_o = 10b73 
#                 1413 add1_i= abcd, add2_i = 0000, keyinput= 77b89eb1, result_o = 02996 
#                 1423 add1_i= 0000, add2_i = 1234, keyinput= 77b89eb1, result_o = 0900d 
#                 1433 add1_i= 1111, add2_i = eeaa, keyinput= 77b89eb1, result_o = 07d84 
#                 1443 add1_i= 5555, add2_i = aaaa, keyinput= 77b89eb1, result_o = 07db8 
#                 1453 add1_i= 8051, add2_i = 8086, keyinput= 77b89eb1, result_o = 182a8 
#                 1458 add1_i= fadc, add2_i = 00dc, keyinput= 77b89eb1, result_o = 079f9 
#                 1466 add1_i= 4096, add2_i = 2048, keyinput= 77b89eb1, result_o = 0e2a7 
#                 1476 add1_i= 1024, add2_i = 8192, keyinput= 77b89eb1, result_o = 0138f 
#                 1486 add1_i= 0000, add2_i = 0001, keyinput= 77b89eb1, result_o = 0825a 
#                 1496 add1_i= 0000, add2_i = 0000, keyinput= 00bc9eb1, result_o = 04001 
#                 1506 add1_i= 29af, add2_i = 7a1b, keyinput= 00bc9eb1, result_o = 063cb 
#                 1516 add1_i= 1100, add2_i = 1111, keyinput= 00bc9eb1, result_o = 06212 
#                 1526 add1_i= 8116, add2_i = 1cce, keyinput= 00bc9eb1, result_o = 0dde5 
#                 1531 add1_i= 4482, add2_i = 3bcd, keyinput= 00bc9eb1, result_o = 0b040 
#                 1539 add1_i= 8943, add2_i = ffff, keyinput= 00bc9eb1, result_o = 18943 
#                 1549 add1_i= abcd, add2_i = 0000, keyinput= 00bc9eb1, result_o = 0ebce 
#                 1559 add1_i= 0000, add2_i = 1234, keyinput= 00bc9eb1, result_o = 05235 
#                 1569 add1_i= 1111, add2_i = eeaa, keyinput= 00bc9eb1, result_o = 03fbc 
#                 1579 add1_i= 5555, add2_i = aaaa, keyinput= 00bc9eb1, result_o = 03ff0 
#                 1589 add1_i= 8051, add2_i = 8086, keyinput= 00bc9eb1, result_o = 140d8 
#                 1594 add1_i= fadc, add2_i = 00dc, keyinput= 00bc9eb1, result_o = 03bb9 
#                 1602 add1_i= 4096, add2_i = 2048, keyinput= 00bc9eb1, result_o = 0a0df 
#                 1612 add1_i= 1024, add2_i = 8192, keyinput= 00bc9eb1, result_o = 0d1b7 
#                 1622 add1_i= 0000, add2_i = 0001, keyinput= 00bc9eb1, result_o = 04002 
#                 1632 add1_i= 0000, add2_i = 0000, keyinput= 00be9eb1, result_o = 04001 
#                 1642 add1_i= 29af, add2_i = 7a1b, keyinput= 00be9eb1, result_o = 063cb 
#                 1652 add1_i= 1100, add2_i = 1111, keyinput= 00be9eb1, result_o = 06212 
#                 1662 add1_i= 8116, add2_i = 1cce, keyinput= 00be9eb1, result_o = 0dde5 
#                 1667 add1_i= 4482, add2_i = 3bcd, keyinput= 00be9eb1, result_o = 0b040 
#                 1675 add1_i= 8943, add2_i = ffff, keyinput= 00be9eb1, result_o = 18943 
#                 1685 add1_i= abcd, add2_i = 0000, keyinput= 00be9eb1, result_o = 0ebce 
#                 1695 add1_i= 0000, add2_i = 1234, keyinput= 00be9eb1, result_o = 05235 
#                 1705 add1_i= 1111, add2_i = eeaa, keyinput= 00be9eb1, result_o = 03fbc 
#                 1715 add1_i= 5555, add2_i = aaaa, keyinput= 00be9eb1, result_o = 03ff0 
#                 1725 add1_i= 8051, add2_i = 8086, keyinput= 00be9eb1, result_o = 140d8 
#                 1730 add1_i= fadc, add2_i = 00dc, keyinput= 00be9eb1, result_o = 03bb9 
#                 1738 add1_i= 4096, add2_i = 2048, keyinput= 00be9eb1, result_o = 0a0df 
#                 1748 add1_i= 1024, add2_i = 8192, keyinput= 00be9eb1, result_o = 0d1b7 
#                 1758 add1_i= 0000, add2_i = 0001, keyinput= 00be9eb1, result_o = 04002 
#                 1768 add1_i= 0000, add2_i = 0000, keyinput= 00bf9eb1, result_o = 04001 
#                 1778 add1_i= 29af, add2_i = 7a1b, keyinput= 00bf9eb1, result_o = 063cb 
#                 1788 add1_i= 1100, add2_i = 1111, keyinput= 00bf9eb1, result_o = 06212 
#                 1798 add1_i= 8116, add2_i = 1cce, keyinput= 00bf9eb1, result_o = 0dee5 
#                 1803 add1_i= 4482, add2_i = 3bcd, keyinput= 00bf9eb1, result_o = 0b040 
#                 1811 add1_i= 8943, add2_i = ffff, keyinput= 00bf9eb1, result_o = 18943 
#                 1821 add1_i= abcd, add2_i = 0000, keyinput= 00bf9eb1, result_o = 0ecce 
#                 1831 add1_i= 0000, add2_i = 1234, keyinput= 00bf9eb1, result_o = 05235 
#                 1841 add1_i= 1111, add2_i = eeaa, keyinput= 00bf9eb1, result_o = 03fbc 
#                 1851 add1_i= 5555, add2_i = aaaa, keyinput= 00bf9eb1, result_o = 030f0 
#                 1861 add1_i= 8051, add2_i = 8086, keyinput= 00bf9eb1, result_o = 141d8 
#                 1866 add1_i= fadc, add2_i = 00dc, keyinput= 00bf9eb1, result_o = 03bb9 
#                 1874 add1_i= 4096, add2_i = 2048, keyinput= 00bf9eb1, result_o = 0a1df 
#                 1884 add1_i= 1024, add2_i = 8192, keyinput= 00bf9eb1, result_o = 0d1b7 
#                 1894 add1_i= 0000, add2_i = 0001, keyinput= 00bf9eb1, result_o = 04002 
#                 1904 add1_i= 0000, add2_i = 0000, keyinput= 00bf8eb1, result_o = 04081 
#                 1914 add1_i= 29af, add2_i = 7a1b, keyinput= 00bf8eb1, result_o = 0634b 
#                 1924 add1_i= 1100, add2_i = 1111, keyinput= 00bf8eb1, result_o = 06292 
#                 1934 add1_i= 8116, add2_i = 1cce, keyinput= 00bf8eb1, result_o = 0de65 
#                 1939 add1_i= 4482, add2_i = 3bcd, keyinput= 00bf8eb1, result_o = 0b0c0 
#                 1947 add1_i= 8943, add2_i = ffff, keyinput= 00bf8eb1, result_o = 189c3 
#                 1957 add1_i= abcd, add2_i = 0000, keyinput= 00bf8eb1, result_o = 0ec4e 
#                 1967 add1_i= 0000, add2_i = 1234, keyinput= 00bf8eb1, result_o = 052b5 
#                 1977 add1_i= 1111, add2_i = eeaa, keyinput= 00bf8eb1, result_o = 03f3c 
#                 1987 add1_i= 5555, add2_i = aaaa, keyinput= 00bf8eb1, result_o = 03070 
#                 1997 add1_i= 8051, add2_i = 8086, keyinput= 00bf8eb1, result_o = 14158 
#                 2002 add1_i= fadc, add2_i = 00dc, keyinput= 00bf8eb1, result_o = 03b39 
#                 2010 add1_i= 4096, add2_i = 2048, keyinput= 00bf8eb1, result_o = 0a15f 
#                 2020 add1_i= 1024, add2_i = 8192, keyinput= 00bf8eb1, result_o = 0d137 
#                 2030 add1_i= 0000, add2_i = 0001, keyinput= 00bf8eb1, result_o = 04082 
#                 2040 add1_i= 0000, add2_i = 0000, keyinput= 00bfeeb1, result_o = 040a1 
#                 2050 add1_i= 29af, add2_i = 7a1b, keyinput= 00bfeeb1, result_o = 0636b 
#                 2060 add1_i= 1100, add2_i = 1111, keyinput= 00bfeeb1, result_o = 062b2 
#                 2070 add1_i= 8116, add2_i = 1cce, keyinput= 00bfeeb1, result_o = 0de45 
#                 2075 add1_i= 4482, add2_i = 3bcd, keyinput= 00bfeeb1, result_o = 0b0e0 
#                 2083 add1_i= 8943, add2_i = ffff, keyinput= 00bfeeb1, result_o = 189e3 
#                 2093 add1_i= abcd, add2_i = 0000, keyinput= 00bfeeb1, result_o = 0ec6e 
#                 2103 add1_i= 0000, add2_i = 1234, keyinput= 00bfeeb1, result_o = 05295 
#                 2113 add1_i= 1111, add2_i = eeaa, keyinput= 00bfeeb1, result_o = 13f1c 
#                 2123 add1_i= 5555, add2_i = aaaa, keyinput= 00bfeeb1, result_o = 13050 
#                 2133 add1_i= 8051, add2_i = 8086, keyinput= 00bfeeb1, result_o = 14178 
#                 2138 add1_i= fadc, add2_i = 00dc, keyinput= 00bfeeb1, result_o = 13b19 
#                 2146 add1_i= 4096, add2_i = 2048, keyinput= 00bfeeb1, result_o = 0a17f 
#                 2156 add1_i= 1024, add2_i = 8192, keyinput= 00bfeeb1, result_o = 0d117 
#                 2166 add1_i= 0000, add2_i = 0001, keyinput= 00bfeeb1, result_o = 040a2 
# other exact keys
#                 2176 add1_i= 0000, add2_i = 0000, keyinput= 00b88ef1, result_o = 00001 
#                 2186 add1_i= 29af, add2_i = 7a1b, keyinput= 00b88ef1, result_o = 0a3cb 
#                 2196 add1_i= 1100, add2_i = 1111, keyinput= 00b88ef1, result_o = 02212 
#                 2206 add1_i= 8116, add2_i = 1cce, keyinput= 00b88ef1, result_o = 09de5 
#                 2211 add1_i= 4482, add2_i = 3bcd, keyinput= 00b88ef1, result_o = 07040 
#                 2219 add1_i= 8943, add2_i = ffff, keyinput= 00b88ef1, result_o = 18943 
#                 2229 add1_i= abcd, add2_i = 0000, keyinput= 00b88ef1, result_o = 0abce 
#                 2239 add1_i= 0000, add2_i = 1234, keyinput= 00b88ef1, result_o = 01235 
#                 2249 add1_i= 1111, add2_i = eeaa, keyinput= 00b88ef1, result_o = 0ffbc 
#                 2259 add1_i= 5555, add2_i = aaaa, keyinput= 00b88ef1, result_o = 0fff0 
#                 2269 add1_i= 8051, add2_i = 8086, keyinput= 00b88ef1, result_o = 100d8 
#                 2274 add1_i= fadc, add2_i = 00dc, keyinput= 00b88ef1, result_o = 0fbb9 
#                 2282 add1_i= 4096, add2_i = 2048, keyinput= 00b88ef1, result_o = 060df 
#                 2292 add1_i= 1024, add2_i = 8192, keyinput= 00b88ef1, result_o = 091b7 
#                 2302 add1_i= 0000, add2_i = 0001, keyinput= 00b88ef1, result_o = 00002 
# ** Note: $finish    : /home/nayakkk/32xor/error_tolerant_type2_adder/sim/error_tolerant_type2_adder16_tb.v(839)
#    Time: 2312 ns  Iteration: 0  Instance: /error_tolerant_type2_adder16_tb
