lockednetlistsimulation/partial_key_simulation_random/32aor/broken_array_multiplier/sim/broke_array_multiplier8_gatesim.vcd
$date
	Thu Oct  8 21:07:21 2020
$end
$version
	ModelSim Version 6.6d
$end
$timescale
	1ps
$end
$scope module broke_array_multiplier8_tb $end
$var reg 8 ! operand1_i [7:0] $end
$var reg 8 " operand2_i [7:0] $end
$var reg 32 # keyinput [31:0] $end
$var wire 1 $ result_o [15] $end
$var wire 1 % result_o [14] $end
$var wire 1 & result_o [13] $end
$var wire 1 ' result_o [12] $end
$var wire 1 ( result_o [11] $end
$var wire 1 ) result_o [10] $end
$var wire 1 * result_o [9] $end
$var wire 1 + result_o [8] $end
$var wire 1 , result_o [7] $end
$var wire 1 - result_o [6] $end
$var wire 1 . result_o [5] $end
$var wire 1 / result_o [4] $end
$var wire 1 0 result_o [3] $end
$var wire 1 1 result_o [2] $end
$var wire 1 2 result_o [1] $end
$var wire 1 3 result_o [0] $end
$scope module bam $end
$var wire 1 4 op1_i [7] $end
$var wire 1 5 op1_i [6] $end
$var wire 1 6 op1_i [5] $end
$var wire 1 7 op1_i [4] $end
$var wire 1 8 op1_i [3] $end
$var wire 1 9 op1_i [2] $end
$var wire 1 : op1_i [1] $end
$var wire 1 ; op1_i [0] $end
$var wire 1 < op2_i [7] $end
$var wire 1 = op2_i [6] $end
$var wire 1 > op2_i [5] $end
$var wire 1 ? op2_i [4] $end
$var wire 1 @ op2_i [3] $end
$var wire 1 A op2_i [2] $end
$var wire 1 B op2_i [1] $end
$var wire 1 C op2_i [0] $end
$var wire 1 D keyinput [31] $end
$var wire 1 E keyinput [30] $end
$var wire 1 F keyinput [29] $end
$var wire 1 G keyinput [28] $end
$var wire 1 H keyinput [27] $end
$var wire 1 I keyinput [26] $end
$var wire 1 J keyinput [25] $end
$var wire 1 K keyinput [24] $end
$var wire 1 L keyinput [23] $end
$var wire 1 M keyinput [22] $end
$var wire 1 N keyinput [21] $end
$var wire 1 O keyinput [20] $end
$var wire 1 P keyinput [19] $end
$var wire 1 Q keyinput [18] $end
$var wire 1 R keyinput [17] $end
$var wire 1 S keyinput [16] $end
$var wire 1 T keyinput [15] $end
$var wire 1 U keyinput [14] $end
$var wire 1 V keyinput [13] $end
$var wire 1 W keyinput [12] $end
$var wire 1 X keyinput [11] $end
$var wire 1 Y keyinput [10] $end
$var wire 1 Z keyinput [9] $end
$var wire 1 [ keyinput [8] $end
$var wire 1 \ keyinput [7] $end
$var wire 1 ] keyinput [6] $end
$var wire 1 ^ keyinput [5] $end
$var wire 1 _ keyinput [4] $end
$var wire 1 ` keyinput [3] $end
$var wire 1 a keyinput [2] $end
$var wire 1 b keyinput [1] $end
$var wire 1 c keyinput [0] $end
$var wire 1 $ product_o [15] $end
$var wire 1 % product_o [14] $end
$var wire 1 & product_o [13] $end
$var wire 1 ' product_o [12] $end
$var wire 1 ( product_o [11] $end
$var wire 1 ) product_o [10] $end
$var wire 1 * product_o [9] $end
$var wire 1 + product_o [8] $end
$var wire 1 , product_o [7] $end
$var wire 1 - product_o [6] $end
$var wire 1 . product_o [5] $end
$var wire 1 / product_o [4] $end
$var wire 1 0 product_o [3] $end
$var wire 1 1 product_o [2] $end
$var wire 1 2 product_o [1] $end
$var wire 1 3 product_o [0] $end
$var wire 1 d n203 $end
$var wire 1 e xenc8 $end
$var wire 1 f n205 $end
$var wire 1 g n206 $end
$var wire 1 h n222 $end
$var wire 1 i n223 $end
$var wire 1 j xenc31 $end
$var wire 1 k xenc0 $end
$var wire 1 l n230 $end
$var wire 1 m n239 $end
$var wire 1 n n237 $end
$var wire 1 o n229 $end
$var wire 1 p n231 $end
$var wire 1 q n236 $end
$var wire 1 r n234 $end
$var wire 1 s n238 $end
$var wire 1 t n258 $end
$var wire 1 u n257 $end
$var wire 1 v n256 $end
$var wire 1 w n254 $end
$var wire 1 x n282 $end
$var wire 1 y n283 $end
$var wire 1 z n281 $end
$var wire 1 { n279 $end
$var wire 1 | n269 $end
$var wire 1 } n298 $end
$var wire 1 ~ n275 $end
$var wire 1 !! n325 $end
$var wire 1 "! n326 $end
$var wire 1 #! n208 $end
$var wire 1 $! n327 $end
$var wire 1 %! n328 $end
$var wire 1 &! n347 $end
$var wire 1 '! n348 $end
$var wire 1 (! n330 $end
$var wire 1 )! n349 $end
$var wire 1 *! n350 $end
$var wire 1 +! xenc20 $end
$var wire 1 ,! n356 $end
$var wire 1 -! n319 $end
$var wire 1 .! n359 $end
$var wire 1 /! n312 $end
$var wire 1 0! n296 $end
$var wire 1 1! n301 $end
$var wire 1 2! n361 $end
$var wire 1 3! n307 $end
$var wire 1 4! n313 $end
$var wire 1 5! n310 $end
$var wire 1 6! n383 $end
$var wire 1 7! n384 $end
$var wire 1 8! n385 $end
$var wire 1 9! n386 $end
$var wire 1 :! n390 $end
$var wire 1 ;! n391 $end
$var wire 1 <! n352 $end
$var wire 1 =! n392 $end
$var wire 1 >! n393 $end
$var wire 1 ?! n398 $end
$var wire 1 @! n399 $end
$var wire 1 A! n341 $end
$var wire 1 B! n402 $end
$var wire 1 C! n373 $end
$var wire 1 D! n355 $end
$var wire 1 E! n372 $end
$var wire 1 F! n370 $end
$var wire 1 G! n441 $end
$var wire 1 H! n442 $end
$var wire 1 I! xenc23 $end
$var wire 1 J! n444 $end
$var wire 1 K! n409 $end
$var wire 1 L! n445 $end
$var wire 1 M! n406 $end
$var wire 1 N! n408 $end
$var wire 1 O! n461 $end
$var wire 1 P! n462 $end
$var wire 1 Q! n429 $end
$var wire 1 R! n467 $end
$var wire 1 S! n468 $end
$var wire 1 T! n465 $end
$var wire 1 U! n417 $end
$var wire 1 V! n469 $end
$var wire 1 W! n224 $end
$var wire 1 X! n225 $end
$var wire 1 Y! n219 $end
$var wire 1 Z! n221 $end
$var wire 1 [! n357 $end
$var wire 1 \! n358 $end
$var wire 1 ]! n400 $end
$var wire 1 ^! n401 $end
$var wire 1 _! n463 $end
$var wire 1 `! n464 $end
$var wire 1 a! n297 $end
$var wire 1 b! n265 $end
$var wire 1 c! n276 $end
$var wire 1 d! n273 $end
$var wire 1 e! xenc27 $end
$var wire 1 f! xenc4 $end
$var wire 1 g! n289 $end
$var wire 1 h! n293 $end
$var wire 1 i! n295 $end
$var wire 1 j! n333 $end
$var wire 1 k! n466 $end
$var wire 1 l! n455 $end
$var wire 1 m! xenc15 $end
$var wire 1 n! n436 $end
$var wire 1 o! n457 $end
$var wire 1 p! n458 $end
$var wire 1 q! n250 $end
$var wire 1 r! n259 $end
$var wire 1 s! n248 $end
$var wire 1 t! n251 $end
$var wire 1 u! n290 $end
$var wire 1 v! n262 $end
$var wire 1 w! n264 $end
$var wire 1 x! n334 $end
$var wire 1 y! n335 $end
$var wire 1 z! n320 $end
$var wire 1 {! n321 $end
$var wire 1 |! n336 $end
$var wire 1 }! n291 $end
$var wire 1 ~! xenc10 $end
$var wire 1 !" n294 $end
$var wire 1 "" n292 $end
$var wire 1 #" n260 $end
$var wire 1 $" n261 $end
$var wire 1 %" n263 $end
$var wire 1 &" n419 $end
$var wire 1 '" n420 $end
$var wire 1 (" n421 $end
$var wire 1 )" n284 $end
$var wire 1 *" n285 $end
$var wire 1 +" n288 $end
$var wire 1 ," n286 $end
$var wire 1 -" n287 $end
$var wire 1 ." n277 $end
$var wire 1 /" n278 $end
$var wire 1 0" n280 $end
$var wire 1 1" xenc26 $end
$var wire 1 2" n253 $end
$var wire 1 3" n252 $end
$var wire 1 4" n255 $end
$var wire 1 5" n374 $end
$var wire 1 6" n375 $end
$var wire 1 7" n376 $end
$var wire 1 8" n449 $end
$var wire 1 9" n450 $end
$var wire 1 :" n430 $end
$var wire 1 ;" xenc7 $end
$var wire 1 <" n451 $end
$var wire 1 =" n377 $end
$var wire 1 >" n378 $end
$var wire 1 ?" n342 $end
$var wire 1 @" n343 $end
$var wire 1 A" n379 $end
$var wire 1 B" n246 $end
$var wire 1 C" xenc29 $end
$var wire 1 D" n249 $end
$var wire 1 E" n247 $end
$var wire 1 F" n232 $end
$var wire 1 G" n233 $end
$var wire 1 H" n235 $end
$var wire 1 I" n452 $end
$var wire 1 J" n453 $end
$var wire 1 K" n437 $end
$var wire 1 L" n438 $end
$var wire 1 M" n454 $end
$var wire 1 N" n422 $end
$var wire 1 O" n423 $end
$var wire 1 P" n424 $end
$var wire 1 Q" n473 $end
$var wire 1 R" n474 $end
$var wire 1 S" n475 $end
$var wire 1 T" n476 $end
$var wire 1 U" n477 $end
$var wire 1 V" n478 $end
$var wire 1 W" n308 $end
$var wire 1 X" n309 $end
$var wire 1 Y" n311 $end
$var wire 1 Z" n446 $end
$var wire 1 [" xenc12 $end
$var wire 1 \" n448 $end
$var wire 1 ]" n447 $end
$var wire 1 ^" n302 $end
$var wire 1 _" n299 $end
$var wire 1 `" n267 $end
$var wire 1 a" n270 $end
$var wire 1 b" n415 $end
$var wire 1 c" n418 $end
$var wire 1 d" n244 $end
$var wire 1 e" n266 $end
$var wire 1 f" n242 $end
$var wire 1 g" n245 $end
$var wire 1 h" n351 $end
$var wire 1 i" xenc13 $end
$var wire 1 j" n214 $end
$var wire 1 k" n353 $end
$var wire 1 l" n354 $end
$var wire 1 m" n329 $end
$var wire 1 n" n212 $end
$var wire 1 o" n331 $end
$var wire 1 p" n332 $end
$var wire 1 q" n394 $end
$var wire 1 r" n395 $end
$var wire 1 s" n216 $end
$var wire 1 t" n396 $end
$var wire 1 u" n397 $end
$var wire 1 v" n435 $end
$var wire 1 w" n367 $end
$var wire 1 x" n403 $end
$var wire 1 y" n364 $end
$var wire 1 z" n366 $end
$var wire 1 {" n318 $end
$var wire 1 |" n204 $end
$var wire 1 }" xenc22 $end
$var wire 1 ~" n340 $end
$var wire 1 !# xenc11 $end
$var wire 1 "# n428 $end
$var wire 1 ## n360 $end
$var wire 1 $# n306 $end
$var wire 1 %# xenc24 $end
$var wire 1 &# n316 $end
$var wire 1 '# n315 $end
$var wire 1 (# n317 $end
$var wire 1 )# n404 $end
$var wire 1 *# n405 $end
$var wire 1 +# n407 $end
$var wire 1 ,# xenc19 $end
$var wire 1 -# n381 $end
$var wire 1 .# n380 $end
$var wire 1 /# n382 $end
$var wire 1 0# n337 $end
$var wire 1 1# xenc2 $end
$var wire 1 2# n339 $end
$var wire 1 3# n338 $end
$var wire 1 4# n368 $end
$var wire 1 5# n369 $end
$var wire 1 6# n371 $end
$var wire 1 7# n271 $end
$var wire 1 8# n272 $end
$var wire 1 9# n274 $end
$var wire 1 :# n387 $end
$var wire 1 ;# xenc5 $end
$var wire 1 <# n389 $end
$var wire 1 =# n388 $end
$var wire 1 ># n344 $end
$var wire 1 ?# n345 $end
$var wire 1 @# n346 $end
$var wire 1 A# n322 $end
$var wire 1 B# n323 $end
$var wire 1 C# n209 $end
$var wire 1 D# n210 $end
$var wire 1 E# xenc6 $end
$var wire 1 F# n324 $end
$var wire 1 G# n300 $end
$var wire 1 H# n432 $end
$var wire 1 I# n433 $end
$var wire 1 J# n434 $end
$var wire 1 K# n268 $end
$var wire 1 L# n470 $end
$var wire 1 M# n471 $end
$var wire 1 N# n472 $end
$var wire 1 O# n314 $end
$var wire 1 P# n240 $end
$var wire 1 Q# n241 $end
$var wire 1 R# n243 $end
$var wire 1 S# n226 $end
$var wire 1 T# n227 $end
$var wire 1 U# n228 $end
$var wire 1 V# n425 $end
$var wire 1 W# n426 $end
$var wire 1 X# n427 $end
$var wire 1 Y# n362 $end
$var wire 1 Z# n363 $end
$var wire 1 [# n365 $end
$var wire 1 \# xenc16 $end
$var wire 1 ]# n414 $end
$var wire 1 ^# n412 $end
$var wire 1 _# n413 $end
$var wire 1 `# n416 $end
$var wire 1 a# xenc14 $end
$var wire 1 b# n304 $end
$var wire 1 c# n303 $end
$var wire 1 d# n305 $end
$var wire 1 e# n207 $end
$var wire 1 f# n460 $end
$var wire 1 g# n481 $end
$var wire 1 h# n482 $end
$var wire 1 i# xenc25 $end
$var wire 1 j# n480 $end
$var wire 1 k# n456 $end
$var wire 1 l# n479 $end
$var wire 1 m# n220 $end
$var wire 1 n# xenc28 $end
$var wire 1 o# n485 $end
$var wire 1 p# xenc3 $end
$var wire 1 q# n486 $end
$var wire 1 r# n459 $end
$var wire 1 s# n440 $end
$var wire 1 t# n483 $end
$var wire 1 u# n484 $end
$var wire 1 v# xenc1 $end
$var wire 1 w# n218 $end
$var wire 1 x# n439 $end
$var wire 1 y# xenc9 $end
$var wire 1 z# xenc18 $end
$var wire 1 {# n410 $end
$var wire 1 |# n202 $end
$var wire 1 }# n411 $end
$var wire 1 ~# n431 $end
$var wire 1 !$ n443 $end
$var wire 1 "$ n213 $end
$var wire 1 #$ xenc30 $end
$var wire 1 $$ n211 $end
$var wire 1 %$ xenc17 $end
$var wire 1 &$ n215 $end
$var wire 1 '$ n487 $end
$var wire 1 ($ xenc21 $end
$upscope $end
$upscope $end
$enddefinitions $end
#0
$dumpvars
b0 !
b0 "
b1010111100000000101100100111010 #
03
02
01
00
0/
0.
0-
0,
0+
0*
0)
0(
0'
0&
0%
0$
0d
0e
0f
0g
1h
1i
0j
0k
1l
1m
0n
0o
1p
0q
0r
0s
0t
0u
0v
0w
0x
0y
0z
0{
1|
0}
1~
0!!
0"!
0#!
0$!
0%!
0&!
0'!
0(!
0)!
0*!
0+!
1,!
1-!
0.!
0/!
00!
11!
02!
13!
04!
05!
06!
07!
08!
09!
0:!
0;!
0<!
0=!
0>!
0?!
1@!
1A!
0B!
0C!
0D!
0E!
0F!
1G!
1H!
0I!
1J!
1K!
1L!
0M!
1N!
0O!
1P!
1Q!
0R!
0S!
0T!
1U!
0V!
0W!
0X!
1Y!
0Z!
0[!
0\!
0]!
0^!
0_!
0`!
0a!
0b!
1c!
0d!
0e!
1f!
0g!
0h!
0i!
1j!
0k!
1l!
0m!
0n!
0o!
0p!
0q!
1r!
0s!
0t!
1u!
0v!
0w!
1x!
1y!
1z!
0{!
0|!
1}!
1~!
0!"
1""
1#"
1$"
0%"
1&"
1'"
0("
1)"
1*"
0+"
0,"
0-"
1."
1/"
00"
11"
12"
13"
04"
15"
16"
07"
18"
19"
1:"
0;"
0<"
1="
1>"
1?"
0@"
0A"
1B"
1C"
0D"
1E"
1F"
1G"
0H"
1I"
1J"
1K"
1L"
0M"
1N"
1O"
0P"
1Q"
1R"
0S"
1T"
1U"
0V"
1W"
1X"
0Y"
1Z"
1["
0\"
1]"
1^"
0_"
0`"
1a"
0b"
1c"
1d"
0e"
0f"
1g"
1h"
0i"
0j"
1k"
1l"
1m"
0n"
0o"
0p"
1q"
0r"
0s"
1t"
1u"
1v"
0w"
1x"
0y"
0z"
0{"
0|"
0}"
0~"
0!#
0"#
0##
1$#
1%#
1&#
1'#
0(#
1)#
1*#
0+#
1,#
1-#
1.#
0/#
10#
11#
02#
13#
14#
15#
06#
17#
18#
09#
1:#
1;#
0<#
1=#
1>#
1?#
0@#
1A#
1B#
1C#
1D#
0E#
0F#
0G#
1H#
1I#
0J#
0K#
1L#
1M#
0N#
1O#
1P#
1Q#
0R#
1S#
1T#
0U#
1V#
1W#
0X#
1Y#
1Z#
0[#
1\#
1]#
0^#
1_#
0`#
1a#
1b#
1c#
0d#
1e#
0f#
1g#
0h#
1i#
0j#
0k#
1l#
1m#
0n#
1o#
0p#
0q#
1r#
0s#
1t#
0u#
1v#
0w#
1x#
0y#
0z#
0{#
1|#
1}#
0~#
0!$
1"$
0#$
1$$
0%$
1&$
1'$
0($
0c
1b
0a
1`
1_
1^
0]
0\
1[
0Z
0Y
1X
1W
0V
1U
0T
0S
0R
0Q
0P
0O
0N
0M
1L
1K
1J
1I
0H
1G
0F
1E
0D
0C
0B
0A
0@
0?
0>
0=
0<
0;
0:
09
08
07
06
05
04
$end
#10000
b101001 !
b1111010 "
1B
1@
1?
1>
1=
1;
10
12
0'$
0&$
0"$
18
1{!
1@"
19!
1~#
1;"
0g#
16
15!
1F!
1v!
1M!
0t#
1O!
1S"
0L!
0u!
1B!
1.!
1f#
1"#
1!#
16!
1~"
1}"
1{"
1#$
1-
1.
1($
1/
1|"
1e
1"!
1'!
1;!
1s#
10!
1e!
1!"
1D!
1+!
17"
1x
10"
1?!
1("
0Q!
1<"
09"
0J!
1\"
0H!
0;!
0A!
1A"
0>"
1\!
05"
14!
1Y"
0X"
0c!
19#
1(
0-!
1|!
0y!
1i!
0}!
1w!
1%"
0$"
1t!
1D"
1g!
1-"
1w#
0t"
1J#
1(!
1#!
1E#
1*
1+
1n"
1y#
0q"
0($
0/
1)
0j!
0f!
1u!
0r!
0|"
0e
0,!
0.!
1a!
0"!
17!
1P"
0O"
1^!
0&"
1E!
16#
05#
0$#
1d#
0'!
0@!
0B!
1##
0#!
0E#
1b!
0#"
00!
0e!
1}!
0w!
1#"
1-!
0|!
1y!
0i!
0!"
0*
1u
14"
1s"
1z#
0k"
1<#
1%$
1,
0h"
0.
1'
1j!
1f!
1|"
1e
0u!
0+
1/!
0W"
0D!
0+!
15"
04!
1W"
1A!
0A"
1>"
0\!
07"
0(!
0n"
0y#
1,!
1"!
1.!
0x
00"
1*
0g!
0-"
1j"
1o"
1@#
0m"
0#$
0-
0)
0(
1#!
1E#
0%$
0,
1+
1n"
1y#
1%$
1,
#20000
b10001 !
b10001 "
1C
13
1j#
0B
02
1t#
1g#
0@
00
0M!
0~#
0;"
19"
1J!
0\"
0>
1&$
05!
1X"
1c!
09#
0@"
1k"
0<#
0=
1"$
0v!
1$"
0t!
0D"
0{!
0o"
0@#
08
09!
1O"
0^!
1&"
0E!
06#
15#
1$#
0d#
17
1]!
0'"
1E!
16#
05#
0$#
1d#
1h#
06
0F!
15#
1$#
0d#
0j#
06!
1B!
0##
1m"
0{"
1u!
1r!
1#$
1-
1h"
0~"
0}"
0.!
0a!
1.
1H!
0"#
0!#
1L!
0O!
0S"
1Q!
0<"
0?!
0("
1'"
0E!
06#
07!
0P"
0b!
0%"
10!
1e!
1!"
0"!
0j"
0u
04"
0|"
0e
0n"
0y#
0/!
0Y"
1D!
1+!
17"
0-!
1|!
00!
0e!
0!"
0%$
0,
0*
0'
0#$
0-
0#!
0E#
0A!
1A"
0B!
0D!
0+!
07"
1"!
0+
1|"
1e
1*
1#!
1E#
1-!
0|!
0|"
0e
1+
0*
#30000
b10000001 !
b11100 "
0C
03
0h#
1A
11
1_!
1@
10
1!$
1I!
07
0!$
0I!
0]!
0_!
14
1_"
0}#
1{#
1w"
1[#
1C!
16#
12!
1@!
0f#
0s#
1A!
0A"
03!
1d#
1D!
1+!
17"
0-!
1|!
1/!
1Y"
0"!
0w#
1t"
0J#
1q"
1($
1/
0#!
0E#
10!
1e!
1!"
1|"
1e
1*
1g!
1-"
0+
0s"
0z#
0.
1)
#50000
b1000100 !
b111011 "
1C
13
1q#
1p#
1B
12
1b"
0A
01
1}#
0{#
0w"
0[#
1>
0&$
0g"
1R#
0;
00
02
03
1'$
1&$
19
1*!
1/#
1>!
1X#
0L"
1M"
15
1d!
1`"
0b#
0|
1K#
1f"
0Q#
1o
1y"
1u#
0o#
04
0_"
1g"
0R#
1Q#
0o
0b"
0q#
0p#
02!
1O!
1S"
0x"
1}
1##
1a!
0v"
1:!
1&!
0($
0/
1e"
1k!
1N#
0G!
1\"
1q!
1D"
1(!
1<!
1i"
1r"
1b!
1%"
0/!
0Y"
0Q!
1<"
13!
0d#
1b#
1|
0K#
0f"
1/!
1Y"
0~
19#
08#
0d"
1R#
0e"
1;!
0W#
18!
1P"
1x
10"
1s"
1z#
1j"
1n"
1y#
1u
14"
17!
0N"
1^!
1("
1'!
0-#
0?"
1A"
0@!
1'
1%$
1,
1#$
1-
1.
1(
0<!
0i"
16!
0b!
0%"
0x
00"
0'!
1-#
1?"
0A"
0j"
0A!
1A"
1"!
0#$
0-
0(
1#!
1E#
1+
#70000
b10001001 !
b11111111 "
1A
0c"
1`#
0r#
1=
1s!
0E"
0C"
0l
1U#
1%!
12#
03#
01#
0z!
0x!
1i!
0}!
1w!
1%"
1<
1r
1g
1(#
0&#
1+"
0)"
1z
10"
1;
10
11
12
13
0'$
0&$
0$$
0"$
0k"
1<#
0C#
1F#
0B#
1f
0'#
0%#
09
0g
1'#
1%#
0%!
02#
13#
11#
1z!
1x!
0i!
1}!
0w!
0%"
0*!
0/#
0>!
0X#
1W#
08!
1N"
0^!
0("
1L"
0M"
1r#
18
1,"
0*"
1{!
0y!
1i!
0}!
1w!
1%"
1@"
0>"
1\!
05"
14!
0W"
0c!
07#
19!
0O"
1^!
1("
1~#
1;"
09"
0J!
0Z"
0N!
1+#
1p!
0g#
05
0r
0s!
1E"
1C"
1l
0U#
0d!
18#
0`"
0y"
1c"
0`#
0u#
1o#
14
0p
1U#
1_"
0g"
0P#
1o
0T#
1W!
1Z!
0h
1b"
0}#
1{#
1w"
1[#
1q#
1p#
0m#
1n#
1$
0i
0C!
06#
1e"
12!
0O!
0S"
1x"
0}
0##
1f#
0l!
0H!
0L!
1"#
1!#
0,!
1.!
1~"
1}"
1v"
0:!
0&!
0e#
0h"
1#$
1-
0%$
0,
0.
1($
1/
1d
1y
0j!
0f!
0u!
1{"
1s#
1V!
0K!
0)#
1z"
0Y#
01!
1G#
0a"
1K#
1w#
0t"
1J#
0I#
1=!
1X#
0W#
18!
0N"
0|"
0e
1&#
0+"
1)"
1x
0."
1v
03"
01"
1q
1H"
0g!
0-"
1*"
0z
1."
0v
13"
11"
0q
0H"
1j"
1o"
1@#
0?#
1$!
12#
03#
01#
0z!
0x!
0+
0(!
1?#
0$!
02#
13#
11#
1z!
1x!
1<!
1i"
0=#
0;#
1)!
1/#
0r"
1I#
0=!
0X#
1W#
08!
1N"
0"!
00!
0e!
1}!
0w!
0%"
1-!
0|!
1y!
0i!
0!"
0;!
07!
0P"
1O"
0^!
0("
1n!
0/!
1W"
1c!
17#
1d"
1P#
0o
1T#
0W!
0Z!
1m#
0n#
0$
1h
1~
09#
1C!
16#
1Q!
0<"
19"
1J!
1Z"
1N!
1)#
0z"
1Y#
11!
0G#
1a"
0K#
03!
1d#
1/!
0W"
0c!
19#
1H!
1L!
1;!
1b!
1%"
0m
1%
1r"
0I#
1=!
1X#
0W#
18!
1P"
0O"
1^!
1("
1'!
0-#
0?"
0="
1j!
1f!
1|"
1e
0&#
1+"
1-"
0*"
1z
0."
1v
03"
01"
1q
1H"
1u!
0#!
0E#
1B#
0f
0(#
1&#
0+"
0-"
1*"
0z
1."
0v
13"
11"
0q
0H"
0j"
0o"
0@#
1&!
0n"
0y#
1C#
0F#
0y
0)
0O#
0q"
1:!
06!
0($
0/
0'!
1-#
1?"
1="
0<!
0i"
1=#
1;#
0)!
0/#
0s"
0z#
1k"
0<#
1)
1(
1e#
1%$
1,
0d
1(!
1n
1k
1H"
1?!
0&"
1E!
04#
0$#
0c#
0a#
0|
1K#
17!
0N"
1'!
1A!
0A"
1>"
0\!
15"
04!
1W"
1c!
09#
1B!
1##
0~
19#
1&
1n"
1y#
0C#
1F#
1h"
1.
0&!
0e#
0%$
0,
0b!
0%"
0/!
0Y"
0D!
0+!
07"
1,!
0.!
0a!
1"!
1#!
1E#
0B#
1f
1(#
0&#
1+"
1-"
0*"
1z
0."
1v
03"
01"
1q
0F"
1X!
1Z!
0m#
1n#
1$
0h
1b!
1%"
1d
1y
1t
1s
1j
0%
1O#
0)
0&
0'
0(
0*
#80000
b10101011 !
b0 "
0C
03
0q#
0p#
0B
02
0b"
1g#
0A
01
0p!
1}#
0{#
0w"
0[#
0@
00
0_"
0~#
0;"
0?
1'$
09!
1O"
1t"
0J#
1I#
0=!
0X#
1W#
08!
1N"
0^!
1&"
0E!
14#
1$#
1c#
1a#
1|
0K#
0>
1&$
0@"
1g"
0R#
0=
1p
0U#
1"$
0{!
0<
1$$
0,"
1*"
0z
1."
0v
13"
11"
0q
1F"
0X!
0Z!
1m#
0n#
0$
1h
1C#
0F#
1B#
0f
0(#
1&#
0+"
0-"
1i
1:
16
0d
1e#
0y
0t
0s
0j
1%$
1,
0{"
0#$
0-
1m
0e"
0~"
0}"
0.
1q"
0:!
1@!
0B!
0##
1~
09#
1($
1/
0"#
0!#
02!
0C!
06#
1l!
0f#
0V!
0k!
0N#
1G!
0\"
1K!
0+#
0s#
0n!
13!
0d#
0;!
0b!
0%"
0A!
1A"
1s"
1z#
0q!
0D"
0n
0k
0H"
0|"
0e
1'
1(
1+
0u
04"
1.
0x
00"
0r"
0w#
0?!
0("
07!
0P"
0'!
1A!
0A"
0($
0/
0s"
0z#
0(
0'
0.
0"!
0(!
0n"
0y#
0#!
0E#
0+
0%$
0,
#90000
b110100 !
b10010 "
1B
12
1b"
0t#
0g#
1?
0'$
1F!
19!
0u"
1J#
0;
02
1'$
0:
1u"
0J#
19
1>!
1X#
08
09!
1g#
17
1]!
0l#
0i#
04
0b"
1k#
1m!
1V"
0@!
1:!
1B!
1O!
1S"
0Q!
1<"
1D!
1+!
17"
1<!
1i"
0A!
1A"
1n!
1r"
1"!
1j"
0-!
1|!
1;!
0W#
18!
1P"
0<!
0i"
16!
1|"
1e
1#$
1-
1#!
1E#
1s"
1z#
1.
1+
1*
1'!
0j"
0#$
0-
1(!
1n"
1y#
1%$
1,
#100000
b10001 !
b100000 "
0B
1t#
1l#
1i#
0?
0F!
0]!
0>!
0X#
1W#
08!
0P"
1>
15!
1[!
06"
14!
1Y"
0X"
0c!
19#
1*!
1/#
0-#
0?"
0="
1\!
05"
1;
0&$
0k"
1<#
09
0*!
0/#
1-#
1?"
1="
0\!
15"
06
05!
1X"
1c!
09#
0h"
0.
0,!
1.!
0:!
06!
1@!
0B!
0k#
0m!
0V"
0O!
0S"
1Q!
0<"
0n!
0D!
0+!
07"
16"
04!
0Y"
1A!
0A"
0'!
1<!
1i"
0=#
0;#
1)!
1/#
10!
1e!
1!"
1g!
1-"
1&!
0"!
0.!
0r"
0;!
0<!
0i"
1=#
1;#
0)!
0/#
0s"
0z#
1k"
0<#
00!
0e!
0!"
0#!
0E#
1)
0+
0g!
0-"
1h"
1.
0&!
0(!
0)
0n"
0y#
0%$
0,
#110000
b1010101 !
b10101010 "
1B
12
0l#
0i#
1@
10
1!$
1I!
1<
1{
0$$
19
1g
1(#
0&#
1+"
1-"
1*!
1/#
0L"
1M"
15
1r
1d!
1y"
0o#
1k!
1N#
0x"
1a!
1s
1j
0v"
1&!
1d
0O#
1%$
1,
1y
0H!
1k#
1m!
1V"
1n!
0J"
0:"
1<"
17!
1P"
1(
1)
0*
1(!
1&
1b!
1%"
1C!
16#
0G!
1\"
0]"
0["
0N!
1+#
07!
0P"
0L!
1D!
1+!
17"
06"
14!
1Y"
1x
10"
0/"
1v
14"
1n"
1y#
0C#
1F#
1"#
1!#
1;!
0e#
0%$
0,
0(
1t
1-!
0|!
1.!
1?!
1("
0A!
1A"
10!
1e!
1!"
0|"
0e
1&#
0+"
0-"
1'
1+
1<!
1i"
1j"
1*
1O#
1g!
1-"
1"!
1#!
1E#
0B#
1f
0'#
0%#
1+"
0)"
1z
0."
1#$
1-
0d
0y
0O#
0+
0)
1(
0*
#120000
b10000000 !
b10000000 "
0B
02
1o#
1l#
1i#
0@
00
0!$
0I!
1]"
1["
1N!
0+#
0y"
1L"
0M"
1J"
1:"
0<"
0>
1&$
0[!
16"
04!
0Y"
0d!
0*!
0/#
0;
1$$
1C#
0F#
1B#
0f
1'#
1%#
0+"
1)"
0z
1."
09
0g
0(#
07
0{
1/"
0v
04"
05
0r
14
0i
1%
0s
0j
0t
1O#
1e#
1%$
1,
0&!
0a!
1,!
0.!
0.
0"#
0!#
1v"
1x"
1H!
1L!
0k#
0m!
0V"
0k!
0N#
1G!
0\"
0n!
0?!
0("
0C!
06#
0;!
00!
0e!
0!"
0-!
1|!
0b!
0%"
0(!
1+
1)
0'
0&
0n"
0y#
0x
00"
1|"
1e
0g!
0-"
0<!
0i"
0D!
0+!
07"
1A!
0A"
0"!
1-!
0|!
0j"
0)
1*
0(
0%$
0,
0#$
0-
0|"
0e
0#!
0E#
0+
0*
#125000
b11111010 !
b0 "
0<
1i
1:
18
17
16
15
0%
#135000
b1000000 !
b100000 "
1>
15!
1[!
1d!
1@"
0g"
1R#
0l"
1<#
0:
1l"
0<#
08
0@"
07
0[!
06
05!
04
1g"
0R#
1a!
1b!
1%"
1x
10"
1(
#145000
b100100 !
b10010010 "
1B
0o#
1?
1`"
0>
0d!
1<
1r
19
1g
1(#
1>!
1X#
16
1w
1F!
0t#
05
0r
0`"
1o#
1O!
1S"
1B!
1t
1:!
1d
0a!
0b!
0%"
1*
1<!
1i"
1'
1D!
1+!
17"
0Q!
1<"
1;!
0W#
18!
1P"
0-!
1|!
1j"
0x
00"
0(
1#$
1-
1|"
1e
0&#
1+"
1-"
0<!
0i"
16!
1'!
0j"
0*
0O#
1)
0#$
0-
1(!
1n"
1y#
1%$
1,
#155000
b0 !
b1 "
1C
1j#
0B
1t#
0?
0F!
0>!
0X#
1W#
08!
0P"
0<
0w
0g
0(#
1&#
0+"
0-"
09
06
0j#
0d
1O#
0t
0:!
06!
0B!
0O!
0S"
1Q!
0<"
0D!
0+!
07"
0'!
1<!
1i"
0'
0)
1*
1j"
0(!
1-!
0|!
0;!
0<!
0i"
0|"
0e
0n"
0y#
1#$
1-
0%$
0,
0*
0j"
0#$
0-
#165000
b1010111100000000101100100101010 #
b0 "
0C
0_
0f!
1g!
1-"
1)
