lockednetlistsimulation/64xor/lower_part_or_ripple_carry_adder/sim/lower_part_or_ripple_carry_adder32_gatesim.vcd
$date
	Mon Oct  5 21:42:21 2020
$end
$version
	ModelSim Version 6.6d
$end
$timescale
	1ps
$end
$scope module lower_part_or_ripple_carry_adder32_tb $end
$var reg 32 ! add1_i [31:0] $end
$var reg 32 " add2_i [31:0] $end
$var reg 64 # keyinput [63:0] $end
$var wire 1 $ result_o [32] $end
$var wire 1 % result_o [31] $end
$var wire 1 & result_o [30] $end
$var wire 1 ' result_o [29] $end
$var wire 1 ( result_o [28] $end
$var wire 1 ) result_o [27] $end
$var wire 1 * result_o [26] $end
$var wire 1 + result_o [25] $end
$var wire 1 , result_o [24] $end
$var wire 1 - result_o [23] $end
$var wire 1 . result_o [22] $end
$var wire 1 / result_o [21] $end
$var wire 1 0 result_o [20] $end
$var wire 1 1 result_o [19] $end
$var wire 1 2 result_o [18] $end
$var wire 1 3 result_o [17] $end
$var wire 1 4 result_o [16] $end
$var wire 1 5 result_o [15] $end
$var wire 1 6 result_o [14] $end
$var wire 1 7 result_o [13] $end
$var wire 1 8 result_o [12] $end
$var wire 1 9 result_o [11] $end
$var wire 1 : result_o [10] $end
$var wire 1 ; result_o [9] $end
$var wire 1 < result_o [8] $end
$var wire 1 = result_o [7] $end
$var wire 1 > result_o [6] $end
$var wire 1 ? result_o [5] $end
$var wire 1 @ result_o [4] $end
$var wire 1 A result_o [3] $end
$var wire 1 B result_o [2] $end
$var wire 1 C result_o [1] $end
$var wire 1 D result_o [0] $end
$scope module loarca $end
$var wire 1 E add1_i [31] $end
$var wire 1 F add1_i [30] $end
$var wire 1 G add1_i [29] $end
$var wire 1 H add1_i [28] $end
$var wire 1 I add1_i [27] $end
$var wire 1 J add1_i [26] $end
$var wire 1 K add1_i [25] $end
$var wire 1 L add1_i [24] $end
$var wire 1 M add1_i [23] $end
$var wire 1 N add1_i [22] $end
$var wire 1 O add1_i [21] $end
$var wire 1 P add1_i [20] $end
$var wire 1 Q add1_i [19] $end
$var wire 1 R add1_i [18] $end
$var wire 1 S add1_i [17] $end
$var wire 1 T add1_i [16] $end
$var wire 1 U add1_i [15] $end
$var wire 1 V add1_i [14] $end
$var wire 1 W add1_i [13] $end
$var wire 1 X add1_i [12] $end
$var wire 1 Y add1_i [11] $end
$var wire 1 Z add1_i [10] $end
$var wire 1 [ add1_i [9] $end
$var wire 1 \ add1_i [8] $end
$var wire 1 ] add1_i [7] $end
$var wire 1 ^ add1_i [6] $end
$var wire 1 _ add1_i [5] $end
$var wire 1 ` add1_i [4] $end
$var wire 1 a add1_i [3] $end
$var wire 1 b add1_i [2] $end
$var wire 1 c add1_i [1] $end
$var wire 1 d add1_i [0] $end
$var wire 1 e add2_i [31] $end
$var wire 1 f add2_i [30] $end
$var wire 1 g add2_i [29] $end
$var wire 1 h add2_i [28] $end
$var wire 1 i add2_i [27] $end
$var wire 1 j add2_i [26] $end
$var wire 1 k add2_i [25] $end
$var wire 1 l add2_i [24] $end
$var wire 1 m add2_i [23] $end
$var wire 1 n add2_i [22] $end
$var wire 1 o add2_i [21] $end
$var wire 1 p add2_i [20] $end
$var wire 1 q add2_i [19] $end
$var wire 1 r add2_i [18] $end
$var wire 1 s add2_i [17] $end
$var wire 1 t add2_i [16] $end
$var wire 1 u add2_i [15] $end
$var wire 1 v add2_i [14] $end
$var wire 1 w add2_i [13] $end
$var wire 1 x add2_i [12] $end
$var wire 1 y add2_i [11] $end
$var wire 1 z add2_i [10] $end
$var wire 1 { add2_i [9] $end
$var wire 1 | add2_i [8] $end
$var wire 1 } add2_i [7] $end
$var wire 1 ~ add2_i [6] $end
$var wire 1 !! add2_i [5] $end
$var wire 1 "! add2_i [4] $end
$var wire 1 #! add2_i [3] $end
$var wire 1 $! add2_i [2] $end
$var wire 1 %! add2_i [1] $end
$var wire 1 &! add2_i [0] $end
$var wire 1 '! keyinput [63] $end
$var wire 1 (! keyinput [62] $end
$var wire 1 )! keyinput [61] $end
$var wire 1 *! keyinput [60] $end
$var wire 1 +! keyinput [59] $end
$var wire 1 ,! keyinput [58] $end
$var wire 1 -! keyinput [57] $end
$var wire 1 .! keyinput [56] $end
$var wire 1 /! keyinput [55] $end
$var wire 1 0! keyinput [54] $end
$var wire 1 1! keyinput [53] $end
$var wire 1 2! keyinput [52] $end
$var wire 1 3! keyinput [51] $end
$var wire 1 4! keyinput [50] $end
$var wire 1 5! keyinput [49] $end
$var wire 1 6! keyinput [48] $end
$var wire 1 7! keyinput [47] $end
$var wire 1 8! keyinput [46] $end
$var wire 1 9! keyinput [45] $end
$var wire 1 :! keyinput [44] $end
$var wire 1 ;! keyinput [43] $end
$var wire 1 <! keyinput [42] $end
$var wire 1 =! keyinput [41] $end
$var wire 1 >! keyinput [40] $end
$var wire 1 ?! keyinput [39] $end
$var wire 1 @! keyinput [38] $end
$var wire 1 A! keyinput [37] $end
$var wire 1 B! keyinput [36] $end
$var wire 1 C! keyinput [35] $end
$var wire 1 D! keyinput [34] $end
$var wire 1 E! keyinput [33] $end
$var wire 1 F! keyinput [32] $end
$var wire 1 G! keyinput [31] $end
$var wire 1 H! keyinput [30] $end
$var wire 1 I! keyinput [29] $end
$var wire 1 J! keyinput [28] $end
$var wire 1 K! keyinput [27] $end
$var wire 1 L! keyinput [26] $end
$var wire 1 M! keyinput [25] $end
$var wire 1 N! keyinput [24] $end
$var wire 1 O! keyinput [23] $end
$var wire 1 P! keyinput [22] $end
$var wire 1 Q! keyinput [21] $end
$var wire 1 R! keyinput [20] $end
$var wire 1 S! keyinput [19] $end
$var wire 1 T! keyinput [18] $end
$var wire 1 U! keyinput [17] $end
$var wire 1 V! keyinput [16] $end
$var wire 1 W! keyinput [15] $end
$var wire 1 X! keyinput [14] $end
$var wire 1 Y! keyinput [13] $end
$var wire 1 Z! keyinput [12] $end
$var wire 1 [! keyinput [11] $end
$var wire 1 \! keyinput [10] $end
$var wire 1 ]! keyinput [9] $end
$var wire 1 ^! keyinput [8] $end
$var wire 1 _! keyinput [7] $end
$var wire 1 `! keyinput [6] $end
$var wire 1 a! keyinput [5] $end
$var wire 1 b! keyinput [4] $end
$var wire 1 c! keyinput [3] $end
$var wire 1 d! keyinput [2] $end
$var wire 1 e! keyinput [1] $end
$var wire 1 f! keyinput [0] $end
$var wire 1 $ result_o [32] $end
$var wire 1 % result_o [31] $end
$var wire 1 & result_o [30] $end
$var wire 1 ' result_o [29] $end
$var wire 1 ( result_o [28] $end
$var wire 1 ) result_o [27] $end
$var wire 1 * result_o [26] $end
$var wire 1 + result_o [25] $end
$var wire 1 , result_o [24] $end
$var wire 1 - result_o [23] $end
$var wire 1 . result_o [22] $end
$var wire 1 / result_o [21] $end
$var wire 1 0 result_o [20] $end
$var wire 1 1 result_o [19] $end
$var wire 1 2 result_o [18] $end
$var wire 1 3 result_o [17] $end
$var wire 1 4 result_o [16] $end
$var wire 1 5 result_o [15] $end
$var wire 1 6 result_o [14] $end
$var wire 1 7 result_o [13] $end
$var wire 1 8 result_o [12] $end
$var wire 1 9 result_o [11] $end
$var wire 1 : result_o [10] $end
$var wire 1 ; result_o [9] $end
$var wire 1 < result_o [8] $end
$var wire 1 = result_o [7] $end
$var wire 1 > result_o [6] $end
$var wire 1 ? result_o [5] $end
$var wire 1 @ result_o [4] $end
$var wire 1 A result_o [3] $end
$var wire 1 B result_o [2] $end
$var wire 1 C result_o [1] $end
$var wire 1 D result_o [0] $end
$var wire 1 g! n101 $end
$var wire 1 h! n102 $end
$var wire 1 i! xenc63 $end
$var wire 1 j! n103 $end
$var wire 1 k! xenc42 $end
$var wire 1 l! xenc8 $end
$var wire 1 m! xenc37 $end
$var wire 1 n! n114 $end
$var wire 1 o! n118 $end
$var wire 1 p! xenc18 $end
$var wire 1 q! xenc48 $end
$var wire 1 r! n126 $end
$var wire 1 s! n130 $end
$var wire 1 t! n131 $end
$var wire 1 u! xenc5 $end
$var wire 1 v! n138 $end
$var wire 1 w! n142 $end
$var wire 1 x! n146 $end
$var wire 1 y! xenc29 $end
$var wire 1 z! n150 $end
$var wire 1 {! xenc6 $end
$var wire 1 |! xenc55 $end
$var wire 1 }! xenc39 $end
$var wire 1 ~! xenc27 $end
$var wire 1 !" xenc41 $end
$var wire 1 "" xenc24 $end
$var wire 1 #" xenc30 $end
$var wire 1 $" n170 $end
$var wire 1 %" n174 $end
$var wire 1 &" xenc53 $end
$var wire 1 '" n182 $end
$var wire 1 (" xenc16 $end
$var wire 1 )" n183 $end
$var wire 1 *" xenc12 $end
$var wire 1 +" xenc21 $end
$var wire 1 ," xenc28 $end
$var wire 1 -" n186 $end
$var wire 1 ." n190 $end
$var wire 1 /" xenc45 $end
$var wire 1 0" n199 $end
$var wire 1 1" n201 $end
$var wire 1 2" n198 $end
$var wire 1 3" xenc14 $end
$var wire 1 4" xenc36 $end
$var wire 1 5" xenc26 $end
$var wire 1 6" xenc0 $end
$var wire 1 7" n205 $end
$var wire 1 8" n200 $end
$var wire 1 9" n147 $end
$var wire 1 :" xenc4 $end
$var wire 1 ;" n135 $end
$var wire 1 <" xenc31 $end
$var wire 1 =" n134 $end
$var wire 1 >" n208 $end
$var wire 1 ?" n203 $end
$var wire 1 @" n202 $end
$var wire 1 A" n204 $end
$var wire 1 B" n115 $end
$var wire 1 C" xenc44 $end
$var wire 1 D" xenc47 $end
$var wire 1 E" n154 $end
$var wire 1 F" n123 $end
$var wire 1 G" xenc50 $end
$var wire 1 H" n122 $end
$var wire 1 I" xenc54 $end
$var wire 1 J" n211 $end
$var wire 1 K" n206 $end
$var wire 1 L" n207 $end
$var wire 1 M" n163 $end
$var wire 1 N" n162 $end
$var wire 1 O" xenc15 $end
$var wire 1 P" xenc51 $end
$var wire 1 Q" n151 $end
$var wire 1 R" xenc35 $end
$var wire 1 S" n213 $end
$var wire 1 T" n209 $end
$var wire 1 U" n210 $end
$var wire 1 V" xenc62 $end
$var wire 1 W" xenc2 $end
$var wire 1 X" xenc20 $end
$var wire 1 Y" xenc10 $end
$var wire 1 Z" n110 $end
$var wire 1 [" n159 $end
$var wire 1 \" n158 $end
$var wire 1 ]" n212 $end
$var wire 1 ^" n167 $end
$var wire 1 _" xenc1 $end
$var wire 1 `" n166 $end
$var wire 1 a" xenc56 $end
$var wire 1 b" n106 $end
$var wire 1 c" n214 $end
$var wire 1 d" n215 $end
$var wire 1 e" xenc58 $end
$var wire 1 f" n188 $end
$var wire 1 g" xenc40 $end
$var wire 1 h" xenc13 $end
$var wire 1 i" xenc34 $end
$var wire 1 j" n184 $end
$var wire 1 k" n175 $end
$var wire 1 l" n179 $end
$var wire 1 m" n178 $end
$var wire 1 n" xenc9 $end
$var wire 1 o" n196 $end
$var wire 1 p" xenc22 $end
$var wire 1 q" n193 $end
$var wire 1 r" n216 $end
$var wire 1 s" n191 $end
$var wire 1 t" xenc49 $end
$var wire 1 u" n180 $end
$var wire 1 v" xenc46 $end
$var wire 1 w" n104 $end
$var wire 1 x" n109 $end
$var wire 1 y" n108 $end
$var wire 1 z" n107 $end
$var wire 1 {" n197 $end
$var wire 1 |" n156 $end
$var wire 1 }" xenc3 $end
$var wire 1 ~" xenc7 $end
$var wire 1 !# n113 $end
$var wire 1 "# n111 $end
$var wire 1 ## n112 $end
$var wire 1 $# n195 $end
$var wire 1 %# xenc32 $end
$var wire 1 &# n189 $end
$var wire 1 '# n187 $end
$var wire 1 (# n160 $end
$var wire 1 )# n161 $end
$var wire 1 *# xenc60 $end
$var wire 1 +# n117 $end
$var wire 1 ,# n128 $end
$var wire 1 -# n152 $end
$var wire 1 .# n164 $end
$var wire 1 /# xenc52 $end
$var wire 1 0# n157 $end
$var wire 1 1# n155 $end
$var wire 1 2# n132 $end
$var wire 1 3# n133 $end
$var wire 1 4# n168 $end
$var wire 1 5# xenc59 $end
$var wire 1 6# n165 $end
$var wire 1 7# n120 $end
$var wire 1 8# n124 $end
$var wire 1 9# n136 $end
$var wire 1 :# n125 $end
$var wire 1 ;# n129 $end
$var wire 1 <# n127 $end
$var wire 1 =# n140 $end
$var wire 1 ># n141 $end
$var wire 1 ?# n139 $end
$var wire 1 @# n176 $end
$var wire 1 A# xenc43 $end
$var wire 1 B# n145 $end
$var wire 1 C# n143 $end
$var wire 1 D# n144 $end
$var wire 1 E# xenc17 $end
$var wire 1 F# xenc11 $end
$var wire 1 G# n171 $end
$var wire 1 H# n172 $end
$var wire 1 I# n181 $end
$var wire 1 J# n116 $end
$var wire 1 K# n148 $end
$var wire 1 L# xenc19 $end
$var wire 1 M# xenc23 $end
$var wire 1 N# n177 $end
$var wire 1 O# xenc57 $end
$var wire 1 P# xenc38 $end
$var wire 1 Q# xenc25 $end
$var wire 1 R# n105 $end
$var wire 1 S# n121 $end
$var wire 1 T# n119 $end
$var wire 1 U# xenc33 $end
$var wire 1 V# xenc61 $end
$var wire 1 W# n169 $end
$var wire 1 X# n192 $end
$var wire 1 Y# n194 $end
$var wire 1 Z# n185 $end
$var wire 1 [# n137 $end
$var wire 1 \# n153 $end
$var wire 1 ]# n149 $end
$var wire 1 ^# n173 $end
$upscope $end
$upscope $end
$enddefinitions $end
#0
$dumpvars
b0 !
b0 "
b11001111011101111010101011011010010101110010101000001001111011 #
0D
0C
0B
0A
0@
0?
0>
0=
0<
0;
0:
09
08
07
06
05
04
03
02
01
00
0/
0.
0-
0,
0+
0*
0)
0(
0'
0&
0%
0$
0g!
0h!
0i!
0j!
0k!
0l!
0m!
0n!
0o!
0p!
0q!
0r!
0s!
0t!
0u!
0v!
0w!
0x!
0y!
0z!
0{!
0|!
0}!
0~!
0!"
0""
0#"
0$"
0%"
0&"
0'"
0("
0)"
0*"
0+"
0,"
0-"
0."
0/"
10"
11"
12"
03"
14"
05"
16"
17"
18"
09"
1:"
0;"
1<"
0="
1>"
1?"
1@"
1A"
0B"
1C"
0D"
0E"
0F"
1G"
0H"
0I"
1J"
1K"
1L"
0M"
0N"
0O"
1P"
0Q"
1R"
1S"
1T"
1U"
0V"
1W"
0X"
1Y"
0Z"
0["
0\"
1]"
0^"
1_"
0`"
0a"
0b"
1c"
1d"
0e"
1f"
0g"
0h"
0i"
1j"
0k"
0l"
0m"
0n"
1o"
1p"
1q"
0r"
0s"
0t"
1u"
1v"
1w"
1x"
1y"
0z"
1{"
1|"
1}"
1~"
1!#
0"#
1##
1$#
1%#
1&#
0'#
1(#
1)#
1*#
1+#
1,#
1-#
1.#
1/#
10#
01#
12#
13#
14#
15#
16#
17#
18#
19#
1:#
1;#
0<#
1=#
1>#
0?#
1@#
1A#
1B#
0C#
1D#
1E#
1F#
0G#
1H#
1I#
1J#
1K#
1L#
1M#
1N#
1O#
1P#
0Q#
1R#
1S#
0T#
1U#
1V#
1W#
1X#
0Y#
1Z#
1[#
1\#
1]#
1^#
1f!
1e!
0d!
1c!
1b!
1a!
1`!
0_!
0^!
1]!
0\!
0[!
0Z!
0Y!
0X!
1W!
0V!
1U!
0T!
1S!
0R!
0Q!
1P!
1O!
1N!
0M!
1L!
0K!
1J!
0I!
0H!
1G!
0F!
1E!
1D!
0C!
1B!
1A!
0@!
1?!
0>!
1=!
0<!
1;!
0:!
19!
18!
17!
16!
05!
14!
13!
12!
01!
10!
1/!
1.!
1-!
0,!
0+!
1*!
1)!
0(!
0'!
0&!
0%!
0$!
0#!
0"!
0!!
0~
0}
0|
0{
0z
0y
0x
0w
0v
0u
0t
0s
0r
0q
0p
0o
0n
0m
0l
0k
0j
0i
0h
0g
0f
0e
0d
0c
0b
0a
0`
0_
0^
0]
0\
0[
0Z
0Y
0X
0W
0V
0U
0T
0S
0R
0Q
0P
0O
0N
0M
0L
0K
0J
0I
0H
0G
0F
0E
$end
#10000
b101001101011110010010000110000 !
b1111010000110111001101010111100 "
1$!
1g"
1#!
1h"
1"!
1@
1!!
1?
1}
1n"
1{
1y
1x
1u
1t
1s
1q
1p
1k
1i
1h
1g
1f
1`
1_
1Z
1W
0d"
1T
0]"
1S
0K"
1R
0J"
1Q
0?"
1O
08"
1M
02"
1L
01"
1I
0A"
1G
0@"
0C"
0G"
0<"
04"
0:"
1E"
1\"
1N"
0_"
1m"
1."
1&
1'
1(
1q!
1+
10
1|!
1""
14
15
1("
1+"
1h!
1=
1A
1B
1i!
19
18
13
11
1)
1:
1&"
1`"
1!"
0)#
1["
0|"
1}!
1{!
0\#
1x!
1v!
1="
1H"
1n!
0!#
1"#
0'
1X"
1p!
0S#
1T#
1u!
1-
1y!
0|!
0V#
1Q"
1~!
0""
0\"
0/#
11#
1#"
06#
1M"
0(#
17
1;
04
0N"
1D"
0-#
0}!
03
12
1z!
0]#
01
1/
1,
0q!
1O"
1Z"
1m!
0x"
1z"
1o!
0+#
1B"
0##
0)
00
0L#
19"
0D#
0~!
0E"
0!"
1)#
1""
0{!
1\#
02
0x!
0A#
1C#
0(
0n!
1!#
0"#
0~"
1"#
0&
1a"
1b"
1'
1I"
0y!
1|!
1V#
13
11
0/
1w!
1l!
1%
1.
#20000
b10001000000000011010001010110 !
b10001000100010010001100100011 "
1&!
1D
1%!
1C
0$!
0g"
0#!
0h"
0"!
0}
0n"
1|
0y
0x
1w
0N#
1k"
0u
0s
0q
1l
03#
1t!
0k
0i
1S#
0T#
0g
0f
1x"
0z"
1c
1b
1g"
0_
1^
1i"
1X
0T
1]"
0S
1(#
0["
1|"
1K"
0R
1J"
0Q
1-#
0Q"
1?"
0O
1D#
18"
0M
12"
0I
1A"
1H
0J#
0L"
0G
1##
1@"
1C"
1~"
0"#
0P"
0*#
1G"
14"
1:"
1A#
0C#
1E"
0z!
1]#
1N"
1/#
01#
1_"
1'"
1>
1&
0a"
0'
1q!
0O"
1J#
0+
0,
1s!
0|!
0""
05
07
1%"
0+"
1k!
0=
0A
1<
09
16
03
01
1+
1*#
1)
0b"
0`"
0D"
1!"
10
1L#
09"
1{!
0I"
0v!
0H"
0X"
1n!
1'
0Z"
0p!
0-
0w!
1|!
1""
0E"
0#"
16#
0M"
0l!
0%
14
0N"
0{!
13
11
0.
0q!
0m!
0&
0)
0|!
0!"
0""
01
03
#30000
b10000001000101100000100001110011 !
b11100110011100000000101111000 "
0&!
0D
0%!
1#!
1h"
1"!
1~
0{
0w
1N#
0k"
0t
1s
1r
1q
0p
1n
1m
0l
13#
0t!
1j
1i
1d
1D
0b
0g"
1_
0Z
1Y
0X
0W
1d"
1S
0K"
1R
0J"
1P
0>"
0H
1L"
1E
0S"
1b"
1P"
0R"
1\"
1N"
0m"
0'"
1-"
0."
0B
1q!
1*
1,
0s!
1-
1.
00
1|!
1~!
1""
04
17
0%"
0h!
1A
0i!
06
13
12
11
0+
1)
0:
1*"
0("
0&"
1!"
0)#
1["
0|"
1}!
00#
11#
1z!
0o!
1+#
0B"
1l!
1%
1(
0n!
10
0~!
1D"
0""
0\"
0/#
07
08
1+"
0;
19
0}!
10#
03
1E"
02
0'
1{!
0\#
1~!
12
0|!
0V#
1Q"
0K#
19"
0z!
1x!
01
1y!
00
1/
#35000
b100000001000000010000000010010 !
b11011110101011011011111011101111 "
1&!
1%!
1$!
1g"
0"!
1}
1n"
0|
1{
1z
1y
0Z#
1x
1w
1u
1t
0s
1)#
0["
1|"
1o
0B#
1C#
0n
1k
1f
1e
0R#
0d
0_
0^
0Y
1W
0d"
0S
1K"
0R
1J"
0P
1K#
09"
1>"
1O
08"
0L
11"
1G
0@"
0E
1S"
0b"
0C"
1<"
0:"
1R"
0N"
1m"
0-"
0%
0P#
1Q#
1&
1+
0.
0y!
1I"
1""
1/#
01#
14
15
17
1("
0+"
0v"
1)"
1:
1h!
0k!
1=
1B
0<
1i!
1'"
0I#
1l"
0@#
09
18
0D"
13
1w!
0/
1$
0*"
1Z#
1&"
0N#
1k"
0!"
1z!
0="
1n!
0l!
1R#
1%
1P#
0Q#
1'
0u!
10
0""
07
1%"
1+"
1v"
0)"
1.
0E"
0("
0m"
0M#
1;
0&"
1N#
08
0{!
1\#
0'"
1I#
0l"
1@#
19
16
03
0,
0$
1("
1m"
1M#
0k"
1|!
1V#
0Q"
17
0z!
11
0%"
1&"
0N#
1k"
18
07
1%"
00
#43000
b10001001010000111101111010101111 !
b11011010101011011011101010101101 "
0%!
0~
0i"
0z
0j
1d
1b
1a
0`
0@
1_
1]
0{"
1[
1Y#
1Z
1Y
1X
0W
1d"
1V
0H#
0c"
1U
0T"
1T
0]"
1S
0K"
0O
18"
1N
0=#
1?#
07"
1L
01"
1I
0A"
0G
1@"
1E
0S"
1b"
1C"
0G"
0<"
0w!
13"
1:"
1N"
0_"
0W"
0%"
0E#
1G#
0m"
1'"
0I#
1l"
1-"
1."
0h!
1t"
0q"
1s"
1r"
0}"
0*
0>
1j!
1e"
0f"
1/"
0i!
1*"
0Z#
0("
1m"
1V"
04#
1^"
0.#
1M"
0(#
1["
06
1!"
0x!
1B#
0C#
1v!
0[#
0.
1="
1H"
0n!
1l!
0R#
0%
0P#
1Q#
0'
1p!
0S#
1T#
1u!
0-
0U#
1;"
02#
1t!
1y!
0I"
1=#
0?#
1""
0N"
1\"
08
0+"
0v"
1)"
0u"
0;
0."
0%#
1'#
1k!
1<
1,"
0j"
0:
0'"
1I#
09
1}!
00#
11#
0!"
13
1w!
03"
1/
0="
1s!
0;#
1<#
1,
0q!
1O"
1$
1o!
0+#
1B"
0)
0+
15"
0u!
0v!
1[#
1.
0""
0~!
1D"
1("
0-"
0*"
1Z#
18
1E"
02
03
1-
1U#
0;"
12#
0t!
0,
1r!
0(
1n!
1'
1*
1="
0s!
1;#
0<#
1{!
0\#
1+"
1v"
19
0|!
0V#
1Q"
1+
05"
1u!
1,
0r!
1z!
01
10
0*
#53000
b10101011110011010001001000110100 !
b0 "
0&!
0$!
0#!
0!!
0}
1{"
0{
1q"
0s"
0r"
0y
0x
0w
1N#
0k"
1H#
0u
0t
0r
10#
01#
0q
1\#
0o
0m
0k
0i
1S#
0T#
0h
1+#
0B"
0f
0e
1R#
0d
0D
0c
0C
0a
0h"
1`
1@
0]
0n"
0Z
1f"
0Y
1j"
0)"
1u"
0l"
0V
1c"
0U
14#
0^"
1.#
0M"
1(#
0["
1T"
0S
1K"
1R
0J"
1Q
0-#
0?"
1M
02"
1K
1G
0@"
0C"
1s!
04"
0E"
1W"
1`"
1-"
1'"
0m"
1."
1%#
0'#
0=
0A
1%
1P#
0Q#
0&
1(
1q!
0O"
0-
0y!
1|!
1V#
1~!
0D"
1-#
0Q"
04
05
17
1E#
0G#
0+"
1h!
0e"
0/"
1}"
0j!
0."
1i!
09
0V"
1E"
0z!
12
11
0/
0o!
1)
0$
0,"
0&"
1*"
1#"
1v!
1-
14
1+"
07
0-"
0(
00
1;
0k!
0<
0*"
19
0+"
09
#63000
b0 !
b10010001101000101011001111000 "
1#!
1h"
1"!
1!!
1~
1i"
1{
0q"
1s"
1r"
1z
1x
0I#
1l"
1v
1r
00#
11#
1p
1o
1k
0;#
1<#
1h
0b
0g"
0`
0_
0[
0Y#
0X
0T
1]"
0R
1J"
0Q
1?"
0N
17"
0M
12"
0L
11"
0K
0I
1A"
0G
1@"
0E
1S"
0b"
1C"
1G"
0s!
1;#
0<#
1<"
14"
0w!
0E"
0\"
1_"
0'"
1I#
0l"
0t"
1q"
0s"
0r"
0B
1(
1y!
10
0~!
1D"
16
1:
1>
1A
1E"
02
1/
0`"
0}!
10#
01#
0.
0v!
0="
0H"
0n!
0l!
0%
0'
0p!
0u!
0-
1~!
0D"
0#"
04
0E"
12
0,
0q!
0)
0{!
0|!
01
#73000
b10001000100010100010001110111 !
b11101110101010100000000000000000 "
0#!
0h"
0"!
0@
0!!
0?
0~
0i"
0{
0z
0x
0v
1s
0r
1q
0p
1m
1j
1i
0h
1g
1f
1e
1d
1D
1c
1C
1b
1g"
1`
1@
1_
1?
1^
1i"
1Z
1V
0c"
1T
0]"
1P
0>"
1L
01"
1H
0L"
0P"
0<"
0R"
0_"
1%"
1."
1B
1%
1&
1'
0(
1q!
1*
1-
00
1|!
0~!
1""
0("
0h!
0A
0i!
08
13
02
11
1)
1`"
1z!
1="
1o!
1(
1u!
10
1#"
0;
14
1,
#83000
b1010101010101010101010101010101 !
b10101010101010101010101010101010 "
1%!
1#!
1h"
1!!
1}
1n"
1{
1y
1w
1u
0j
0f
0c
0_
1\
1X
1R
0J"
1N
07"
1J
00"
1F
0U"
0Y"
06"
1w!
1\"
1'"
1j!
0&
0*
15
17
1+"
1h!
1=
1A
1i!
19
1k!
1("
1}!
1.
1r!
1Z"
1m!
1*
1~!
18
1<
1;
12
1&
#93000
b10000000010100011001100001100000 !
b10000000100001101011101000111110 "
1$!
1"!
0}
0n"
1x
0I#
1l"
1r
00#
11#
0q
0o
0k
0i
0g
0d
0D
0b
0`
1_
0\
0Z
1Y
0V
1c"
1U
0T"
0R
1J"
0L
11"
0J
10"
0H
1L"
0F
1U"
1E
0S"
1b"
1Y"
1P"
16"
1<"
0\"
0W"
0%"
1-"
0."
0j!
0'
0q!
0+
0y!
0|!
0~!
1D"
0("
1m"
0=
1&"
0N#
1k"
08
1E"
02
01
0/
0)
0k!
0:
1*"
0Z#
06
1$"
0W#
0}!
10#
01#
0="
0r!
0o!
0Z"
1l!
0R#
0%
0P#
1Q#
0m!
0(
0*
0u!
1~!
0D"
05
05#
1^"
0.#
1M"
0+"
0v"
1)"
0u"
0<
1{!
07
1%"
16
1|!
0'"
1I#
09
0`"
1N"
0E"
12
0,
0&
1$
0{!
1!"
0)#
1["
0#"
1("
11
18
04
0""
1\"
0|!
01
1}!
00#
11#
03
0~!
1D"
1E"
02
1{!
1|!
11
#98000
b11111010110111000000011100100000 !
b110111000000100000010000 "
0%!
0C
0$!
0g"
0#!
0h"
0!!
0{
0x
0w
1N#
0k"
0u
1W#
0s
1)#
0["
1q
0\#
1p
0]#
1n
0>#
1?#
0e
1R#
0^
0i"
1\
1[
1Y#
1Z
0Y
0X
1u"
0l"
0U
1T"
0T
1.#
0M"
1]"
1R
0J"
1Q
0-#
1Q"
0K#
19"
0?"
1M
02"
1K
1I
0A"
1H
0L"
1G
0@"
1F
0U"
0Y"
0C"
0P"
0G"
1s!
04"
0E"
0z!
1]#
1x!
1_"
0N"
1W"
1'"
0m"
0-"
1."
1t"
1j!
0>
1%
1P#
0Q#
0.
13"
09#
1;"
0|!
0V#
1""
15
15#
0^"
17
0%"
0A
0B
06
13
01
1="
0$
1k!
1:
0*"
1Z#
0&"
0$"
0!"
1y!
0{!
1\#
1+
1H"
1o!
1n!
1Z"
1m!
1'
1(
1p!
1|!
1V#
1/
0""
05
07
1+"
1v"
0)"
1<
1u!
1,
0'"
19
03
11
1q!
1&
1)
0("
08
#106000
b1000000100101100010000001001000 !
b100000010010000100000010010110 "
1%!
1C
1$!
1g"
1}
1n"
0y
1v
0r
10#
01#
0p
0m
1g
0!#
1"#
1a
1h"
0_
0?
1^
1i"
0\
0[
0Y#
0Z
1W
0d"
1S
0K"
0Q
1-#
0Q"
1K#
09"
1?"
0N
17"
0K
0I
1A"
0H
1L"
0G
1@"
0E
1S"
0b"
1C"
1P"
1G"
0s!
0w!
1>#
0?#
1E"
1z!
0x!
1N"
1m"
0."
0h!
0t"
0j!
1>
1A
0'
1X"
0y"
1z"
0-
1~!
0D"
16
0+"
1=
1B
09
0E"
12
0Z"
1a"
0k!
0i!
0:
1&"
1!"
0y!
1.
03"
19#
0;"
0+
0H"
0o!
0n!
1!#
0"#
0l!
0%
1'
0X"
1y"
0z"
0(
0p!
1v!
0="
0/
1""
17
0;
0<
1b"
0m!
0&
1l!
13
0u!
1-
0q!
1Z"
0a"
0b"
1m!
0)
0,
1%
1&
0l!
0%
#116000
b10000001001000010000001001000 !
b10000001100100100100000010010110 "
1s
0)#
1["
0|"
0q
1p
0]#
0n
1m
0[#
1l
0g
1e
0S
1K"
0P
1>"
1O
08"
0M
12"
1H
0L"
0F
1U"
1Y"
0P"
14"
0:"
1R"
0N"
1%
0'
1,
0-
0U#
1;"
0.
00
0L#
19"
0D#
0|!
0""
0\"
0/#
11#
1D"
0}!
03
01
0A#
1C#
1="
0!"
1)#
0["
1|"
0z!
1]#
0v!
1[#
1o!
0Z"
0m!
1(
1-
1U#
0;"
10
1L#
09"
1D#
1""
1\"
1/#
01#
1u!
03#
1t!
1I"
0~!
1E"
1{!
02
1w!
0,
1s!
0D"
1}!
13
1x!
1A#
0C#
0="
0&
0u!
13#
0t!
0I"
1y!
1~!
0E"
1+
1.
1|!
11
0{!
12
1/
0w!
1,
0s!
0+
0.
0|!
01
#126000
b1 !
b11011110101011111011111011101111 "
1&!
1D
1#!
0"!
0@
1!!
1?
1~
1{
1z
1y
1x
1w
0N#
1k"
0v
1u
1t
1r
00#
11#
1q
0p
1o
0B#
1C#
0l
1k
1j
1i
1h
0+#
1B"
1f
1d
0a
0^
0W
1d"
0R
1J"
0O
18"
0H
1L"
1P"
1:"
0\"
0m"
1&
0(
1n!
1q!
1*
1+
0,
0y!
1I"
00
1|!
0~!
1D"
14
15
06
07
1%"
1("
1+"
1:
1h!
1i!
19
18
16
1E"
02
11
1w!
0/
1)
1'
0&"
1N#
0k"
0}!
10#
01#
0x!
1B#
0C#
0o!
1+#
0B"
1(
0n!
1y!
0I"
1~!
0D"
17
0%"
1.
1{!
0\#
1;
0|!
0V#
1Q"
06
0E"
12
0w!
1/
0'
0.
0{!
1\#
1z!
01
10
1|!
1V#
0Q"
0z!
11
00
