lockednetlistsimulation/partial_key_simulation_random/32xor/wallace_tree_multiplier/sim/traditional_multiplier8_gatesim.vcd
$date
	Thu Oct  8 15:26:19 2020
$end
$version
	ModelSim Version 6.6d
$end
$timescale
	1ps
$end
$scope module traditional_multiplier8_tb $end
$var reg 8 ! operand1_i [7:0] $end
$var reg 8 " operand2_i [7:0] $end
$var reg 32 # keyinput [31:0] $end
$var wire 1 $ result_o [15] $end
$var wire 1 % result_o [14] $end
$var wire 1 & result_o [13] $end
$var wire 1 ' result_o [12] $end
$var wire 1 ( result_o [11] $end
$var wire 1 ) result_o [10] $end
$var wire 1 * result_o [9] $end
$var wire 1 + result_o [8] $end
$var wire 1 , result_o [7] $end
$var wire 1 - result_o [6] $end
$var wire 1 . result_o [5] $end
$var wire 1 / result_o [4] $end
$var wire 1 0 result_o [3] $end
$var wire 1 1 result_o [2] $end
$var wire 1 2 result_o [1] $end
$var wire 1 3 result_o [0] $end
$scope module mul $end
$var wire 1 4 op1_i [7] $end
$var wire 1 5 op1_i [6] $end
$var wire 1 6 op1_i [5] $end
$var wire 1 7 op1_i [4] $end
$var wire 1 8 op1_i [3] $end
$var wire 1 9 op1_i [2] $end
$var wire 1 : op1_i [1] $end
$var wire 1 ; op1_i [0] $end
$var wire 1 < op2_i [7] $end
$var wire 1 = op2_i [6] $end
$var wire 1 > op2_i [5] $end
$var wire 1 ? op2_i [4] $end
$var wire 1 @ op2_i [3] $end
$var wire 1 A op2_i [2] $end
$var wire 1 B op2_i [1] $end
$var wire 1 C op2_i [0] $end
$var wire 1 D keyinput [31] $end
$var wire 1 E keyinput [30] $end
$var wire 1 F keyinput [29] $end
$var wire 1 G keyinput [28] $end
$var wire 1 H keyinput [27] $end
$var wire 1 I keyinput [26] $end
$var wire 1 J keyinput [25] $end
$var wire 1 K keyinput [24] $end
$var wire 1 L keyinput [23] $end
$var wire 1 M keyinput [22] $end
$var wire 1 N keyinput [21] $end
$var wire 1 O keyinput [20] $end
$var wire 1 P keyinput [19] $end
$var wire 1 Q keyinput [18] $end
$var wire 1 R keyinput [17] $end
$var wire 1 S keyinput [16] $end
$var wire 1 T keyinput [15] $end
$var wire 1 U keyinput [14] $end
$var wire 1 V keyinput [13] $end
$var wire 1 W keyinput [12] $end
$var wire 1 X keyinput [11] $end
$var wire 1 Y keyinput [10] $end
$var wire 1 Z keyinput [9] $end
$var wire 1 [ keyinput [8] $end
$var wire 1 \ keyinput [7] $end
$var wire 1 ] keyinput [6] $end
$var wire 1 ^ keyinput [5] $end
$var wire 1 _ keyinput [4] $end
$var wire 1 ` keyinput [3] $end
$var wire 1 a keyinput [2] $end
$var wire 1 b keyinput [1] $end
$var wire 1 c keyinput [0] $end
$var wire 1 $ product_o [15] $end
$var wire 1 % product_o [14] $end
$var wire 1 & product_o [13] $end
$var wire 1 ' product_o [12] $end
$var wire 1 ( product_o [11] $end
$var wire 1 ) product_o [10] $end
$var wire 1 * product_o [9] $end
$var wire 1 + product_o [8] $end
$var wire 1 , product_o [7] $end
$var wire 1 - product_o [6] $end
$var wire 1 . product_o [5] $end
$var wire 1 / product_o [4] $end
$var wire 1 0 product_o [3] $end
$var wire 1 1 product_o [2] $end
$var wire 1 2 product_o [1] $end
$var wire 1 3 product_o [0] $end
$var wire 1 d xenc5 $end
$var wire 1 e n143 $end
$var wire 1 f n144 $end
$var wire 1 g n145 $end
$var wire 1 h n146 $end
$var wire 1 i xenc15 $end
$var wire 1 j n148 $end
$var wire 1 k n149 $end
$var wire 1 l n150 $end
$var wire 1 m n151 $end
$var wire 1 n n152 $end
$var wire 1 o n153 $end
$var wire 1 p n157 $end
$var wire 1 q xenc17 $end
$var wire 1 r n160 $end
$var wire 1 s n161 $end
$var wire 1 t n162 $end
$var wire 1 u n163 $end
$var wire 1 v n185 $end
$var wire 1 w n178 $end
$var wire 1 x n184 $end
$var wire 1 y xenc14 $end
$var wire 1 z n182 $end
$var wire 1 { n171 $end
$var wire 1 | n172 $end
$var wire 1 } n183 $end
$var wire 1 ~ n177 $end
$var wire 1 !! n176 $end
$var wire 1 "! n193 $end
$var wire 1 #! n194 $end
$var wire 1 $! n218 $end
$var wire 1 %! n189 $end
$var wire 1 &! n223 $end
$var wire 1 '! n188 $end
$var wire 1 (! n207 $end
$var wire 1 )! n225 $end
$var wire 1 *! n205 $end
$var wire 1 +! n206 $end
$var wire 1 ,! n210 $end
$var wire 1 -! n211 $end
$var wire 1 .! n212 $end
$var wire 1 /! n213 $end
$var wire 1 0! n216 $end
$var wire 1 1! n217 $end
$var wire 1 2! n257 $end
$var wire 1 3! n231 $end
$var wire 1 4! n236 $end
$var wire 1 5! n237 $end
$var wire 1 6! n234 $end
$var wire 1 7! n240 $end
$var wire 1 8! n241 $end
$var wire 1 9! n229 $end
$var wire 1 :! n230 $end
$var wire 1 ;! n285 $end
$var wire 1 <! n286 $end
$var wire 1 =! n142 $end
$var wire 1 >! n290 $end
$var wire 1 ?! n291 $end
$var wire 1 @! n147 $end
$var wire 1 A! n310 $end
$var wire 1 B! xenc2 $end
$var wire 1 C! n156 $end
$var wire 1 D! n314 $end
$var wire 1 E! n315 $end
$var wire 1 F! n311 $end
$var wire 1 G! n318 $end
$var wire 1 H! n317 $end
$var wire 1 I! n309 $end
$var wire 1 J! n325 $end
$var wire 1 K! n326 $end
$var wire 1 L! n313 $end
$var wire 1 M! n301 $end
$var wire 1 N! n300 $end
$var wire 1 O! xenc16 $end
$var wire 1 P! n328 $end
$var wire 1 Q! n331 $end
$var wire 1 R! n332 $end
$var wire 1 S! n333 $end
$var wire 1 T! n336 $end
$var wire 1 U! n345 $end
$var wire 1 V! n346 $end
$var wire 1 W! n295 $end
$var wire 1 X! n294 $end
$var wire 1 Y! n296 $end
$var wire 1 Z! n297 $end
$var wire 1 [! n347 $end
$var wire 1 \! n348 $end
$var wire 1 ]! n351 $end
$var wire 1 ^! n352 $end
$var wire 1 _! n362 $end
$var wire 1 `! n358 $end
$var wire 1 a! n372 $end
$var wire 1 b! n373 $end
$var wire 1 c! n378 $end
$var wire 1 d! n379 $end
$var wire 1 e! n388 $end
$var wire 1 f! n389 $end
$var wire 1 g! n396 $end
$var wire 1 h! n397 $end
$var wire 1 i! n398 $end
$var wire 1 j! n399 $end
$var wire 1 k! xenc6 $end
$var wire 1 l! n409 $end
$var wire 1 m! n414 $end
$var wire 1 n! n415 $end
$var wire 1 o! n422 $end
$var wire 1 p! n423 $end
$var wire 1 q! xenc23 $end
$var wire 1 r! n433 $end
$var wire 1 s! n434 $end
$var wire 1 t! n435 $end
$var wire 1 u! n260 $end
$var wire 1 v! n261 $end
$var wire 1 w! n270 $end
$var wire 1 x! n271 $end
$var wire 1 y! n262 $end
$var wire 1 z! n449 $end
$var wire 1 {! n450 $end
$var wire 1 |! n432 $end
$var wire 1 }! n226 $end
$var wire 1 ~! n227 $end
$var wire 1 !" n228 $end
$var wire 1 "" n282 $end
$var wire 1 #" n283 $end
$var wire 1 $" n284 $end
$var wire 1 %" n287 $end
$var wire 1 &" n288 $end
$var wire 1 '" n289 $end
$var wire 1 (" n173 $end
$var wire 1 )" n174 $end
$var wire 1 *" n168 $end
$var wire 1 +" n175 $end
$var wire 1 ," n202 $end
$var wire 1 -" n203 $end
$var wire 1 ." n199 $end
$var wire 1 /" n204 $end
$var wire 1 0" n235 $end
$var wire 1 1" n312 $end
$var wire 1 2" n155 $end
$var wire 1 3" n263 $end
$var wire 1 4" n200 $end
$var wire 1 5" n201 $end
$var wire 1 6" n198 $end
$var wire 1 7" n302 $end
$var wire 1 8" xenc25 $end
$var wire 1 9" n303 $end
$var wire 1 :" n374 $end
$var wire 1 ;" n375 $end
$var wire 1 <" n292 $end
$var wire 1 =" n293 $end
$var wire 1 >" n298 $end
$var wire 1 ?" n299 $end
$var wire 1 @" n329 $end
$var wire 1 A" xenc27 $end
$var wire 1 B" n330 $end
$var wire 1 C" n195 $end
$var wire 1 D" n196 $end
$var wire 1 E" n197 $end
$var wire 1 F" xenc0 $end
$var wire 1 G" xenc20 $end
$var wire 1 H" n208 $end
$var wire 1 I" n209 $end
$var wire 1 J" n468 $end
$var wire 1 K" xenc10 $end
$var wire 1 L" n191 $end
$var wire 1 M" n192 $end
$var wire 1 N" xenc11 $end
$var wire 1 O" n233 $end
$var wire 1 P" n232 $end
$var wire 1 Q" n410 $end
$var wire 1 R" n411 $end
$var wire 1 S" n138 $end
$var wire 1 T" xenc4 $end
$var wire 1 U" n136 $end
$var wire 1 V" n140 $end
$var wire 1 W" n428 $end
$var wire 1 X" n429 $end
$var wire 1 Y" n395 $end
$var wire 1 Z" n125 $end
$var wire 1 [" n141 $end
$var wire 1 \" n341 $end
$var wire 1 ]" n342 $end
$var wire 1 ^" n320 $end
$var wire 1 _" n133 $end
$var wire 1 `" xenc24 $end
$var wire 1 a" n369 $end
$var wire 1 b" n344 $end
$var wire 1 c" n130 $end
$var wire 1 d" n392 $end
$var wire 1 e" n393 $end
$var wire 1 f" n371 $end
$var wire 1 g" n127 $end
$var wire 1 h" n323 $end
$var wire 1 i" n324 $end
$var wire 1 j" n305 $end
$var wire 1 k" n134 $end
$var wire 1 l" n406 $end
$var wire 1 m" n407 $end
$var wire 1 n" n387 $end
$var wire 1 o" n455 $end
$var wire 1 p" n456 $end
$var wire 1 q" n431 $end
$var wire 1 r" n124 $end
$var wire 1 s" n281 $end
$var wire 1 t" n445 $end
$var wire 1 u" n280 $end
$var wire 1 v" n359 $end
$var wire 1 w" n363 $end
$var wire 1 x" n135 $end
$var wire 1 y" n451 $end
$var wire 1 z" n452 $end
$var wire 1 {" n337 $end
$var wire 1 |" n338 $end
$var wire 1 }" n364 $end
$var wire 1 ~" n365 $end
$var wire 1 !# n424 $end
$var wire 1 "# n425 $end
$var wire 1 ## n442 $end
$var wire 1 $# n443 $end
$var wire 1 %# n466 $end
$var wire 1 &# n467 $end
$var wire 1 '# xenc31 $end
$var wire 1 (# n316 $end
$var wire 1 )# n447 $end
$var wire 1 *# n448 $end
$var wire 1 +# n469 $end
$var wire 1 ,# n166 $end
$var wire 1 -# n167 $end
$var wire 1 .# n334 $end
$var wire 1 /# n335 $end
$var wire 1 0# n384 $end
$var wire 1 1# n385 $end
$var wire 1 2# n349 $end
$var wire 1 3# xenc7 $end
$var wire 1 4# n350 $end
$var wire 1 5# n376 $end
$var wire 1 6# n377 $end
$var wire 1 7# n400 $end
$var wire 1 8# n380 $end
$var wire 1 9# n360 $end
$var wire 1 :# n361 $end
$var wire 1 ;# n420 $end
$var wire 1 <# n421 $end
$var wire 1 =# n158 $end
$var wire 1 ># n137 $end
$var wire 1 ?# n460 $end
$var wire 1 @# n265 $end
$var wire 1 A# n274 $end
$var wire 1 B# n245 $end
$var wire 1 C# n383 $end
$var wire 1 D# n419 $end
$var wire 1 E# n416 $end
$var wire 1 F# n164 $end
$var wire 1 G# n165 $end
$var wire 1 H# n139 $end
$var wire 1 I# n190 $end
$var wire 1 J# n181 $end
$var wire 1 K# xenc26 $end
$var wire 1 L# xenc30 $end
$var wire 1 M# n246 $end
$var wire 1 N# n256 $end
$var wire 1 O# n267 $end
$var wire 1 P# n255 $end
$var wire 1 Q# n222 $end
$var wire 1 R# n221 $end
$var wire 1 S# n243 $end
$var wire 1 T# xenc8 $end
$var wire 1 U# n214 $end
$var wire 1 V# n122 $end
$var wire 1 W# n215 $end
$var wire 1 X# n258 $end
$var wire 1 Y# n259 $end
$var wire 1 Z# n264 $end
$var wire 1 [# xenc19 $end
$var wire 1 \# n244 $end
$var wire 1 ]# n436 $end
$var wire 1 ^# n219 $end
$var wire 1 _# n220 $end
$var wire 1 `# xenc1 $end
$var wire 1 a# n239 $end
$var wire 1 b# n238 $end
$var wire 1 c# n179 $end
$var wire 1 d# n180 $end
$var wire 1 e# n412 $end
$var wire 1 f# n413 $end
$var wire 1 g# n159 $end
$var wire 1 h# n249 $end
$var wire 1 i# n268 $end
$var wire 1 j# n269 $end
$var wire 1 k# n446 $end
$var wire 1 l# n470 $end
$var wire 1 m# n304 $end
$var wire 1 n# n343 $end
$var wire 1 o# xenc9 $end
$var wire 1 p# n370 $end
$var wire 1 q# n430 $end
$var wire 1 r# xenc21 $end
$var wire 1 s# n386 $end
$var wire 1 t# n319 $end
$var wire 1 u# n394 $end
$var wire 1 v# n353 $end
$var wire 1 w# n327 $end
$var wire 1 x# xenc29 $end
$var wire 1 y# n355 $end
$var wire 1 z# n306 $end
$var wire 1 {# n403 $end
$var wire 1 |# n439 $end
$var wire 1 }# n463 $end
$var wire 1 ~# xenc3 $end
$var wire 1 !$ n340 $end
$var wire 1 "$ n339 $end
$var wire 1 #$ n368 $end
$var wire 1 $$ n401 $end
$var wire 1 %$ n131 $end
$var wire 1 &$ xenc12 $end
$var wire 1 '$ n402 $end
$var wire 1 ($ n275 $end
$var wire 1 )$ n126 $end
$var wire 1 *$ n276 $end
$var wire 1 +$ xenc18 $end
$var wire 1 ,$ n307 $end
$var wire 1 -$ n132 $end
$var wire 1 .$ n308 $end
$var wire 1 /$ n426 $end
$var wire 1 0$ n427 $end
$var wire 1 1$ n366 $end
$var wire 1 2$ n367 $end
$var wire 1 3$ n321 $end
$var wire 1 4$ n322 $end
$var wire 1 5$ n390 $end
$var wire 1 6$ xenc22 $end
$var wire 1 7$ n391 $end
$var wire 1 8$ n404 $end
$var wire 1 9$ n405 $end
$var wire 1 :$ n453 $end
$var wire 1 ;$ n454 $end
$var wire 1 <$ xenc28 $end
$var wire 1 =$ n279 $end
$var wire 1 >$ n277 $end
$var wire 1 ?$ n278 $end
$var wire 1 @$ n440 $end
$var wire 1 A$ n441 $end
$var wire 1 B$ n464 $end
$var wire 1 C$ n465 $end
$var wire 1 D$ n381 $end
$var wire 1 E$ n382 $end
$var wire 1 F$ n417 $end
$var wire 1 G$ n408 $end
$var wire 1 H$ n418 $end
$var wire 1 I$ n458 $end
$var wire 1 J$ n459 $end
$var wire 1 K$ n272 $end
$var wire 1 L$ n273 $end
$var wire 1 M$ n471 $end
$var wire 1 N$ n472 $end
$var wire 1 O$ n354 $end
$var wire 1 P$ n437 $end
$var wire 1 Q$ n129 $end
$var wire 1 R$ n438 $end
$var wire 1 S$ n461 $end
$var wire 1 T$ n128 $end
$var wire 1 U$ n462 $end
$var wire 1 V$ n266 $end
$var wire 1 W$ n242 $end
$var wire 1 X$ n444 $end
$var wire 1 Y$ n247 $end
$var wire 1 Z$ n248 $end
$var wire 1 [$ n252 $end
$var wire 1 \$ n224 $end
$var wire 1 ]$ n250 $end
$var wire 1 ^$ n123 $end
$var wire 1 _$ n251 $end
$var wire 1 `$ n186 $end
$var wire 1 a$ n187 $end
$var wire 1 b$ xenc13 $end
$var wire 1 c$ n254 $end
$var wire 1 d$ n253 $end
$var wire 1 e$ n170 $end
$upscope $end
$upscope $end
$enddefinitions $end
#0
$dumpvars
b0 !
b0 "
b1100010111111101101101110001010 #
03
02
01
00
0/
0.
0-
0,
0+
0*
0)
0(
0'
0&
0%
0$
0d
0e
0f
0g
0h
0i
1j
1k
0l
0m
0n
0o
0p
0q
0r
0s
1t
1u
1v
1w
0x
0y
0z
0{
0|
0}
1~
0!!
0"!
0#!
0$!
0%!
0&!
0'!
0(!
0)!
0*!
0+!
0,!
0-!
0.!
0/!
00!
01!
12!
13!
04!
05!
06!
17!
18!
09!
1:!
0;!
0<!
0=!
0>!
0?!
0@!
0A!
0B!
0C!
1D!
1E!
0F!
0G!
0H!
0I!
0J!
0K!
0L!
0M!
0N!
0O!
0P!
0Q!
0R!
1S!
0T!
1U!
1V!
0W!
0X!
0Y!
0Z!
0[!
0\!
0]!
0^!
1_!
0`!
0a!
0b!
0c!
0d!
0e!
0f!
1g!
1h!
0i!
0j!
0k!
0l!
0m!
0n!
1o!
0p!
1q!
1r!
0s!
0t!
1u!
1v!
0w!
0x!
0y!
1z!
0{!
1|!
1}!
1~!
0!"
1""
1#"
0$"
1%"
1&"
0'"
1("
1)"
0*"
0+"
1,"
1-"
1."
0/"
00"
11"
02"
03"
14"
05"
06"
17"
18"
19"
1:"
1;"
1<"
1="
1>"
1?"
1@"
1A"
1B"
1C"
1D"
0E"
0F"
0G"
1H"
1I"
1J"
0K"
1L"
1M"
1N"
1O"
1P"
1Q"
1R"
1S"
1T"
1U"
1V"
1W"
0X"
0Y"
1Z"
1["
1\"
0]"
0^"
1_"
1`"
0a"
0b"
1c"
1d"
0e"
0f"
1g"
1h"
0i"
0j"
1k"
1l"
0m"
0n"
1o"
0p"
0q"
1r"
1s"
0t"
0u"
1v"
0w"
1x"
0y"
0z"
0{"
0|"
0}"
0~"
0!#
0"#
1##
0$#
1%#
0&#
1'#
1(#
1)#
1*#
1+#
0,#
0-#
1.#
1/#
10#
11#
12#
13#
14#
15#
16#
17#
18#
19#
1:#
1;#
1<#
0=#
1>#
1?#
1@#
1A#
1B#
1C#
1D#
1E#
1F#
1G#
1H#
1I#
0J#
1K#
0L#
0M#
1N#
0O#
0P#
0Q#
0R#
0S#
0T#
0U#
1V#
1W#
1X#
1Y#
1Z#
1[#
1\#
1]#
1^#
1_#
1`#
1a#
1b#
1c#
1d#
1e#
1f#
1g#
1h#
1i#
1j#
0k#
1l#
1m#
1n#
0o#
1p#
1q#
1r#
1s#
1t#
1u#
1v#
0w#
1x#
1y#
1z#
0{#
0|#
0}#
1~#
1!$
1"$
1#$
0$$
1%$
1&$
1'$
0($
1)$
1*$
0+$
0,$
1-$
1.$
1/$
10$
11$
12$
13$
14$
15$
16$
17$
18$
19$
1:$
1;$
1<$
1=$
0>$
1?$
1@$
1A$
1B$
1C$
0D$
1E$
0F$
0G$
1H$
0I$
1J$
0K$
1L$
0M$
0N$
1O$
0P$
1Q$
1R$
0S$
1T$
1U$
1V$
0W$
1X$
0Y$
1Z$
0[$
1\$
0]$
1^$
1_$
1`$
1a$
1b$
1c$
1d$
1e$
0c
1b
0a
1`
0_
0^
0]
1\
1[
1Z
0Y
1X
1W
0V
1U
1T
0S
1R
1Q
1P
1O
1N
1M
1L
0K
1J
0I
0H
0G
1F
1E
0D
0C
0B
0A
0@
0?
0>
0=
0<
0;
0:
09
08
07
06
05
04
$end
#10000
b101001 !
b1111010 "
1B
1@
1?
0V"
1>
0H#
1=
0S"
1;
0t
0.$
1,$
1=#
0y#
0U"
1T!
0_!
18
0U$
1S$
0?#
1I$
0u!
0l"
0#$
0_"
1$#
0z!
16
0_$
1]$
0h#
1Y$
10!
0V$
0%#
0W"
0g"
1t"
1u"
1Y"
1{!
0C$
1}#
0T$
0Z#
1?#
0I$
1u!
15!
1W$
1.!
1p!
0`"
1n"
0U!
0D!
0x#
0v#
1w#
10
12
1O!
1F!
1Q!
1a!
1b"
0g!
1,!
1T#
16!
1f!
1x!
1y!
1b!
01#
1c!
03!
1!"
08!
1(!
1/"
1d!
05#
1>!
1o#
1K!
1B!
1N!
1o
1C!
1L!
1|"
1@!
1(
14!
0P"
1)
0v!
1s!
06!
0N"
1*!
0-"
0."
1E"
1i
0E!
0/#
1R!
0@"
1M!
0?"
1l
12"
1q
1-
1/
1K"
0F!
0K!
0o
1,
1+
1)!
15"
13!
0!"
1;!
1=!
0)
1'
0(
0-
0L!
0B!
1.
0C!
02"
1d
1*
0K"
0q
0/
0.
#20000
b10001 !
b10001 "
1C
0["
13
1e"
1]"
0B
1t
1W"
1#$
0@
1.$
0,$
0=#
1%#
1l"
0>
1H#
1V$
1C$
0}#
1T$
1Z#
0?#
1I$
0u!
0Y#
10"
05!
1P"
1z!
1_!
0=
1_$
0]$
1h#
0Y$
00!
1S"
1U$
0S$
1?#
0I$
1u!
1Y#
00"
1y#
08
1_"
0$#
0]"
17
0c"
01$
1}"
1&#
1a"
06
1g"
0t"
0e"
0u"
0b"
0V!
0:#
1]!
0p!
1x#
1v#
0w#
0.!
1U!
1:#
0]!
0|!
16!
1N"
0*!
1-"
1."
0E"
03!
1!"
0W$
0n"
00
1`"
11$
0}"
0Y"
02
0f!
1b"
1V!
0a!
11#
0c!
15#
0>!
0T#
1)
0)!
05"
0q!
0,!
0O!
1g!
0Q!
1@"
0M!
1?"
0l
0x!
0y!
1K!
1o
0,
0d!
0N!
0(!
0/"
1n!
0'
18!
1^!
0@!
0b!
0^!
0i
04!
1l!
0o
1L!
1v!
0s!
12"
1j!
06!
0+
13!
0!"
1?!
1K"
0;!
0=!
1.
1@!
0)
1i
0d
0*
1+
#30000
b10000001 !
b11100 "
0C
1["
03
0a"
1A
0u#
0m#
1@
0.$
1,$
1=#
0##
07
1##
1u#
1c"
0&#
14
1w!
0N#
0\$
0r"
0K#
1P#
1y!
0{!
10
1s
0b"
0o#
11
1|!
0v!
1W$
11!
1.!
1T#
1s!
1q!
0|"
1E!
1/#
0R!
0n!
1;!
08!
1,!
1(!
1/"
14!
1=!
0l!
1F!
0K!
0L!
1B!
0j!
1d
16!
1(
03!
1!"
1*
0?!
1C!
02"
0K"
1q
0@!
1)
0i
1/
0.
0+
#50000
b1000100 !
b111011 "
1C
0["
13
1p"
1B
0t
1k#
0A
0w!
1m#
1>
0H#
1R#
0_!
0;
1t
1.$
0,$
0=#
1U"
03
0T!
1_!
19
0v"
0\"
0k"
1m"
1i"
0o!
15
0s"
0o"
0:$
1y"
0Z"
0d$
1O#
1M#
1%!
1X"
04
1N#
1d$
1\$
0k#
1r"
1:$
0y"
0R#
0p"
1K#
0%!
1Y"
1L#
1u"
0g!
1j"
1n"
1^"
1`!
1D!
00
0U!
0y!
1q"
1"#
1v!
1Q!
0F!
1H!
1a!
1d!
1x!
1f!
1b!
01#
1c!
05#
1>!
1y!
1I!
0-$
1,$
1=#
0B!
1K!
0s!
0h!
0<#
1m!
0d!
15#
0>!
1l!
0;!
1L!
0C!
10
0v!
1s!
0q
12"
0=!
1j!
1\!
1Z!
1?!
0d
1K"
0/
1;!
1=!
1.
0*
1@!
1X!
1m
1i
1d
1*
1+
1,
#70000
b10001001 !
b11111111 "
1A
0n#
0l#
1=
0S"
1&!
0R$
1P$
0D#
1F$
1G$
1<
0>#
1{
0J$
1I$
0u!
0Y#
10"
0O"
1*!
0-"
0."
1E"
1;
0t
1N$
0O$
0E$
1D$
1[!
06#
1>!
0;"
1g
1$"
0#"
0:!
0}!
1+!
0,"
04$
1G!
0(#
1A!
0.$
0z#
0y#
0U"
13
1T!
0m#
0_!
09
1R$
0P$
1D#
0F$
0G$
1J$
0I$
1u!
1Y#
00"
1O"
0*!
1-"
1v"
1\"
1k"
0m"
0i"
1n#
1o!
18
0U$
1S$
0?#
1I$
0u!
0Y#
10"
0O"
1*!
0-"
0L$
1K$
07!
0a#
1-!
0I"
16"
0D"
0~
1+"
0l"
0#$
0_"
1$#
1]"
0p#
0z!
05
1s"
1o"
1Z"
0{
0O#
0M#
0&!
0X"
1l#
14
1,#
1w!
0i#
1S#
0b#
0N#
0\$
1k#
0r"
1|
1R#
1p"
1"!
0K#
0y!
18!
1a#
0-!
1I"
06"
1D"
1~
0+"
0`#
1-!
0I"
16"
0D"
0~
1+"
1%
0Y"
0L#
0u"
0|!
1~"
1p!
0`"
0(!
1,"
0v
0j"
14$
0G!
1(#
0A!
0`!
0N$
1O$
0D!
0x#
0v#
1w#
0'#
0=#
1A!
1C!
0Z!
0@!
1e
02!
12
0s!
13!
1}!
0+!
0/"
1-"
1."
0E"
1D"
1~
0+"
1)!
15"
1}
1z"
0r!
1y
1'
1v
0;!
0*
0i
0X!
1q
00
1O!
1F!
1b"
0V!
0:#
1]!
0q!
0*#
13"
0x!
1i#
0S#
1b#
0f!
1$!
0V#
1U#
04"
1E"
0D"
0~
1+"
0'
0v
0b!
11#
0c!
1y!
0X#
08!
0a#
1`#
0Q!
1P!
04#
1o#
1B!
07"
1n
01"
1/
0m
0+
0=!
1z
1G"
0d
1#"
1:!
0!"
0,
0C!
02"
1-
1|"
03#
1W!
0K!
04!
1v!
1Y#
1^!
02#
0\!
16#
0>!
1;"
0g
0$"
1&
1Z!
1@!
0e
0P!
14#
1s!
06!
1O"
0*!
0L!
17"
0n
1m
0E!
0/#
1R!
0K"
0q
12!
0w
0("
1*"
0F#
1$
0+#
0&
0%
0)
0/
0.
0F!
1K!
1,
12"
0-
03!
1!"
0)!
1;!
1N!
13#
1i
1X!
0="
0k
1'"
0&"
1f
1$"
0m
1h
1e
1o
1=!
0(
1)
1K"
1L!
07"
1n
0>"
1l
0B!
17"
0n
1>"
0l
11"
1C!
1.
1d
0#"
0:!
0}!
1+!
1/"
1-
0,
02!
1)!
1q
1/
1(
0)
#80000
b10101011 !
b0 "
0C
1["
03
0p"
0]"
0B
1t
0k#
1#$
0A
0w!
1p#
1m#
0@
1N#
1.$
1l"
1z#
0?
1\$
1V"
0$#
0T!
0>
1H#
0R#
1z!
1_!
0=
1S"
0|
1U$
0S$
1?#
0I$
1u!
1y#
0<
0,#
1F#
0$
1>#
1L$
0K$
17!
1a#
0-!
1I"
06"
1D"
1~
1("
0*"
1+#
1E$
0D$
0[!
1:
0x"
16
0g"
0Z!
14!
1(!
0,"
0."
0C"
0~
0("
1*"
0+#
1%
1x#
1v#
0w#
0s!
0}
1U!
1:#
0]!
12#
0W!
1="
1k
0'"
1&"
0f
0$"
1#"
1:!
1}!
0+!
1,"
1."
1C"
1~
1("
0*"
1+#
1|!
0"!
1D!
1/#
0R!
0p!
1K#
1'#
1=#
0A!
0n"
0P#
0s
0~"
0y!
1X#
00"
1`"
0z"
02
0^"
0q"
0"#
0H!
1r!
1*#
03"
0b"
13!
0!"
1V!
01
0W$
0a!
0C!
10
01!
1g!
1<#
0m!
1F!
0K!
0$!
1V#
0U#
14"
0E"
1q!
1P!
04#
1m
0h
0e
12!
0)!
05"
1v
0%
0y
0;!
0O!
14#
16!
0X!
0m
03!
1!"
0=!
0z
1&
1*
1+
0L!
1B!
1d!
0l!
0.!
0q
0^!
0T#
1)
0o#
0I!
1-$
0,$
0=#
1h!
0d!
00
0|"
18!
0P!
0/
0,!
0j!
1C!
02"
0G"
0d
0*
1w
0+"
0K"
1q
0?!
0(!
0/"
0N!
04!
1E!
0F!
06!
0o
0(
0@!
1/
0.
0&
0i
0-
13!
0!"
0B!
0C!
0)
0+
0q
0/
#90000
b110100 !
b10010 "
1B
0t
1k#
0W"
0h"
0#$
1?
0\$
0V"
1$#
1w"
1t"
1T!
0;
1t
1U"
0T!
0:
1h"
1x"
0w"
19
0\"
0k"
1m"
08
1#$
1_"
0$#
17
0d"
0c"
1&#
04
1\$
0k#
1r"
1{!
1f"
1n"
1^"
1u"
1Y"
1f!
1x!
1H!
1a!
1~"
0|!
0q!
0V!
1^!
1I!
0-$
1,$
1=#
1y!
1b!
01#
1c!
0^!
1\!
0v!
10
1Q!
1n!
1l!
1K!
1s!
1Z!
1X!
1;!
1L!
1j!
1?!
12"
1=!
1m
1,
1d
1K"
1@!
1i
1.
1*
1+
#100000
b10001 !
b100000 "
0B
1W"
1d"
1\"
0?
1V"
0&#
0t"
0m"
1>
0H#
0X$
0V$
0=$
1>$
0o!
1;
0U"
0_!
09
1k"
1o!
06
1V$
1g"
0U!
0:#
1]!
1+$
0)$
1($
0A#
1K$
07!
0x!
0n"
0u"
1=$
0>$
0{!
0^"
0f"
0Y"
0f!
0~"
0H!
1|!
0+$
1)$
0($
1A#
0K$
17!
1x!
0a!
11#
0c!
0Q!
1P!
1N!
0K!
1^!
02#
1W!
0="
0k
1'"
0&"
1f
1$"
0#"
0:!
1!"
0\!
1q!
0I!
1-$
0,$
0=#
1V!
1:#
0]!
12#
0W!
1="
1k
0'"
1&"
0f
0$"
1#"
1:!
0!"
0b!
0^!
1Q!
00
0n!
0Z!
0P!
0L!
1o
1-
02"
0N!
0X!
0l!
1K!
1L!
0j!
0m
0o
0K"
0.
0-
0,
0?!
12"
1K"
0@!
0i
1.
0+
#110000
b1010101 !
b10101010 "
1B
0t
0d"
1@
0.$
1,$
1=#
0##
1<
0Z$
1Y$
10!
0>#
0E$
1D$
1[!
19
0J$
1I$
0u!
0Y#
10"
0v"
0\"
0k"
0o!
15
0s"
0o"
0Z"
1{
1M#
1L#
1}
1q"
1u"
0=$
1>$
0g!
1^"
1`!
1N$
0O$
0s!
03!
1!"
1Z!
1.!
1p!
0A$
1|#
0Q$
1P$
0D#
1F$
1G$
10
1f"
12
1~"
1g!
1k!
1,!
1X!
1)
0;!
1U!
0T"
0v#
1w#
1H!
1+$
0)$
1($
0A#
1K$
07!
0x!
1"#
1y
11!
0W#
1U#
04"
1E"
0.!
1'
1z
0h!
0y!
14!
1I!
0-$
0z#
1O!
0Q!
0=!
1m
1(!
1/"
1j!
0V!
1Q!
1?!
1(
1,
0d
1N!
0'#
0=#
1A!
16!
0O"
1*!
0-"
0."
0C"
0~
1+"
1v!
1Y#
00"
1O"
0*!
1-"
1."
1C"
1~
0+"
1d!
1G"
0,!
0(!
0/"
0w
1+"
1\!
06#
1>!
0;"
1g
1$"
1s!
1C!
00
1o
0*
1-
1q
1;!
0Z!
1e
1&
0(
1*
0X!
1=!
1/
1d
0#"
0:!
0}!
1+!
1/"
0m
0,
0*
02!
1)!
1(
0)
