lockednetlistsimulation/partial_key_simulation_random/64aor/lower_part_or_carry_lookahead_adder/sim/lower_part_or_carry_lookahead_adder32_gatesim.vcd
$date
	Thu Oct  1 11:04:52 2020
$end
$version
	ModelSim Version 6.6d
$end
$timescale
	1ps
$end
$scope module lower_part_or_carry_lookahead_adder32_tb $end
$var reg 32 ! add1_i [31:0] $end
$var reg 32 " add2_i [31:0] $end
$var reg 64 # keyinput [63:0] $end
$var wire 1 $ result_o [32] $end
$var wire 1 % result_o [31] $end
$var wire 1 & result_o [30] $end
$var wire 1 ' result_o [29] $end
$var wire 1 ( result_o [28] $end
$var wire 1 ) result_o [27] $end
$var wire 1 * result_o [26] $end
$var wire 1 + result_o [25] $end
$var wire 1 , result_o [24] $end
$var wire 1 - result_o [23] $end
$var wire 1 . result_o [22] $end
$var wire 1 / result_o [21] $end
$var wire 1 0 result_o [20] $end
$var wire 1 1 result_o [19] $end
$var wire 1 2 result_o [18] $end
$var wire 1 3 result_o [17] $end
$var wire 1 4 result_o [16] $end
$var wire 1 5 result_o [15] $end
$var wire 1 6 result_o [14] $end
$var wire 1 7 result_o [13] $end
$var wire 1 8 result_o [12] $end
$var wire 1 9 result_o [11] $end
$var wire 1 : result_o [10] $end
$var wire 1 ; result_o [9] $end
$var wire 1 < result_o [8] $end
$var wire 1 = result_o [7] $end
$var wire 1 > result_o [6] $end
$var wire 1 ? result_o [5] $end
$var wire 1 @ result_o [4] $end
$var wire 1 A result_o [3] $end
$var wire 1 B result_o [2] $end
$var wire 1 C result_o [1] $end
$var wire 1 D result_o [0] $end
$scope module loacla $end
$var wire 1 E add1_i [31] $end
$var wire 1 F add1_i [30] $end
$var wire 1 G add1_i [29] $end
$var wire 1 H add1_i [28] $end
$var wire 1 I add1_i [27] $end
$var wire 1 J add1_i [26] $end
$var wire 1 K add1_i [25] $end
$var wire 1 L add1_i [24] $end
$var wire 1 M add1_i [23] $end
$var wire 1 N add1_i [22] $end
$var wire 1 O add1_i [21] $end
$var wire 1 P add1_i [20] $end
$var wire 1 Q add1_i [19] $end
$var wire 1 R add1_i [18] $end
$var wire 1 S add1_i [17] $end
$var wire 1 T add1_i [16] $end
$var wire 1 U add1_i [15] $end
$var wire 1 V add1_i [14] $end
$var wire 1 W add1_i [13] $end
$var wire 1 X add1_i [12] $end
$var wire 1 Y add1_i [11] $end
$var wire 1 Z add1_i [10] $end
$var wire 1 [ add1_i [9] $end
$var wire 1 \ add1_i [8] $end
$var wire 1 ] add1_i [7] $end
$var wire 1 ^ add1_i [6] $end
$var wire 1 _ add1_i [5] $end
$var wire 1 ` add1_i [4] $end
$var wire 1 a add1_i [3] $end
$var wire 1 b add1_i [2] $end
$var wire 1 c add1_i [1] $end
$var wire 1 d add1_i [0] $end
$var wire 1 e add2_i [31] $end
$var wire 1 f add2_i [30] $end
$var wire 1 g add2_i [29] $end
$var wire 1 h add2_i [28] $end
$var wire 1 i add2_i [27] $end
$var wire 1 j add2_i [26] $end
$var wire 1 k add2_i [25] $end
$var wire 1 l add2_i [24] $end
$var wire 1 m add2_i [23] $end
$var wire 1 n add2_i [22] $end
$var wire 1 o add2_i [21] $end
$var wire 1 p add2_i [20] $end
$var wire 1 q add2_i [19] $end
$var wire 1 r add2_i [18] $end
$var wire 1 s add2_i [17] $end
$var wire 1 t add2_i [16] $end
$var wire 1 u add2_i [15] $end
$var wire 1 v add2_i [14] $end
$var wire 1 w add2_i [13] $end
$var wire 1 x add2_i [12] $end
$var wire 1 y add2_i [11] $end
$var wire 1 z add2_i [10] $end
$var wire 1 { add2_i [9] $end
$var wire 1 | add2_i [8] $end
$var wire 1 } add2_i [7] $end
$var wire 1 ~ add2_i [6] $end
$var wire 1 !! add2_i [5] $end
$var wire 1 "! add2_i [4] $end
$var wire 1 #! add2_i [3] $end
$var wire 1 $! add2_i [2] $end
$var wire 1 %! add2_i [1] $end
$var wire 1 &! add2_i [0] $end
$var wire 1 '! keyinput [63] $end
$var wire 1 (! keyinput [62] $end
$var wire 1 )! keyinput [61] $end
$var wire 1 *! keyinput [60] $end
$var wire 1 +! keyinput [59] $end
$var wire 1 ,! keyinput [58] $end
$var wire 1 -! keyinput [57] $end
$var wire 1 .! keyinput [56] $end
$var wire 1 /! keyinput [55] $end
$var wire 1 0! keyinput [54] $end
$var wire 1 1! keyinput [53] $end
$var wire 1 2! keyinput [52] $end
$var wire 1 3! keyinput [51] $end
$var wire 1 4! keyinput [50] $end
$var wire 1 5! keyinput [49] $end
$var wire 1 6! keyinput [48] $end
$var wire 1 7! keyinput [47] $end
$var wire 1 8! keyinput [46] $end
$var wire 1 9! keyinput [45] $end
$var wire 1 :! keyinput [44] $end
$var wire 1 ;! keyinput [43] $end
$var wire 1 <! keyinput [42] $end
$var wire 1 =! keyinput [41] $end
$var wire 1 >! keyinput [40] $end
$var wire 1 ?! keyinput [39] $end
$var wire 1 @! keyinput [38] $end
$var wire 1 A! keyinput [37] $end
$var wire 1 B! keyinput [36] $end
$var wire 1 C! keyinput [35] $end
$var wire 1 D! keyinput [34] $end
$var wire 1 E! keyinput [33] $end
$var wire 1 F! keyinput [32] $end
$var wire 1 G! keyinput [31] $end
$var wire 1 H! keyinput [30] $end
$var wire 1 I! keyinput [29] $end
$var wire 1 J! keyinput [28] $end
$var wire 1 K! keyinput [27] $end
$var wire 1 L! keyinput [26] $end
$var wire 1 M! keyinput [25] $end
$var wire 1 N! keyinput [24] $end
$var wire 1 O! keyinput [23] $end
$var wire 1 P! keyinput [22] $end
$var wire 1 Q! keyinput [21] $end
$var wire 1 R! keyinput [20] $end
$var wire 1 S! keyinput [19] $end
$var wire 1 T! keyinput [18] $end
$var wire 1 U! keyinput [17] $end
$var wire 1 V! keyinput [16] $end
$var wire 1 W! keyinput [15] $end
$var wire 1 X! keyinput [14] $end
$var wire 1 Y! keyinput [13] $end
$var wire 1 Z! keyinput [12] $end
$var wire 1 [! keyinput [11] $end
$var wire 1 \! keyinput [10] $end
$var wire 1 ]! keyinput [9] $end
$var wire 1 ^! keyinput [8] $end
$var wire 1 _! keyinput [7] $end
$var wire 1 `! keyinput [6] $end
$var wire 1 a! keyinput [5] $end
$var wire 1 b! keyinput [4] $end
$var wire 1 c! keyinput [3] $end
$var wire 1 d! keyinput [2] $end
$var wire 1 e! keyinput [1] $end
$var wire 1 f! keyinput [0] $end
$var wire 1 $ result_o [32] $end
$var wire 1 % result_o [31] $end
$var wire 1 & result_o [30] $end
$var wire 1 ' result_o [29] $end
$var wire 1 ( result_o [28] $end
$var wire 1 ) result_o [27] $end
$var wire 1 * result_o [26] $end
$var wire 1 + result_o [25] $end
$var wire 1 , result_o [24] $end
$var wire 1 - result_o [23] $end
$var wire 1 . result_o [22] $end
$var wire 1 / result_o [21] $end
$var wire 1 0 result_o [20] $end
$var wire 1 1 result_o [19] $end
$var wire 1 2 result_o [18] $end
$var wire 1 3 result_o [17] $end
$var wire 1 4 result_o [16] $end
$var wire 1 5 result_o [15] $end
$var wire 1 6 result_o [14] $end
$var wire 1 7 result_o [13] $end
$var wire 1 8 result_o [12] $end
$var wire 1 9 result_o [11] $end
$var wire 1 : result_o [10] $end
$var wire 1 ; result_o [9] $end
$var wire 1 < result_o [8] $end
$var wire 1 = result_o [7] $end
$var wire 1 > result_o [6] $end
$var wire 1 ? result_o [5] $end
$var wire 1 @ result_o [4] $end
$var wire 1 A result_o [3] $end
$var wire 1 B result_o [2] $end
$var wire 1 C result_o [1] $end
$var wire 1 D result_o [0] $end
$var wire 1 g! n28 $end
$var wire 1 h! n29 $end
$var wire 1 i! xenc61 $end
$var wire 1 j! xenc18 $end
$var wire 1 k! n31 $end
$var wire 1 l! xenc16 $end
$var wire 1 m! xenc30 $end
$var wire 1 n! n36 $end
$var wire 1 o! xenc31 $end
$var wire 1 p! xenc2 $end
$var wire 1 q! xenc46 $end
$var wire 1 r! n41 $end
$var wire 1 s! n45 $end
$var wire 1 t! xenc37 $end
$var wire 1 u! xenc43 $end
$var wire 1 v! n46 $end
$var wire 1 w! xenc26 $end
$var wire 1 x! n51 $end
$var wire 1 y! xenc50 $end
$var wire 1 z! n56 $end
$var wire 1 {! xenc13 $end
$var wire 1 |! xenc53 $end
$var wire 1 }! xenc32 $end
$var wire 1 ~! n61 $end
$var wire 1 !" n65 $end
$var wire 1 "" n66 $end
$var wire 1 #" xenc56 $end
$var wire 1 $" n71 $end
$var wire 1 %" xenc6 $end
$var wire 1 &" xenc35 $end
$var wire 1 '" xenc11 $end
$var wire 1 (" n76 $end
$var wire 1 )" n80 $end
$var wire 1 *" n81 $end
$var wire 1 +" xenc45 $end
$var wire 1 ," xenc22 $end
$var wire 1 -" n86 $end
$var wire 1 ." n90 $end
$var wire 1 /" n91 $end
$var wire 1 0" n95 $end
$var wire 1 1" n96 $end
$var wire 1 2" xenc58 $end
$var wire 1 3" n100 $end
$var wire 1 4" xenc15 $end
$var wire 1 5" n101 $end
$var wire 1 6" xenc49 $end
$var wire 1 7" n106 $end
$var wire 1 8" n110 $end
$var wire 1 9" xenc19 $end
$var wire 1 :" n111 $end
$var wire 1 ;" n115 $end
$var wire 1 <" n116 $end
$var wire 1 =" xenc40 $end
$var wire 1 >" xenc29 $end
$var wire 1 ?" n121 $end
$var wire 1 @" n125 $end
$var wire 1 A" n126 $end
$var wire 1 B" xenc1 $end
$var wire 1 C" xenc39 $end
$var wire 1 D" xenc7 $end
$var wire 1 E" n131 $end
$var wire 1 F" n135 $end
$var wire 1 G" n136 $end
$var wire 1 H" n140 $end
$var wire 1 I" n141 $end
$var wire 1 J" xenc17 $end
$var wire 1 K" xenc54 $end
$var wire 1 L" n26 $end
$var wire 1 M" xenc36 $end
$var wire 1 N" xenc5 $end
$var wire 1 O" n146 $end
$var wire 1 P" n145 $end
$var wire 1 Q" n147 $end
$var wire 1 R" xenc0 $end
$var wire 1 S" n143 $end
$var wire 1 T" n142 $end
$var wire 1 U" xenc62 $end
$var wire 1 V" n144 $end
$var wire 1 W" n137 $end
$var wire 1 X" n138 $end
$var wire 1 Y" n139 $end
$var wire 1 Z" xenc59 $end
$var wire 1 [" xenc14 $end
$var wire 1 \" n130 $end
$var wire 1 ]" n132 $end
$var wire 1 ^" n134 $end
$var wire 1 _" n133 $end
$var wire 1 `" n127 $end
$var wire 1 a" n128 $end
$var wire 1 b" xenc47 $end
$var wire 1 c" n129 $end
$var wire 1 d" n122 $end
$var wire 1 e" xenc9 $end
$var wire 1 f" n120 $end
$var wire 1 g" n124 $end
$var wire 1 h" n123 $end
$var wire 1 i" n117 $end
$var wire 1 j" n118 $end
$var wire 1 k" n119 $end
$var wire 1 l" xenc3 $end
$var wire 1 m" n113 $end
$var wire 1 n" n112 $end
$var wire 1 o" n114 $end
$var wire 1 p" n107 $end
$var wire 1 q" n108 $end
$var wire 1 r" n105 $end
$var wire 1 s" n109 $end
$var wire 1 t" n102 $end
$var wire 1 u" n103 $end
$var wire 1 v" n104 $end
$var wire 1 w" xenc20 $end
$var wire 1 x" xenc57 $end
$var wire 1 y" n97 $end
$var wire 1 z" n99 $end
$var wire 1 {" n98 $end
$var wire 1 |" n92 $end
$var wire 1 }" n93 $end
$var wire 1 ~" n94 $end
$var wire 1 !# xenc41 $end
$var wire 1 "# n88 $end
$var wire 1 ## n85 $end
$var wire 1 $# n87 $end
$var wire 1 %# xenc60 $end
$var wire 1 &# n89 $end
$var wire 1 '# n82 $end
$var wire 1 (# xenc10 $end
$var wire 1 )# n84 $end
$var wire 1 *# n83 $end
$var wire 1 +# xenc42 $end
$var wire 1 ,# xenc48 $end
$var wire 1 -# n75 $end
$var wire 1 .# n77 $end
$var wire 1 /# xenc23 $end
$var wire 1 0# n78 $end
$var wire 1 1# n79 $end
$var wire 1 2# xenc52 $end
$var wire 1 3# n73 $end
$var wire 1 4# n70 $end
$var wire 1 5# n72 $end
$var wire 1 6# xenc12 $end
$var wire 1 7# n74 $end
$var wire 1 8# xenc8 $end
$var wire 1 9# xenc34 $end
$var wire 1 :# n67 $end
$var wire 1 ;# xenc4 $end
$var wire 1 <# n68 $end
$var wire 1 =# n69 $end
$var wire 1 ># xenc38 $end
$var wire 1 ?# n63 $end
$var wire 1 @# n60 $end
$var wire 1 A# n62 $end
$var wire 1 B# xenc63 $end
$var wire 1 C# n64 $end
$var wire 1 D# xenc51 $end
$var wire 1 E# n58 $end
$var wire 1 F# n55 $end
$var wire 1 G# n57 $end
$var wire 1 H# n59 $end
$var wire 1 I# n52 $end
$var wire 1 J# n53 $end
$var wire 1 K# n50 $end
$var wire 1 L# xenc21 $end
$var wire 1 M# n54 $end
$var wire 1 N# xenc28 $end
$var wire 1 O# n48 $end
$var wire 1 P# n47 $end
$var wire 1 Q# n49 $end
$var wire 1 R# n42 $end
$var wire 1 S# n43 $end
$var wire 1 T# n40 $end
$var wire 1 U# n44 $end
$var wire 1 V# n37 $end
$var wire 1 W# n38 $end
$var wire 1 X# n35 $end
$var wire 1 Y# xenc44 $end
$var wire 1 Z# n39 $end
$var wire 1 [# xenc25 $end
$var wire 1 \# xenc33 $end
$var wire 1 ]# n32 $end
$var wire 1 ^# n34 $end
$var wire 1 _# n33 $end
$var wire 1 `# n30 $end
$var wire 1 a# n27 $end
$var wire 1 b# xenc24 $end
$var wire 1 c# xenc55 $end
$var wire 1 d# xenc27 $end
$upscope $end
$upscope $end
$enddefinitions $end
#0
$dumpvars
b0 !
b0 "
b1001011000110100100000001001110000110000010111100001010000011100 #
0D
0C
0B
0A
0@
0?
0>
0=
0<
0;
0:
09
08
07
06
05
04
03
02
01
00
0/
0.
0-
0,
0+
0*
0)
0(
0'
0&
0%
0$
0g!
0h!
0i!
0j!
0k!
0l!
0m!
0n!
0o!
0p!
0q!
0r!
0s!
0t!
0u!
0v!
0w!
0x!
0y!
0z!
0{!
0|!
0}!
0~!
0!"
0""
0#"
0$"
0%"
0&"
0'"
0("
0)"
0*"
0+"
0,"
0-"
0."
0/"
00"
01"
02"
03"
04"
05"
06"
07"
08"
09"
0:"
0;"
0<"
0="
0>"
0?"
0@"
0A"
0B"
0C"
0D"
0E"
0F"
0G"
0H"
0I"
0J"
1K"
1L"
0M"
1N"
1O"
1P"
0Q"
1R"
1S"
1T"
0U"
0V"
1W"
1X"
0Y"
1Z"
1["
0\"
1]"
0^"
1_"
1`"
1a"
0b"
0c"
1d"
1e"
0f"
0g"
1h"
1i"
1j"
0k"
1l"
1m"
1n"
0o"
1p"
1q"
0r"
0s"
1t"
1u"
0v"
1w"
1x"
1y"
0z"
1{"
1|"
1}"
0~"
1!#
1"#
0##
1$#
0%#
0&#
1'#
1(#
0)#
1*#
1+#
1,#
0-#
1.#
0/#
10#
01#
12#
13#
04#
15#
06#
07#
18#
19#
1:#
0;#
1<#
0=#
1>#
1?#
0@#
1A#
0B#
0C#
1D#
1E#
0F#
1G#
0H#
1I#
1J#
0K#
0L#
0M#
1N#
1O#
1P#
0Q#
1R#
1S#
0T#
0U#
1V#
1W#
0X#
0Y#
0Z#
1[#
1\#
1]#
0^#
1_#
0`#
1a#
0b#
0c#
0d#
0f!
0e!
1d!
1c!
1b!
0a!
0`!
0_!
0^!
0]!
1\!
0[!
1Z!
0Y!
0X!
0W!
0V!
1U!
1T!
1S!
1R!
0Q!
1P!
0O!
0N!
0M!
0L!
0K!
1J!
1I!
0H!
0G!
0F!
0E!
1D!
1C!
1B!
0A!
0@!
1?!
0>!
0=!
0<!
0;!
0:!
09!
08!
17!
06!
05!
14!
03!
12!
11!
00!
0/!
0.!
1-!
1,!
0+!
1*!
0)!
0(!
1'!
0&!
0%!
0$!
0#!
0"!
0!!
0~
0}
0|
0{
0z
0y
0x
0w
0v
0u
0t
0s
0r
0q
0p
0o
0n
0m
0l
0k
0j
0i
0h
0g
0f
0e
0d
0c
0b
0a
0`
0_
0^
0]
0\
0[
0Z
0Y
0X
0W
0V
0U
0T
0S
0R
0Q
0P
0O
0N
0M
0L
0K
0J
0I
0H
0G
0F
0E
$end
#10000
b101001101011110010010000110000 !
b1111010000110111001101010111100 "
1$!
1c#
1B
1#!
1A
1"!
1d#
1@
1!!
1?
1}
0a#
0K"
1M"
1=
1{
1y
1x
1u
1t
1s
1q
1p
1k
1i
1h
1g
1f
1`
1_
1Z
1Y"
1W
1g"
1T
1s"
0q"
1r"
16"
1v"
0u"
13"
1z"
1S
0t"
1R
0y"
0w"
10"
1~"
0}"
1."
1&#
1%#
0"#
1##
1,"
1)#
1Q
0|"
1O
0'#
1)"
11#
1/#
1M
17#
16#
1L
1=#
1;#
1I
1M#
1L#
0J#
1K#
1w!
1Q#
0O#
1s!
1U#
0S#
1T#
1o!
1Z#
1Y#
0W#
1X#
1l!
1^#
1G
0R#
1(
1u!
1'
1q!
1&
1%
1$"
1("
1&"
1-"
1+"
1.
15"
14"
12"
11
10
13
1A"
1I"
1r!
1p!
1x!
1""
1/"
1<"
1E"
1D"
1G"
1h!
1i!
1;
19
18
1="
15
00
1+
0(
0q!
0&
1J"
1:
1B"
17
1'"
1-
1,
#20000
b10001000000000011010001010110 !
b10001000100010010001100100011 "
1&!
1b#
1D
1%!
1C
0$!
0c#
0B
0#!
0A
0"!
0}
1a#
1K"
0M"
0=
1|
1Q"
0y
0x
1w
0h"
0e"
1f"
1>"
1k"
0u
0s
1u"
0q
1}"
1l
0<#
09#
1!"
1C#
1B#
0?#
1@#
1{!
1H#
0k
1?#
0@#
0{!
0H#
0i
1J#
0K#
0w!
0Q#
1O#
0s!
1R#
0g
1S#
0T#
0o!
0Z#
0Y#
1W#
0X#
0l!
0^#
0f
1c
1b
1c#
1B
0_
1^
1>
1X
1c"
1b"
0T
0s"
1q"
0r"
06"
1t"
03"
1y"
1w"
00"
1|"
0."
0&#
0%#
1"#
0##
0,"
1'#
0)"
01#
0/#
0S
0v"
0R
0z"
0Q
0~"
0O
0)#
0M
07#
06#
0I
0M#
0L#
1H
1Q#
0O#
1s!
0R#
1T#
1o!
1Z#
1Y#
0G
1R#
0T#
0o!
0Z#
0Y#
0x!
0("
0&"
0-"
05"
04"
1:"
19"
03
02"
01
10
0+"
0.
0r!
0p!
0%
0""
0$"
0<"
0A"
16
0G"
1k!
1<
09
0B"
07
0="
05
0,
14
0'"
0-
#30000
b10000001000101100000100001110011 !
b11100110011100000000101111000 "
0&!
0b#
0D
0%!
1#!
1A
1"!
1~
0{
0w
1h"
1e"
0f"
0>"
0k"
0t
1s
1r
1q
0p
1n
1m
0l
1<#
19#
0!"
0C#
0B#
1j
1i
1d
1b#
1D
0b
0c#
0B
1_
0Z
0Y"
1Y
1^"
0X
0c"
0b"
0W
0g"
1S
1v"
0u"
13"
1z"
0{"
0x"
10"
1~"
0}"
1."
1&#
1%#
1R
0y"
0w"
1P
0$#
0!#
1##
1,"
1)#
0H
0Q#
1O#
0s!
0U#
1E
1^#
1n!
1m!
1x!
0u!
0'
1/
12
12"
11
00
0E"
0D"
1G"
0I"
1z!
1~!
1|!
1$"
0+
1("
1&"
1*"
11"
0:"
09"
06
0h!
0i!
0;
04
02"
01
1+"
1.
1'"
1-
1,
1}!
1*
1)
0J"
0:
19
08
1(
1%
#35000
b100000001000000010000000010010 !
b11011110101011011011111011101111 "
1&!
1%!
1$!
1c#
1B
0"!
1}
0a#
0K"
1M"
1=
0|
0Q"
1{
1z
1y
0_"
0["
1\"
1C"
1c"
1b"
1x
0a"
1@"
1g"
1w
0h"
0e"
1f"
1>"
1k"
1u
1t
0s
1u"
03"
1y"
1w"
1o
0*#
0(#
1)"
11#
1/#
00#
0,#
1-#
1%"
17#
16#
03#
14#
1#"
0:#
08#
1!"
1C#
1B#
0n
10#
1,#
0-#
0%"
07#
06#
13#
04#
0#"
1:#
18#
0!"
0C#
0B#
1k
1f
1e
0_#
0\#
1$
0d
0_
0^
0Y
0^"
1_"
1["
0\"
0C"
0c"
0b"
1a"
0@"
0g"
1h"
1e"
0f"
0>"
0k"
1W
1g"
0h"
0e"
1f"
1>"
1k"
0S
0v"
0R
0z"
1{"
1x"
00"
0~"
1}"
0."
1$#
1!#
0##
0,"
0)#
1*#
1(#
0)"
01#
0/#
0P
0&#
0%#
1O
1)#
0*#
0(#
1)"
11#
1/#
0L
0=#
0;#
1G
1U#
0E
0^#
1_#
1\#
0$
1v!
1t!
0$"
0/"
15"
14"
12"
11
0/
1r!
1p!
1""
0*"
0,
1+
1:"
19"
1<"
16
1E"
1D"
18
1I"
1h!
0k!
0<
1i!
1;
1J"
1:
1="
15
14
1q!
1&
1u!
1'
#43000
b10001001010000111101111010101111 !
b11011010101011011011101010101101 "
0%!
0~
0>
0z
0j
1d
1b
1a
0`
0d#
0@
1_
1]
0L"
1`#
1j!
1[
1V"
1U"
0S"
1H"
1Y"
1Z
0W"
1F"
1^"
0_"
0["
1\"
1C"
1c"
1b"
0a"
1@"
0d"
1Y
0]"
0Z"
1X
0`"
0W
1d"
1V
0i"
1;"
1o"
0m"
18"
1s"
0q"
1r"
16"
1v"
1U
0n"
0l"
1T
0p"
1S
0t"
13"
1z"
0{"
0x"
10"
1~"
0}"
1."
1&#
1%#
0O
0)#
1*#
1(#
0)"
01#
0/#
1N
11#
1/#
1L
1=#
1;#
1I
1M#
1L#
0J#
1K#
1w!
1Q#
0O#
1s!
0R#
1T#
1o!
1Z#
1Y#
0W#
1X#
1l!
1^#
0_#
0\#
1$
0G
1R#
0T#
0o!
0Z#
0Y#
1W#
0X#
0l!
0^#
1_#
1\#
0$
1E
1^#
0_#
0\#
1$
0n!
0m!
0v!
0t!
0z!
0(
0%
1$"
1*"
1-"
17"
02
02"
01
10
0:"
09"
0<"
1?"
1A"
0E"
0D"
0G"
0h!
0J"
0:
1<
0~!
0|!
0}!
0*
0i!
0;
06
1/
1,
0)
#53000
b10101011110011010001001000110100 !
b0 "
0&!
0$!
0#!
0!!
0}
1a#
1K"
0`#
0j!
0{
1S"
0H"
1W"
0F"
1]"
1Z"
0y
1_"
1["
0\"
0C"
1`"
0x
1a"
0@"
0g"
1h"
1e"
0f"
0>"
1i"
0;"
1n"
1l"
0w
0u
1m"
08"
1p"
0t
1q"
0r"
06"
1t"
03"
0z"
1{"
1x"
00"
0~"
1}"
0."
0&#
0%#
0r
0q
0o
0m
0k
0i
1J#
0K#
0w!
0Q#
1O#
0s!
0U#
0h
0f
0e
1_#
1\#
0$
0d
0b#
0D
0c
0C
0a
0A
1`
1d#
1@
0]
1L"
0M"
0=
0Z
0Y"
0Y
0^"
0V
0k"
0U
0o"
0S
0v"
1R
1z"
1Q
1~"
1M
17#
16#
1K
1C#
1B#
1G
1U#
1v!
1t!
07"
0?"
0I"
1n!
1m!
0r!
0p!
0x!
1z!
0-"
1:"
19"
12
12"
11
00
0A"
1E"
1D"
0="
05
1h!
09
0<
1i!
1;
0/
1)
0q!
0&
1%
#63000
b0 !
b10010001101000101011001111000 "
1#!
1A
1"!
1!!
1~
1>
1{
0S"
1H"
1Y"
1z
0X"
1F"
1^"
1x
0a"
1@"
1g"
1v
1r
0{"
0x"
10"
0|"
1."
1&#
1%#
1p
0"#
1##
1,"
1)#
1o
0*#
0(#
1)"
0.#
0+#
1-#
1%"
05#
02#
14#
1#"
0:#
08#
1!"
0A#
0>#
1@#
1{!
1H#
1k
0?#
1h
0b
0c#
0B
0`
0_
0[
0V"
0U"
1S"
0H"
0Y"
1X"
0F"
0^"
0X
0c"
0b"
1a"
0@"
0g"
0T
0s"
0R
0z"
1{"
1x"
00"
1|"
0."
0&#
0%#
1"#
0##
0,"
0)#
1*#
1(#
0)"
1.#
1+#
0-#
0%"
15#
12#
04#
0#"
1:#
18#
0!"
1A#
1>#
0Q
0~"
0N
01#
0/#
0M
07#
06#
0L
0=#
0;#
0K
0C#
0B#
1?#
0@#
0{!
0H#
0I
0M#
0L#
0G
0U#
0E
0^#
0n!
0m!
0v!
0t!
0z!
0$"
0("
0&"
0*"
01"
0:"
09"
1x!
1-"
0+"
0.
0'"
0-
0,
1/"
1/
02"
01
10
1?"
1I"
1J"
1:
16
1(
04
0)
0u!
0'
0%
#73000
b10001000100010100010001110111 !
b11101110101010100000000000000000 "
0#!
0A
0"!
0d#
0@
0!!
0?
0~
0>
0{
0z
0x
0v
1s
0r
1q
0p
1m
1j
1i
0h
1g
1f
1e
1d
1b#
1D
1c
1C
1b
1c#
1B
1`
1d#
1@
1_
1?
1^
1>
1Z
1Y"
1V
1k"
1T
1s"
1P
1&#
1%#
1L
1=#
1;#
1H
1Q#
1$"
1:"
19"
1n!
1m!
1r!
1p!
1v!
1t!
1z!
1~!
1|!
1("
1&"
11"
05"
04"
17"
0E"
0D"
0h!
0i!
0;
08
13
02
12"
11
1'"
1-
1}!
1*
1)
1u!
1'
1q!
1&
1%
14
1,
#83000
b1010101010101010101010101010101 !
b10101010101010101010101010101010 "
1%!
1#!
1A
1!!
1}
0a#
0K"
1M"
1=
1{
1y
1w
1u
0j
0f
0c
0_
1\
1Q"
1X
1c"
1b"
1R
1z"
1N
11#
1/#
1J
1H#
1F
1Z#
1Y#
1*"
15"
14"
1E"
1D"
1k!
1<"
1A"
1G"
1h!
1i!
1;
19
1B"
17
1="
15
1<
18
12
1+"
1.
#93000
b10000000010100011001100001100000 !
b10000000100001101011101000111110 "
1$!
1"!
0}
1a#
1K"
0M"
0=
1x
0a"
1@"
1g"
0h"
0e"
1f"
1>"
0i"
1;"
1o"
0m"
18"
0p"
1r"
16"
1v"
0u"
13"
0y"
0w"
10"
1~"
0}"
1."
0$#
0!#
1##
1,"
1)#
0*#
0(#
1)"
0.#
0+#
1-#
1%"
17#
16#
03#
14#
1#"
0:#
08#
1!"
1C#
1B#
0?#
1@#
1{!
0G#
0D#
1F#
1y!
1M#
1L#
0J#
1K#
1w!
0P#
0N#
1s!
1U#
0S#
1T#
1o!
0V#
1X#
1l!
1^#
0_#
0\#
1$
1r
0{"
0x"
0q
1}"
0."
1$#
1!#
0##
0,"
0)#
1*#
1(#
0)"
1.#
1+#
0-#
0%"
07#
06#
13#
04#
0#"
1:#
18#
0!"
0C#
0B#
1?#
0@#
0{!
1G#
1D#
0F#
0y!
0M#
0L#
1J#
0K#
0w!
1P#
1N#
0s!
0U#
1S#
0T#
0o!
1V#
0X#
0l!
0^#
1_#
1\#
0$
0o
0k
0i
0g
0d
0b#
0D
0b
0`
1_
0\
0Q"
0Z
0Y"
1Y
1^"
0_"
0["
1\"
1C"
0`"
0V
1i"
0;"
0o"
1m"
08"
1p"
0r"
06"
0v"
1u"
03"
1y"
1w"
1U
1o"
0m"
18"
0p"
1r"
16"
1v"
0u"
13"
0y"
0w"
0R
1y"
1w"
0L
0=#
0;#
0J
0H#
0H
0Q#
0F
0Z#
0Y#
1E
1^#
0_#
0\#
1$
0n!
0m!
0r!
0p!
0x!
0~!
0|!
0$"
0<"
0?"
0G"
08
0I"
0k!
0v!
0t!
0z!
0""
0-"
01"
0E"
0D"
0B"
07
0="
05
04
03
02
0/
0,
0+
0}!
0*
0)
0(
0u!
0'
0q!
0&
0%
18
0<
0J"
0:
09
#98000
b11111010110111000000011100100000 !
b110111000000100000010000 "
0%!
0C
0$!
0c#
0B
0#!
0A
0!!
0{
0x
1a"
0w
1h"
1e"
0f"
0>"
0k"
0u
1m"
08"
1p"
0r"
06"
0v"
1u"
03"
0z"
1{"
1x"
00"
0~"
0s
1q
1p
0"#
1##
1,"
1)#
1n
00#
0,#
1-#
1%"
17#
16#
03#
14#
1#"
1=#
1;#
0e
1_#
1\#
0$
0^
0>
1\
1Q"
1[
1V"
1U"
1Z
1Y"
0Y
0^"
1_"
1["
0\"
0C"
1`"
0@"
0g"
0X
0c"
0b"
0U
0o"
0T
0s"
1R
1z"
0{"
0x"
10"
1~"
0}"
1."
0$#
0!#
1Q
0|"
1M
05#
02#
1K
1C#
1B#
1I
1M#
1L#
1H
1Q#
1G
1U#
1F
1Z#
1Y#
1r!
1p!
1v!
1t!
1x!
1z!
1""
0("
0&"
05"
04"
00
0:"
09"
1G"
08
1B"
17
1I"
1k!
1n!
1m!
0*"
1,
0/"
1/
07"
0A"
06
0B"
07
10
0+"
0.
1%
1<
1J"
1:
19
1+
1)
1(
1u!
1'
1q!
1&
#106000
b1000000100101100010000001001000 !
b100000010010000100000010010110 "
1%!
1C
1$!
1c#
1B
1}
0a#
0K"
1M"
1=
0y
1v
0r
1{"
1x"
00"
1|"
0p
1"#
0m
13#
1g
0S#
1T#
1o!
0V#
1X#
1l!
0]#
0[#
1$
1a
1A
0_
0?
1^
1>
0\
0Q"
0[
0V"
0U"
0Z
0Y"
1W
1g"
1S
1v"
0Q
0~"
1}"
0."
1$#
1!#
0##
0,"
0)#
0N
01#
0/#
10#
1,#
0-#
0%"
15#
12#
04#
0#"
0=#
0;#
0K
0C#
0B#
0I
0M#
0L#
0H
0Q#
0G
0U#
1S#
0T#
0o!
1V#
0X#
0l!
1]#
1[#
0$
0E
0^#
0n!
0m!
0x!
0z!
0""
1*"
0'"
0-
0,
11"
00
0/
17"
1A"
0I"
0h!
0k!
0%
1("
1&"
1/"
15"
14"
1?"
0G"
09
16
12
10
1'"
1-
0<
0i!
0;
0J"
0:
1B"
17
13
1+"
1.
0+
0)
0(
