lockednetlistsimulation/32xor/underdesigned_multiplier/sim/underdesigned_multiplier8_gatesim.vcd
$date
	Thu Oct  8 15:40:03 2020
$end
$version
	ModelSim Version 6.6d
$end
$timescale
	1ps
$end
$scope module underdesigned_multiplier8_tb $end
$var reg 8 ! operand1_i [7:0] $end
$var reg 8 " operand2_i [7:0] $end
$var reg 32 # keyinput [31:0] $end
$var wire 1 $ result_o [15] $end
$var wire 1 % result_o [14] $end
$var wire 1 & result_o [13] $end
$var wire 1 ' result_o [12] $end
$var wire 1 ( result_o [11] $end
$var wire 1 ) result_o [10] $end
$var wire 1 * result_o [9] $end
$var wire 1 + result_o [8] $end
$var wire 1 , result_o [7] $end
$var wire 1 - result_o [6] $end
$var wire 1 . result_o [5] $end
$var wire 1 / result_o [4] $end
$var wire 1 0 result_o [3] $end
$var wire 1 1 result_o [2] $end
$var wire 1 2 result_o [1] $end
$var wire 1 3 result_o [0] $end
$scope module unmul $end
$var wire 1 4 op1_i [7] $end
$var wire 1 5 op1_i [6] $end
$var wire 1 6 op1_i [5] $end
$var wire 1 7 op1_i [4] $end
$var wire 1 8 op1_i [3] $end
$var wire 1 9 op1_i [2] $end
$var wire 1 : op1_i [1] $end
$var wire 1 ; op1_i [0] $end
$var wire 1 < op2_i [7] $end
$var wire 1 = op2_i [6] $end
$var wire 1 > op2_i [5] $end
$var wire 1 ? op2_i [4] $end
$var wire 1 @ op2_i [3] $end
$var wire 1 A op2_i [2] $end
$var wire 1 B op2_i [1] $end
$var wire 1 C op2_i [0] $end
$var wire 1 D keyinput [31] $end
$var wire 1 E keyinput [30] $end
$var wire 1 F keyinput [29] $end
$var wire 1 G keyinput [28] $end
$var wire 1 H keyinput [27] $end
$var wire 1 I keyinput [26] $end
$var wire 1 J keyinput [25] $end
$var wire 1 K keyinput [24] $end
$var wire 1 L keyinput [23] $end
$var wire 1 M keyinput [22] $end
$var wire 1 N keyinput [21] $end
$var wire 1 O keyinput [20] $end
$var wire 1 P keyinput [19] $end
$var wire 1 Q keyinput [18] $end
$var wire 1 R keyinput [17] $end
$var wire 1 S keyinput [16] $end
$var wire 1 T keyinput [15] $end
$var wire 1 U keyinput [14] $end
$var wire 1 V keyinput [13] $end
$var wire 1 W keyinput [12] $end
$var wire 1 X keyinput [11] $end
$var wire 1 Y keyinput [10] $end
$var wire 1 Z keyinput [9] $end
$var wire 1 [ keyinput [8] $end
$var wire 1 \ keyinput [7] $end
$var wire 1 ] keyinput [6] $end
$var wire 1 ^ keyinput [5] $end
$var wire 1 _ keyinput [4] $end
$var wire 1 ` keyinput [3] $end
$var wire 1 a keyinput [2] $end
$var wire 1 b keyinput [1] $end
$var wire 1 c keyinput [0] $end
$var wire 1 $ product_o [15] $end
$var wire 1 % product_o [14] $end
$var wire 1 & product_o [13] $end
$var wire 1 ' product_o [12] $end
$var wire 1 ( product_o [11] $end
$var wire 1 ) product_o [10] $end
$var wire 1 * product_o [9] $end
$var wire 1 + product_o [8] $end
$var wire 1 , product_o [7] $end
$var wire 1 - product_o [6] $end
$var wire 1 . product_o [5] $end
$var wire 1 / product_o [4] $end
$var wire 1 0 product_o [3] $end
$var wire 1 1 product_o [2] $end
$var wire 1 2 product_o [1] $end
$var wire 1 3 product_o [0] $end
$var wire 1 d n158 $end
$var wire 1 e n159 $end
$var wire 1 f n160 $end
$var wire 1 g n161 $end
$var wire 1 h xenc14 $end
$var wire 1 i n162 $end
$var wire 1 j n163 $end
$var wire 1 k n171 $end
$var wire 1 l n170 $end
$var wire 1 m n174 $end
$var wire 1 n n175 $end
$var wire 1 o xenc23 $end
$var wire 1 p xenc26 $end
$var wire 1 q n183 $end
$var wire 1 r n236 $end
$var wire 1 s n208 $end
$var wire 1 t n232 $end
$var wire 1 u n229 $end
$var wire 1 v n230 $end
$var wire 1 w n221 $end
$var wire 1 x n234 $end
$var wire 1 y n235 $end
$var wire 1 z n274 $end
$var wire 1 { n275 $end
$var wire 1 | n272 $end
$var wire 1 } n298 $end
$var wire 1 ~ n261 $end
$var wire 1 !! n268 $end
$var wire 1 "! n320 $end
$var wire 1 #! n319 $end
$var wire 1 $! n169 $end
$var wire 1 %! xenc9 $end
$var wire 1 &! n333 $end
$var wire 1 '! n327 $end
$var wire 1 (! n331 $end
$var wire 1 )! n334 $end
$var wire 1 *! n335 $end
$var wire 1 +! n336 $end
$var wire 1 ,! n337 $end
$var wire 1 -! n329 $end
$var wire 1 .! n340 $end
$var wire 1 /! n341 $end
$var wire 1 0! n338 $end
$var wire 1 1! xenc31 $end
$var wire 1 2! n347 $end
$var wire 1 3! n343 $end
$var wire 1 4! n350 $end
$var wire 1 5! n351 $end
$var wire 1 6! n332 $end
$var wire 1 7! n352 $end
$var wire 1 8! n353 $end
$var wire 1 9! n354 $end
$var wire 1 :! n355 $end
$var wire 1 ;! n356 $end
$var wire 1 <! n357 $end
$var wire 1 =! n380 $end
$var wire 1 >! n381 $end
$var wire 1 ?! n382 $end
$var wire 1 @! n383 $end
$var wire 1 A! n378 $end
$var wire 1 B! n379 $end
$var wire 1 C! n314 $end
$var wire 1 D! n313 $end
$var wire 1 E! n396 $end
$var wire 1 F! n391 $end
$var wire 1 G! n368 $end
$var wire 1 H! n392 $end
$var wire 1 I! n389 $end
$var wire 1 J! n415 $end
$var wire 1 K! n416 $end
$var wire 1 L! n385 $end
$var wire 1 M! n417 $end
$var wire 1 N! n418 $end
$var wire 1 O! n386 $end
$var wire 1 P! n289 $end
$var wire 1 Q! n288 $end
$var wire 1 R! n312 $end
$var wire 1 S! n303 $end
$var wire 1 T! n422 $end
$var wire 1 U! n309 $end
$var wire 1 V! n456 $end
$var wire 1 W! n457 $end
$var wire 1 X! n455 $end
$var wire 1 Y! n462 $end
$var wire 1 Z! n435 $end
$var wire 1 [! xenc4 $end
$var wire 1 \! n441 $end
$var wire 1 ]! n420 $end
$var wire 1 ^! n243 $end
$var wire 1 _! n244 $end
$var wire 1 `! n215 $end
$var wire 1 a! n247 $end
$var wire 1 b! n245 $end
$var wire 1 c! n246 $end
$var wire 1 d! n278 $end
$var wire 1 e! n276 $end
$var wire 1 f! n277 $end
$var wire 1 g! n280 $end
$var wire 1 h! xenc1 $end
$var wire 1 i! n478 $end
$var wire 1 j! n479 $end
$var wire 1 k! n282 $end
$var wire 1 l! n279 $end
$var wire 1 m! n283 $end
$var wire 1 n! n284 $end
$var wire 1 o! n149 $end
$var wire 1 p! n316 $end
$var wire 1 q! n374 $end
$var wire 1 r! n167 $end
$var wire 1 s! n480 $end
$var wire 1 t! n194 $end
$var wire 1 u! n195 $end
$var wire 1 v! n143 $end
$var wire 1 w! n164 $end
$var wire 1 x! n318 $end
$var wire 1 y! n166 $end
$var wire 1 z! n315 $end
$var wire 1 {! n317 $end
$var wire 1 |! n192 $end
$var wire 1 }! n193 $end
$var wire 1 ~! n184 $end
$var wire 1 !" n372 $end
$var wire 1 "" n373 $end
$var wire 1 #" n216 $end
$var wire 1 $" n249 $end
$var wire 1 %" n250 $end
$var wire 1 &" n251 $end
$var wire 1 '" xenc22 $end
$var wire 1 (" n481 $end
$var wire 1 )" n419 $end
$var wire 1 *" n348 $end
$var wire 1 +" xenc25 $end
$var wire 1 ," n342 $end
$var wire 1 -" xenc0 $end
$var wire 1 ." n273 $end
$var wire 1 /" n286 $end
$var wire 1 0" n148 $end
$var wire 1 1" n377 $end
$var wire 1 2" n447 $end
$var wire 1 3" n448 $end
$var wire 1 4" n449 $end
$var wire 1 5" n444 $end
$var wire 1 6" n445 $end
$var wire 1 7" n294 $end
$var wire 1 8" n446 $end
$var wire 1 9" n291 $end
$var wire 1 :" n292 $end
$var wire 1 ;" n295 $end
$var wire 1 <" n296 $end
$var wire 1 =" n293 $end
$var wire 1 >" n285 $end
$var wire 1 ?" n287 $end
$var wire 1 @" n344 $end
$var wire 1 A" n345 $end
$var wire 1 B" xenc6 $end
$var wire 1 C" n213 $end
$var wire 1 D" n214 $end
$var wire 1 E" n212 $end
$var wire 1 F" n375 $end
$var wire 1 G" xenc2 $end
$var wire 1 H" n150 $end
$var wire 1 I" n376 $end
$var wire 1 J" n431 $end
$var wire 1 K" n182 $end
$var wire 1 L" n197 $end
$var wire 1 M" n198 $end
$var wire 1 N" n199 $end
$var wire 1 O" n311 $end
$var wire 1 P" n145 $end
$var wire 1 Q" n200 $end
$var wire 1 R" n228 $end
$var wire 1 S" n147 $end
$var wire 1 T" n191 $end
$var wire 1 U" xenc16 $end
$var wire 1 V" n270 $end
$var wire 1 W" n271 $end
$var wire 1 X" n222 $end
$var wire 1 Y" n482 $end
$var wire 1 Z" n226 $end
$var wire 1 [" n225 $end
$var wire 1 \" n227 $end
$var wire 1 ]" n483 $end
$var wire 1 ^" xenc30 $end
$var wire 1 _" n231 $end
$var wire 1 `" n233 $end
$var wire 1 a" n211 $end
$var wire 1 b" n201 $end
$var wire 1 c" n346 $end
$var wire 1 d" n443 $end
$var wire 1 e" n442 $end
$var wire 1 f" n470 $end
$var wire 1 g" n304 $end
$var wire 1 h" xenc15 $end
$var wire 1 i" n153 $end
$var wire 1 j" n409 $end
$var wire 1 k" n155 $end
$var wire 1 l" n402 $end
$var wire 1 m" n151 $end
$var wire 1 n" n157 $end
$var wire 1 o" n460 $end
$var wire 1 p" n452 $end
$var wire 1 q" n154 $end
$var wire 1 r" n152 $end
$var wire 1 s" n425 $end
$var wire 1 t" n369 $end
$var wire 1 u" n349 $end
$var wire 1 v" n370 $end
$var wire 1 w" n371 $end
$var wire 1 x" n454 $end
$var wire 1 y" n414 $end
$var wire 1 z" n384 $end
$var wire 1 {" n297 $end
$var wire 1 |" n267 $end
$var wire 1 }" n269 $end
$var wire 1 ~" n458 $end
$var wire 1 !# n450 $end
$var wire 1 "# n451 $end
$var wire 1 ## n453 $end
$var wire 1 $# n401 $end
$var wire 1 %# xenc5 $end
$var wire 1 &# xenc13 $end
$var wire 1 '# n406 $end
$var wire 1 (# n393 $end
$var wire 1 )# n394 $end
$var wire 1 *# xenc3 $end
$var wire 1 +# n395 $end
$var wire 1 ,# n403 $end
$var wire 1 -# xenc24 $end
$var wire 1 .# n405 $end
$var wire 1 /# n404 $end
$var wire 1 0# n305 $end
$var wire 1 1# n306 $end
$var wire 1 2# n310 $end
$var wire 1 3# n307 $end
$var wire 1 4# xenc8 $end
$var wire 1 5# xenc27 $end
$var wire 1 6# n484 $end
$var wire 1 7# n471 $end
$var wire 1 8# n472 $end
$var wire 1 9# n473 $end
$var wire 1 :# n397 $end
$var wire 1 ;# n398 $end
$var wire 1 <# n399 $end
$var wire 1 =# n180 $end
$var wire 1 ># n181 $end
$var wire 1 ?# n263 $end
$var wire 1 @# n262 $end
$var wire 1 A# n437 $end
$var wire 1 B# n436 $end
$var wire 1 C# n255 $end
$var wire 1 D# n242 $end
$var wire 1 E# xenc10 $end
$var wire 1 F# n321 $end
$var wire 1 G# n325 $end
$var wire 1 H# n210 $end
$var wire 1 I# n209 $end
$var wire 1 J# n323 $end
$var wire 1 K# n324 $end
$var wire 1 L# n326 $end
$var wire 1 M# n241 $end
$var wire 1 N# n252 $end
$var wire 1 O# xenc18 $end
$var wire 1 P# n421 $end
$var wire 1 Q# n290 $end
$var wire 1 R# xenc21 $end
$var wire 1 S# n328 $end
$var wire 1 T# n172 $end
$var wire 1 U# n322 $end
$var wire 1 V# n177 $end
$var wire 1 W# n430 $end
$var wire 1 X# n144 $end
$var wire 1 Y# n220 $end
$var wire 1 Z# n339 $end
$var wire 1 [# n330 $end
$var wire 1 \# n190 $end
$var wire 1 ]# xenc29 $end
$var wire 1 ^# n461 $end
$var wire 1 _# n438 $end
$var wire 1 `# n439 $end
$var wire 1 a# n440 $end
$var wire 1 b# xenc12 $end
$var wire 1 c# n433 $end
$var wire 1 d# n432 $end
$var wire 1 e# n434 $end
$var wire 1 f# n358 $end
$var wire 1 g# n359 $end
$var wire 1 h# n360 $end
$var wire 1 i# n258 $end
$var wire 1 j# n259 $end
$var wire 1 k# n260 $end
$var wire 1 l# n361 $end
$var wire 1 m# n362 $end
$var wire 1 n# n363 $end
$var wire 1 o# n387 $end
$var wire 1 p# n388 $end
$var wire 1 q# n390 $end
$var wire 1 r# n264 $end
$var wire 1 s# n265 $end
$var wire 1 t# n266 $end
$var wire 1 u# n218 $end
$var wire 1 v# n219 $end
$var wire 1 w# n188 $end
$var wire 1 x# n204 $end
$var wire 1 y# n205 $end
$var wire 1 z# n206 $end
$var wire 1 {# n207 $end
$var wire 1 |# n463 $end
$var wire 1 }# n464 $end
$var wire 1 ~# xenc28 $end
$var wire 1 !$ n465 $end
$var wire 1 "$ xenc19 $end
$var wire 1 #$ n300 $end
$var wire 1 $$ n299 $end
$var wire 1 %$ n301 $end
$var wire 1 &$ n237 $end
$var wire 1 '$ n238 $end
$var wire 1 ($ n239 $end
$var wire 1 )$ xenc7 $end
$var wire 1 *$ xenc20 $end
$var wire 1 +$ n173 $end
$var wire 1 ,$ n410 $end
$var wire 1 -$ n411 $end
$var wire 1 .$ n407 $end
$var wire 1 /$ n408 $end
$var wire 1 0$ n400 $end
$var wire 1 1$ n186 $end
$var wire 1 2$ n146 $end
$var wire 1 3$ n187 $end
$var wire 1 4$ n485 $end
$var wire 1 5$ n366 $end
$var wire 1 6$ n367 $end
$var wire 1 7$ n468 $end
$var wire 1 8$ n469 $end
$var wire 1 9$ n256 $end
$var wire 1 :$ n257 $end
$var wire 1 ;$ n476 $end
$var wire 1 <$ n477 $end
$var wire 1 =$ n466 $end
$var wire 1 >$ n467 $end
$var wire 1 ?$ n364 $end
$var wire 1 @$ n365 $end
$var wire 1 A$ xenc11 $end
$var wire 1 B$ n429 $end
$var wire 1 C$ n308 $end
$var wire 1 D$ n428 $end
$var wire 1 E$ n423 $end
$var wire 1 F$ n424 $end
$var wire 1 G$ n302 $end
$var wire 1 H$ n253 $end
$var wire 1 I$ n254 $end
$var wire 1 J$ n240 $end
$var wire 1 K$ n426 $end
$var wire 1 L$ n427 $end
$var wire 1 M$ n412 $end
$var wire 1 N$ xenc17 $end
$var wire 1 O$ n413 $end
$var wire 1 P$ n223 $end
$var wire 1 Q$ n224 $end
$var wire 1 R$ n156 $end
$var wire 1 S$ n474 $end
$var wire 1 T$ n475 $end
$var wire 1 U$ n202 $end
$var wire 1 V$ n203 $end
$var wire 1 W$ n189 $end
$var wire 1 X$ n486 $end
$var wire 1 Y$ n178 $end
$var wire 1 Z$ n179 $end
$upscope $end
$upscope $end
$enddefinitions $end
#0
$dumpvars
b0 !
b0 "
b1100110101100011010111111011111 #
03
02
01
00
0/
0.
0-
0,
0+
0*
0)
0(
0'
0&
0%
0$
0d
0e
1f
1g
0h
1i
0j
0k
0l
0m
0n
1o
1p
0q
1r
0s
1t
0u
0v
0w
0x
0y
0z
0{
0|
1}
0~
1!!
0"!
0#!
0$!
0%!
0&!
0'!
0(!
0)!
0*!
1+!
0,!
1-!
1.!
0/!
10!
01!
02!
03!
04!
05!
06!
07!
08!
09!
0:!
1;!
1<!
0=!
0>!
1?!
1@!
0A!
0B!
1C!
1D!
1E!
1F!
0G!
1H!
0I!
1J!
0K!
1L!
1M!
0N!
1O!
0P!
0Q!
0R!
0S!
1T!
1U!
1V!
0W!
1X!
1Y!
0Z!
1[!
0\!
1]!
1^!
1_!
0`!
0a!
0b!
0c!
0d!
1e!
1f!
0g!
0h!
1i!
1j!
1k!
0l!
1m!
1n!
0o!
1p!
1q!
1r!
1s!
0t!
0u!
0v!
0w!
0x!
1y!
1z!
0{!
1|!
1}!
0~!
0!"
1""
0#"
1$"
1%"
1&"
0'"
0("
0)"
1*"
0+"
1,"
0-"
0."
1/"
00"
01"
12"
13"
04"
15"
16"
07"
08"
19"
1:"
0;"
0<"
0="
0>"
1?"
1@"
1A"
1B"
1C"
0D"
1E"
0F"
1G"
1H"
1I"
1J"
0K"
1L"
1M"
1N"
0O"
0P"
1Q"
1R"
0S"
1T"
1U"
1V"
1W"
0X"
1Y"
0Z"
1["
1\"
1]"
1^"
0_"
1`"
1a"
1b"
0c"
1d"
1e"
1f"
0g"
0h"
1i"
1j"
1k"
0l"
1m"
1n"
1o"
0p"
1q"
1r"
1s"
1t"
0u"
1v"
1w"
1x"
0y"
1z"
0{"
0|"
1}"
0~"
0!#
1"#
0##
0$#
1%#
0&#
1'#
1(#
1)#
0*#
0+#
1,#
1-#
0.#
1/#
10#
11#
12#
03#
04#
15#
16#
17#
18#
09#
1:#
1;#
0<#
1=#
1>#
1?#
1@#
1A#
1B#
1C#
0D#
1E#
1F#
0G#
1H#
1I#
0J#
1K#
0L#
0M#
1N#
0O#
0P#
0Q#
1R#
1S#
0T#
0U#
0V#
0W#
0X#
1Y#
1Z#
1[#
1\#
1]#
0^#
1_#
1`#
0a#
1b#
1c#
1d#
0e#
1f#
1g#
0h#
1i#
1j#
0k#
1l#
1m#
0n#
1o#
1p#
0q#
1r#
1s#
0t#
0u#
1v#
0w#
0x#
1y#
1z#
0{#
1|#
1}#
0~#
0!$
1"$
1#$
1$$
0%$
1&$
1'$
0($
0)$
1*$
1+$
1,$
1-$
1.$
1/$
00$
11$
02$
13$
14$
15$
16$
17$
18$
19$
1:$
1;$
1<$
1=$
1>$
1?$
1@$
1A$
1B$
0C$
1D$
1E$
1F$
0G$
1H$
1I$
0J$
1K$
1L$
1M$
1N$
1O$
0P$
1Q$
1R$
1S$
1T$
1U$
1V$
1W$
1X$
1Y$
1Z$
1c
1b
1a
1`
1_
0^
1]
1\
1[
1Z
1Y
1X
0W
1V
0U
1T
1S
0R
0Q
0P
1O
1N
0M
1L
0K
1J
1I
0H
0G
1F
1E
0D
0C
0B
0A
0@
0?
0>
0=
0<
0;
0:
09
08
07
06
05
04
$end
#10000
b101001 !
b1111010 "
1B
1@
1?
0k"
1>
1=
0q"
1;
0Z$
12
06$
1J#
1n#
0o"
0-$
1$#
1<#
0i"
1y"
18
1/!
1I!
0E$
1G$
0;$
0x"
19#
0d"
1a#
16
0K$
1S!
1%$
0e"
0_#
1<"
1="
0?#
1k#
09$
1M#
1($
0v"
1+#
0t"
1*#
1v
0}
0J"
0U!
13#
0@!
14"
1h"
0#$
1~
0j#
1y
0E!
00!
1,!
1:!
15!
1n
10
16!
1*!
0-!
0S#
1T#
0[#
1G!
0)#
1B!
0T!
1u
0\"
1Z"
0["
1>!
1Q!
1P!
0?"
1>"
0m!
0k!
1l!
1h!
17!
0*$
1P$
0Y#
1u#
1D"
1X#
1U!
03#
18!
0""
1!"
1j
0R#
1'!
0T#
1(!
1#!
1%!
1"!
0r!
1("
1x!
0f
0Q!
1?"
0>"
1m!
1k!
0l!
1'
1)
1R!
0h!
1h
1,
1+
0)
0C!
1e
1*
#20000
b10001 !
b10001 "
1C
0M$
0<!
1.#
0/#
0?$
1L#
0m#
0Z#
1h#
0g#
1)!
0*"
0n"
13
0B
1Z$
02
0/!
1g#
0)!
1*"
1v"
0+#
0@
0I!
1e"
1_#
0<"
0="
16$
0J#
0n#
1m#
1Z#
0h#
0>
1?#
0k#
1j#
0y
1d"
0a#
1-$
0$#
0<#
0=
1E$
0G$
1q"
19$
0M#
0($
1o"
08
1?$
0L#
1;$
1x"
09#
17
0+!
0s"
0;!
0,#
0w"
1+#
06
1M$
1<!
1,#
1w"
0+#
1K$
0S!
0%$
1#$
0~
0U!
13#
0!!
1t#
1K!
1-!
0'!
1T#
0#!
1r!
0("
0x!
1@!
04"
05!
0v
1\"
0Z"
1["
0h"
0:!
1/#
1}
0u
0n
1J"
1E!
1t"
0*#
1)#
0B!
10!
1[#
19!
1R#
1S#
0T#
08!
1""
0!"
0j
1u"
0G!
0P!
00
1!!
0t#
1T!
1*$
0P$
1Y#
0u#
0D"
0X#
06!
0>!
1l
1$!
0,
0L!
0z"
11"
0H"
1F"
0q!
1!"
1j
1o!
1Q!
1-
1.
07!
0%!
0'
1U!
03#
0u"
0Q!
0"!
0$!
0R!
1C!
0-
0e
0*
#30000
b10000001 !
b11100 "
0C
1n"
03
1+!
1;!
0.#
1A
0R$
04$
1@
0T$
1W!
06$
1J#
1n#
07
1T$
0W!
14$
1s"
14
0H$
1J$
0D$
0}"
1t#
1{"
0A$
1C$
1O#
0K!
1n
0E#
1U#
09!
0-!
0S#
1T#
1)$
0*!
1V#
10
1L!
1z"
01"
1H"
0F"
1q!
0!"
0j
0o!
0N#
14#
1z
1|
1P#
1v
1f
11
0(!
1/
0l
0h
1w
1Q!
0/"
1>"
0m!
0k!
1l!
10"
1h!
1R!
0%"
0$"
1b!
0+
0.
1(
0C!
1)
1e
1*
#50000
b1000100 !
b111011 "
1C
0=$
1##
0n"
13
1B
0Z$
12
0B#
1e#
0A
1R$
1D$
1>
0I#
1{#
0-$
1$#
1<#
0;
1Z$
02
16$
0J#
0n#
1-$
0$#
0<#
1i"
03
0U#
0y"
19
0F#
0@$
1L#
0<$
0x"
19#
0/$
10$
0r"
1~"
15
0I$
0B$
0>$
0m"
1^#
1Q#
04
1H$
1=$
1I#
0{#
1B#
0e#
1}"
0t#
0{"
1."
0W"
1X"
15!
14!
0?!
14"
1&#
0@!
02"
1)"
0K#
0,!
1A$
1E#
0"#
1=!
03"
1-!
1S#
0T#
1N!
0'#
1/"
0>"
1m!
1k!
0l!
00"
1'"
0v#
1u#
1D"
0z
0|
1W"
0X"
1%"
1$"
0b!
1'
0h!
0%#
0O!
0z"
11"
0H"
1F"
0q!
1!"
1j
1o!
0)$
17!
12!
0/
0f
1:!
0)
0(
0/"
1>"
0m!
0k!
1l!
10"
0'"
1v#
0u#
0D"
0%"
0$"
1b!
0'
1h!
1*!
1h
13!
1-"
1+
1(!
1)
1(
1l
1w!
1,
1.
#70000
b10001001 !
b11111111 "
1A
0R$
0J!
0j"
1=
0Q$
1P$
0Y#
1u#
1D"
1X#
0q"
1W#
1<
0V$
0W$
0F$
1G$
1;
0Z$
12
08$
1!#
1!$
06$
1J#
1n#
0m#
0Z#
1h#
0o"
1p"
0|#
1Z!
0-$
1$#
1<#
0;#
0F!
1q#
0i"
13
1y"
1l"
0:#
09
1F#
1F$
0G$
1@$
0L#
1m#
1Z#
0h#
1<$
1x"
09#
1j"
0l"
1:#
1/$
00$
1r"
0W#
0~"
18
1/!
1I!
0p#
1A!
0E$
1G$
0?$
1L#
0m#
0Z#
1h#
0g#
1)!
0*"
0;$
0x"
19#
0@#
1k#
0d"
1a#
0.$
10$
05
1V$
1W$
1Q$
0P$
1Y#
0u#
0D"
0X#
1I$
0J$
1B$
0C$
1>$
0##
1m"
0^#
0Q#
0p"
1|#
0Z!
1J!
14
0U$
0W$
0H$
1J$
0D$
0=$
1##
0I#
1{#
0B#
1e#
0}"
1t#
01$
0o
1{"
0Y!
0r
0A$
1C$
0."
0f"
0}
0(!
1&!
0E!
18!
0""
0p!
0j
1d
1d!
0i!
0f!
1c!
0j!
0_!
1`!
0]"
00!
04!
1?!
12"
0V#
0:!
0M!
18"
06"
17"
0n
0=!
13"
0)"
16"
07"
1~#
0}#
1Z!
0c#
1;"
1="
1h"
0]#
1'
1,!
0E#
1U#
1V#
0-!
0S#
1T#
0N"
0L"
1t!
0T!
1M!
08"
1P!
0?"
0&"
1m!
1k!
0l!
1#"
0b!
1_!
0`!
07!
1""
1p!
1j
0d
0d!
1i!
1f!
0c!
1j!
0N!
00
1O!
1z"
01"
1H"
0F"
1q!
0!"
0j
0o!
0*!
1*"
16!
1>!
0(
1f
1"!
0l
0!!
0r#
1x
0[!
1/"
00"
1&"
0m!
0k!
1l!
0#"
1]"
1b!
0t
1q
1%
0U"
1_"
0R"
1Z"
0["
1P"
1S"
1(
0'
0]!
18"
1u
0\"
0Q"
0M"
1K"
0>#
1$
06#
0t!
1["
0.
1$!
0h
17!
0""
1!"
1j
1%!
0A"
0g
1{!
0z!
1d
1d!
0i!
0f!
1c!
0j!
0_!
1`!
0]"
0,"
1(!
0&!
1A"
1g
0{!
1z!
0d
0d!
1i!
1f!
0c!
1j!
1_!
0`!
1]"
1,"
0R!
0U!
13#
01#
1|"
0s#
1)$
1/
0{"
0Q!
1?"
0>"
1m!
1k!
0l!
1C!
1l
02!
0f
0+
1-
0w
05#
1N!
0O!
0z"
11"
0H"
1F"
0q!
1o!
0p!
0j
1d
1d!
0i!
0f!
1c!
0j!
0_!
1`!
0]"
0%
1%"
1$"
0b!
1_!
0`!
1]"
1h
03!
1.
0e
0d!
1i!
1f!
0c!
1j!
1R!
0h!
1z
1|
0C!
0-"
1+
0(
0)
1f
0h
0w!
1e
1d!
0i!
0/"
1>"
0m!
0k!
1l!
10"
1h!
0f!
1c!
0j!
0*
0,
0+
1(
#80000
b10101011 !
b0 "
0C
1?$
0L#
1m#
1Z#
0h#
1g#
0)!
1=$
0##
1}#
0Z!
1c#
0;"
0="
1n"
03
0B
1Z$
02
0/!
1B#
0e#
0A
1R$
1D$
1.$
00$
0@
0I!
1p#
0A!
16$
0J#
0n#
1}"
1r#
0?
1H$
0J$
1;$
1x"
09#
1k"
0y"
0>
1I#
0{#
1d"
0a#
1-$
0$#
0<#
1;#
1F!
0q#
0=
1U$
1W$
1E$
0G$
1q"
1o"
0<
1@#
0k#
18$
0!#
0!$
11$
1:
16
1o
1=!
03"
1)"
06"
17"
0~#
1}
05!
0h"
1]#
1:!
1G!
1f"
1r
0,!
1@!
04"
13"
0)"
16"
07"
0O#
1{"
1n
1E!
08!
1""
1p!
1j
0d
0d!
1i!
1f!
0c!
1j!
0&#
1A$
0C$
1E#
0U#
1Y!
10!
1"#
0P!
1K#
0(!
0l
0n
0R!
0=!
0V#
04#
11#
0|"
1s#
0x
1'#
12!
1*
0(
1)
0f
0G!
0z
1N#
0>!
1-!
1S#
0T#
1t
1[!
1*!
1N"
0K"
1>#
0$
16#
1t!
1T!
06!
1!!
0t#
07!
0q
1%
02!
1z
0%!
1U!
03#
1&
15#
1(!
1]!
08"
1U"
0_"
1R"
0P"
1Q"
1M"
1L"
0t!
0["
0S"
0)$
0v
1\"
0Z"
1["
1h
1%#
0{"
0u
0P#
01
1C!
0.
0e
0z
0:!
1+
0/
0&
0N!
1l
0%
0"!
0$!
1.
1O!
1z"
01"
1H"
0F"
1q!
0!"
0j
0o!
0*!
0|
0*
1/"
0>"
1m!
1k!
0l!
00"
0(!
1f
0-
0h
0l
0h!
0)
0.
0+
#90000
b110100 !
b10010 "
1B
0Z$
12
0X$
1/!
0B#
1e#
0v"
1+#
1?
0K$
1S!
1%$
0H$
1J$
0;$
0x"
19#
0,$
1$#
1<#
0k"
1y"
0;
1Z$
02
1i"
0y"
0:
1X$
1,$
0$#
0<#
19
0@$
1L#
0r"
1~"
08
0/!
1;$
1x"
09#
17
0O$
0s"
04
1H$
0J$
1B#
0e#
1K!
0N$
0<!
1.#
14!
0K#
0U!
13#
0t"
1*#
1u"
1Q!
1n
16!
19!
0L!
0z"
11"
0H"
1F"
0q!
1!"
1j
1o!
0f
1*!
1%!
10
1R!
1+"
1&!
0,"
0C!
1(!
1h
1+
1l
1e
1w!
1,
1*
1.
#100000
b10001 !
b100000 "
0B
1O$
1@$
0L#
1v"
0+#
0?
1K$
0S!
0%$
1s"
1k"
0~"
1>
0L$
1S!
1%$
0<$
0x"
19#
0?#
1k#
1;
0-$
1$#
1<#
0i"
09
1<$
1x"
09#
1r"
06
1?#
0k#
1:!
0/#
04!
0K!
1t"
0*#
1K#
1N$
1<!
0.#
1/#
09!
0n
0u"
1L!
1z"
01"
1H"
0F"
1q!
0!"
0j
0o!
06!
0%!
1,"
1f
0+"
00
0&!
0h
0w!
0,
0+
#110000
b1010101 !
b10101010 "
1B
0Z$
12
0O$
1@
0T$
1W!
06$
1J#
1n#
1<
0:$
1M#
1($
08$
1!#
1!$
19
0F$
1G$
0@$
1L#
0m#
0Z#
1h#
0<$
0x"
19#
08#
1\!
0/$
10$
0r"
15
0V$
0W$
0I$
1J$
0B$
1C$
0>$
1##
0m"
0"#
14#
01#
1|"
1O#
0'$
1s
0]#
1&#
0;#
0F!
1q#
0@!
14"
0]!
18"
0K#
0[#
1h"
0#$
1~
1~#
0}#
1Z!
1v
0X!
0N$
0<!
1.#
0/#
19!
0-#
0w"
1+#
1@!
04"
1w
0M!
05"
17"
0T!
0!!
1t#
0s#
1x
0R#
0S#
1T#
1N!
0'#
1G!
0N"
0L"
1t!
0N#
0t
1{"
1P#
0Q!
0U"
1_"
0R"
1Z"
0["
1P"
1S"
0v
1&
1u"
0%#
1)$
1u
1U!
03#
11#
0|"
1s#
0x
0J"
0%"
0$"
1b!
0t"
1*#
0)#
1B!
0*!
0(!
18!
0u"
1(
1P!
0{"
0u
1Q!
0?"
1>"
0m!
0k!
1l!
1/
0:!
1/#
0w
0*$
1P$
0Y#
1u#
1D"
1X#
0R!
1C!
1'
1%"
1$"
0b!
1*!
1-#
1w"
0+#
1h!
1z
12!
0l
0.
13!
1|
1)
1t"
0*#
1)#
0B!
1(!
0(
0e
0*
1l
08!
1u"
0/"
10"
0&"
1m!
1k!
0l!
0$"
1b!
1-"
1w!
1(
0h!
1+"
02!
1.
03!
1&!
0)
1,
1"!
0-"
0w!
1$!
1-
0,
