lockednetlistsimulation/partial_key_simulation_random/64aor/ripple_carry_adder/sim/ripple_carry_adder32_gatesim.vcd
$date
	Wed Sep 30 19:31:29 2020
$end
$version
	ModelSim Version 6.6d
$end
$timescale
	1ps
$end
$scope module ripple_carry_adder32_tb $end
$var reg 32 ! add1_i [31:0] $end
$var reg 32 " add2_i [31:0] $end
$var reg 64 # keyinput [63:0] $end
$var wire 1 $ result_o [32] $end
$var wire 1 % result_o [31] $end
$var wire 1 & result_o [30] $end
$var wire 1 ' result_o [29] $end
$var wire 1 ( result_o [28] $end
$var wire 1 ) result_o [27] $end
$var wire 1 * result_o [26] $end
$var wire 1 + result_o [25] $end
$var wire 1 , result_o [24] $end
$var wire 1 - result_o [23] $end
$var wire 1 . result_o [22] $end
$var wire 1 / result_o [21] $end
$var wire 1 0 result_o [20] $end
$var wire 1 1 result_o [19] $end
$var wire 1 2 result_o [18] $end
$var wire 1 3 result_o [17] $end
$var wire 1 4 result_o [16] $end
$var wire 1 5 result_o [15] $end
$var wire 1 6 result_o [14] $end
$var wire 1 7 result_o [13] $end
$var wire 1 8 result_o [12] $end
$var wire 1 9 result_o [11] $end
$var wire 1 : result_o [10] $end
$var wire 1 ; result_o [9] $end
$var wire 1 < result_o [8] $end
$var wire 1 = result_o [7] $end
$var wire 1 > result_o [6] $end
$var wire 1 ? result_o [5] $end
$var wire 1 @ result_o [4] $end
$var wire 1 A result_o [3] $end
$var wire 1 B result_o [2] $end
$var wire 1 C result_o [1] $end
$var wire 1 D result_o [0] $end
$scope module rca $end
$var wire 1 E add1_i [31] $end
$var wire 1 F add1_i [30] $end
$var wire 1 G add1_i [29] $end
$var wire 1 H add1_i [28] $end
$var wire 1 I add1_i [27] $end
$var wire 1 J add1_i [26] $end
$var wire 1 K add1_i [25] $end
$var wire 1 L add1_i [24] $end
$var wire 1 M add1_i [23] $end
$var wire 1 N add1_i [22] $end
$var wire 1 O add1_i [21] $end
$var wire 1 P add1_i [20] $end
$var wire 1 Q add1_i [19] $end
$var wire 1 R add1_i [18] $end
$var wire 1 S add1_i [17] $end
$var wire 1 T add1_i [16] $end
$var wire 1 U add1_i [15] $end
$var wire 1 V add1_i [14] $end
$var wire 1 W add1_i [13] $end
$var wire 1 X add1_i [12] $end
$var wire 1 Y add1_i [11] $end
$var wire 1 Z add1_i [10] $end
$var wire 1 [ add1_i [9] $end
$var wire 1 \ add1_i [8] $end
$var wire 1 ] add1_i [7] $end
$var wire 1 ^ add1_i [6] $end
$var wire 1 _ add1_i [5] $end
$var wire 1 ` add1_i [4] $end
$var wire 1 a add1_i [3] $end
$var wire 1 b add1_i [2] $end
$var wire 1 c add1_i [1] $end
$var wire 1 d add1_i [0] $end
$var wire 1 e add2_i [31] $end
$var wire 1 f add2_i [30] $end
$var wire 1 g add2_i [29] $end
$var wire 1 h add2_i [28] $end
$var wire 1 i add2_i [27] $end
$var wire 1 j add2_i [26] $end
$var wire 1 k add2_i [25] $end
$var wire 1 l add2_i [24] $end
$var wire 1 m add2_i [23] $end
$var wire 1 n add2_i [22] $end
$var wire 1 o add2_i [21] $end
$var wire 1 p add2_i [20] $end
$var wire 1 q add2_i [19] $end
$var wire 1 r add2_i [18] $end
$var wire 1 s add2_i [17] $end
$var wire 1 t add2_i [16] $end
$var wire 1 u add2_i [15] $end
$var wire 1 v add2_i [14] $end
$var wire 1 w add2_i [13] $end
$var wire 1 x add2_i [12] $end
$var wire 1 y add2_i [11] $end
$var wire 1 z add2_i [10] $end
$var wire 1 { add2_i [9] $end
$var wire 1 | add2_i [8] $end
$var wire 1 } add2_i [7] $end
$var wire 1 ~ add2_i [6] $end
$var wire 1 !! add2_i [5] $end
$var wire 1 "! add2_i [4] $end
$var wire 1 #! add2_i [3] $end
$var wire 1 $! add2_i [2] $end
$var wire 1 %! add2_i [1] $end
$var wire 1 &! add2_i [0] $end
$var wire 1 '! keyinput [63] $end
$var wire 1 (! keyinput [62] $end
$var wire 1 )! keyinput [61] $end
$var wire 1 *! keyinput [60] $end
$var wire 1 +! keyinput [59] $end
$var wire 1 ,! keyinput [58] $end
$var wire 1 -! keyinput [57] $end
$var wire 1 .! keyinput [56] $end
$var wire 1 /! keyinput [55] $end
$var wire 1 0! keyinput [54] $end
$var wire 1 1! keyinput [53] $end
$var wire 1 2! keyinput [52] $end
$var wire 1 3! keyinput [51] $end
$var wire 1 4! keyinput [50] $end
$var wire 1 5! keyinput [49] $end
$var wire 1 6! keyinput [48] $end
$var wire 1 7! keyinput [47] $end
$var wire 1 8! keyinput [46] $end
$var wire 1 9! keyinput [45] $end
$var wire 1 :! keyinput [44] $end
$var wire 1 ;! keyinput [43] $end
$var wire 1 <! keyinput [42] $end
$var wire 1 =! keyinput [41] $end
$var wire 1 >! keyinput [40] $end
$var wire 1 ?! keyinput [39] $end
$var wire 1 @! keyinput [38] $end
$var wire 1 A! keyinput [37] $end
$var wire 1 B! keyinput [36] $end
$var wire 1 C! keyinput [35] $end
$var wire 1 D! keyinput [34] $end
$var wire 1 E! keyinput [33] $end
$var wire 1 F! keyinput [32] $end
$var wire 1 G! keyinput [31] $end
$var wire 1 H! keyinput [30] $end
$var wire 1 I! keyinput [29] $end
$var wire 1 J! keyinput [28] $end
$var wire 1 K! keyinput [27] $end
$var wire 1 L! keyinput [26] $end
$var wire 1 M! keyinput [25] $end
$var wire 1 N! keyinput [24] $end
$var wire 1 O! keyinput [23] $end
$var wire 1 P! keyinput [22] $end
$var wire 1 Q! keyinput [21] $end
$var wire 1 R! keyinput [20] $end
$var wire 1 S! keyinput [19] $end
$var wire 1 T! keyinput [18] $end
$var wire 1 U! keyinput [17] $end
$var wire 1 V! keyinput [16] $end
$var wire 1 W! keyinput [15] $end
$var wire 1 X! keyinput [14] $end
$var wire 1 Y! keyinput [13] $end
$var wire 1 Z! keyinput [12] $end
$var wire 1 [! keyinput [11] $end
$var wire 1 \! keyinput [10] $end
$var wire 1 ]! keyinput [9] $end
$var wire 1 ^! keyinput [8] $end
$var wire 1 _! keyinput [7] $end
$var wire 1 `! keyinput [6] $end
$var wire 1 a! keyinput [5] $end
$var wire 1 b! keyinput [4] $end
$var wire 1 c! keyinput [3] $end
$var wire 1 d! keyinput [2] $end
$var wire 1 e! keyinput [1] $end
$var wire 1 f! keyinput [0] $end
$var wire 1 $ result_o [32] $end
$var wire 1 % result_o [31] $end
$var wire 1 & result_o [30] $end
$var wire 1 ' result_o [29] $end
$var wire 1 ( result_o [28] $end
$var wire 1 ) result_o [27] $end
$var wire 1 * result_o [26] $end
$var wire 1 + result_o [25] $end
$var wire 1 , result_o [24] $end
$var wire 1 - result_o [23] $end
$var wire 1 . result_o [22] $end
$var wire 1 / result_o [21] $end
$var wire 1 0 result_o [20] $end
$var wire 1 1 result_o [19] $end
$var wire 1 2 result_o [18] $end
$var wire 1 3 result_o [17] $end
$var wire 1 4 result_o [16] $end
$var wire 1 5 result_o [15] $end
$var wire 1 6 result_o [14] $end
$var wire 1 7 result_o [13] $end
$var wire 1 8 result_o [12] $end
$var wire 1 9 result_o [11] $end
$var wire 1 : result_o [10] $end
$var wire 1 ; result_o [9] $end
$var wire 1 < result_o [8] $end
$var wire 1 = result_o [7] $end
$var wire 1 > result_o [6] $end
$var wire 1 ? result_o [5] $end
$var wire 1 @ result_o [4] $end
$var wire 1 A result_o [3] $end
$var wire 1 B result_o [2] $end
$var wire 1 C result_o [1] $end
$var wire 1 D result_o [0] $end
$var wire 1 g! n886 $end
$var wire 1 h! n972 $end
$var wire 1 i! n812 $end
$var wire 1 j! n816 $end
$var wire 1 k! xenc14 $end
$var wire 1 l! n817 $end
$var wire 1 m! xenc49 $end
$var wire 1 n! xenc38 $end
$var wire 1 o! n820 $end
$var wire 1 p! xenc3 $end
$var wire 1 q! n837 $end
$var wire 1 r! xenc50 $end
$var wire 1 s! xenc0 $end
$var wire 1 t! xenc24 $end
$var wire 1 u! xenc27 $end
$var wire 1 v! n856 $end
$var wire 1 w! n857 $end
$var wire 1 x! n859 $end
$var wire 1 y! n863 $end
$var wire 1 z! n864 $end
$var wire 1 {! n867 $end
$var wire 1 |! xenc16 $end
$var wire 1 }! xenc36 $end
$var wire 1 ~! n875 $end
$var wire 1 !" xenc20 $end
$var wire 1 "" n887 $end
$var wire 1 #" n884 $end
$var wire 1 $" n894 $end
$var wire 1 %" n895 $end
$var wire 1 &" n907 $end
$var wire 1 '" n912 $end
$var wire 1 (" n913 $end
$var wire 1 )" xenc62 $end
$var wire 1 *" n921 $end
$var wire 1 +" n926 $end
$var wire 1 ," n927 $end
$var wire 1 -" n930 $end
$var wire 1 ." xenc39 $end
$var wire 1 /" n960 $end
$var wire 1 0" n796 $end
$var wire 1 1" xenc5 $end
$var wire 1 2" n841 $end
$var wire 1 3" n1002 $end
$var wire 1 4" n915 $end
$var wire 1 5" n1001 $end
$var wire 1 6" n911 $end
$var wire 1 7" n836 $end
$var wire 1 8" n998 $end
$var wire 1 9" n995 $end
$var wire 1 :" n931 $end
$var wire 1 ;" n977 $end
$var wire 1 <" n965 $end
$var wire 1 =" xenc35 $end
$var wire 1 >" n958 $end
$var wire 1 ?" n957 $end
$var wire 1 @" n996 $end
$var wire 1 A" n800 $end
$var wire 1 B" xenc28 $end
$var wire 1 C" n901 $end
$var wire 1 D" n893 $end
$var wire 1 E" n966 $end
$var wire 1 F" n974 $end
$var wire 1 G" n928 $end
$var wire 1 H" n946 $end
$var wire 1 I" n988 $end
$var wire 1 J" n948 $end
$var wire 1 K" n985 $end
$var wire 1 L" n967 $end
$var wire 1 M" n1000 $end
$var wire 1 N" n865 $end
$var wire 1 O" n902 $end
$var wire 1 P" n969 $end
$var wire 1 Q" xenc6 $end
$var wire 1 R" xenc48 $end
$var wire 1 S" n827 $end
$var wire 1 T" n937 $end
$var wire 1 U" n943 $end
$var wire 1 V" n938 $end
$var wire 1 W" n922 $end
$var wire 1 X" xenc61 $end
$var wire 1 Y" n871 $end
$var wire 1 Z" xenc22 $end
$var wire 1 [" n968 $end
$var wire 1 \" n981 $end
$var wire 1 ]" xenc42 $end
$var wire 1 ^" n840 $end
$var wire 1 _" n983 $end
$var wire 1 `" n818 $end
$var wire 1 a" n904 $end
$var wire 1 b" n903 $end
$var wire 1 c" n799 $end
$var wire 1 d" n896 $end
$var wire 1 e" n881 $end
$var wire 1 f" n880 $end
$var wire 1 g" n823 $end
$var wire 1 h" xenc45 $end
$var wire 1 i" n849 $end
$var wire 1 j" n850 $end
$var wire 1 k" n848 $end
$var wire 1 l" n1003 $end
$var wire 1 m" n970 $end
$var wire 1 n" n897 $end
$var wire 1 o" n909 $end
$var wire 1 p" n910 $end
$var wire 1 q" n971 $end
$var wire 1 r" n815 $end
$var wire 1 s" xenc51 $end
$var wire 1 t" n973 $end
$var wire 1 u" n925 $end
$var wire 1 v" xenc9 $end
$var wire 1 w" n860 $end
$var wire 1 x" n975 $end
$var wire 1 y" n976 $end
$var wire 1 z" n941 $end
$var wire 1 {" xenc53 $end
$var wire 1 |" n892 $end
$var wire 1 }" n978 $end
$var wire 1 ~" n890 $end
$var wire 1 !# xenc32 $end
$var wire 1 "# n979 $end
$var wire 1 ## n990 $end
$var wire 1 $# n980 $end
$var wire 1 %# xenc59 $end
$var wire 1 &# n982 $end
$var wire 1 '# n986 $end
$var wire 1 (# n984 $end
$var wire 1 )# n987 $end
$var wire 1 *# n918 $end
$var wire 1 +# n989 $end
$var wire 1 ,# n845 $end
$var wire 1 -# n797 $end
$var wire 1 .# n991 $end
$var wire 1 /# n916 $end
$var wire 1 0# n847 $end
$var wire 1 1# n992 $end
$var wire 1 2# n993 $end
$var wire 1 3# xenc1 $end
$var wire 1 4# n801 $end
$var wire 1 5# xenc34 $end
$var wire 1 6# n994 $end
$var wire 1 7# n831 $end
$var wire 1 8# n997 $end
$var wire 1 9# n999 $end
$var wire 1 :# n862 $end
$var wire 1 ;# xenc15 $end
$var wire 1 <# n954 $end
$var wire 1 =# n1005 $end
$var wire 1 ># n1004 $end
$var wire 1 ?# n876 $end
$var wire 1 @# xenc11 $end
$var wire 1 A# n1006 $end
$var wire 1 B# n1007 $end
$var wire 1 C# n885 $end
$var wire 1 D# xenc63 $end
$var wire 1 E# n1012 $end
$var wire 1 F# n1011 $end
$var wire 1 G# xenc54 $end
$var wire 1 H# n830 $end
$var wire 1 I# n834 $end
$var wire 1 J# xenc60 $end
$var wire 1 K# n833 $end
$var wire 1 L# n851 $end
$var wire 1 M# n852 $end
$var wire 1 N# xenc23 $end
$var wire 1 O# n853 $end
$var wire 1 P# xenc55 $end
$var wire 1 Q# n1008 $end
$var wire 1 R# n828 $end
$var wire 1 S# xenc2 $end
$var wire 1 T# xenc26 $end
$var wire 1 U# n832 $end
$var wire 1 V# n1009 $end
$var wire 1 W# n802 $end
$var wire 1 X# xenc44 $end
$var wire 1 Y# n939 $end
$var wire 1 Z# n933 $end
$var wire 1 [# n944 $end
$var wire 1 \# n940 $end
$var wire 1 ]# xenc4 $end
$var wire 1 ^# n945 $end
$var wire 1 _# n803 $end
$var wire 1 `# xenc8 $end
$var wire 1 a# xenc30 $end
$var wire 1 b# n798 $end
$var wire 1 c# n1010 $end
$var wire 1 d# xenc19 $end
$var wire 1 e# xenc7 $end
$var wire 1 f# n808 $end
$var wire 1 g# n947 $end
$var wire 1 h# n888 $end
$var wire 1 i# n889 $end
$var wire 1 j# xenc41 $end
$var wire 1 k# xenc12 $end
$var wire 1 l# n879 $end
$var wire 1 m# n917 $end
$var wire 1 n# n924 $end
$var wire 1 o# n923 $end
$var wire 1 p# n855 $end
$var wire 1 q# xenc25 $end
$var wire 1 r# n861 $end
$var wire 1 s# n825 $end
$var wire 1 t# xenc21 $end
$var wire 1 u# n824 $end
$var wire 1 v# n956 $end
$var wire 1 w# n914 $end
$var wire 1 x# n846 $end
$var wire 1 y# xenc13 $end
$var wire 1 z# n826 $end
$var wire 1 {# xenc56 $end
$var wire 1 |# n955 $end
$var wire 1 }# n952 $end
$var wire 1 ~# n873 $end
$var wire 1 !$ n919 $end
$var wire 1 "$ xenc43 $end
$var wire 1 #$ n900 $end
$var wire 1 $$ n962 $end
$var wire 1 %$ n961 $end
$var wire 1 &$ xenc33 $end
$var wire 1 '$ xenc52 $end
$var wire 1 ($ n878 $end
$var wire 1 )$ n877 $end
$var wire 1 *$ n821 $end
$var wire 1 +$ xenc29 $end
$var wire 1 ,$ n810 $end
$var wire 1 -$ n932 $end
$var wire 1 .$ n839 $end
$var wire 1 /$ n870 $end
$var wire 1 0$ n869 $end
$var wire 1 1$ n868 $end
$var wire 1 2$ n905 $end
$var wire 1 3$ xenc40 $end
$var wire 1 4$ n951 $end
$var wire 1 5$ n819 $end
$var wire 1 6$ xenc10 $end
$var wire 1 7$ n891 $end
$var wire 1 8$ xenc31 $end
$var wire 1 9$ xenc58 $end
$var wire 1 :$ xenc18 $end
$var wire 1 ;$ n934 $end
$var wire 1 <$ n898 $end
$var wire 1 =$ xenc17 $end
$var wire 1 >$ n835 $end
$var wire 1 ?$ n858 $end
$var wire 1 @$ n854 $end
$var wire 1 A$ n874 $end
$var wire 1 B$ xenc46 $end
$var wire 1 C$ n872 $end
$var wire 1 D$ n929 $end
$var wire 1 E$ n935 $end
$var wire 1 F$ n809 $end
$var wire 1 G$ n811 $end
$var wire 1 H$ xenc47 $end
$var wire 1 I$ n883 $end
$var wire 1 J$ n882 $end
$var wire 1 K$ n906 $end
$var wire 1 L$ n936 $end
$var wire 1 M$ n963 $end
$var wire 1 N$ n822 $end
$var wire 1 O$ n866 $end
$var wire 1 P$ n920 $end
$var wire 1 Q$ xenc57 $end
$var wire 1 R$ xenc37 $end
$var wire 1 S$ n814 $end
$var wire 1 T$ n942 $end
$var wire 1 U$ n953 $end
$var wire 1 V$ n959 $end
$upscope $end
$upscope $end
$enddefinitions $end
#0
$dumpvars
b0 !
b0 "
b1010100001111110000011101000000100101111111000100000000011011110 #
1D
0C
0B
0A
0@
0?
0>
0=
0<
0;
0:
09
08
07
06
05
04
03
02
01
00
0/
0.
0-
0,
0+
0*
0)
0(
0'
0&
0%
0$
0g!
0h!
0i!
0j!
0k!
0l!
0m!
0n!
0o!
0p!
0q!
0r!
0s!
0t!
0u!
0v!
0w!
0x!
0y!
0z!
0{!
0|!
0}!
0~!
0!"
0""
0#"
1$"
1%"
0&"
0'"
0("
0)"
0*"
0+"
0,"
0-"
0."
0/"
10"
11"
02"
13"
14"
15"
06"
07"
18"
19"
0:"
0;"
1<"
1="
1>"
0?"
1@"
1A"
1B"
1C"
0D"
0E"
1F"
1G"
1H"
0I"
0J"
0K"
0L"
1M"
1N"
0O"
1P"
1Q"
1R"
0S"
1T"
0U"
1V"
0W"
0X"
0Y"
0Z"
1["
0\"
0]"
0^"
0_"
0`"
0a"
1b"
1c"
0d"
0e"
1f"
0g"
0h"
1i"
1j"
1k"
1l"
1m"
0n"
1o"
1p"
0q"
1r"
1s"
1t"
0u"
1v"
1w"
0x"
1y"
1z"
1{"
1|"
1}"
0~"
0!#
0"#
0##
0$#
0%#
0&#
0'#
1(#
1)#
0*#
0+#
0,#
1-#
0.#
0/#
00#
11#
02#
13#
14#
15#
06#
17#
18#
19#
0:#
0;#
0<#
1=#
1>#
0?#
1@#
1A#
1B#
0C#
0D#
1E#
1F#
0G#
1H#
1I#
1J#
0K#
0L#
1M#
1N#
1O#
0P#
0Q#
0R#
0S#
0T#
0U#
0V#
1W#
0X#
0Y#
1Z#
0[#
1\#
0]#
1^#
1_#
1`#
1a#
1b#
1c#
0d#
0e#
1f#
1g#
1h#
1i#
0j#
1k#
0l#
1m#
1n#
1o#
0p#
0q#
1r#
1s#
1t#
0u#
1v#
1w#
0x#
0y#
1z#
1{#
1|#
1}#
1~#
1!$
1"$
1#$
1$$
1%$
0&$
1'$
1($
1)$
1*$
1+$
1,$
1-$
1.$
1/$
10$
01$
12$
13$
04$
05$
16$
07$
18$
09$
0:$
1;$
1<$
0=$
1>$
1?$
0@$
1A$
1B$
0C$
1D$
0E$
0F$
0G$
1H$
1I$
1J$
1K$
1L$
0M$
1N$
1O$
1P$
1Q$
1R$
0S$
1T$
1U$
1V$
0f!
1e!
1d!
1c!
1b!
0a!
1`!
1_!
0^!
0]!
0\!
0[!
0Z!
0Y!
0X!
0W!
0V!
1U!
0T!
0S!
0R!
1Q!
1P!
1O!
1N!
1M!
1L!
1K!
0J!
1I!
0H!
0G!
1F!
0E!
0D!
0C!
0B!
0A!
0@!
1?!
0>!
1=!
1<!
1;!
0:!
09!
08!
07!
06!
15!
14!
13!
12!
11!
10!
0/!
0.!
0-!
0,!
1+!
0*!
1)!
0(!
1'!
0&!
0%!
0$!
0#!
0"!
0!!
0~
0}
0|
0{
0z
0y
0x
0w
0v
0u
0t
0s
0r
0q
0p
0o
0n
0m
0l
0k
0j
0i
0h
0g
0f
0e
0d
0c
0b
0a
0`
0_
0^
0]
0\
0[
0Z
0Y
0X
0W
0V
0U
0T
0S
0R
0Q
0P
0O
0N
0M
0L
0K
0J
0I
0H
0G
0F
0E
$end
#10000
b101001101011110010010000110000 !
b1111010000110111001101010111100 "
1$!
1#!
1"!
1!!
1}
1{
1y
1x
1u
1t
1s
1q
1p
1k
1i
1h
1g
1f
1`
0l"
1_
1J"
1l!
0g#
1U"
1j!
1Z
0>#
1W
1/#
1+#
1;#
0m#
0a#
1T
1O"
0#$
0B"
1D"
0|"
17$
1~"
0<$
0`#
1d"
0%"
1S
0A"
0P"
1n"
1!#
0c"
1<$
1`#
0d"
1%"
0%"
0}"
1R
0h#
1C#
1Q
0J$
1e"
1l#
0)$
0'$
1?#
0A#
1O
0~#
0B$
1C$
1X"
0=#
0@#
1M
0F#
0k#
1L
0M"
1:#
1q#
1I
0-#
10#
1x#
1t!
01#
01"
1##
17"
1_"
0["
1^"
1r!
0.$
1U#
1&#
1=$
0>$
0J#
1K#
1G#
0H#
0R"
1R#
1S"
1y#
0z#
0t#
1u#
1D#
12"
1G
08#
09"
07#
06$
1g"
1S#
1&
1'
1z!
1{!
1Y"
1}!
0f"
0$"
0b"
17
1;"
1-"
1k!
1>
1`"
0U$
03$
14$
1P#
0H"
0l!
1Q#
1+
11
13
15
18
1,"
1;
1d#
1=
1m!
1?
1o!
1B
1p!
1A
19
0S#
0&
1."
1:
1.
1|!
1-
1,
1h"
1%
#20000
b10001000000000011010001010110 !
b10001000100010010001100100011 "
1&!
1g!
1!"
1M$
1&$
1%!
0$$
1/"
0$!
0#!
0"!
1U$
13$
04$
0P#
1H"
1l!
0}
1|
0y
0x
1w
0w#
0"$
1'"
05"
16"
0u
0s
1|"
0q
1l
0r#
0v"
1p#
1Z"
1x"
1@$
1]#
0M#
1L#
0k
1M#
0L#
0i
11#
11"
0##
07"
19"
17#
16$
0_"
1["
0^"
0r!
1.$
0U#
0&#
0=$
1>$
1J#
02"
0g
1H#
1R"
0R#
0S"
0y#
1z#
1t#
0u#
0D#
0f
1c
0%$
1b
0>"
15$
1n!
1?"
0_
0J"
0l!
1g#
0U"
0j!
1^
1I"
0)#
1U"
1j!
1X
0T
0O"
1#$
1B"
1P"
0n"
0!#
1c"
0<$
0`#
07$
1h#
0C#
1J$
0e"
0l#
1)$
1'$
0?#
1~#
1B$
0C$
0X"
1%"
0S
1A"
0D"
1<$
1`#
0R
1}"
0~"
0Q
1A#
0O
1=#
1@#
0M
1F#
1k#
0I
1-#
00#
0x#
0t!
1H
17"
09"
07#
06$
1R#
1S"
1y#
1_"
0["
1^"
1r!
0.$
1U#
1&#
1=$
0>$
0J#
0G
18#
19"
17#
16$
0R#
0S"
0y#
0{!
1$"
1b"
1f"
0Y"
0}!
1*"
0p!
0A
0Q#
0g"
0+
0z!
1x!
01
03
05
07
1)"
16
0,"
1i!
0d#
0=
1@
0o!
0B
1C
0D
1p!
1A
1<
09
1+
0,
0h"
0%
0.
1X#
10
14
0|!
0-
#30000
b10000001000101100000100001110011 !
b11100110011100000000101111000 "
0&!
0g!
0!"
1%$
0%!
1$$
0/"
1>"
05$
0n!
0?"
1#!
1"!
0U$
03$
14$
1P#
1J"
1l!
1"#
0(#
0Q$
1S$
1e#
0c#
1[#
0g#
1K"
0T"
0j!
1~
0^#
0R$
0{
0w
1w#
1"$
0'"
15"
06"
0t
1s
1r
1q
0p
1n
1m
0l
1r#
1v"
0p#
0Z"
0x"
0@$
0]#
1j
1i
1d
1g!
1!"
0%$
1/"
0>"
15$
1n!
1?"
0v#
0{#
1<#
0}#
0b
1>"
05$
0n!
0?"
1v#
1{#
0<#
1}#
1_
0H"
0l!
0"#
1(#
1Q$
0S$
0e#
1c#
1'#
0(#
0Q$
1S$
1e#
0c#
0K"
0Z
1>#
1Y
0F"
1u"
0X
0W
0/#
0+#
0;#
1m#
1a#
1S
0A"
1D"
0|"
17$
1~"
0i#
1C#
0<$
0`#
1d"
0%"
1R
0h#
0}"
1P
1l#
0H
07"
0_"
1["
0^"
0r!
1.$
0U#
0&#
0=$
1>$
1J#
0K#
0G#
1E
0B#
1g"
1s!
1(
0'
0f"
12
1#"
0I$
1e"
0($
1?#
0*"
1,"
0;"
0-"
1u!
1)
1w!
1z!
0x!
1|!
1-
1.
04
0)"
06
0;
0@
1d#
1=
1o!
1""
1q!
0C
1B
0+
1,
1*
0."
0:
19
08
1f"
1~!
1h"
1%
1/
0X#
00
#35000
b100000001000000010000000010010 !
b11011110101011011011111011101111 "
1&!
1%!
0$$
1$!
0V$
0="
15$
1n!
1?"
0v#
0{#
1<#
0}#
0"!
1U$
13$
1}
0L$
0s"
1G$
1:$
1h!
0\#
1Y#
0Z#
03#
1F$
1E$
19$
16#
0f#
0|
1Z#
13#
0F$
0E$
09$
06#
1f#
1{
1z
1y
0n#
1W"
1x
1w
1u
1t
0s
1|"
07$
1h#
0d"
1%"
1o
0A$
1C$
1X"
0n
1k
1f
1e
0N$
0H$
1$
0d
0_
1H"
1l!
1"#
0'#
1T"
1j!
0V"
1K"
0T"
0j!
1V"
0^
0I"
0"#
1(#
1Q$
0S$
0e#
1L$
1s"
0G$
0:$
0h!
1c#
0K"
1T"
1j!
0V"
1S$
1e#
0L$
0s"
1G$
1:$
1h!
0c#
1)#
0Y
1F"
0u"
1n#
0W"
1W
1/#
0w#
0"$
1'"
1+#
1;#
0m#
0a#
05"
16"
0S
1A"
0D"
1<$
1`#
0R
1}"
0~"
1i#
0C#
0P
1($
0?#
1O
0=#
0@#
0L
1M"
0:#
0q#
1G
08#
1K#
1G#
0E
1B#
0g"
1N$
1H$
0$
1V#
1T#
0z!
0f"
0#"
1I$
0e"
0l#
0$"
1)"
16
0k!
0>
0m!
0?
1Q#
1+
0.
0/
1Y"
1}!
14
15
18
1."
1:
0i!
1;
0d#
0=
1@
0B
0`"
0p!
0A
0""
1C
0@
1.
1S#
1&
11
1f"
0,
1'
#43000
b10001001010000111101111010101111 !
b11011010101011011011101010101101 "
0%!
1$$
0~
1^#
1R$
0[#
1\#
0Y#
1V"
0S$
0e#
1L$
1s"
0G$
0:$
0h!
1c#
0z
0j
1d
1b
0>"
1a
0|#
0<"
0`
1}#
04$
0P#
0J"
0l!
1g#
0U"
0j!
1l"
1_
1J"
1l!
0g#
1U"
1j!
1]
0_#
1S$
1e#
0L$
0s"
1G$
1:$
1h!
0c#
1[#
0\#
1Y#
1[
04#
1F$
0-$
1:"
16#
0f#
1Z
0G"
1+"
1E"
0F"
1u"
0n#
1W"
0>#
1Y
0o#
1X
0!$
1*#
04"
1m#
1a#
0W
14"
0m#
0a#
1V
0o"
12#
1q"
03"
1U
02$
1a"
1O"
0#$
0B"
1D"
0<$
0`#
0E#
1T
0C"
1S
0A"
0m"
1n"
1!#
0c"
1<$
1`#
17$
0%"
0}"
1~"
0i#
1C#
0P"
0O
1=#
1@#
1N
00$
11$
1j#
1L
0M"
1:#
1q#
1I
0-#
10#
1x#
1t!
01#
01"
1##
17"
09"
07#
06$
1R#
1S"
1y#
0z#
0t#
1u#
1D#
1_"
0["
1^"
1r!
0.$
1U#
1&#
1=$
0>$
0J#
12"
0G
18#
19"
17#
16$
0R#
0S"
0y#
1z#
1t#
0u#
0D#
1E
0B#
0V#
0T#
0s!
0(
1g"
0N$
0H$
1$
0u!
0)
1z!
0Y"
0}!
1{!
0O$
0+$
1y!
0w"
1p#
1Z"
1x"
1@$
1]#
0M#
1L#
09#
0~!
1A$
0C$
0X"
10$
01$
0j#
1#"
0I$
1e"
1l#
02
1("
0,"
0;
1`"
0o!
0q!
1V$
1="
1D
0w!
0."
0:
1k!
1>
1""
0C
0*
1B
1p!
1A
1@
0)"
06
01
0f"
1/
1Y"
1}!
0{!
1O$
1+$
0y!
1w"
0p#
0Z"
0x"
0@$
0]#
1M#
0L#
19#
1,
0h"
0%
1X#
10
#53000
b10101011110011010001001000110100 !
b0 "
0&!
0$!
0#!
1v#
1{#
0!!
1g#
0U"
0j!
0}
1L$
1s"
0G$
0:$
0h!
1\#
0Y#
0{
1-$
0:"
1G"
0+"
1o#
0E"
0y
1n#
0W"
1!$
0*#
0/#
1w#
1"$
0'"
1o"
02#
0q"
12$
0a"
1C"
1m"
0+#
0;#
1m#
1a#
15"
0x
0w
0u
0t
1#$
1B"
1P"
0n"
0!#
1c"
0<$
0`#
07$
1%"
1}"
0~"
1i#
0C#
0r
0q
1I$
0e"
0l#
0o
0m
0k
0i
11#
11"
0##
07"
0_"
1["
0^"
0r!
1.$
0U#
0&#
0=$
1>$
1J#
0K#
0G#
02"
0h
0f
0e
1N$
1H$
0$
0d
0g!
0!"
1%$
0/"
1>"
05$
0n!
1|#
0<#
0c
0M$
0&$
0a
1<"
0?"
1`
0l"
0]
1_#
0S$
0e#
1c#
0[#
0Z
1>#
0Y
1F"
0u"
0V
13"
06"
0U
1E#
0S
1A"
0D"
1<$
1`#
1R
0}"
1~"
1Q
0A#
1M
0F#
0k#
1K
1@$
1]#
1G
08#
1K#
1G#
1V#
1T#
1x!
1{!
0("
0""
1q!
0p!
0A
1h"
1%
0Q#
1u!
1)
0/
11
1f"
12
04
05
08
1*"
0b"
1;
09
0<
1m!
1?
0k!
0>
14
18
0X#
00
0S#
0&
#63000
b0 !
b10010001101000101011001111000 "
1#!
1"!
0U$
03$
14$
1P#
0H"
0l!
1U"
1j!
1!!
0g#
1~
0^#
0R$
1[#
0V"
1S$
1e#
0c#
1{
0-$
1:"
1z
1x
0P$
08$
1*#
1/#
1+#
1;#
0m#
0a#
1v
1r
0i#
1C#
0J$
1e"
1l#
1p
0)$
0'$
1?#
1o
1k
0?$
1v!
0M#
1L#
1h
0b
0`
1l"
0_
1H"
1l!
0[
14#
0F$
1-$
0:"
06#
1f#
0X
0T
0O"
0R
1}"
0~"
1i#
0C#
1J$
0e"
0l#
1)$
1'$
0?#
0Q
1A#
0N
0M
1F#
1k#
0L
1M"
0:#
0q#
0K
0@$
0]#
1M#
0L#
0I
1-#
00#
0x#
0t!
0G
18#
0K#
0G#
0E
1B#
0g"
0V#
0T#
0u!
0)
0x!
1?$
0v!
0z!
0{!
0Y"
0}!
1b"
0*"
1P$
18$
0*#
0/#
0+#
0;#
1m#
1a#
0`"
1U$
13$
04$
0P#
0J"
0l!
1g#
0U"
1^#
1R$
0[#
0j!
1V"
0S$
0e#
1c#
0q!
1s!
1(
1/
1X#
10
0#"
1("
1."
1:
1k!
1>
1o!
1p!
1A
1)"
16
01
0B
04
0.
0|!
0-
0,
0'
0h"
0%
