lockednetlistsimulation/64xor/carry_lookahead_adder/sim/carry_lookahead_adder32_gatesim.vcd
$date
	Sat Oct  3 11:54:24 2020
$end
$version
	ModelSim Version 6.6d
$end
$timescale
	1ps
$end
$scope module carry_lookahead_adder32_tb $end
$var reg 32 ! add1_i [31:0] $end
$var reg 32 " add2_i [31:0] $end
$var reg 64 # keyinput [63:0] $end
$var wire 1 $ result_o [32] $end
$var wire 1 % result_o [31] $end
$var wire 1 & result_o [30] $end
$var wire 1 ' result_o [29] $end
$var wire 1 ( result_o [28] $end
$var wire 1 ) result_o [27] $end
$var wire 1 * result_o [26] $end
$var wire 1 + result_o [25] $end
$var wire 1 , result_o [24] $end
$var wire 1 - result_o [23] $end
$var wire 1 . result_o [22] $end
$var wire 1 / result_o [21] $end
$var wire 1 0 result_o [20] $end
$var wire 1 1 result_o [19] $end
$var wire 1 2 result_o [18] $end
$var wire 1 3 result_o [17] $end
$var wire 1 4 result_o [16] $end
$var wire 1 5 result_o [15] $end
$var wire 1 6 result_o [14] $end
$var wire 1 7 result_o [13] $end
$var wire 1 8 result_o [12] $end
$var wire 1 9 result_o [11] $end
$var wire 1 : result_o [10] $end
$var wire 1 ; result_o [9] $end
$var wire 1 < result_o [8] $end
$var wire 1 = result_o [7] $end
$var wire 1 > result_o [6] $end
$var wire 1 ? result_o [5] $end
$var wire 1 @ result_o [4] $end
$var wire 1 A result_o [3] $end
$var wire 1 B result_o [2] $end
$var wire 1 C result_o [1] $end
$var wire 1 D result_o [0] $end
$scope module cla $end
$var wire 1 E add1_i [31] $end
$var wire 1 F add1_i [30] $end
$var wire 1 G add1_i [29] $end
$var wire 1 H add1_i [28] $end
$var wire 1 I add1_i [27] $end
$var wire 1 J add1_i [26] $end
$var wire 1 K add1_i [25] $end
$var wire 1 L add1_i [24] $end
$var wire 1 M add1_i [23] $end
$var wire 1 N add1_i [22] $end
$var wire 1 O add1_i [21] $end
$var wire 1 P add1_i [20] $end
$var wire 1 Q add1_i [19] $end
$var wire 1 R add1_i [18] $end
$var wire 1 S add1_i [17] $end
$var wire 1 T add1_i [16] $end
$var wire 1 U add1_i [15] $end
$var wire 1 V add1_i [14] $end
$var wire 1 W add1_i [13] $end
$var wire 1 X add1_i [12] $end
$var wire 1 Y add1_i [11] $end
$var wire 1 Z add1_i [10] $end
$var wire 1 [ add1_i [9] $end
$var wire 1 \ add1_i [8] $end
$var wire 1 ] add1_i [7] $end
$var wire 1 ^ add1_i [6] $end
$var wire 1 _ add1_i [5] $end
$var wire 1 ` add1_i [4] $end
$var wire 1 a add1_i [3] $end
$var wire 1 b add1_i [2] $end
$var wire 1 c add1_i [1] $end
$var wire 1 d add1_i [0] $end
$var wire 1 e add2_i [31] $end
$var wire 1 f add2_i [30] $end
$var wire 1 g add2_i [29] $end
$var wire 1 h add2_i [28] $end
$var wire 1 i add2_i [27] $end
$var wire 1 j add2_i [26] $end
$var wire 1 k add2_i [25] $end
$var wire 1 l add2_i [24] $end
$var wire 1 m add2_i [23] $end
$var wire 1 n add2_i [22] $end
$var wire 1 o add2_i [21] $end
$var wire 1 p add2_i [20] $end
$var wire 1 q add2_i [19] $end
$var wire 1 r add2_i [18] $end
$var wire 1 s add2_i [17] $end
$var wire 1 t add2_i [16] $end
$var wire 1 u add2_i [15] $end
$var wire 1 v add2_i [14] $end
$var wire 1 w add2_i [13] $end
$var wire 1 x add2_i [12] $end
$var wire 1 y add2_i [11] $end
$var wire 1 z add2_i [10] $end
$var wire 1 { add2_i [9] $end
$var wire 1 | add2_i [8] $end
$var wire 1 } add2_i [7] $end
$var wire 1 ~ add2_i [6] $end
$var wire 1 !! add2_i [5] $end
$var wire 1 "! add2_i [4] $end
$var wire 1 #! add2_i [3] $end
$var wire 1 $! add2_i [2] $end
$var wire 1 %! add2_i [1] $end
$var wire 1 &! add2_i [0] $end
$var wire 1 '! keyinput [63] $end
$var wire 1 (! keyinput [62] $end
$var wire 1 )! keyinput [61] $end
$var wire 1 *! keyinput [60] $end
$var wire 1 +! keyinput [59] $end
$var wire 1 ,! keyinput [58] $end
$var wire 1 -! keyinput [57] $end
$var wire 1 .! keyinput [56] $end
$var wire 1 /! keyinput [55] $end
$var wire 1 0! keyinput [54] $end
$var wire 1 1! keyinput [53] $end
$var wire 1 2! keyinput [52] $end
$var wire 1 3! keyinput [51] $end
$var wire 1 4! keyinput [50] $end
$var wire 1 5! keyinput [49] $end
$var wire 1 6! keyinput [48] $end
$var wire 1 7! keyinput [47] $end
$var wire 1 8! keyinput [46] $end
$var wire 1 9! keyinput [45] $end
$var wire 1 :! keyinput [44] $end
$var wire 1 ;! keyinput [43] $end
$var wire 1 <! keyinput [42] $end
$var wire 1 =! keyinput [41] $end
$var wire 1 >! keyinput [40] $end
$var wire 1 ?! keyinput [39] $end
$var wire 1 @! keyinput [38] $end
$var wire 1 A! keyinput [37] $end
$var wire 1 B! keyinput [36] $end
$var wire 1 C! keyinput [35] $end
$var wire 1 D! keyinput [34] $end
$var wire 1 E! keyinput [33] $end
$var wire 1 F! keyinput [32] $end
$var wire 1 G! keyinput [31] $end
$var wire 1 H! keyinput [30] $end
$var wire 1 I! keyinput [29] $end
$var wire 1 J! keyinput [28] $end
$var wire 1 K! keyinput [27] $end
$var wire 1 L! keyinput [26] $end
$var wire 1 M! keyinput [25] $end
$var wire 1 N! keyinput [24] $end
$var wire 1 O! keyinput [23] $end
$var wire 1 P! keyinput [22] $end
$var wire 1 Q! keyinput [21] $end
$var wire 1 R! keyinput [20] $end
$var wire 1 S! keyinput [19] $end
$var wire 1 T! keyinput [18] $end
$var wire 1 U! keyinput [17] $end
$var wire 1 V! keyinput [16] $end
$var wire 1 W! keyinput [15] $end
$var wire 1 X! keyinput [14] $end
$var wire 1 Y! keyinput [13] $end
$var wire 1 Z! keyinput [12] $end
$var wire 1 [! keyinput [11] $end
$var wire 1 \! keyinput [10] $end
$var wire 1 ]! keyinput [9] $end
$var wire 1 ^! keyinput [8] $end
$var wire 1 _! keyinput [7] $end
$var wire 1 `! keyinput [6] $end
$var wire 1 a! keyinput [5] $end
$var wire 1 b! keyinput [4] $end
$var wire 1 c! keyinput [3] $end
$var wire 1 d! keyinput [2] $end
$var wire 1 e! keyinput [1] $end
$var wire 1 f! keyinput [0] $end
$var wire 1 $ result_o [32] $end
$var wire 1 % result_o [31] $end
$var wire 1 & result_o [30] $end
$var wire 1 ' result_o [29] $end
$var wire 1 ( result_o [28] $end
$var wire 1 ) result_o [27] $end
$var wire 1 * result_o [26] $end
$var wire 1 + result_o [25] $end
$var wire 1 , result_o [24] $end
$var wire 1 - result_o [23] $end
$var wire 1 . result_o [22] $end
$var wire 1 / result_o [21] $end
$var wire 1 0 result_o [20] $end
$var wire 1 1 result_o [19] $end
$var wire 1 2 result_o [18] $end
$var wire 1 3 result_o [17] $end
$var wire 1 4 result_o [16] $end
$var wire 1 5 result_o [15] $end
$var wire 1 6 result_o [14] $end
$var wire 1 7 result_o [13] $end
$var wire 1 8 result_o [12] $end
$var wire 1 9 result_o [11] $end
$var wire 1 : result_o [10] $end
$var wire 1 ; result_o [9] $end
$var wire 1 < result_o [8] $end
$var wire 1 = result_o [7] $end
$var wire 1 > result_o [6] $end
$var wire 1 ? result_o [5] $end
$var wire 1 @ result_o [4] $end
$var wire 1 A result_o [3] $end
$var wire 1 B result_o [2] $end
$var wire 1 C result_o [1] $end
$var wire 1 D result_o [0] $end
$var wire 1 g! xenc2 $end
$var wire 1 h! n660 $end
$var wire 1 i! n663 $end
$var wire 1 j! n664 $end
$var wire 1 k! n665 $end
$var wire 1 l! xenc9 $end
$var wire 1 m! n666 $end
$var wire 1 n! n668 $end
$var wire 1 o! xenc29 $end
$var wire 1 p! n669 $end
$var wire 1 q! n678 $end
$var wire 1 r! xenc17 $end
$var wire 1 s! xenc7 $end
$var wire 1 t! n679 $end
$var wire 1 u! n684 $end
$var wire 1 v! xenc12 $end
$var wire 1 w! xenc3 $end
$var wire 1 x! n685 $end
$var wire 1 y! n690 $end
$var wire 1 z! n691 $end
$var wire 1 {! n700 $end
$var wire 1 |! xenc45 $end
$var wire 1 }! xenc34 $end
$var wire 1 ~! n701 $end
$var wire 1 !" n872 $end
$var wire 1 "" n711 $end
$var wire 1 #" n720 $end
$var wire 1 $" n721 $end
$var wire 1 %" xenc62 $end
$var wire 1 &" xenc26 $end
$var wire 1 '" n731 $end
$var wire 1 (" xenc21 $end
$var wire 1 )" n737 $end
$var wire 1 *" n742 $end
$var wire 1 +" xenc32 $end
$var wire 1 ," n743 $end
$var wire 1 -" n752 $end
$var wire 1 ." n753 $end
$var wire 1 /" xenc51 $end
$var wire 1 0" n762 $end
$var wire 1 1" n763 $end
$var wire 1 2" n772 $end
$var wire 1 3" n773 $end
$var wire 1 4" xenc23 $end
$var wire 1 5" n782 $end
$var wire 1 6" xenc24 $end
$var wire 1 7" n783 $end
$var wire 1 8" n736 $end
$var wire 1 9" n830 $end
$var wire 1 :" n826 $end
$var wire 1 ;" n832 $end
$var wire 1 <" n828 $end
$var wire 1 =" n836 $end
$var wire 1 >" n838 $end
$var wire 1 ?" n834 $end
$var wire 1 @" n814 $end
$var wire 1 A" n815 $end
$var wire 1 B" n803 $end
$var wire 1 C" n802 $end
$var wire 1 D" n816 $end
$var wire 1 E" n827 $end
$var wire 1 F" n817 $end
$var wire 1 G" n818 $end
$var wire 1 H" n889 $end
$var wire 1 I" n819 $end
$var wire 1 J" n769 $end
$var wire 1 K" xenc27 $end
$var wire 1 L" n820 $end
$var wire 1 M" xenc48 $end
$var wire 1 N" n839 $end
$var wire 1 O" n822 $end
$var wire 1 P" xenc13 $end
$var wire 1 Q" n821 $end
$var wire 1 R" n831 $end
$var wire 1 S" n823 $end
$var wire 1 T" n824 $end
$var wire 1 U" n829 $end
$var wire 1 V" xenc55 $end
$var wire 1 W" n787 $end
$var wire 1 X" n825 $end
$var wire 1 Y" n770 $end
$var wire 1 Z" xenc31 $end
$var wire 1 [" xenc38 $end
$var wire 1 \" n785 $end
$var wire 1 ]" n864 $end
$var wire 1 ^" n788 $end
$var wire 1 _" n750 $end
$var wire 1 `" n833 $end
$var wire 1 a" n835 $end
$var wire 1 b" n740 $end
$var wire 1 c" n888 $end
$var wire 1 d" n890 $end
$var wire 1 e" n875 $end
$var wire 1 f" xenc5 $end
$var wire 1 g" n837 $end
$var wire 1 h" n775 $end
$var wire 1 i" n777 $end
$var wire 1 j" n745 $end
$var wire 1 k" n840 $end
$var wire 1 l" n673 $end
$var wire 1 m" n841 $end
$var wire 1 n" n695 $end
$var wire 1 o" n842 $end
$var wire 1 p" xenc40 $end
$var wire 1 q" n843 $end
$var wire 1 r" xenc50 $end
$var wire 1 s" xenc57 $end
$var wire 1 t" n705 $end
$var wire 1 u" n844 $end
$var wire 1 v" n655 $end
$var wire 1 w" n846 $end
$var wire 1 x" n847 $end
$var wire 1 y" n845 $end
$var wire 1 z" n729 $end
$var wire 1 {" n799 $end
$var wire 1 |" n848 $end
$var wire 1 }" n849 $end
$var wire 1 ~" n876 $end
$var wire 1 !# n871 $end
$var wire 1 "# n861 $end
$var wire 1 ## n707 $end
$var wire 1 $# n850 $end
$var wire 1 %# xenc33 $end
$var wire 1 &# n891 $end
$var wire 1 '# n761 $end
$var wire 1 (# n860 $end
$var wire 1 )# n759 $end
$var wire 1 *# n851 $end
$var wire 1 +# n852 $end
$var wire 1 ,# n747 $end
$var wire 1 -# n853 $end
$var wire 1 .# n735 $end
$var wire 1 /# xenc58 $end
$var wire 1 0# n854 $end
$var wire 1 1# n757 $end
$var wire 1 2# n726 $end
$var wire 1 3# n855 $end
$var wire 1 4# n767 $end
$var wire 1 5# xenc36 $end
$var wire 1 6# n658 $end
$var wire 1 7# n856 $end
$var wire 1 8# xenc6 $end
$var wire 1 9# xenc46 $end
$var wire 1 :# n857 $end
$var wire 1 ;# n858 $end
$var wire 1 <# xenc39 $end
$var wire 1 =# n656 $end
$var wire 1 ># n859 $end
$var wire 1 ?# n717 $end
$var wire 1 @# n862 $end
$var wire 1 A# n714 $end
$var wire 1 B# xenc63 $end
$var wire 1 C# n863 $end
$var wire 1 D# xenc20 $end
$var wire 1 E# n780 $end
$var wire 1 F# n865 $end
$var wire 1 G# xenc52 $end
$var wire 1 H# n866 $end
$var wire 1 I# n867 $end
$var wire 1 J# n868 $end
$var wire 1 K# xenc47 $end
$var wire 1 L# n869 $end
$var wire 1 M# n870 $end
$var wire 1 N# n708 $end
$var wire 1 O# n873 $end
$var wire 1 P# n874 $end
$var wire 1 Q# xenc8 $end
$var wire 1 R# n703 $end
$var wire 1 S# n880 $end
$var wire 1 T# n877 $end
$var wire 1 U# xenc43 $end
$var wire 1 V# n722 $end
$var wire 1 W# xenc10 $end
$var wire 1 X# n727 $end
$var wire 1 Y# n878 $end
$var wire 1 Z# n879 $end
$var wire 1 [# n881 $end
$var wire 1 \# n882 $end
$var wire 1 ]# n724 $end
$var wire 1 ^# n728 $end
$var wire 1 _# n725 $end
$var wire 1 `# n806 $end
$var wire 1 a# n805 $end
$var wire 1 b# n883 $end
$var wire 1 c# xenc41 $end
$var wire 1 d# n792 $end
$var wire 1 e# xenc60 $end
$var wire 1 f# xenc49 $end
$var wire 1 g# n884 $end
$var wire 1 h# n662 $end
$var wire 1 i# n885 $end
$var wire 1 j# n886 $end
$var wire 1 k# n795 $end
$var wire 1 l# n887 $end
$var wire 1 m# n813 $end
$var wire 1 n# n798 $end
$var wire 1 o# n677 $end
$var wire 1 p# n676 $end
$var wire 1 q# xenc56 $end
$var wire 1 r# n688 $end
$var wire 1 s# n687 $end
$var wire 1 t# xenc18 $end
$var wire 1 u# n683 $end
$var wire 1 v# xenc44 $end
$var wire 1 w# n765 $end
$var wire 1 x# xenc0 $end
$var wire 1 y# n755 $end
$var wire 1 z# n812 $end
$var wire 1 {# n811 $end
$var wire 1 |# xenc25 $end
$var wire 1 }# xenc1 $end
$var wire 1 ~# xenc28 $end
$var wire 1 !$ xenc35 $end
$var wire 1 "$ n670 $end
$var wire 1 #$ n671 $end
$var wire 1 $$ xenc22 $end
$var wire 1 %$ n698 $end
$var wire 1 &$ n719 $end
$var wire 1 '$ n718 $end
$var wire 1 ($ n760 $end
$var wire 1 )$ n794 $end
$var wire 1 *$ n804 $end
$var wire 1 +$ n807 $end
$var wire 1 ,$ n809 $end
$var wire 1 -$ n672 $end
$var wire 1 .$ n699 $end
$var wire 1 /$ xenc16 $end
$var wire 1 0$ xenc61 $end
$var wire 1 1$ xenc37 $end
$var wire 1 2$ n808 $end
$var wire 1 3$ n732 $end
$var wire 1 4$ n733 $end
$var wire 1 5$ n730 $end
$var wire 1 6$ n734 $end
$var wire 1 7$ n774 $end
$var wire 1 8$ xenc14 $end
$var wire 1 9$ n791 $end
$var wire 1 :$ n659 $end
$var wire 1 ;$ xenc15 $end
$var wire 1 <$ n675 $end
$var wire 1 =$ n689 $end
$var wire 1 >$ n739 $end
$var wire 1 ?$ n779 $end
$var wire 1 @$ n715 $end
$var wire 1 A$ xenc4 $end
$var wire 1 B$ n680 $end
$var wire 1 C$ n681 $end
$var wire 1 D$ xenc59 $end
$var wire 1 E$ n692 $end
$var wire 1 F$ n693 $end
$var wire 1 G$ xenc42 $end
$var wire 1 H$ n723 $end
$var wire 1 I$ n744 $end
$var wire 1 J$ n764 $end
$var wire 1 K$ xenc53 $end
$var wire 1 L$ xenc19 $end
$var wire 1 M$ xenc54 $end
$var wire 1 N$ xenc30 $end
$var wire 1 O$ xenc11 $end
$var wire 1 P$ n682 $end
$var wire 1 Q$ n694 $end
$var wire 1 R$ n697 $end
$var wire 1 S$ n702 $end
$var wire 1 T$ n712 $end
$var wire 1 U$ n749 $end
$var wire 1 V$ n754 $end
$var wire 1 W$ n784 $end
$var wire 1 X$ n790 $end
$var wire 1 Y$ n793 $end
$var wire 1 Z$ n810 $end
$upscope $end
$upscope $end
$enddefinitions $end
#0
$dumpvars
b0 !
b0 "
b1001001001000001000110100011010000111111110001000111000010100100 #
1D
0C
0B
0A
0@
0?
0>
0=
0<
0;
0:
09
08
07
06
05
04
03
02
01
00
0/
0.
0-
0,
0+
0*
0)
0(
0'
0&
0%
0$
0g!
0h!
0i!
0j!
0k!
0l!
0m!
0n!
0o!
0p!
0q!
0r!
0s!
0t!
0u!
0v!
0w!
0x!
0y!
0z!
0{!
0|!
0}!
0~!
0!"
0""
0#"
0$"
0%"
0&"
0'"
0("
0)"
0*"
0+"
0,"
0-"
0."
0/"
00"
01"
02"
03"
04"
05"
06"
07"
08"
19"
1:"
1;"
1<"
1="
1>"
1?"
1@"
1A"
0B"
0C"
0D"
1E"
1F"
1G"
1H"
1I"
1J"
1K"
1L"
1M"
1N"
1O"
1P"
1Q"
1R"
1S"
1T"
1U"
1V"
1W"
1X"
1Y"
1Z"
1["
1\"
1]"
1^"
1_"
1`"
1a"
1b"
1c"
1d"
1e"
1f"
1g"
1h"
0i"
1j"
0k"
0l"
0m"
0n"
0o"
0p"
0q"
0r"
0s"
0t"
0u"
1v"
0w"
0x"
1y"
0z"
0{"
0|"
0}"
1~"
0!#
1"#
1##
0$#
0%#
1&#
0'#
1(#
1)#
0*#
0+#
0,#
0-#
0.#
0/#
00#
01#
12#
03#
04#
05#
06#
07#
08#
09#
0:#
0;#
0<#
1=#
1>#
1?#
1@#
0A#
1B#
1C#
1D#
1E#
1F#
0G#
1H#
1I#
1J#
1K#
0L#
1M#
1N#
1O#
1P#
1Q#
1R#
0S#
1T#
1U#
1V#
1W#
1X#
1Y#
1Z#
1[#
1\#
0]#
1^#
0_#
0`#
1a#
1b#
1c#
0d#
1e#
1f#
1g#
0h#
1i#
1j#
0k#
1l#
1m#
1n#
0o#
1p#
0q#
1r#
1s#
1t#
0u#
1v#
1w#
1x#
1y#
0z#
1{#
1|#
1}#
1~#
1!$
1"$
1#$
1$$
1%$
0&$
1'$
1($
1)$
1*$
1+$
0,$
0-$
0.$
1/$
10$
11$
12$
13$
14$
05$
06$
17$
18$
19$
0:$
0;$
1<$
0=$
1>$
1?$
0@$
1A$
1B$
1C$
0D$
1E$
1F$
0G$
1H$
1I$
1J$
1K$
1L$
1M$
1N$
0O$
0P$
0Q$
1R$
1S$
1T$
1U$
1V$
1W$
1X$
1Y$
1Z$
0f!
0e!
1d!
0c!
0b!
1a!
0`!
1_!
0^!
0]!
0\!
0[!
1Z!
1Y!
1X!
0W!
0V!
0U!
1T!
0S!
0R!
0Q!
1P!
1O!
1N!
1M!
1L!
1K!
1J!
1I!
0H!
0G!
0F!
0E!
1D!
0C!
1B!
1A!
0@!
0?!
0>!
1=!
0<!
1;!
1:!
09!
08!
07!
16!
05!
04!
03!
02!
01!
10!
0/!
0.!
1-!
0,!
0+!
1*!
0)!
0(!
1'!
0&!
0%!
0$!
0#!
0"!
0!!
0~
0}
0|
0{
0z
0y
0x
0w
0v
0u
0t
0s
0r
0q
0p
0o
0n
0m
0l
0k
0j
0i
0h
0g
0f
0e
0d
0c
0b
0a
0`
0_
0^
0]
0\
0[
0Z
0Y
0X
0W
0V
0U
0T
0S
0R
0Q
0P
0O
0N
0M
0L
0K
0J
0I
0H
0G
0F
0E
$end
#10000
b101001101011110010010000110000 !
b1111010000110111001101010111100 "
1$!
1#!
1"!
1!!
1}
1{
0<"
1y
0="
1x
0:"
1u
0d"
1t
0;"
1s
0>"
1q
1p
1k
0e"
1i
1h
1g
1f
1`
0v"
1C"
0A"
1k!
1{"
0n#
1i!
0i#
1k#
1_
1w"
0y"
0j#
1Z
0F#
1W
0I"
0G"
0H"
1T
0`"
1S
0O"
0Q"
1R
0a"
1Q
16$
04$
15$
1O
1S#
0Z#
1M
0C#
0@#
1A#
1L
0J#
0P#
1!#
1I
1Q$
1G
1P$
1D$
0C$
1q!
1o#
0p#
1l"
1-$
1G$
0F$
1y!
1=$
1""
1q"
02#
0W#
0\#
1]#
1%"
1z"
0^#
1_#
0[#
0T#
0V#
1#"
1&$
1,"
0M"
0N"
0j"
1*"
0>$
1.#
03$
0K"
0_"
1,#
0I$
0L"
0v#
13#
17"
0D#
1?
1>
1t!
1z!
0Q#
1u"
1'"
10#
13"
0f"
1:#
0["
17#
1;#
1p!
1x!
1v!
1o!
1=
15#
18#
14"
15
1&"
1s"
1r!
16"
17
13
12
1/#
1+"
1.
1-
1,
1q#
0r#
1%
0t#
1u#
02
11
1:
1+
18
19#
1;
1A
1w!
1B
19
1p"
0B$
1'
#20000
b10001000000000011010001010110 !
b10001000100010010001100100011 "
1&!
1D"
1z#
18"
1%!
0{#
0$!
0#!
0"!
0w"
1y"
1j#
1A"
0k!
0}
1|
09"
0y
1="
0x
1:"
1w
0c"
0w#
0u
1d"
0s
1>"
1j"
0q
14$
1l
0N#
1|"
0~"
0R#
1{!
1.$
0k
1e"
0i
1F$
0y!
0=$
0g
1C$
0f
1p#
0l"
0-$
1c
1b
1,$
0_
0{"
1n#
0i!
1i#
0k#
1^
0l#
0j#
1k#
1X
0E"
0T
1`"
0S
1I$
0*"
1>$
0.#
13$
05$
1O"
1Q"
0R
1a"
0Q
06$
0O
0S#
1T#
1V#
0#"
0&$
1Z#
0M
1C#
1@#
0A#
0I
0Q$
1H
1=$
0G
1B$
0q!
0o#
1s!
0z!
0G$
0q"
12#
1W#
1\#
0.
0,"
1M"
12
0/#
0%"
0z"
1^#
0_#
1[#
0]#
1."
1K"
1_"
0,#
1L"
1N"
1j!
1m!
0t!
0%
1Q#
1R#
0{!
0.$
0u"
0""
0!$
1t"
00#
0K$
10"
1'#
03#
1f"
0:#
1h!
0;#
0?
0>#
0p!
0}#
1u!
0+$
1("
0Z$
0D
1C
0|#
0w!
01$
1n!
1`#
0o!
1@
0=
1<
08#
07
16
05
0+
0,
0s"
0r!
1l!
03
1/"
10
01
0+"
0-
1&
02
14
1?
0s!
1+
09#
0B
09
0&
#30000
b10000001000101100000100001110011 !
b11100110011100000000101111000 "
0&!
08"
0%!
1{#
1#!
0a#
1"!
0A"
1k!
1{"
0n#
1i!
0Y$
0i#
1~
0)$
0{
1<"
0w
1c"
1w#
0t
1;"
1s
0>"
1r
0?"
1q
0p
1n
1m
1L#
0l
1N#
0|"
1~"
1j
1i
1d
18"
0b
1+$
1_
1w"
0y"
0Z
1F#
1Y
0g"
0X
1E"
0W
1I"
1G"
1H"
1S
0O"
0Q"
1R
0a"
0b"
1P
1z"
0H
0=$
1E
1-$
1k"
1z!
0q#
1r#
0A$
1.#
16$
04$
15$
0M"
0N"
0j"
1*"
0>$
1v#
03"
1:#
07"
1D#
0m!
0x!
11$
0n!
0`#
1a#
1m"
1~!
1""
1!$
0t"
1q"
1G#
1$"
1-#
0."
1K$
00"
0'#
1["
07#
0j!
0e#
1h#
0b#
1d#
0?
0c#
1>#
1p!
1)"
1}#
0C
1o!
0@
1;$
1<#
05#
06
0/"
1.
1-
0+
1,
1|!
1)
0v!
0l!
06"
18#
04"
12
1%"
0X#
1_#
0\#
1]#
1t#
0u#
1(
1%
0p"
0P$
00
1O$
08
19#
0:
1?
1w!
1}!
04
0;
1=
1*
1B
19
1/
0'
0D$
#35000
b100000001000000010000000010010 !
b11011110101011011011111011101111 "
1&!
0m#
1D
1%!
0{#
1$!
02$
1n!
1`#
0a#
0"!
0w"
1y"
1A"
0k!
1}
09$
1:$
0|
19"
1{
0<"
1z
0]"
1y
0="
1x
0:"
1w
0c"
1u
0d"
1t
0;"
0s
1>"
1j"
0*"
1>$
1o
0H$
1#"
1&$
0'$
0n
1'$
1k
0e"
1f
1e
0#$
1$
0d
1m#
0D
0_
0{"
1n#
0i!
1Y$
1i#
0^
1l#
1j#
0k#
1)$
0Y
1g"
1W
0I"
0G"
0H"
0S
1O"
1Q"
0R
1a"
1b"
0P
1X#
0_#
1\#
0]#
1H$
0#"
0&$
1O
0Z#
0L
0L#
1J#
1P#
0!#
1G
1P$
0E
0-$
1#$
0$
1o"
1D$
0""
0G#
0W#
0\#
1]#
0H$
1#"
1&$
0'"
0O$
1,"
1A$
0.#
06$
14$
05$
1M"
1N"
0v#
0w#
1j!
1e#
1b#
1m!
1c#
0h#
0d#
1t!
0Q#
1u"
0$"
02
1."
10#
13"
0f"
17"
0["
17#
0h!
1;#
1g!
0R"
0?
0>#
1x!
0A
0N$
1B"
0=#
0@"
1k!
1{"
0n#
1i!
0i#
1k#
0)$
0)"
0}#
1C
1?
0e#
1h#
0b#
1d#
0>
1v!
0=
15#
16"
14"
15
1/"
1s"
1r!
1l!
0K$
10"
1'#
1/#
0%"
0z"
1+"
0/
0&"
0,
1'
12
11
16
0?
1s!
1+
14
18
1:
1;
0w!
0B
1&
#43000
b10001001010000111101111010101111 !
b11011010101011011011101010101101 "
0%!
1{#
0~
1)$
0z
1]"
0j
1d
0m#
1D
1b
0+$
1a
0*$
0`
1v"
1@"
0k!
0{"
1n#
0i!
1i#
0k#
1_
1{"
0n#
1i!
0i#
1k#
1]
0X$
0g#
1[
0X"
1Z
0F#
1Y
0g"
0h"
12"
0E"
0Y"
14#
0J$
0F"
1X
0J"
0W
1J$
1I"
1V
0)#
11#
1*#
1U
0V$
0(#
1T
0`"
1S
0O"
0Q"
0O
1Z#
1N
0?#
1@$
1A#
0O#
1!#
0M#
1!"
1L
1L#
0J#
0P#
1I
1Q$
0G
0P$
1E
1-$
0#$
1$
0k"
0o"
0D$
0m"
1G$
0F$
1y!
1=$
1""
1G#
0H#
0##
1t"
1}"
0~"
0R#
1{!
1.$
1$"
1r"
02#
1W#
1\#
0]#
1H$
0#"
1?#
0@$
0A#
1O#
1M#
0!"
1H#
1##
0t"
0}"
1~"
1R#
0{!
0.$
0M"
0N"
1+#
0."
0K"
0_"
1,#
0I$
1*"
0a"
0b"
0L"
00#
00$
1-"
0U$
11"
1%#
0&#
13#
03"
0:#
0D#
0V"
0T"
0U"
07#
0;#
0f#
08$
0m!
1?
1>#
0p!
0x!
01$
0~!
0j!
1e#
0h#
1)"
1}#
0C
0<#
1X$
1>
0|!
0v!
0o!
1@
0l!
05#
0Z"
0\"
08#
0x#
0y#
06
0P"
02
0A$
1.#
16$
04$
15$
1,
0r"
1O$
0}!
0(
1q#
0r#
0)
0'
0%
0t#
1u#
0*
1/
0/#
1%"
1z"
09#
0M$
15"
0?$
1i"
07$
0;
0?
1A
1w!
18$
1B
0:
19#
10
01
1p"
1P$
1'
1D$
#53000
b10101011110011010001001000110100 !
b0 "
0&!
1m#
0D
0$!
12$
0#!
1a#
0!!
1n#
0i!
1i#
0k#
0}
19$
0:$
0{
1<"
0y
1="
0x
1:"
1Y"
1F"
0w
1c"
1w#
0u
1d"
1y#
0t
1;"
1_"
1L"
0r
1?"
1b"
0q
14$
05$
0o
0m
0L#
0k
1e"
0i
1F$
0y!
0=$
0h
1r#
0f
0e
1#$
0$
0d
08"
0c
1Z$
0D"
0z#
0a
1*$
1`
1x"
0y"
1i!
0j#
1k#
0v"
0@"
1k!
0]
1g#
0Z
1?$
0i"
17$
0Y
1g"
1h"
02"
1J"
04#
1G"
1H"
0V
1)#
01#
1V$
0U
1(#
0*#
0S
1I$
0*"
1a"
1O"
1R
0a"
1Q
03$
15$
1M
0C#
0@#
1A#
0H#
0##
1t"
1}"
0~"
0R#
1{!
1.$
1K
0S$
0"#
1G
0B$
1q!
1o#
1o"
0s!
0/$
1}!
0+
0+#
12
0%#
1&#
01"
05
10$
0-"
1U$
04"
1v#
17
07"
09#
1f#
1b#
0d#
1?
0>#
0)"
1|#
0u!
1+$
0("
1D
1k"
0t!
0z!
1t#
0u#
1m"
0q#
1Q#
1R#
0G#
1H#
1##
0t"
1S$
12#
1A$
0.#
13$
05$
1."
1K$
00"
0'#
03#
13"
1f"
1["
1\"
17#
0g!
1R"
1m!
1N$
0B"
1=#
0x"
1y"
0i!
1j#
0k#
1@"
0k!
1x!
1v!
0?
0>
1l!
0<
15#
1M$
05"
1F#
14"
07
1/#
0%"
0z"
0O$
1+
1/$
0{!
0.$
1)
0p"
1B$
0q!
0o#
0r!
1%
11$
0n!
0`#
0;$
09
06"
1P"
0,#
1Q"
1x#
1*
0&
1M"
1N"
0A
0}!
0/
00
11
1D#
1;
1?
0*
#63000
b0 !
b10010001101000101011001111000 "
1#!
1"!
1w"
0y"
1i!
0j#
1k#
0A"
1k!
1!!
0n#
0i#
1~
0)$
1{
0<"
1z
0]"
1x
0:"
0Y"
14#
0F"
0H"
1v
1r
0?"
0b"
1p
1o
1k
0e"
1h
0b
0,$
0`
1v"
0C"
0w"
1y"
1j#
1A"
0k!
0_
0{"
1n#
0i!
1i#
0k#
1)$
0[
1X"
0X
1E"
1Y"
04#
1F"
1H"
0T
1`"
0R
1a"
1b"
0Q
06$
0N
0&$
0M
1C#
1@#
0A#
0L
1J#
1P#
0!#
0K
1"#
0}"
1~"
0I
0Q$
0G
0P$
0E
0-$
0k"
0o"
0D$
0m"
0G$
0""
0q"
0$"
0-#
0."
1K"
1V"
1T"
1U"
0x!
1z!
0Q#
02#
1'"
11"
17"
0["
0\"
1j!
1>
1p!
1o!
0M$
15"
0F#
16"
16
1&"
1O$
1(
0v!
1Z"
1\"
0/"
0/#
0.
0-
0,
0)
0'
0%
01
04
1M$
05"
1F#
0w!
1/
10
1:
1A
0B
