lockednetlistsimulation/32aor/lower_part_or_ripple_carry_adder/sim/transcript
# //  ModelSim SE-64 6.6d Nov  1 2010 Linux 2.6.32-754.33.1.el6.x86_64
# //
# //  Copyright 1991-2010 Mentor Graphics Corporation
# //              All Rights Reserved.
# //
# //  THIS WORK CONTAINS TRADE SECRET AND 
# //  PROPRIETARY INFORMATION WHICH IS THE PROPERTY
# //  OF MENTOR GRAPHICS CORPORATION OR ITS LICENSORS
# //  AND IS SUBJECT TO LICENSE TERMS.
# //
# Loading project cla32aor
# reading /var/autofs/misc/cad/mentor/modelsim-6.6d/modeltech/linux_x86_64/../modelsim.ini
# Loading project loarca32aor
# Compile of lower_part_or_ripple_carry_adder16_aor_enc32.v was successful.
# Compile of lower_part_or_ripple_carry_adder16_tb.v was successful.
# 2 compiles, 0 failed with no errors. 
vsim -novopt simulation.lower_part_or_ripple_carry_adder16_tb
# vsim -novopt simulation.lower_part_or_ripple_carry_adder16_tb 
# Refreshing /home/nayakkk/32aor/lower_part_or_ripple_carry_adder/sim/simulation.lower_part_or_ripple_carry_adder16_tb
# Loading simulation.lower_part_or_ripple_carry_adder16_tb
# Refreshing /home/nayakkk/32aor/lower_part_or_ripple_carry_adder/sim/simulation.lower_part_or_ripple_carry_adder16_aor_enc32
# Loading simulation.lower_part_or_ripple_carry_adder16_aor_enc32
vsim -novopt simulation.lower_part_or_ripple_carry_adder16_tb
# vsim -novopt simulation.lower_part_or_ripple_carry_adder16_tb 
# Loading simulation.lower_part_or_ripple_carry_adder16_tb
# Loading simulation.lower_part_or_ripple_carry_adder16_aor_enc32
add wave sim:/lower_part_or_ripple_carry_adder16_tb/*
run
#                    0 add1_i= 0000, add2_i = 0000, keyinput= 34a3bde0, result_o = 00000 
#                   10 add1_i= 29af, add2_i = 7a1b, keyinput= 34a3bde0, result_o = 0a3cf 
#                   20 add1_i= 1100, add2_i = 1111, keyinput= 34a3bde0, result_o = 02211 
#                   30 add1_i= 8116, add2_i = 1cce, keyinput= 34a3bde0, result_o = 09dde 
#                   35 add1_i= 4482, add2_i = 3bcd, keyinput= 34a3bde0, result_o = 0804f 
#                   40 add1_i= 8943, add2_i = ffff, keyinput= 34a3bde0, result_o = 1893f 
#                   50 add1_i= abcd, add2_i = 0000, keyinput= 34a3bde0, result_o = 0abcd 
#                   60 add1_i= 0000, add2_i = 1234, keyinput= 34a3bde0, result_o = 01234 
#                   70 add1_i= 1111, add2_i = eeaa, keyinput= 34a3bde0, result_o = 0ffbb 
#                   80 add1_i= 5555, add2_i = aaaa, keyinput= 34a3bde0, result_o = 0ffff 
#                   90 add1_i= 8051, add2_i = 8086, keyinput= 34a3bde0, result_o = 100d7 
#                   95 add1_i= fadc, add2_i = 00dc, keyinput= 34a3bde0, result_o = 0fbbc 
#                  100 add1_i= 4096, add2_i = 2048, keyinput= 34a3bde0, result_o = 060de 
#                  110 add1_i= 1024, add2_i = 8192, keyinput= 34a3bde0, result_o = 091b6 
#                  210 add1_i= 0000, add2_i = 0001, keyinput= 34a3bde0, result_o = 00001 
# ** Note: $finish    : /home/nayakkk/32aor/lower_part_or_ripple_carry_adder/sim/lower_part_or_ripple_carry_adder16_tb.v(83)
#    Time: 310 ns  Iteration: 0  Instance: /lower_part_or_ripple_carry_adder16_tb
# 1
# Break in Module lower_part_or_ripple_carry_adder16_tb at /home/nayakkk/32aor/lower_part_or_ripple_carry_adder/sim/lower_part_or_ripple_carry_adder16_tb.v line 83
# Compile of lower_part_or_ripple_carry_adder16_aor_enc32.v was successful.
# Compile of lower_part_or_ripple_carry_adder16_tb.v was successful.
# 2 compiles, 0 failed with no errors. 
vsim -novopt simulation.lower_part_or_ripple_carry_adder16_tb
# vsim -novopt simulation.lower_part_or_ripple_carry_adder16_tb 
# Refreshing /home/nayakkk/32aor/lower_part_or_ripple_carry_adder/sim/simulation.lower_part_or_ripple_carry_adder16_tb
# Loading simulation.lower_part_or_ripple_carry_adder16_tb
# Refreshing /home/nayakkk/32aor/lower_part_or_ripple_carry_adder/sim/simulation.lower_part_or_ripple_carry_adder16_aor_enc32
# Loading simulation.lower_part_or_ripple_carry_adder16_aor_enc32
add wave sim:/lower_part_or_ripple_carry_adder16_tb/*
run
#                    0 add1_i= 0000, add2_i = 0000, keyinput= 0fa3bde0, result_o = 00028 
#                   10 add1_i= 29af, add2_i = 7a1b, keyinput= 0fa3bde0, result_o = 0834f 
#                   20 add1_i= 1100, add2_i = 1111, keyinput= 0fa3bde0, result_o = 00239 
#                   30 add1_i= 8116, add2_i = 1cce, keyinput= 0fa3bde0, result_o = 09d7e 
#                   35 add1_i= 4482, add2_i = 3bcd, keyinput= 0fa3bde0, result_o = 0606f 
#                   40 add1_i= 8943, add2_i = ffff, keyinput= 0fa3bde0, result_o = 1695f 
#                   50 add1_i= abcd, add2_i = 0000, keyinput= 0fa3bde0, result_o = 0ab6d 
#                   60 add1_i= 0000, add2_i = 1234, keyinput= 0fa3bde0, result_o = 0125c 
#                   70 add1_i= 1111, add2_i = eeaa, keyinput= 0fa3bde0, result_o = 0ff5b 
#                   80 add1_i= 5555, add2_i = aaaa, keyinput= 0fa3bde0, result_o = 1001f 
#                   90 add1_i= 8051, add2_i = 8086, keyinput= 0fa3bde0, result_o = 1007f 
#                   95 add1_i= fadc, add2_i = 00dc, keyinput= 0fa3bde0, result_o = 0fb3c 
#                  100 add1_i= 4096, add2_i = 2048, keyinput= 0fa3bde0, result_o = 0607e 
#                  110 add1_i= 1024, add2_i = 8192, keyinput= 0fa3bde0, result_o = 0915e 
#                  210 add1_i= 0000, add2_i = 0001, keyinput= 0fa3bde0, result_o = 00029 
# ** Note: $finish    : /home/nayakkk/32aor/lower_part_or_ripple_carry_adder/sim/lower_part_or_ripple_carry_adder16_tb.v(83)
#    Time: 310 ns  Iteration: 0  Instance: /lower_part_or_ripple_carry_adder16_tb
# 1
# Break in Module lower_part_or_ripple_carry_adder16_tb at /home/nayakkk/32aor/lower_part_or_ripple_carry_adder/sim/lower_part_or_ripple_carry_adder16_tb.v line 83
# Compile of lower_part_or_ripple_carry_adder16_aor_enc32.v was successful.
# Compile of lower_part_or_ripple_carry_adder16_tb.v was successful.
# 2 compiles, 0 failed with no errors. 
vsim -novopt simulation.lower_part_or_ripple_carry_adder16_tb
# vsim -novopt simulation.lower_part_or_ripple_carry_adder16_tb 
# Refreshing /home/nayakkk/32aor/lower_part_or_ripple_carry_adder/sim/simulation.lower_part_or_ripple_carry_adder16_tb
# Loading simulation.lower_part_or_ripple_carry_adder16_tb
# Refreshing /home/nayakkk/32aor/lower_part_or_ripple_carry_adder/sim/simulation.lower_part_or_ripple_carry_adder16_aor_enc32
# Loading simulation.lower_part_or_ripple_carry_adder16_aor_enc32
add wave sim:/lower_part_or_ripple_carry_adder16_tb/*
run
#                    0 add1_i= 0000, add2_i = 0000, keyinput= 34a70de0, result_o = 02000 
#                   10 add1_i= 29af, add2_i = 7a1b, keyinput= 34a70de0, result_o = 0a3cb 
#                   20 add1_i= 1100, add2_i = 1111, keyinput= 34a70de0, result_o = 02211 
#                   30 add1_i= 8116, add2_i = 1cce, keyinput= 34a70de0, result_o = 0bdda 
#                   35 add1_i= 4482, add2_i = 3bcd, keyinput= 34a70de0, result_o = 0804b 
#                   40 add1_i= 8943, add2_i = ffff, keyinput= 34a70de0, result_o = 184bb 
#                   50 add1_i= abcd, add2_i = 0000, keyinput= 34a70de0, result_o = 0cbc9 
#                   60 add1_i= 0000, add2_i = 1234, keyinput= 34a70de0, result_o = 03230 
#                   70 add1_i= 1111, add2_i = eeaa, keyinput= 34a70de0, result_o = 11fbb 
#                   80 add1_i= 5555, add2_i = aaaa, keyinput= 34a70de0, result_o = 11bfb 
#                   90 add1_i= 8051, add2_i = 8086, keyinput= 34a70de0, result_o = 120d3 
#                   95 add1_i= fadc, add2_i = 00dc, keyinput= 34a70de0, result_o = 11b38 
#                  100 add1_i= 4096, add2_i = 2048, keyinput= 34a70de0, result_o = 080da 
#                  110 add1_i= 1024, add2_i = 8192, keyinput= 34a70de0, result_o = 0b1b2 
#                  210 add1_i= 0000, add2_i = 0001, keyinput= 34a70de0, result_o = 02001 
# ** Note: $finish    : /home/nayakkk/32aor/lower_part_or_ripple_carry_adder/sim/lower_part_or_ripple_carry_adder16_tb.v(83)
#    Time: 310 ns  Iteration: 0  Instance: /lower_part_or_ripple_carry_adder16_tb
# 1
# Break in Module lower_part_or_ripple_carry_adder16_tb at /home/nayakkk/32aor/lower_part_or_ripple_carry_adder/sim/lower_part_or_ripple_carry_adder16_tb.v line 83
# Compile of lower_part_or_ripple_carry_adder16_aor_enc32.v was successful.
# Compile of lower_part_or_ripple_carry_adder16_tb.v was successful.
# 2 compiles, 0 failed with no errors. 
vsim -novopt simulation.lower_part_or_ripple_carry_adder16_tb
# vsim -novopt simulation.lower_part_or_ripple_carry_adder16_tb 
# Refreshing /home/nayakkk/32aor/lower_part_or_ripple_carry_adder/sim/simulation.lower_part_or_ripple_carry_adder16_tb
# Loading simulation.lower_part_or_ripple_carry_adder16_tb
# Refreshing /home/nayakkk/32aor/lower_part_or_ripple_carry_adder/sim/simulation.lower_part_or_ripple_carry_adder16_aor_enc32
# Loading simulation.lower_part_or_ripple_carry_adder16_aor_enc32
add wave sim:/lower_part_or_ripple_carry_adder16_tb/*
run
#                    0 add1_i= 0000, add2_i = 0000, keyinput= 34a3bd0f, result_o = 00960 
#                   10 add1_i= 29af, add2_i = 7a1b, keyinput= 34a3bd0f, result_o = 0abcf 
#                   20 add1_i= 1100, add2_i = 1111, keyinput= 34a3bd0f, result_o = 02b71 
#                   30 add1_i= 8116, add2_i = 1cce, keyinput= 34a3bd0f, result_o = 0a73e 
#                   35 add1_i= 4482, add2_i = 3bcd, keyinput= 34a3bd0f, result_o = 085af 
#                   40 add1_i= 8943, add2_i = ffff, keyinput= 34a3bd0f, result_o = 18ddf 
#                   50 add1_i= abcd, add2_i = 0000, keyinput= 34a3bd0f, result_o = 0b3ad 
#                   60 add1_i= 0000, add2_i = 1234, keyinput= 34a3bd0f, result_o = 01b54 
#                   70 add1_i= 1111, add2_i = eeaa, keyinput= 34a3bd0f, result_o = 107db 
#                   80 add1_i= 5555, add2_i = aaaa, keyinput= 34a3bd0f, result_o = 1079f 
#                   90 add1_i= 8051, add2_i = 8086, keyinput= 34a3bd0f, result_o = 109b7 
#                   95 add1_i= fadc, add2_i = 00dc, keyinput= 34a3bd0f, result_o = 1037c 
#                  100 add1_i= 4096, add2_i = 2048, keyinput= 34a3bd0f, result_o = 0693e 
#                  110 add1_i= 1024, add2_i = 8192, keyinput= 34a3bd0f, result_o = 099d6 
#                  210 add1_i= 0000, add2_i = 0001, keyinput= 34a3bd0f, result_o = 00961 
# ** Note: $finish    : /home/nayakkk/32aor/lower_part_or_ripple_carry_adder/sim/lower_part_or_ripple_carry_adder16_tb.v(83)
#    Time: 310 ns  Iteration: 0  Instance: /lower_part_or_ripple_carry_adder16_tb
